<?xml version="1.0" encoding="UTF-8" standalone="no"?>
<!-- Created with CurveBenchmark -->
<svg
	xmlns:dc="http://purl.org/dc/elements/1.1/"
	xmlns:cc="http://creativecommons.org/ns#"
	xmlns:rdf="http://www.w3.org/1999/02/22-rdf-syntax-ns#"
	xmlns:svg="http://www.w3.org/2000/svg"
	xmlns="http://www.w3.org/2000/svg"
	xmlns:sodipodi="http://sodipodi.sourceforge.net/DTD/sodipodi-0.dtd"
	xmlns:inkscape="http://www.inkscape.org/namespaces/inkscape"
	width="1000"
	height="1000"
	id="svg2"
	version="1.1"
	sodipodi:docname="multiple-curves/vicur-mc10.txt">
<defs
	id="defs4" />
<metadata
	id="metadata7">
	<rdf:RDF>
		<cc:Work
			rdf:about="">
			<dc:format>image/svg+xml</dc:format>
			<dc:type
				rdf:resource="http://purl.org/dc/dcmitype/StillImage" />
			<dc:title></dc:title>
		</cc:Work>
	</rdf:RDF>
</metadata>
<g
	inkscape:label="Layer 1"
	inkscape:groupmode="layer"
	id="layer1">
	<path style="fill:none;stroke:red;stroke-width:1px;stroke-linecap:butt;stroke-linejoin:miter;stroke-opacity:1" d="M 10.4839,675.707 39.0115,675.707 z" id="boundary" inkscape:connector-curvature="0" />
	<path style="fill:none;stroke:red;stroke-width:1px;stroke-linecap:butt;stroke-linejoin:miter;stroke-opacity:1" d="M 10.4839,675.707 10.4839,652.365 z" id="boundary" inkscape:connector-curvature="0" />
	<path style="fill:none;stroke:red;stroke-width:1px;stroke-linecap:butt;stroke-linejoin:miter;stroke-opacity:1" d="M 39.0115,675.707 63.6501,675.707 z" id="boundary" inkscape:connector-curvature="0" />
	<path style="fill:none;stroke:red;stroke-width:1px;stroke-linecap:butt;stroke-linejoin:miter;stroke-opacity:1" d="M 63.6501,675.707 90.8809,675.707 z" id="boundary" inkscape:connector-curvature="0" />
	<path style="fill:none;stroke:red;stroke-width:1px;stroke-linecap:butt;stroke-linejoin:miter;stroke-opacity:1" d="M 90.8809,675.707 122.002,675.707 z" id="boundary" inkscape:connector-curvature="0" />
	<path style="fill:none;stroke:red;stroke-width:1px;stroke-linecap:butt;stroke-linejoin:miter;stroke-opacity:1" d="M 122.002,675.707 154.421,675.707 z" id="boundary" inkscape:connector-curvature="0" />
	<path style="fill:none;stroke:red;stroke-width:1px;stroke-linecap:butt;stroke-linejoin:miter;stroke-opacity:1" d="M 154.421,675.707 188.136,675.707 z" id="boundary" inkscape:connector-curvature="0" />
	<path style="fill:none;stroke:red;stroke-width:1px;stroke-linecap:butt;stroke-linejoin:miter;stroke-opacity:1" d="M 188.136,675.707 219.257,674.41 z" id="boundary" inkscape:connector-curvature="0" />
	<path style="fill:none;stroke:red;stroke-width:1px;stroke-linecap:butt;stroke-linejoin:miter;stroke-opacity:1" d="M 219.257,674.41 247.786,674.41 z" id="boundary" inkscape:connector-curvature="0" />
	<path style="fill:none;stroke:red;stroke-width:1px;stroke-linecap:butt;stroke-linejoin:miter;stroke-opacity:1" d="M 247.786,674.41 276.314,677.004 z" id="boundary" inkscape:connector-curvature="0" />
	<path style="fill:none;stroke:red;stroke-width:1px;stroke-linecap:butt;stroke-linejoin:miter;stroke-opacity:1" d="M 276.314,677.004 302.248,677.004 z" id="boundary" inkscape:connector-curvature="0" />
	<path style="fill:none;stroke:red;stroke-width:1px;stroke-linecap:butt;stroke-linejoin:miter;stroke-opacity:1" d="M 302.248,677.004 325.59,677.004 z" id="boundary" inkscape:connector-curvature="0" />
	<path style="fill:none;stroke:red;stroke-width:1px;stroke-linecap:butt;stroke-linejoin:miter;stroke-opacity:1" d="M 325.59,677.004 347.633,678.301 z" id="boundary" inkscape:connector-curvature="0" />
	<path style="fill:none;stroke:red;stroke-width:1px;stroke-linecap:butt;stroke-linejoin:miter;stroke-opacity:1" d="M 347.633,678.301 373.569,678.301 z" id="boundary" inkscape:connector-curvature="0" />
	<path style="fill:none;stroke:red;stroke-width:1px;stroke-linecap:butt;stroke-linejoin:miter;stroke-opacity:1" d="M 373.569,678.301 393.019,678.301 z" id="boundary" inkscape:connector-curvature="0" />
	<path style="fill:none;stroke:red;stroke-width:1px;stroke-linecap:butt;stroke-linejoin:miter;stroke-opacity:1" d="M 393.019,678.301 416.361,678.301 z" id="boundary" inkscape:connector-curvature="0" />
	<path style="fill:none;stroke:red;stroke-width:1px;stroke-linecap:butt;stroke-linejoin:miter;stroke-opacity:1" d="M 416.361,678.301 431.922,678.301 z" id="boundary" inkscape:connector-curvature="0" />
	<path style="fill:none;stroke:red;stroke-width:1px;stroke-linecap:butt;stroke-linejoin:miter;stroke-opacity:1" d="M 431.922,678.301 433.219,658.849 z" id="boundary" inkscape:connector-curvature="0" />
	<path style="fill:none;stroke:red;stroke-width:1px;stroke-linecap:butt;stroke-linejoin:miter;stroke-opacity:1" d="M 10.4839,652.365 10.4839,634.212 z" id="boundary" inkscape:connector-curvature="0" />
	<path style="fill:none;stroke:red;stroke-width:1px;stroke-linecap:butt;stroke-linejoin:miter;stroke-opacity:1" d="M 10.4839,634.212 10.4839,616.057 z" id="boundary" inkscape:connector-curvature="0" />
	<path style="fill:none;stroke:red;stroke-width:1px;stroke-linecap:butt;stroke-linejoin:miter;stroke-opacity:1" d="M 10.4839,616.057 9.18709,596.607 z" id="boundary" inkscape:connector-curvature="0" />
	<path style="fill:none;stroke:red;stroke-width:1px;stroke-linecap:butt;stroke-linejoin:miter;stroke-opacity:1" d="M 9.18709,596.607 9.18709,574.562 z" id="boundary" inkscape:connector-curvature="0" />
	<path style="fill:none;stroke:red;stroke-width:1px;stroke-linecap:butt;stroke-linejoin:miter;stroke-opacity:1" d="M 9.18709,574.562 7.89032,555.11 z" id="boundary" inkscape:connector-curvature="0" />
	<path style="fill:none;stroke:red;stroke-width:1px;stroke-linecap:butt;stroke-linejoin:miter;stroke-opacity:1" d="M 7.89032,555.11 7.89032,535.66 z" id="boundary" inkscape:connector-curvature="0" />
	<path style="fill:none;stroke:red;stroke-width:1px;stroke-linecap:butt;stroke-linejoin:miter;stroke-opacity:1" d="M 7.89032,535.66 9.18709,518.802 z" id="boundary" inkscape:connector-curvature="0" />
	<path style="fill:none;stroke:red;stroke-width:1px;stroke-linecap:butt;stroke-linejoin:miter;stroke-opacity:1" d="M 9.18709,518.802 24.7484,516.208 z" id="boundary" inkscape:connector-curvature="0" />
	<path style="fill:none;stroke:red;stroke-width:1px;stroke-linecap:butt;stroke-linejoin:miter;stroke-opacity:1" d="M 24.7484,516.208 44.1985,518.802 z" id="boundary" inkscape:connector-curvature="0" />
	<path style="fill:none;stroke:red;stroke-width:1px;stroke-linecap:butt;stroke-linejoin:miter;stroke-opacity:1" d="M 44.1985,518.802 67.5404,516.208 z" id="boundary" inkscape:connector-curvature="0" />
	<path style="fill:none;stroke:red;stroke-width:1px;stroke-linecap:butt;stroke-linejoin:miter;stroke-opacity:1" d="M 67.5404,516.208 86.9906,516.208 z" id="boundary" inkscape:connector-curvature="0" />
	<path style="fill:none;stroke:red;stroke-width:1px;stroke-linecap:butt;stroke-linejoin:miter;stroke-opacity:1" d="M 86.9906,516.208 106.442,516.208 z" id="boundary" inkscape:connector-curvature="0" />
	<path style="fill:none;stroke:red;stroke-width:1px;stroke-linecap:butt;stroke-linejoin:miter;stroke-opacity:1" d="M 106.442,516.208 125.892,517.505 z" id="boundary" inkscape:connector-curvature="0" />
	<path style="fill:none;stroke:red;stroke-width:1px;stroke-linecap:butt;stroke-linejoin:miter;stroke-opacity:1" d="M 125.892,517.505 150.531,517.505 z" id="boundary" inkscape:connector-curvature="0" />
	<path style="fill:none;stroke:red;stroke-width:1px;stroke-linecap:butt;stroke-linejoin:miter;stroke-opacity:1" d="M 150.531,517.505 176.465,517.505 z" id="boundary" inkscape:connector-curvature="0" />
	<path style="fill:none;stroke:red;stroke-width:1px;stroke-linecap:butt;stroke-linejoin:miter;stroke-opacity:1" d="M 176.465,517.505 199.807,516.208 z" id="boundary" inkscape:connector-curvature="0" />
	<path style="fill:none;stroke:red;stroke-width:1px;stroke-linecap:butt;stroke-linejoin:miter;stroke-opacity:1" d="M 199.807,516.208 221.851,516.208 z" id="boundary" inkscape:connector-curvature="0" />
	<path style="fill:none;stroke:red;stroke-width:1px;stroke-linecap:butt;stroke-linejoin:miter;stroke-opacity:1" d="M 221.851,516.208 242.599,517.505 z" id="boundary" inkscape:connector-curvature="0" />
	<path style="fill:none;stroke:red;stroke-width:1px;stroke-linecap:butt;stroke-linejoin:miter;stroke-opacity:1" d="M 242.599,517.505 264.643,517.505 z" id="boundary" inkscape:connector-curvature="0" />
	<path style="fill:none;stroke:red;stroke-width:1px;stroke-linecap:butt;stroke-linejoin:miter;stroke-opacity:1" d="M 264.643,517.505 285.391,517.505 z" id="boundary" inkscape:connector-curvature="0" />
	<path style="fill:none;stroke:red;stroke-width:1px;stroke-linecap:butt;stroke-linejoin:miter;stroke-opacity:1" d="M 285.391,517.505 306.138,518.802 z" id="boundary" inkscape:connector-curvature="0" />
	<path style="fill:none;stroke:red;stroke-width:1px;stroke-linecap:butt;stroke-linejoin:miter;stroke-opacity:1" d="M 306.138,518.802 328.183,517.505 z" id="boundary" inkscape:connector-curvature="0" />
	<path style="fill:none;stroke:red;stroke-width:1px;stroke-linecap:butt;stroke-linejoin:miter;stroke-opacity:1" d="M 328.183,517.505 347.633,517.505 z" id="boundary" inkscape:connector-curvature="0" />
	<path style="fill:none;stroke:red;stroke-width:1px;stroke-linecap:butt;stroke-linejoin:miter;stroke-opacity:1" d="M 347.633,517.505 365.788,517.505 z" id="boundary" inkscape:connector-curvature="0" />
	<path style="fill:none;stroke:red;stroke-width:1px;stroke-linecap:butt;stroke-linejoin:miter;stroke-opacity:1" d="M 365.788,517.505 386.537,517.505 z" id="boundary" inkscape:connector-curvature="0" />
	<path style="fill:none;stroke:red;stroke-width:1px;stroke-linecap:butt;stroke-linejoin:miter;stroke-opacity:1" d="M 386.537,517.505 403.393,518.802 z" id="boundary" inkscape:connector-curvature="0" />
	<path style="fill:none;stroke:red;stroke-width:1px;stroke-linecap:butt;stroke-linejoin:miter;stroke-opacity:1" d="M 403.393,518.802 424.142,518.802 z" id="boundary" inkscape:connector-curvature="0" />
	<path style="fill:none;stroke:red;stroke-width:1px;stroke-linecap:butt;stroke-linejoin:miter;stroke-opacity:1" d="M 424.142,518.802 431.922,535.66 z" id="boundary" inkscape:connector-curvature="0" />
	<path style="fill:none;stroke:red;stroke-width:1px;stroke-linecap:butt;stroke-linejoin:miter;stroke-opacity:1" d="M 433.219,658.849 433.219,639.399 z" id="boundary" inkscape:connector-curvature="0" />
	<path style="fill:none;stroke:red;stroke-width:1px;stroke-linecap:butt;stroke-linejoin:miter;stroke-opacity:1" d="M 433.219,639.399 430.625,618.65 z" id="boundary" inkscape:connector-curvature="0" />
	<path style="fill:none;stroke:red;stroke-width:1px;stroke-linecap:butt;stroke-linejoin:miter;stroke-opacity:1" d="M 430.625,618.65 430.625,599.2 z" id="boundary" inkscape:connector-curvature="0" />
	<path style="fill:none;stroke:red;stroke-width:1px;stroke-linecap:butt;stroke-linejoin:miter;stroke-opacity:1" d="M 430.625,599.2 431.922,577.155 z" id="boundary" inkscape:connector-curvature="0" />
	<path style="fill:none;stroke:red;stroke-width:1px;stroke-linecap:butt;stroke-linejoin:miter;stroke-opacity:1" d="M 431.922,577.155 431.922,555.11 z" id="boundary" inkscape:connector-curvature="0" />
	<path style="fill:none;stroke:red;stroke-width:1px;stroke-linecap:butt;stroke-linejoin:miter;stroke-opacity:1" d="M 431.922,555.11 431.922,535.66 z" id="boundary" inkscape:connector-curvature="0" />
	<path style="fill:none;stroke:red;stroke-width:1px;stroke-linecap:butt;stroke-linejoin:miter;stroke-opacity:1" d="M 9.18709,434.514 29.934,435.811 z" id="boundary" inkscape:connector-curvature="0" />
	<path style="fill:none;stroke:red;stroke-width:1px;stroke-linecap:butt;stroke-linejoin:miter;stroke-opacity:1" d="M 9.18709,434.514 6.59354,412.471 z" id="boundary" inkscape:connector-curvature="0" />
	<path style="fill:none;stroke:red;stroke-width:1px;stroke-linecap:butt;stroke-linejoin:miter;stroke-opacity:1" d="M 431.922,435.811 416.361,434.514 z" id="boundary" inkscape:connector-curvature="0" />
	<path style="fill:none;stroke:red;stroke-width:1px;stroke-linecap:butt;stroke-linejoin:miter;stroke-opacity:1" d="M 431.922,435.811 434.516,415.064 z" id="boundary" inkscape:connector-curvature="0" />
	<path style="fill:none;stroke:red;stroke-width:1px;stroke-linecap:butt;stroke-linejoin:miter;stroke-opacity:1" d="M 430.625,276.314 434.516,291.874 z" id="boundary" inkscape:connector-curvature="0" />
	<path style="fill:none;stroke:red;stroke-width:1px;stroke-linecap:butt;stroke-linejoin:miter;stroke-opacity:1" d="M 430.625,276.314 405.987,273.72 z" id="boundary" inkscape:connector-curvature="0" />
	<path style="fill:none;stroke:red;stroke-width:1px;stroke-linecap:butt;stroke-linejoin:miter;stroke-opacity:1" d="M 189.433,276.314 208.884,273.72 z" id="boundary" inkscape:connector-curvature="0" />
	<path style="fill:none;stroke:red;stroke-width:1px;stroke-linecap:butt;stroke-linejoin:miter;stroke-opacity:1" d="M 189.433,276.314 189.433,259.456 z" id="boundary" inkscape:connector-curvature="0" />
	<path style="fill:none;stroke:red;stroke-width:1px;stroke-linecap:butt;stroke-linejoin:miter;stroke-opacity:1" d="M 188.136,184.246 188.136,203.696 z" id="boundary" inkscape:connector-curvature="0" />
	<path style="fill:none;stroke:red;stroke-width:1px;stroke-linecap:butt;stroke-linejoin:miter;stroke-opacity:1" d="M 188.136,184.246 203.697,181.652 z" id="boundary" inkscape:connector-curvature="0" />
	<path style="fill:none;stroke:red;stroke-width:1px;stroke-linecap:butt;stroke-linejoin:miter;stroke-opacity:1" d="M 430.625,182.949 411.174,182.949 z" id="boundary" inkscape:connector-curvature="0" />
	<path style="fill:none;stroke:red;stroke-width:1px;stroke-linecap:butt;stroke-linejoin:miter;stroke-opacity:1" d="M 430.625,182.949 434.516,155.717 z" id="boundary" inkscape:connector-curvature="0" />
	<path style="fill:none;stroke:red;stroke-width:1px;stroke-linecap:butt;stroke-linejoin:miter;stroke-opacity:1" d="M 429.329,33.8244 404.69,36.4179 z" id="boundary" inkscape:connector-curvature="0" />
	<path style="fill:none;stroke:red;stroke-width:1px;stroke-linecap:butt;stroke-linejoin:miter;stroke-opacity:1" d="M 429.329,33.8244 431.922,53.2745 z" id="boundary" inkscape:connector-curvature="0" />
	<path style="fill:none;stroke:red;stroke-width:1px;stroke-linecap:butt;stroke-linejoin:miter;stroke-opacity:1" d="M 9.18709,35.1211 4,62.352 z" id="boundary" inkscape:connector-curvature="0" />
	<path style="fill:none;stroke:red;stroke-width:1px;stroke-linecap:butt;stroke-linejoin:miter;stroke-opacity:1" d="M 9.18709,35.1211 33.8244,32.5276 z" id="boundary" inkscape:connector-curvature="0" />
	<path style="fill:none;stroke:red;stroke-width:1px;stroke-linecap:butt;stroke-linejoin:miter;stroke-opacity:1" d="M 29.934,435.811 58.463,435.811 z" id="boundary" inkscape:connector-curvature="0" />
	<path style="fill:none;stroke:red;stroke-width:1px;stroke-linecap:butt;stroke-linejoin:miter;stroke-opacity:1" d="M 58.463,435.811 85.6939,435.811 z" id="boundary" inkscape:connector-curvature="0" />
	<path style="fill:none;stroke:red;stroke-width:1px;stroke-linecap:butt;stroke-linejoin:miter;stroke-opacity:1" d="M 85.6939,435.811 112.926,437.108 z" id="boundary" inkscape:connector-curvature="0" />
	<path style="fill:none;stroke:red;stroke-width:1px;stroke-linecap:butt;stroke-linejoin:miter;stroke-opacity:1" d="M 112.926,437.108 136.267,435.811 z" id="boundary" inkscape:connector-curvature="0" />
	<path style="fill:none;stroke:red;stroke-width:1px;stroke-linecap:butt;stroke-linejoin:miter;stroke-opacity:1" d="M 136.267,435.811 160.905,433.218 z" id="boundary" inkscape:connector-curvature="0" />
	<path style="fill:none;stroke:red;stroke-width:1px;stroke-linecap:butt;stroke-linejoin:miter;stroke-opacity:1" d="M 160.905,433.218 181.652,435.811 z" id="boundary" inkscape:connector-curvature="0" />
	<path style="fill:none;stroke:red;stroke-width:1px;stroke-linecap:butt;stroke-linejoin:miter;stroke-opacity:1" d="M 181.652,435.811 204.994,435.811 z" id="boundary" inkscape:connector-curvature="0" />
	<path style="fill:none;stroke:red;stroke-width:1px;stroke-linecap:butt;stroke-linejoin:miter;stroke-opacity:1" d="M 204.994,435.811 227.038,435.811 z" id="boundary" inkscape:connector-curvature="0" />
	<path style="fill:none;stroke:red;stroke-width:1px;stroke-linecap:butt;stroke-linejoin:miter;stroke-opacity:1" d="M 227.038,435.811 247.786,437.108 z" id="boundary" inkscape:connector-curvature="0" />
	<path style="fill:none;stroke:red;stroke-width:1px;stroke-linecap:butt;stroke-linejoin:miter;stroke-opacity:1" d="M 247.786,437.108 268.533,438.405 z" id="boundary" inkscape:connector-curvature="0" />
	<path style="fill:none;stroke:red;stroke-width:1px;stroke-linecap:butt;stroke-linejoin:miter;stroke-opacity:1" d="M 268.533,438.405 285.391,438.405 z" id="boundary" inkscape:connector-curvature="0" />
	<path style="fill:none;stroke:red;stroke-width:1px;stroke-linecap:butt;stroke-linejoin:miter;stroke-opacity:1" d="M 285.391,438.405 306.138,438.405 z" id="boundary" inkscape:connector-curvature="0" />
	<path style="fill:none;stroke:red;stroke-width:1px;stroke-linecap:butt;stroke-linejoin:miter;stroke-opacity:1" d="M 306.138,438.405 328.183,435.811 z" id="boundary" inkscape:connector-curvature="0" />
	<path style="fill:none;stroke:red;stroke-width:1px;stroke-linecap:butt;stroke-linejoin:miter;stroke-opacity:1" d="M 328.183,435.811 351.524,434.514 z" id="boundary" inkscape:connector-curvature="0" />
	<path style="fill:none;stroke:red;stroke-width:1px;stroke-linecap:butt;stroke-linejoin:miter;stroke-opacity:1" d="M 351.524,434.514 374.866,434.514 z" id="boundary" inkscape:connector-curvature="0" />
	<path style="fill:none;stroke:red;stroke-width:1px;stroke-linecap:butt;stroke-linejoin:miter;stroke-opacity:1" d="M 374.866,434.514 396.909,434.514 z" id="boundary" inkscape:connector-curvature="0" />
	<path style="fill:none;stroke:red;stroke-width:1px;stroke-linecap:butt;stroke-linejoin:miter;stroke-opacity:1" d="M 396.909,434.514 416.361,434.514 z" id="boundary" inkscape:connector-curvature="0" />
	<path style="fill:none;stroke:red;stroke-width:1px;stroke-linecap:butt;stroke-linejoin:miter;stroke-opacity:1" d="M 434.516,415.064 434.516,393.019 z" id="boundary" inkscape:connector-curvature="0" />
	<path style="fill:none;stroke:red;stroke-width:1px;stroke-linecap:butt;stroke-linejoin:miter;stroke-opacity:1" d="M 434.516,393.019 435.813,367.085 z" id="boundary" inkscape:connector-curvature="0" />
	<path style="fill:none;stroke:red;stroke-width:1px;stroke-linecap:butt;stroke-linejoin:miter;stroke-opacity:1" d="M 435.813,367.085 434.516,339.853 z" id="boundary" inkscape:connector-curvature="0" />
	<path style="fill:none;stroke:red;stroke-width:1px;stroke-linecap:butt;stroke-linejoin:miter;stroke-opacity:1" d="M 434.516,339.853 433.219,312.622 z" id="boundary" inkscape:connector-curvature="0" />
	<path style="fill:none;stroke:red;stroke-width:1px;stroke-linecap:butt;stroke-linejoin:miter;stroke-opacity:1" d="M 433.219,312.622 434.516,291.874 z" id="boundary" inkscape:connector-curvature="0" />
	<path style="fill:none;stroke:red;stroke-width:1px;stroke-linecap:butt;stroke-linejoin:miter;stroke-opacity:1" d="M 208.884,273.72 232.225,275.017 z" id="boundary" inkscape:connector-curvature="0" />
	<path style="fill:none;stroke:red;stroke-width:1px;stroke-linecap:butt;stroke-linejoin:miter;stroke-opacity:1" d="M 232.225,275.017 258.159,275.017 z" id="boundary" inkscape:connector-curvature="0" />
	<path style="fill:none;stroke:red;stroke-width:1px;stroke-linecap:butt;stroke-linejoin:miter;stroke-opacity:1" d="M 258.159,275.017 281.501,272.423 z" id="boundary" inkscape:connector-curvature="0" />
	<path style="fill:none;stroke:red;stroke-width:1px;stroke-linecap:butt;stroke-linejoin:miter;stroke-opacity:1" d="M 281.501,272.423 302.248,271.127 z" id="boundary" inkscape:connector-curvature="0" />
	<path style="fill:none;stroke:red;stroke-width:1px;stroke-linecap:butt;stroke-linejoin:miter;stroke-opacity:1" d="M 302.248,271.127 322.996,272.423 z" id="boundary" inkscape:connector-curvature="0" />
	<path style="fill:none;stroke:red;stroke-width:1px;stroke-linecap:butt;stroke-linejoin:miter;stroke-opacity:1" d="M 322.996,272.423 348.93,272.423 z" id="boundary" inkscape:connector-curvature="0" />
	<path style="fill:none;stroke:red;stroke-width:1px;stroke-linecap:butt;stroke-linejoin:miter;stroke-opacity:1" d="M 348.93,272.423 363.195,273.72 z" id="boundary" inkscape:connector-curvature="0" />
	<path style="fill:none;stroke:red;stroke-width:1px;stroke-linecap:butt;stroke-linejoin:miter;stroke-opacity:1" d="M 363.195,273.72 383.943,272.423 z" id="boundary" inkscape:connector-curvature="0" />
	<path style="fill:none;stroke:red;stroke-width:1px;stroke-linecap:butt;stroke-linejoin:miter;stroke-opacity:1" d="M 383.943,272.423 405.987,273.72 z" id="boundary" inkscape:connector-curvature="0" />
	<path style="fill:none;stroke:red;stroke-width:1px;stroke-linecap:butt;stroke-linejoin:miter;stroke-opacity:1" d="M 189.433,259.456 188.136,240.004 z" id="boundary" inkscape:connector-curvature="0" />
	<path style="fill:none;stroke:red;stroke-width:1px;stroke-linecap:butt;stroke-linejoin:miter;stroke-opacity:1" d="M 188.136,240.004 189.433,220.554 z" id="boundary" inkscape:connector-curvature="0" />
	<path style="fill:none;stroke:red;stroke-width:1px;stroke-linecap:butt;stroke-linejoin:miter;stroke-opacity:1" d="M 189.433,220.554 188.136,203.696 z" id="boundary" inkscape:connector-curvature="0" />
	<path style="fill:none;stroke:red;stroke-width:1px;stroke-linecap:butt;stroke-linejoin:miter;stroke-opacity:1" d="M 203.697,181.652 223.148,182.949 z" id="boundary" inkscape:connector-curvature="0" />
	<path style="fill:none;stroke:red;stroke-width:1px;stroke-linecap:butt;stroke-linejoin:miter;stroke-opacity:1" d="M 223.148,182.949 241.302,185.543 z" id="boundary" inkscape:connector-curvature="0" />
	<path style="fill:none;stroke:red;stroke-width:1px;stroke-linecap:butt;stroke-linejoin:miter;stroke-opacity:1" d="M 241.302,185.543 263.346,185.543 z" id="boundary" inkscape:connector-curvature="0" />
	<path style="fill:none;stroke:red;stroke-width:1px;stroke-linecap:butt;stroke-linejoin:miter;stroke-opacity:1" d="M 263.346,185.543 280.204,185.543 z" id="boundary" inkscape:connector-curvature="0" />
	<path style="fill:none;stroke:red;stroke-width:1px;stroke-linecap:butt;stroke-linejoin:miter;stroke-opacity:1" d="M 280.204,185.543 297.062,182.949 z" id="boundary" inkscape:connector-curvature="0" />
	<path style="fill:none;stroke:red;stroke-width:1px;stroke-linecap:butt;stroke-linejoin:miter;stroke-opacity:1" d="M 297.062,182.949 315.216,182.949 z" id="boundary" inkscape:connector-curvature="0" />
	<path style="fill:none;stroke:red;stroke-width:1px;stroke-linecap:butt;stroke-linejoin:miter;stroke-opacity:1" d="M 315.216,182.949 335.964,182.949 z" id="boundary" inkscape:connector-curvature="0" />
	<path style="fill:none;stroke:red;stroke-width:1px;stroke-linecap:butt;stroke-linejoin:miter;stroke-opacity:1" d="M 335.964,182.949 354.117,182.949 z" id="boundary" inkscape:connector-curvature="0" />
	<path style="fill:none;stroke:red;stroke-width:1px;stroke-linecap:butt;stroke-linejoin:miter;stroke-opacity:1" d="M 354.117,182.949 370.975,182.949 z" id="boundary" inkscape:connector-curvature="0" />
	<path style="fill:none;stroke:red;stroke-width:1px;stroke-linecap:butt;stroke-linejoin:miter;stroke-opacity:1" d="M 370.975,182.949 390.427,182.949 z" id="boundary" inkscape:connector-curvature="0" />
	<path style="fill:none;stroke:red;stroke-width:1px;stroke-linecap:butt;stroke-linejoin:miter;stroke-opacity:1" d="M 390.427,182.949 411.174,182.949 z" id="boundary" inkscape:connector-curvature="0" />
	<path style="fill:none;stroke:red;stroke-width:1px;stroke-linecap:butt;stroke-linejoin:miter;stroke-opacity:1" d="M 6.59354,412.471 5.29677,390.426 z" id="boundary" inkscape:connector-curvature="0" />
	<path style="fill:none;stroke:red;stroke-width:1px;stroke-linecap:butt;stroke-linejoin:miter;stroke-opacity:1" d="M 5.29677,390.426 6.59354,367.085 z" id="boundary" inkscape:connector-curvature="0" />
	<path style="fill:none;stroke:red;stroke-width:1px;stroke-linecap:butt;stroke-linejoin:miter;stroke-opacity:1" d="M 6.59354,367.085 6.59354,345.04 z" id="boundary" inkscape:connector-curvature="0" />
	<path style="fill:none;stroke:red;stroke-width:1px;stroke-linecap:butt;stroke-linejoin:miter;stroke-opacity:1" d="M 6.59354,345.04 5.29677,324.293 z" id="boundary" inkscape:connector-curvature="0" />
	<path style="fill:none;stroke:red;stroke-width:1px;stroke-linecap:butt;stroke-linejoin:miter;stroke-opacity:1" d="M 5.29677,324.293 5.29677,302.248 z" id="boundary" inkscape:connector-curvature="0" />
	<path style="fill:none;stroke:red;stroke-width:1px;stroke-linecap:butt;stroke-linejoin:miter;stroke-opacity:1" d="M 5.29677,302.248 5.29677,284.093 z" id="boundary" inkscape:connector-curvature="0" />
	<path style="fill:none;stroke:red;stroke-width:1px;stroke-linecap:butt;stroke-linejoin:miter;stroke-opacity:1" d="M 5.29677,284.093 5.29677,264.643 z" id="boundary" inkscape:connector-curvature="0" />
	<path style="fill:none;stroke:red;stroke-width:1px;stroke-linecap:butt;stroke-linejoin:miter;stroke-opacity:1" d="M 5.29677,264.643 5.29677,237.411 z" id="boundary" inkscape:connector-curvature="0" />
	<path style="fill:none;stroke:red;stroke-width:1px;stroke-linecap:butt;stroke-linejoin:miter;stroke-opacity:1" d="M 5.29677,237.411 6.59354,214.07 z" id="boundary" inkscape:connector-curvature="0" />
	<path style="fill:none;stroke:red;stroke-width:1px;stroke-linecap:butt;stroke-linejoin:miter;stroke-opacity:1" d="M 6.59354,214.07 5.29677,193.322 z" id="boundary" inkscape:connector-curvature="0" />
	<path style="fill:none;stroke:red;stroke-width:1px;stroke-linecap:butt;stroke-linejoin:miter;stroke-opacity:1" d="M 5.29677,193.322 4,169.981 z" id="boundary" inkscape:connector-curvature="0" />
	<path style="fill:none;stroke:red;stroke-width:1px;stroke-linecap:butt;stroke-linejoin:miter;stroke-opacity:1" d="M 4,169.981 4,149.233 z" id="boundary" inkscape:connector-curvature="0" />
	<path style="fill:none;stroke:red;stroke-width:1px;stroke-linecap:butt;stroke-linejoin:miter;stroke-opacity:1" d="M 4,149.233 5.29677,125.892 z" id="boundary" inkscape:connector-curvature="0" />
	<path style="fill:none;stroke:red;stroke-width:1px;stroke-linecap:butt;stroke-linejoin:miter;stroke-opacity:1" d="M 5.29677,125.892 5.29677,106.441 z" id="boundary" inkscape:connector-curvature="0" />
	<path style="fill:none;stroke:red;stroke-width:1px;stroke-linecap:butt;stroke-linejoin:miter;stroke-opacity:1" d="M 5.29677,106.441 4,85.6939 z" id="boundary" inkscape:connector-curvature="0" />
	<path style="fill:none;stroke:red;stroke-width:1px;stroke-linecap:butt;stroke-linejoin:miter;stroke-opacity:1" d="M 4,85.6939 4,62.352 z" id="boundary" inkscape:connector-curvature="0" />
	<path style="fill:none;stroke:red;stroke-width:1px;stroke-linecap:butt;stroke-linejoin:miter;stroke-opacity:1" d="M 33.8244,32.5276 57.1663,32.5276 z" id="boundary" inkscape:connector-curvature="0" />
	<path style="fill:none;stroke:red;stroke-width:1px;stroke-linecap:butt;stroke-linejoin:miter;stroke-opacity:1" d="M 57.1663,32.5276 77.9132,33.8244 z" id="boundary" inkscape:connector-curvature="0" />
	<path style="fill:none;stroke:red;stroke-width:1px;stroke-linecap:butt;stroke-linejoin:miter;stroke-opacity:1" d="M 77.9132,33.8244 98.6616,33.8244 z" id="boundary" inkscape:connector-curvature="0" />
	<path style="fill:none;stroke:red;stroke-width:1px;stroke-linecap:butt;stroke-linejoin:miter;stroke-opacity:1" d="M 98.6616,33.8244 116.816,33.8244 z" id="boundary" inkscape:connector-curvature="0" />
	<path style="fill:none;stroke:red;stroke-width:1px;stroke-linecap:butt;stroke-linejoin:miter;stroke-opacity:1" d="M 116.816,33.8244 134.97,33.8244 z" id="boundary" inkscape:connector-curvature="0" />
	<path style="fill:none;stroke:red;stroke-width:1px;stroke-linecap:butt;stroke-linejoin:miter;stroke-opacity:1" d="M 134.97,33.8244 160.905,36.4179 z" id="boundary" inkscape:connector-curvature="0" />
	<path style="fill:none;stroke:red;stroke-width:1px;stroke-linecap:butt;stroke-linejoin:miter;stroke-opacity:1" d="M 160.905,36.4179 186.839,36.4179 z" id="boundary" inkscape:connector-curvature="0" />
	<path style="fill:none;stroke:red;stroke-width:1px;stroke-linecap:butt;stroke-linejoin:miter;stroke-opacity:1" d="M 186.839,36.4179 211.477,36.4179 z" id="boundary" inkscape:connector-curvature="0" />
	<path style="fill:none;stroke:red;stroke-width:1px;stroke-linecap:butt;stroke-linejoin:miter;stroke-opacity:1" d="M 211.477,36.4179 234.818,36.4179 z" id="boundary" inkscape:connector-curvature="0" />
	<path style="fill:none;stroke:red;stroke-width:1px;stroke-linecap:butt;stroke-linejoin:miter;stroke-opacity:1" d="M 234.818,36.4179 256.862,35.1211 z" id="boundary" inkscape:connector-curvature="0" />
	<path style="fill:none;stroke:red;stroke-width:1px;stroke-linecap:butt;stroke-linejoin:miter;stroke-opacity:1" d="M 256.862,35.1211 278.907,32.5276 z" id="boundary" inkscape:connector-curvature="0" />
	<path style="fill:none;stroke:red;stroke-width:1px;stroke-linecap:butt;stroke-linejoin:miter;stroke-opacity:1" d="M 278.907,32.5276 299.656,35.1211 z" id="boundary" inkscape:connector-curvature="0" />
	<path style="fill:none;stroke:red;stroke-width:1px;stroke-linecap:butt;stroke-linejoin:miter;stroke-opacity:1" d="M 299.656,35.1211 319.106,35.1211 z" id="boundary" inkscape:connector-curvature="0" />
	<path style="fill:none;stroke:red;stroke-width:1px;stroke-linecap:butt;stroke-linejoin:miter;stroke-opacity:1" d="M 319.106,35.1211 341.151,36.4179 z" id="boundary" inkscape:connector-curvature="0" />
	<path style="fill:none;stroke:red;stroke-width:1px;stroke-linecap:butt;stroke-linejoin:miter;stroke-opacity:1" d="M 341.151,36.4179 360.601,37.7147 z" id="boundary" inkscape:connector-curvature="0" />
	<path style="fill:none;stroke:red;stroke-width:1px;stroke-linecap:butt;stroke-linejoin:miter;stroke-opacity:1" d="M 360.601,37.7147 380.053,37.7147 z" id="boundary" inkscape:connector-curvature="0" />
	<path style="fill:none;stroke:red;stroke-width:1px;stroke-linecap:butt;stroke-linejoin:miter;stroke-opacity:1" d="M 380.053,37.7147 404.69,36.4179 z" id="boundary" inkscape:connector-curvature="0" />
	<path style="fill:none;stroke:red;stroke-width:1px;stroke-linecap:butt;stroke-linejoin:miter;stroke-opacity:1" d="M 434.516,155.717 430.625,133.673 z" id="boundary" inkscape:connector-curvature="0" />
	<path style="fill:none;stroke:red;stroke-width:1px;stroke-linecap:butt;stroke-linejoin:miter;stroke-opacity:1" d="M 430.625,133.673 430.625,114.221 z" id="boundary" inkscape:connector-curvature="0" />
	<path style="fill:none;stroke:red;stroke-width:1px;stroke-linecap:butt;stroke-linejoin:miter;stroke-opacity:1" d="M 430.625,114.221 431.922,94.7713 z" id="boundary" inkscape:connector-curvature="0" />
	<path style="fill:none;stroke:red;stroke-width:1px;stroke-linecap:butt;stroke-linejoin:miter;stroke-opacity:1" d="M 431.922,94.7713 431.922,74.0229 z" id="boundary" inkscape:connector-curvature="0" />
	<path style="fill:none;stroke:red;stroke-width:1px;stroke-linecap:butt;stroke-linejoin:miter;stroke-opacity:1" d="M 431.922,74.0229 431.922,53.2745 z" id="boundary" inkscape:connector-curvature="0" />
	<path style="fill:none;stroke:red;stroke-width:1px;stroke-linecap:butt;stroke-linejoin:miter;stroke-opacity:1" d="M 783.336,434.514 783.336,412.471 z" id="boundary" inkscape:connector-curvature="0" />
	<path style="fill:none;stroke:red;stroke-width:1px;stroke-linecap:butt;stroke-linejoin:miter;stroke-opacity:1" d="M 783.336,434.514 800.194,437.108 z" id="boundary" inkscape:connector-curvature="0" />
	<path style="fill:none;stroke:red;stroke-width:1px;stroke-linecap:butt;stroke-linejoin:miter;stroke-opacity:1" d="M 989.516,435.811 993.406,412.471 z" id="boundary" inkscape:connector-curvature="0" />
	<path style="fill:none;stroke:red;stroke-width:1px;stroke-linecap:butt;stroke-linejoin:miter;stroke-opacity:1" d="M 989.516,435.811 979.143,439.701 z" id="boundary" inkscape:connector-curvature="0" />
	<path style="fill:none;stroke:red;stroke-width:1px;stroke-linecap:butt;stroke-linejoin:miter;stroke-opacity:1" d="M 785.93,277.611 782.04,306.138 z" id="boundary" inkscape:connector-curvature="0" />
	<path style="fill:none;stroke:red;stroke-width:1px;stroke-linecap:butt;stroke-linejoin:miter;stroke-opacity:1" d="M 785.93,277.611 806.677,275.017 z" id="boundary" inkscape:connector-curvature="0" />
	<path style="fill:none;stroke:red;stroke-width:1px;stroke-linecap:butt;stroke-linejoin:miter;stroke-opacity:1" d="M 977.847,276.314 960.989,273.72 z" id="boundary" inkscape:connector-curvature="0" />
	<path style="fill:none;stroke:red;stroke-width:1px;stroke-linecap:butt;stroke-linejoin:miter;stroke-opacity:1" d="M 977.847,276.314 993.406,277.611 z" id="boundary" inkscape:connector-curvature="0" />
	<path style="fill:none;stroke:red;stroke-width:1px;stroke-linecap:butt;stroke-linejoin:miter;stroke-opacity:1" d="M 783.336,412.471 784.633,393.019 z" id="boundary" inkscape:connector-curvature="0" />
	<path style="fill:none;stroke:red;stroke-width:1px;stroke-linecap:butt;stroke-linejoin:miter;stroke-opacity:1" d="M 784.633,393.019 784.633,369.679 z" id="boundary" inkscape:connector-curvature="0" />
	<path style="fill:none;stroke:red;stroke-width:1px;stroke-linecap:butt;stroke-linejoin:miter;stroke-opacity:1" d="M 784.633,369.679 783.336,348.93 z" id="boundary" inkscape:connector-curvature="0" />
	<path style="fill:none;stroke:red;stroke-width:1px;stroke-linecap:butt;stroke-linejoin:miter;stroke-opacity:1" d="M 783.336,348.93 782.04,325.59 z" id="boundary" inkscape:connector-curvature="0" />
	<path style="fill:none;stroke:red;stroke-width:1px;stroke-linecap:butt;stroke-linejoin:miter;stroke-opacity:1" d="M 782.04,325.59 782.04,306.138 z" id="boundary" inkscape:connector-curvature="0" />
	<path style="fill:none;stroke:red;stroke-width:1px;stroke-linecap:butt;stroke-linejoin:miter;stroke-opacity:1" d="M 806.677,275.017 830.019,272.423 z" id="boundary" inkscape:connector-curvature="0" />
	<path style="fill:none;stroke:red;stroke-width:1px;stroke-linecap:butt;stroke-linejoin:miter;stroke-opacity:1" d="M 830.019,272.423 852.062,269.83 z" id="boundary" inkscape:connector-curvature="0" />
	<path style="fill:none;stroke:red;stroke-width:1px;stroke-linecap:butt;stroke-linejoin:miter;stroke-opacity:1" d="M 852.062,269.83 871.514,272.423 z" id="boundary" inkscape:connector-curvature="0" />
	<path style="fill:none;stroke:red;stroke-width:1px;stroke-linecap:butt;stroke-linejoin:miter;stroke-opacity:1" d="M 871.514,272.423 896.151,272.423 z" id="boundary" inkscape:connector-curvature="0" />
	<path style="fill:none;stroke:red;stroke-width:1px;stroke-linecap:butt;stroke-linejoin:miter;stroke-opacity:1" d="M 896.151,272.423 919.493,272.423 z" id="boundary" inkscape:connector-curvature="0" />
	<path style="fill:none;stroke:red;stroke-width:1px;stroke-linecap:butt;stroke-linejoin:miter;stroke-opacity:1" d="M 919.493,272.423 941.537,273.72 z" id="boundary" inkscape:connector-curvature="0" />
	<path style="fill:none;stroke:red;stroke-width:1px;stroke-linecap:butt;stroke-linejoin:miter;stroke-opacity:1" d="M 941.537,273.72 960.989,273.72 z" id="boundary" inkscape:connector-curvature="0" />
	<path style="fill:none;stroke:red;stroke-width:1px;stroke-linecap:butt;stroke-linejoin:miter;stroke-opacity:1" d="M 993.406,412.471 996,391.722 z" id="boundary" inkscape:connector-curvature="0" />
	<path style="fill:none;stroke:red;stroke-width:1px;stroke-linecap:butt;stroke-linejoin:miter;stroke-opacity:1" d="M 996,391.722 996,370.975 z" id="boundary" inkscape:connector-curvature="0" />
	<path style="fill:none;stroke:red;stroke-width:1px;stroke-linecap:butt;stroke-linejoin:miter;stroke-opacity:1" d="M 996,370.975 992.11,354.117 z" id="boundary" inkscape:connector-curvature="0" />
	<path style="fill:none;stroke:red;stroke-width:1px;stroke-linecap:butt;stroke-linejoin:miter;stroke-opacity:1" d="M 992.11,354.117 993.406,335.963 z" id="boundary" inkscape:connector-curvature="0" />
	<path style="fill:none;stroke:red;stroke-width:1px;stroke-linecap:butt;stroke-linejoin:miter;stroke-opacity:1" d="M 993.406,335.963 993.406,317.809 z" id="boundary" inkscape:connector-curvature="0" />
	<path style="fill:none;stroke:red;stroke-width:1px;stroke-linecap:butt;stroke-linejoin:miter;stroke-opacity:1" d="M 993.406,317.809 993.406,300.951 z" id="boundary" inkscape:connector-curvature="0" />
	<path style="fill:none;stroke:red;stroke-width:1px;stroke-linecap:butt;stroke-linejoin:miter;stroke-opacity:1" d="M 993.406,300.951 993.406,277.611 z" id="boundary" inkscape:connector-curvature="0" />
	<path style="fill:none;stroke:red;stroke-width:1px;stroke-linecap:butt;stroke-linejoin:miter;stroke-opacity:1" d="M 800.194,437.108 818.348,438.405 z" id="boundary" inkscape:connector-curvature="0" />
	<path style="fill:none;stroke:red;stroke-width:1px;stroke-linecap:butt;stroke-linejoin:miter;stroke-opacity:1" d="M 818.348,438.405 835.206,437.108 z" id="boundary" inkscape:connector-curvature="0" />
	<path style="fill:none;stroke:red;stroke-width:1px;stroke-linecap:butt;stroke-linejoin:miter;stroke-opacity:1" d="M 835.206,437.108 850.766,437.108 z" id="boundary" inkscape:connector-curvature="0" />
	<path style="fill:none;stroke:red;stroke-width:1px;stroke-linecap:butt;stroke-linejoin:miter;stroke-opacity:1" d="M 850.766,437.108 866.327,437.108 z" id="boundary" inkscape:connector-curvature="0" />
	<path style="fill:none;stroke:red;stroke-width:1px;stroke-linecap:butt;stroke-linejoin:miter;stroke-opacity:1" d="M 866.327,437.108 884.482,438.405 z" id="boundary" inkscape:connector-curvature="0" />
	<path style="fill:none;stroke:red;stroke-width:1px;stroke-linecap:butt;stroke-linejoin:miter;stroke-opacity:1" d="M 884.482,438.405 901.338,438.405 z" id="boundary" inkscape:connector-curvature="0" />
	<path style="fill:none;stroke:red;stroke-width:1px;stroke-linecap:butt;stroke-linejoin:miter;stroke-opacity:1" d="M 901.338,438.405 920.79,438.405 z" id="boundary" inkscape:connector-curvature="0" />
	<path style="fill:none;stroke:red;stroke-width:1px;stroke-linecap:butt;stroke-linejoin:miter;stroke-opacity:1" d="M 920.79,438.405 942.834,440.998 z" id="boundary" inkscape:connector-curvature="0" />
	<path style="fill:none;stroke:red;stroke-width:1px;stroke-linecap:butt;stroke-linejoin:miter;stroke-opacity:1" d="M 942.834,440.998 962.285,439.701 z" id="boundary" inkscape:connector-curvature="0" />
	<path style="fill:none;stroke:red;stroke-width:1px;stroke-linecap:butt;stroke-linejoin:miter;stroke-opacity:1" d="M 962.285,439.701 979.143,439.701 z" id="boundary" inkscape:connector-curvature="0" />
	<path style="fill:none;stroke:red;stroke-width:1px;stroke-linecap:butt;stroke-linejoin:miter;stroke-opacity:1" d="M 990.813,677.004 994.703,657.552 z" id="boundary" inkscape:connector-curvature="0" />
	<path style="fill:none;stroke:red;stroke-width:1px;stroke-linecap:butt;stroke-linejoin:miter;stroke-opacity:1" d="M 990.813,677.004 967.472,682.191 z" id="boundary" inkscape:connector-curvature="0" />
	<path style="fill:none;stroke:red;stroke-width:1px;stroke-linecap:butt;stroke-linejoin:miter;stroke-opacity:1" d="M 989.516,516.208 994.703,540.847 z" id="boundary" inkscape:connector-curvature="0" />
	<path style="fill:none;stroke:red;stroke-width:1px;stroke-linecap:butt;stroke-linejoin:miter;stroke-opacity:1" d="M 989.516,516.208 967.472,518.802 z" id="boundary" inkscape:connector-curvature="0" />
	<path style="fill:none;stroke:red;stroke-width:1px;stroke-linecap:butt;stroke-linejoin:miter;stroke-opacity:1" d="M 994.703,657.552 993.406,636.805 z" id="boundary" inkscape:connector-curvature="0" />
	<path style="fill:none;stroke:red;stroke-width:1px;stroke-linecap:butt;stroke-linejoin:miter;stroke-opacity:1" d="M 993.406,636.805 994.703,617.354 z" id="boundary" inkscape:connector-curvature="0" />
	<path style="fill:none;stroke:red;stroke-width:1px;stroke-linecap:butt;stroke-linejoin:miter;stroke-opacity:1" d="M 994.703,617.354 994.703,599.2 z" id="boundary" inkscape:connector-curvature="0" />
	<path style="fill:none;stroke:red;stroke-width:1px;stroke-linecap:butt;stroke-linejoin:miter;stroke-opacity:1" d="M 994.703,599.2 994.703,582.342 z" id="boundary" inkscape:connector-curvature="0" />
	<path style="fill:none;stroke:red;stroke-width:1px;stroke-linecap:butt;stroke-linejoin:miter;stroke-opacity:1" d="M 994.703,582.342 993.406,562.891 z" id="boundary" inkscape:connector-curvature="0" />
	<path style="fill:none;stroke:red;stroke-width:1px;stroke-linecap:butt;stroke-linejoin:miter;stroke-opacity:1" d="M 993.406,562.891 994.703,540.847 z" id="boundary" inkscape:connector-curvature="0" />
	<path style="fill:none;stroke:red;stroke-width:1px;stroke-linecap:butt;stroke-linejoin:miter;stroke-opacity:1" d="M 758.698,504.539 785.93,509.724 z" id="boundary" inkscape:connector-curvature="0" />
	<path style="fill:none;stroke:red;stroke-width:1px;stroke-linecap:butt;stroke-linejoin:miter;stroke-opacity:1" d="M 758.698,504.539 736.654,492.868 z" id="boundary" inkscape:connector-curvature="0" />
	<path style="fill:none;stroke:red;stroke-width:1px;stroke-linecap:butt;stroke-linejoin:miter;stroke-opacity:1" d="M 785.93,509.724 813.161,516.208 z" id="boundary" inkscape:connector-curvature="0" />
	<path style="fill:none;stroke:red;stroke-width:1px;stroke-linecap:butt;stroke-linejoin:miter;stroke-opacity:1" d="M 813.161,516.208 844.283,520.099 z" id="boundary" inkscape:connector-curvature="0" />
	<path style="fill:none;stroke:red;stroke-width:1px;stroke-linecap:butt;stroke-linejoin:miter;stroke-opacity:1" d="M 844.283,520.099 866.327,521.395 z" id="boundary" inkscape:connector-curvature="0" />
	<path style="fill:none;stroke:red;stroke-width:1px;stroke-linecap:butt;stroke-linejoin:miter;stroke-opacity:1" d="M 866.327,521.395 894.855,522.692 z" id="boundary" inkscape:connector-curvature="0" />
	<path style="fill:none;stroke:red;stroke-width:1px;stroke-linecap:butt;stroke-linejoin:miter;stroke-opacity:1" d="M 894.855,522.692 920.79,522.692 z" id="boundary" inkscape:connector-curvature="0" />
	<path style="fill:none;stroke:red;stroke-width:1px;stroke-linecap:butt;stroke-linejoin:miter;stroke-opacity:1" d="M 920.79,522.692 942.834,521.395 z" id="boundary" inkscape:connector-curvature="0" />
	<path style="fill:none;stroke:red;stroke-width:1px;stroke-linecap:butt;stroke-linejoin:miter;stroke-opacity:1" d="M 942.834,521.395 967.472,518.802 z" id="boundary" inkscape:connector-curvature="0" />
	<path style="fill:none;stroke:red;stroke-width:1px;stroke-linecap:butt;stroke-linejoin:miter;stroke-opacity:1" d="M 736.654,492.868 715.906,478.603 z" id="boundary" inkscape:connector-curvature="0" />
	<path style="fill:none;stroke:red;stroke-width:1px;stroke-linecap:butt;stroke-linejoin:miter;stroke-opacity:1" d="M 715.906,478.603 697.752,459.153 z" id="boundary" inkscape:connector-curvature="0" />
	<path style="fill:none;stroke:red;stroke-width:1px;stroke-linecap:butt;stroke-linejoin:miter;stroke-opacity:1" d="M 697.752,459.153 682.191,437.108 z" id="boundary" inkscape:connector-curvature="0" />
	<path style="fill:none;stroke:red;stroke-width:1px;stroke-linecap:butt;stroke-linejoin:miter;stroke-opacity:1" d="M 682.191,437.108 673.114,415.064 z" id="boundary" inkscape:connector-curvature="0" />
	<path style="fill:none;stroke:red;stroke-width:1px;stroke-linecap:butt;stroke-linejoin:miter;stroke-opacity:1" d="M 673.114,415.064 665.333,393.019 z" id="boundary" inkscape:connector-curvature="0" />
	<path style="fill:none;stroke:red;stroke-width:1px;stroke-linecap:butt;stroke-linejoin:miter;stroke-opacity:1" d="M 665.333,393.019 664.037,370.975 z" id="boundary" inkscape:connector-curvature="0" />
	<path style="fill:none;stroke:red;stroke-width:1px;stroke-linecap:butt;stroke-linejoin:miter;stroke-opacity:1" d="M 664.037,370.975 662.741,347.633 z" id="boundary" inkscape:connector-curvature="0" />
	<path style="fill:none;stroke:red;stroke-width:1px;stroke-linecap:butt;stroke-linejoin:miter;stroke-opacity:1" d="M 662.741,347.633 662.741,328.182 z" id="boundary" inkscape:connector-curvature="0" />
	<path style="fill:none;stroke:red;stroke-width:1px;stroke-linecap:butt;stroke-linejoin:miter;stroke-opacity:1" d="M 662.741,328.182 667.926,304.841 z" id="boundary" inkscape:connector-curvature="0" />
	<path style="fill:none;stroke:red;stroke-width:1px;stroke-linecap:butt;stroke-linejoin:miter;stroke-opacity:1" d="M 667.926,304.841 677.004,282.796 z" id="boundary" inkscape:connector-curvature="0" />
	<path style="fill:none;stroke:red;stroke-width:1px;stroke-linecap:butt;stroke-linejoin:miter;stroke-opacity:1" d="M 677.004,282.796 683.488,265.94 z" id="boundary" inkscape:connector-curvature="0" />
	<path style="fill:none;stroke:red;stroke-width:1px;stroke-linecap:butt;stroke-linejoin:miter;stroke-opacity:1" d="M 683.488,265.94 692.565,247.785 z" id="boundary" inkscape:connector-curvature="0" />
	<path style="fill:none;stroke:red;stroke-width:1px;stroke-linecap:butt;stroke-linejoin:miter;stroke-opacity:1" d="M 692.565,247.785 701.642,232.225 z" id="boundary" inkscape:connector-curvature="0" />
	<path style="fill:none;stroke:red;stroke-width:1px;stroke-linecap:butt;stroke-linejoin:miter;stroke-opacity:1" d="M 701.642,232.225 713.312,217.96 z" id="boundary" inkscape:connector-curvature="0" />
	<path style="fill:none;stroke:red;stroke-width:1px;stroke-linecap:butt;stroke-linejoin:miter;stroke-opacity:1" d="M 713.312,217.96 730.17,202.399 z" id="boundary" inkscape:connector-curvature="0" />
	<path style="fill:none;stroke:red;stroke-width:1px;stroke-linecap:butt;stroke-linejoin:miter;stroke-opacity:1" d="M 730.17,202.399 744.435,188.136 z" id="boundary" inkscape:connector-curvature="0" />
	<path style="fill:none;stroke:red;stroke-width:1px;stroke-linecap:butt;stroke-linejoin:miter;stroke-opacity:1" d="M 744.435,188.136 762.588,179.059 z" id="boundary" inkscape:connector-curvature="0" />
	<path style="fill:none;stroke:red;stroke-width:1px;stroke-linecap:butt;stroke-linejoin:miter;stroke-opacity:1" d="M 762.588,179.059 782.04,169.981 z" id="boundary" inkscape:connector-curvature="0" />
	<path style="fill:none;stroke:red;stroke-width:1px;stroke-linecap:butt;stroke-linejoin:miter;stroke-opacity:1" d="M 782.04,169.981 804.083,166.091 z" id="boundary" inkscape:connector-curvature="0" />
	<path style="fill:none;stroke:red;stroke-width:1px;stroke-linecap:butt;stroke-linejoin:miter;stroke-opacity:1" d="M 804.083,166.091 827.425,160.904 z" id="boundary" inkscape:connector-curvature="0" />
	<path style="fill:none;stroke:red;stroke-width:1px;stroke-linecap:butt;stroke-linejoin:miter;stroke-opacity:1" d="M 827.425,160.904 852.062,162.201 z" id="boundary" inkscape:connector-curvature="0" />
	<path style="fill:none;stroke:red;stroke-width:1px;stroke-linecap:butt;stroke-linejoin:miter;stroke-opacity:1" d="M 852.062,162.201 876.701,169.981 z" id="boundary" inkscape:connector-curvature="0" />
	<path style="fill:none;stroke:red;stroke-width:1px;stroke-linecap:butt;stroke-linejoin:miter;stroke-opacity:1" d="M 876.701,169.981 900.042,182.949 z" id="boundary" inkscape:connector-curvature="0" />
	<path style="fill:none;stroke:red;stroke-width:1px;stroke-linecap:butt;stroke-linejoin:miter;stroke-opacity:1" d="M 900.042,182.949 920.79,197.212 z" id="boundary" inkscape:connector-curvature="0" />
	<path style="fill:none;stroke:red;stroke-width:1px;stroke-linecap:butt;stroke-linejoin:miter;stroke-opacity:1" d="M 920.79,197.212 940.24,211.477 z" id="boundary" inkscape:connector-curvature="0" />
	<path style="fill:none;stroke:red;stroke-width:1px;stroke-linecap:butt;stroke-linejoin:miter;stroke-opacity:1" d="M 940.24,211.477 952.2,226.684 z" id="boundary" inkscape:connector-curvature="0" />
	<path style="fill:none;stroke:red;stroke-width:1px;stroke-linecap:butt;stroke-linejoin:miter;stroke-opacity:1" d="M 961.207,239.549 975.358,245.981 z" id="boundary" inkscape:connector-curvature="0" />
	<path style="fill:none;stroke:red;stroke-width:1px;stroke-linecap:butt;stroke-linejoin:miter;stroke-opacity:1" d="M 961.207,239.549 952.2,226.684 z" id="boundary" inkscape:connector-curvature="0" />
	<path style="fill:none;stroke:red;stroke-width:1px;stroke-linecap:butt;stroke-linejoin:miter;stroke-opacity:1" d="M 975.358,245.981 976.643,230.544 z" id="boundary" inkscape:connector-curvature="0" />
	<path style="fill:none;stroke:red;stroke-width:1px;stroke-linecap:butt;stroke-linejoin:miter;stroke-opacity:1" d="M 976.643,230.544 977.847,212.773 z" id="boundary" inkscape:connector-curvature="0" />
	<path style="fill:none;stroke:red;stroke-width:1px;stroke-linecap:butt;stroke-linejoin:miter;stroke-opacity:1" d="M 977.847,212.773 976.55,193.322 z" id="boundary" inkscape:connector-curvature="0" />
	<path style="fill:none;stroke:red;stroke-width:1px;stroke-linecap:butt;stroke-linejoin:miter;stroke-opacity:1" d="M 976.55,193.322 976.55,173.872 z" id="boundary" inkscape:connector-curvature="0" />
	<path style="fill:none;stroke:red;stroke-width:1px;stroke-linecap:butt;stroke-linejoin:miter;stroke-opacity:1" d="M 976.55,173.872 976.55,151.826 z" id="boundary" inkscape:connector-curvature="0" />
	<path style="fill:none;stroke:red;stroke-width:1px;stroke-linecap:butt;stroke-linejoin:miter;stroke-opacity:1" d="M 976.55,151.826 973.956,128.486 z" id="boundary" inkscape:connector-curvature="0" />
	<path style="fill:none;stroke:red;stroke-width:1px;stroke-linecap:butt;stroke-linejoin:miter;stroke-opacity:1" d="M 973.956,128.486 975.253,109.034 z" id="boundary" inkscape:connector-curvature="0" />
	<path style="fill:none;stroke:red;stroke-width:1px;stroke-linecap:butt;stroke-linejoin:miter;stroke-opacity:1" d="M 975.253,109.034 976.55,85.6939 z" id="boundary" inkscape:connector-curvature="0" />
	<path style="fill:none;stroke:red;stroke-width:1px;stroke-linecap:butt;stroke-linejoin:miter;stroke-opacity:1" d="M 976.55,85.6939 975.253,67.539 z" id="boundary" inkscape:connector-curvature="0" />
	<path style="fill:none;stroke:red;stroke-width:1px;stroke-linecap:butt;stroke-linejoin:miter;stroke-opacity:1" d="M 975.253,67.539 957.098,53.2745 z" id="boundary" inkscape:connector-curvature="0" />
	<path style="fill:none;stroke:red;stroke-width:1px;stroke-linecap:butt;stroke-linejoin:miter;stroke-opacity:1" d="M 514.913,207.586 526.584,185.543 z" id="boundary" inkscape:connector-curvature="0" />
	<path style="fill:none;stroke:red;stroke-width:1px;stroke-linecap:butt;stroke-linejoin:miter;stroke-opacity:1" d="M 514.913,207.586 505.835,232.225 z" id="boundary" inkscape:connector-curvature="0" />
	<path style="fill:none;stroke:red;stroke-width:1px;stroke-linecap:butt;stroke-linejoin:miter;stroke-opacity:1" d="M 526.584,185.543 538.253,160.904 z" id="boundary" inkscape:connector-curvature="0" />
	<path style="fill:none;stroke:red;stroke-width:1px;stroke-linecap:butt;stroke-linejoin:miter;stroke-opacity:1" d="M 538.253,160.904 555.111,141.454 z" id="boundary" inkscape:connector-curvature="0" />
	<path style="fill:none;stroke:red;stroke-width:1px;stroke-linecap:butt;stroke-linejoin:miter;stroke-opacity:1" d="M 555.111,141.454 568.079,122.002 z" id="boundary" inkscape:connector-curvature="0" />
	<path style="fill:none;stroke:red;stroke-width:1px;stroke-linecap:butt;stroke-linejoin:miter;stroke-opacity:1" d="M 568.079,122.002 582.342,102.55 z" id="boundary" inkscape:connector-curvature="0" />
	<path style="fill:none;stroke:red;stroke-width:1px;stroke-linecap:butt;stroke-linejoin:miter;stroke-opacity:1" d="M 582.342,102.55 600.497,88.2874 z" id="boundary" inkscape:connector-curvature="0" />
	<path style="fill:none;stroke:red;stroke-width:1px;stroke-linecap:butt;stroke-linejoin:miter;stroke-opacity:1" d="M 600.497,88.2874 616.058,74.0229 z" id="boundary" inkscape:connector-curvature="0" />
	<path style="fill:none;stroke:red;stroke-width:1px;stroke-linecap:butt;stroke-linejoin:miter;stroke-opacity:1" d="M 616.058,74.0229 635.509,58.4616 z" id="boundary" inkscape:connector-curvature="0" />
	<path style="fill:none;stroke:red;stroke-width:1px;stroke-linecap:butt;stroke-linejoin:miter;stroke-opacity:1" d="M 635.509,58.4616 656.257,44.1985 z" id="boundary" inkscape:connector-curvature="0" />
	<path style="fill:none;stroke:red;stroke-width:1px;stroke-linecap:butt;stroke-linejoin:miter;stroke-opacity:1" d="M 656.257,44.1985 677.004,35.1211 z" id="boundary" inkscape:connector-curvature="0" />
	<path style="fill:none;stroke:red;stroke-width:1px;stroke-linecap:butt;stroke-linejoin:miter;stroke-opacity:1" d="M 677.004,35.1211 701.642,27.3405 z" id="boundary" inkscape:connector-curvature="0" />
	<path style="fill:none;stroke:red;stroke-width:1px;stroke-linecap:butt;stroke-linejoin:miter;stroke-opacity:1" d="M 701.642,27.3405 726.28,18.2631 z" id="boundary" inkscape:connector-curvature="0" />
	<path style="fill:none;stroke:red;stroke-width:1px;stroke-linecap:butt;stroke-linejoin:miter;stroke-opacity:1" d="M 726.28,18.2631 745.731,10.4825 z" id="boundary" inkscape:connector-curvature="0" />
	<path style="fill:none;stroke:red;stroke-width:1px;stroke-linecap:butt;stroke-linejoin:miter;stroke-opacity:1" d="M 745.731,10.4825 766.478,7.88892 z" id="boundary" inkscape:connector-curvature="0" />
	<path style="fill:none;stroke:red;stroke-width:1px;stroke-linecap:butt;stroke-linejoin:miter;stroke-opacity:1" d="M 766.478,7.88892 787.227,6.59354 z" id="boundary" inkscape:connector-curvature="0" />
	<path style="fill:none;stroke:red;stroke-width:1px;stroke-linecap:butt;stroke-linejoin:miter;stroke-opacity:1" d="M 787.227,6.59354 810.567,7.88892 z" id="boundary" inkscape:connector-curvature="0" />
	<path style="fill:none;stroke:red;stroke-width:1px;stroke-linecap:butt;stroke-linejoin:miter;stroke-opacity:1" d="M 810.567,7.88892 831.316,4 z" id="boundary" inkscape:connector-curvature="0" />
	<path style="fill:none;stroke:red;stroke-width:1px;stroke-linecap:butt;stroke-linejoin:miter;stroke-opacity:1" d="M 831.316,4 857.25,6.59354 z" id="boundary" inkscape:connector-curvature="0" />
	<path style="fill:none;stroke:red;stroke-width:1px;stroke-linecap:butt;stroke-linejoin:miter;stroke-opacity:1" d="M 857.25,6.59354 877.998,14.3728 z" id="boundary" inkscape:connector-curvature="0" />
	<path style="fill:none;stroke:red;stroke-width:1px;stroke-linecap:butt;stroke-linejoin:miter;stroke-opacity:1" d="M 877.998,14.3728 900.042,20.8566 z" id="boundary" inkscape:connector-curvature="0" />
	<path style="fill:none;stroke:red;stroke-width:1px;stroke-linecap:butt;stroke-linejoin:miter;stroke-opacity:1" d="M 900.042,20.8566 919.493,32.5276 z" id="boundary" inkscape:connector-curvature="0" />
	<path style="fill:none;stroke:red;stroke-width:1px;stroke-linecap:butt;stroke-linejoin:miter;stroke-opacity:1" d="M 919.493,32.5276 940.24,41.605 z" id="boundary" inkscape:connector-curvature="0" />
	<path style="fill:none;stroke:red;stroke-width:1px;stroke-linecap:butt;stroke-linejoin:miter;stroke-opacity:1" d="M 940.24,41.605 957.098,53.2745 z" id="boundary" inkscape:connector-curvature="0" />
	<path style="fill:none;stroke:red;stroke-width:1px;stroke-linecap:butt;stroke-linejoin:miter;stroke-opacity:1" d="M 505.835,232.225 495.461,255.565 z" id="boundary" inkscape:connector-curvature="0" />
	<path style="fill:none;stroke:red;stroke-width:1px;stroke-linecap:butt;stroke-linejoin:miter;stroke-opacity:1" d="M 495.461,255.565 487.681,286.687 z" id="boundary" inkscape:connector-curvature="0" />
	<path style="fill:none;stroke:red;stroke-width:1px;stroke-linecap:butt;stroke-linejoin:miter;stroke-opacity:1" d="M 487.681,286.687 481.198,312.622 z" id="boundary" inkscape:connector-curvature="0" />
	<path style="fill:none;stroke:red;stroke-width:1px;stroke-linecap:butt;stroke-linejoin:miter;stroke-opacity:1" d="M 481.198,312.622 479.901,341.15 z" id="boundary" inkscape:connector-curvature="0" />
	<path style="fill:none;stroke:red;stroke-width:1px;stroke-linecap:butt;stroke-linejoin:miter;stroke-opacity:1" d="M 479.901,341.15 479.901,368.382 z" id="boundary" inkscape:connector-curvature="0" />
	<path style="fill:none;stroke:red;stroke-width:1px;stroke-linecap:butt;stroke-linejoin:miter;stroke-opacity:1" d="M 479.901,368.382 485.087,396.909 z" id="boundary" inkscape:connector-curvature="0" />
	<path style="fill:none;stroke:red;stroke-width:1px;stroke-linecap:butt;stroke-linejoin:miter;stroke-opacity:1" d="M 485.087,396.909 487.681,422.843 z" id="boundary" inkscape:connector-curvature="0" />
	<path style="fill:none;stroke:red;stroke-width:1px;stroke-linecap:butt;stroke-linejoin:miter;stroke-opacity:1" d="M 487.681,422.843 494.165,447.482 z" id="boundary" inkscape:connector-curvature="0" />
	<path style="fill:none;stroke:red;stroke-width:1px;stroke-linecap:butt;stroke-linejoin:miter;stroke-opacity:1" d="M 494.165,447.482 505.835,470.823 z" id="boundary" inkscape:connector-curvature="0" />
	<path style="fill:none;stroke:red;stroke-width:1px;stroke-linecap:butt;stroke-linejoin:miter;stroke-opacity:1" d="M 505.835,470.823 516.21,492.868 z" id="boundary" inkscape:connector-curvature="0" />
	<path style="fill:none;stroke:red;stroke-width:1px;stroke-linecap:butt;stroke-linejoin:miter;stroke-opacity:1" d="M 516.21,492.868 527.881,517.505 z" id="boundary" inkscape:connector-curvature="0" />
	<path style="fill:none;stroke:red;stroke-width:1px;stroke-linecap:butt;stroke-linejoin:miter;stroke-opacity:1" d="M 527.881,517.505 547.331,536.957 z" id="boundary" inkscape:connector-curvature="0" />
	<path style="fill:none;stroke:red;stroke-width:1px;stroke-linecap:butt;stroke-linejoin:miter;stroke-opacity:1" d="M 547.331,536.957 565.486,561.594 z" id="boundary" inkscape:connector-curvature="0" />
	<path style="fill:none;stroke:red;stroke-width:1px;stroke-linecap:butt;stroke-linejoin:miter;stroke-opacity:1" d="M 565.486,561.594 581.045,581.045 z" id="boundary" inkscape:connector-curvature="0" />
	<path style="fill:none;stroke:red;stroke-width:1px;stroke-linecap:butt;stroke-linejoin:miter;stroke-opacity:1" d="M 581.045,581.045 597.904,600.496 z" id="boundary" inkscape:connector-curvature="0" />
	<path style="fill:none;stroke:red;stroke-width:1px;stroke-linecap:butt;stroke-linejoin:miter;stroke-opacity:1" d="M 597.904,600.496 618.652,618.65 z" id="boundary" inkscape:connector-curvature="0" />
	<path style="fill:none;stroke:red;stroke-width:1px;stroke-linecap:butt;stroke-linejoin:miter;stroke-opacity:1" d="M 618.652,618.65 640.696,630.321 z" id="boundary" inkscape:connector-curvature="0" />
	<path style="fill:none;stroke:red;stroke-width:1px;stroke-linecap:butt;stroke-linejoin:miter;stroke-opacity:1" d="M 640.696,630.321 658.85,640.696 z" id="boundary" inkscape:connector-curvature="0" />
	<path style="fill:none;stroke:red;stroke-width:1px;stroke-linecap:butt;stroke-linejoin:miter;stroke-opacity:1" d="M 658.85,640.696 678.301,651.068 z" id="boundary" inkscape:connector-curvature="0" />
	<path style="fill:none;stroke:red;stroke-width:1px;stroke-linecap:butt;stroke-linejoin:miter;stroke-opacity:1" d="M 678.301,651.068 701.642,660.146 z" id="boundary" inkscape:connector-curvature="0" />
	<path style="fill:none;stroke:red;stroke-width:1px;stroke-linecap:butt;stroke-linejoin:miter;stroke-opacity:1" d="M 701.642,660.146 723.686,667.926 z" id="boundary" inkscape:connector-curvature="0" />
	<path style="fill:none;stroke:red;stroke-width:1px;stroke-linecap:butt;stroke-linejoin:miter;stroke-opacity:1" d="M 723.686,667.926 750.918,675.707 z" id="boundary" inkscape:connector-curvature="0" />
	<path style="fill:none;stroke:red;stroke-width:1px;stroke-linecap:butt;stroke-linejoin:miter;stroke-opacity:1" d="M 750.918,675.707 778.149,677.004 z" id="boundary" inkscape:connector-curvature="0" />
	<path style="fill:none;stroke:red;stroke-width:1px;stroke-linecap:butt;stroke-linejoin:miter;stroke-opacity:1" d="M 778.149,677.004 801.49,679.597 z" id="boundary" inkscape:connector-curvature="0" />
	<path style="fill:none;stroke:red;stroke-width:1px;stroke-linecap:butt;stroke-linejoin:miter;stroke-opacity:1" d="M 801.49,679.597 831.316,680.894 z" id="boundary" inkscape:connector-curvature="0" />
	<path style="fill:none;stroke:red;stroke-width:1px;stroke-linecap:butt;stroke-linejoin:miter;stroke-opacity:1" d="M 831.316,680.894 854.656,682.191 z" id="boundary" inkscape:connector-curvature="0" />
	<path style="fill:none;stroke:red;stroke-width:1px;stroke-linecap:butt;stroke-linejoin:miter;stroke-opacity:1" d="M 854.656,682.191 876.701,682.191 z" id="boundary" inkscape:connector-curvature="0" />
	<path style="fill:none;stroke:red;stroke-width:1px;stroke-linecap:butt;stroke-linejoin:miter;stroke-opacity:1" d="M 876.701,682.191 897.448,686.081 z" id="boundary" inkscape:connector-curvature="0" />
	<path style="fill:none;stroke:red;stroke-width:1px;stroke-linecap:butt;stroke-linejoin:miter;stroke-opacity:1" d="M 897.448,686.081 919.493,683.488 z" id="boundary" inkscape:connector-curvature="0" />
	<path style="fill:none;stroke:red;stroke-width:1px;stroke-linecap:butt;stroke-linejoin:miter;stroke-opacity:1" d="M 919.493,683.488 945.427,683.488 z" id="boundary" inkscape:connector-curvature="0" />
	<path style="fill:none;stroke:red;stroke-width:1px;stroke-linecap:butt;stroke-linejoin:miter;stroke-opacity:1" d="M 945.427,683.488 967.472,682.191 z" id="boundary" inkscape:connector-curvature="0" />
	<circle cx="10.4839" cy="675.707" r="4" fill="#0" id="circle0"/>
	<circle cx="39.0115" cy="675.707" r="4" fill="#0" id="circle1"/>
	<circle cx="63.6501" cy="675.707" r="4" fill="#0" id="circle2"/>
	<circle cx="90.8809" cy="675.707" r="4" fill="#0" id="circle3"/>
	<circle cx="122.002" cy="675.707" r="4" fill="#0" id="circle4"/>
	<circle cx="154.421" cy="675.707" r="4" fill="#0" id="circle5"/>
	<circle cx="188.136" cy="675.707" r="4" fill="#0" id="circle6"/>
	<circle cx="219.257" cy="674.41" r="4" fill="#0" id="circle7"/>
	<circle cx="247.786" cy="674.41" r="4" fill="#0" id="circle8"/>
	<circle cx="276.314" cy="677.004" r="4" fill="#0" id="circle9"/>
	<circle cx="302.248" cy="677.004" r="4" fill="#0" id="circle10"/>
	<circle cx="325.59" cy="677.004" r="4" fill="#0" id="circle11"/>
	<circle cx="347.633" cy="678.301" r="4" fill="#0" id="circle12"/>
	<circle cx="373.569" cy="678.301" r="4" fill="#0" id="circle13"/>
	<circle cx="393.019" cy="678.301" r="4" fill="#0" id="circle14"/>
	<circle cx="416.361" cy="678.301" r="4" fill="#0" id="circle15"/>
	<circle cx="431.922" cy="678.301" r="4" fill="#0" id="circle16"/>
	<circle cx="10.4839" cy="652.365" r="4" fill="#0" id="circle17"/>
	<circle cx="10.4839" cy="634.212" r="4" fill="#0" id="circle18"/>
	<circle cx="10.4839" cy="616.057" r="4" fill="#0" id="circle19"/>
	<circle cx="9.18709" cy="596.607" r="4" fill="#0" id="circle20"/>
	<circle cx="9.18709" cy="574.562" r="4" fill="#0" id="circle21"/>
	<circle cx="7.89032" cy="555.11" r="4" fill="#0" id="circle22"/>
	<circle cx="7.89032" cy="535.66" r="4" fill="#0" id="circle23"/>
	<circle cx="9.18709" cy="518.802" r="4" fill="#0" id="circle24"/>
	<circle cx="24.7484" cy="516.208" r="4" fill="#0" id="circle25"/>
	<circle cx="44.1985" cy="518.802" r="4" fill="#0" id="circle26"/>
	<circle cx="67.5404" cy="516.208" r="4" fill="#0" id="circle27"/>
	<circle cx="86.9906" cy="516.208" r="4" fill="#0" id="circle28"/>
	<circle cx="106.442" cy="516.208" r="4" fill="#0" id="circle29"/>
	<circle cx="125.892" cy="517.505" r="4" fill="#0" id="circle30"/>
	<circle cx="150.531" cy="517.505" r="4" fill="#0" id="circle31"/>
	<circle cx="176.465" cy="517.505" r="4" fill="#0" id="circle32"/>
	<circle cx="199.807" cy="516.208" r="4" fill="#0" id="circle33"/>
	<circle cx="221.851" cy="516.208" r="4" fill="#0" id="circle34"/>
	<circle cx="242.599" cy="517.505" r="4" fill="#0" id="circle35"/>
	<circle cx="264.643" cy="517.505" r="4" fill="#0" id="circle36"/>
	<circle cx="285.391" cy="517.505" r="4" fill="#0" id="circle37"/>
	<circle cx="306.138" cy="518.802" r="4" fill="#0" id="circle38"/>
	<circle cx="328.183" cy="517.505" r="4" fill="#0" id="circle39"/>
	<circle cx="347.633" cy="517.505" r="4" fill="#0" id="circle40"/>
	<circle cx="365.788" cy="517.505" r="4" fill="#0" id="circle41"/>
	<circle cx="386.537" cy="517.505" r="4" fill="#0" id="circle42"/>
	<circle cx="403.393" cy="518.802" r="4" fill="#0" id="circle43"/>
	<circle cx="424.142" cy="518.802" r="4" fill="#0" id="circle44"/>
	<circle cx="433.219" cy="658.849" r="4" fill="#0" id="circle45"/>
	<circle cx="433.219" cy="639.399" r="4" fill="#0" id="circle46"/>
	<circle cx="430.625" cy="618.65" r="4" fill="#0" id="circle47"/>
	<circle cx="430.625" cy="599.2" r="4" fill="#0" id="circle48"/>
	<circle cx="431.922" cy="577.155" r="4" fill="#0" id="circle49"/>
	<circle cx="431.922" cy="555.11" r="4" fill="#0" id="circle50"/>
	<circle cx="431.922" cy="535.66" r="4" fill="#0" id="circle51"/>
	<circle cx="9.18709" cy="434.514" r="4" fill="#0" id="circle52"/>
	<circle cx="431.922" cy="435.811" r="4" fill="#0" id="circle53"/>
	<circle cx="430.625" cy="276.314" r="4" fill="#0" id="circle54"/>
	<circle cx="189.433" cy="276.314" r="4" fill="#0" id="circle55"/>
	<circle cx="188.136" cy="184.246" r="4" fill="#0" id="circle56"/>
	<circle cx="430.625" cy="182.949" r="4" fill="#0" id="circle57"/>
	<circle cx="429.329" cy="33.8244" r="4" fill="#0" id="circle58"/>
	<circle cx="9.18709" cy="35.1211" r="4" fill="#0" id="circle59"/>
	<circle cx="29.934" cy="435.811" r="4" fill="#0" id="circle60"/>
	<circle cx="58.463" cy="435.811" r="4" fill="#0" id="circle61"/>
	<circle cx="85.6939" cy="435.811" r="4" fill="#0" id="circle62"/>
	<circle cx="112.926" cy="437.108" r="4" fill="#0" id="circle63"/>
	<circle cx="136.267" cy="435.811" r="4" fill="#0" id="circle64"/>
	<circle cx="160.905" cy="433.218" r="4" fill="#0" id="circle65"/>
	<circle cx="181.652" cy="435.811" r="4" fill="#0" id="circle66"/>
	<circle cx="204.994" cy="435.811" r="4" fill="#0" id="circle67"/>
	<circle cx="227.038" cy="435.811" r="4" fill="#0" id="circle68"/>
	<circle cx="247.786" cy="437.108" r="4" fill="#0" id="circle69"/>
	<circle cx="268.533" cy="438.405" r="4" fill="#0" id="circle70"/>
	<circle cx="285.391" cy="438.405" r="4" fill="#0" id="circle71"/>
	<circle cx="306.138" cy="438.405" r="4" fill="#0" id="circle72"/>
	<circle cx="328.183" cy="435.811" r="4" fill="#0" id="circle73"/>
	<circle cx="351.524" cy="434.514" r="4" fill="#0" id="circle74"/>
	<circle cx="374.866" cy="434.514" r="4" fill="#0" id="circle75"/>
	<circle cx="396.909" cy="434.514" r="4" fill="#0" id="circle76"/>
	<circle cx="416.361" cy="434.514" r="4" fill="#0" id="circle77"/>
	<circle cx="434.516" cy="415.064" r="4" fill="#0" id="circle78"/>
	<circle cx="434.516" cy="393.019" r="4" fill="#0" id="circle79"/>
	<circle cx="435.813" cy="367.085" r="4" fill="#0" id="circle80"/>
	<circle cx="434.516" cy="339.853" r="4" fill="#0" id="circle81"/>
	<circle cx="433.219" cy="312.622" r="4" fill="#0" id="circle82"/>
	<circle cx="434.516" cy="291.874" r="4" fill="#0" id="circle83"/>
	<circle cx="208.884" cy="273.72" r="4" fill="#0" id="circle84"/>
	<circle cx="232.225" cy="275.017" r="4" fill="#0" id="circle85"/>
	<circle cx="258.159" cy="275.017" r="4" fill="#0" id="circle86"/>
	<circle cx="281.501" cy="272.423" r="4" fill="#0" id="circle87"/>
	<circle cx="302.248" cy="271.127" r="4" fill="#0" id="circle88"/>
	<circle cx="322.996" cy="272.423" r="4" fill="#0" id="circle89"/>
	<circle cx="348.93" cy="272.423" r="4" fill="#0" id="circle90"/>
	<circle cx="363.195" cy="273.72" r="4" fill="#0" id="circle91"/>
	<circle cx="383.943" cy="272.423" r="4" fill="#0" id="circle92"/>
	<circle cx="405.987" cy="273.72" r="4" fill="#0" id="circle93"/>
	<circle cx="189.433" cy="259.456" r="4" fill="#0" id="circle94"/>
	<circle cx="188.136" cy="240.004" r="4" fill="#0" id="circle95"/>
	<circle cx="189.433" cy="220.554" r="4" fill="#0" id="circle96"/>
	<circle cx="188.136" cy="203.696" r="4" fill="#0" id="circle97"/>
	<circle cx="203.697" cy="181.652" r="4" fill="#0" id="circle98"/>
	<circle cx="223.148" cy="182.949" r="4" fill="#0" id="circle99"/>
	<circle cx="241.302" cy="185.543" r="4" fill="#0" id="circle100"/>
	<circle cx="263.346" cy="185.543" r="4" fill="#0" id="circle101"/>
	<circle cx="280.204" cy="185.543" r="4" fill="#0" id="circle102"/>
	<circle cx="297.062" cy="182.949" r="4" fill="#0" id="circle103"/>
	<circle cx="315.216" cy="182.949" r="4" fill="#0" id="circle104"/>
	<circle cx="335.964" cy="182.949" r="4" fill="#0" id="circle105"/>
	<circle cx="354.117" cy="182.949" r="4" fill="#0" id="circle106"/>
	<circle cx="370.975" cy="182.949" r="4" fill="#0" id="circle107"/>
	<circle cx="390.427" cy="182.949" r="4" fill="#0" id="circle108"/>
	<circle cx="411.174" cy="182.949" r="4" fill="#0" id="circle109"/>
	<circle cx="6.59354" cy="412.471" r="4" fill="#0" id="circle110"/>
	<circle cx="5.29677" cy="390.426" r="4" fill="#0" id="circle111"/>
	<circle cx="6.59354" cy="367.085" r="4" fill="#0" id="circle112"/>
	<circle cx="6.59354" cy="345.04" r="4" fill="#0" id="circle113"/>
	<circle cx="5.29677" cy="324.293" r="4" fill="#0" id="circle114"/>
	<circle cx="5.29677" cy="302.248" r="4" fill="#0" id="circle115"/>
	<circle cx="5.29677" cy="284.093" r="4" fill="#0" id="circle116"/>
	<circle cx="5.29677" cy="264.643" r="4" fill="#0" id="circle117"/>
	<circle cx="5.29677" cy="237.411" r="4" fill="#0" id="circle118"/>
	<circle cx="6.59354" cy="214.07" r="4" fill="#0" id="circle119"/>
	<circle cx="5.29677" cy="193.322" r="4" fill="#0" id="circle120"/>
	<circle cx="4" cy="169.981" r="4" fill="#0" id="circle121"/>
	<circle cx="4" cy="149.233" r="4" fill="#0" id="circle122"/>
	<circle cx="5.29677" cy="125.892" r="4" fill="#0" id="circle123"/>
	<circle cx="5.29677" cy="106.441" r="4" fill="#0" id="circle124"/>
	<circle cx="4" cy="85.6939" r="4" fill="#0" id="circle125"/>
	<circle cx="4" cy="62.352" r="4" fill="#0" id="circle126"/>
	<circle cx="33.8244" cy="32.5276" r="4" fill="#0" id="circle127"/>
	<circle cx="57.1663" cy="32.5276" r="4" fill="#0" id="circle128"/>
	<circle cx="77.9132" cy="33.8244" r="4" fill="#0" id="circle129"/>
	<circle cx="98.6616" cy="33.8244" r="4" fill="#0" id="circle130"/>
	<circle cx="116.816" cy="33.8244" r="4" fill="#0" id="circle131"/>
	<circle cx="134.97" cy="33.8244" r="4" fill="#0" id="circle132"/>
	<circle cx="160.905" cy="36.4179" r="4" fill="#0" id="circle133"/>
	<circle cx="186.839" cy="36.4179" r="4" fill="#0" id="circle134"/>
	<circle cx="211.477" cy="36.4179" r="4" fill="#0" id="circle135"/>
	<circle cx="234.818" cy="36.4179" r="4" fill="#0" id="circle136"/>
	<circle cx="256.862" cy="35.1211" r="4" fill="#0" id="circle137"/>
	<circle cx="278.907" cy="32.5276" r="4" fill="#0" id="circle138"/>
	<circle cx="299.656" cy="35.1211" r="4" fill="#0" id="circle139"/>
	<circle cx="319.106" cy="35.1211" r="4" fill="#0" id="circle140"/>
	<circle cx="341.151" cy="36.4179" r="4" fill="#0" id="circle141"/>
	<circle cx="360.601" cy="37.7147" r="4" fill="#0" id="circle142"/>
	<circle cx="380.053" cy="37.7147" r="4" fill="#0" id="circle143"/>
	<circle cx="404.69" cy="36.4179" r="4" fill="#0" id="circle144"/>
	<circle cx="434.516" cy="155.717" r="4" fill="#0" id="circle145"/>
	<circle cx="430.625" cy="133.673" r="4" fill="#0" id="circle146"/>
	<circle cx="430.625" cy="114.221" r="4" fill="#0" id="circle147"/>
	<circle cx="431.922" cy="94.7713" r="4" fill="#0" id="circle148"/>
	<circle cx="431.922" cy="74.0229" r="4" fill="#0" id="circle149"/>
	<circle cx="431.922" cy="53.2745" r="4" fill="#0" id="circle150"/>
	<circle cx="783.336" cy="434.514" r="4" fill="#0" id="circle151"/>
	<circle cx="989.516" cy="435.811" r="4" fill="#0" id="circle152"/>
	<circle cx="785.93" cy="277.611" r="4" fill="#0" id="circle153"/>
	<circle cx="977.847" cy="276.314" r="4" fill="#0" id="circle154"/>
	<circle cx="783.336" cy="412.471" r="4" fill="#0" id="circle155"/>
	<circle cx="784.633" cy="393.019" r="4" fill="#0" id="circle156"/>
	<circle cx="784.633" cy="369.679" r="4" fill="#0" id="circle157"/>
	<circle cx="783.336" cy="348.93" r="4" fill="#0" id="circle158"/>
	<circle cx="782.04" cy="325.59" r="4" fill="#0" id="circle159"/>
	<circle cx="782.04" cy="306.138" r="4" fill="#0" id="circle160"/>
	<circle cx="806.677" cy="275.017" r="4" fill="#0" id="circle161"/>
	<circle cx="830.019" cy="272.423" r="4" fill="#0" id="circle162"/>
	<circle cx="852.062" cy="269.83" r="4" fill="#0" id="circle163"/>
	<circle cx="871.514" cy="272.423" r="4" fill="#0" id="circle164"/>
	<circle cx="896.151" cy="272.423" r="4" fill="#0" id="circle165"/>
	<circle cx="919.493" cy="272.423" r="4" fill="#0" id="circle166"/>
	<circle cx="941.537" cy="273.72" r="4" fill="#0" id="circle167"/>
	<circle cx="960.989" cy="273.72" r="4" fill="#0" id="circle168"/>
	<circle cx="993.406" cy="412.471" r="4" fill="#0" id="circle169"/>
	<circle cx="996" cy="391.722" r="4" fill="#0" id="circle170"/>
	<circle cx="996" cy="370.975" r="4" fill="#0" id="circle171"/>
	<circle cx="992.11" cy="354.117" r="4" fill="#0" id="circle172"/>
	<circle cx="993.406" cy="335.963" r="4" fill="#0" id="circle173"/>
	<circle cx="993.406" cy="317.809" r="4" fill="#0" id="circle174"/>
	<circle cx="993.406" cy="300.951" r="4" fill="#0" id="circle175"/>
	<circle cx="800.194" cy="437.108" r="4" fill="#0" id="circle176"/>
	<circle cx="818.348" cy="438.405" r="4" fill="#0" id="circle177"/>
	<circle cx="835.206" cy="437.108" r="4" fill="#0" id="circle178"/>
	<circle cx="850.766" cy="437.108" r="4" fill="#0" id="circle179"/>
	<circle cx="866.327" cy="437.108" r="4" fill="#0" id="circle180"/>
	<circle cx="884.482" cy="438.405" r="4" fill="#0" id="circle181"/>
	<circle cx="901.338" cy="438.405" r="4" fill="#0" id="circle182"/>
	<circle cx="920.79" cy="438.405" r="4" fill="#0" id="circle183"/>
	<circle cx="942.834" cy="440.998" r="4" fill="#0" id="circle184"/>
	<circle cx="962.285" cy="439.701" r="4" fill="#0" id="circle185"/>
	<circle cx="979.143" cy="439.701" r="4" fill="#0" id="circle186"/>
	<circle cx="990.813" cy="677.004" r="4" fill="#0" id="circle187"/>
	<circle cx="989.516" cy="516.208" r="4" fill="#0" id="circle188"/>
	<circle cx="994.703" cy="657.552" r="4" fill="#0" id="circle189"/>
	<circle cx="993.406" cy="636.805" r="4" fill="#0" id="circle190"/>
	<circle cx="994.703" cy="617.354" r="4" fill="#0" id="circle191"/>
	<circle cx="994.703" cy="599.2" r="4" fill="#0" id="circle192"/>
	<circle cx="994.703" cy="582.342" r="4" fill="#0" id="circle193"/>
	<circle cx="993.406" cy="562.891" r="4" fill="#0" id="circle194"/>
	<circle cx="994.703" cy="540.847" r="4" fill="#0" id="circle195"/>
	<circle cx="758.698" cy="504.539" r="4" fill="#0" id="circle196"/>
	<circle cx="785.93" cy="509.724" r="4" fill="#0" id="circle197"/>
	<circle cx="813.161" cy="516.208" r="4" fill="#0" id="circle198"/>
	<circle cx="844.283" cy="520.099" r="4" fill="#0" id="circle199"/>
	<circle cx="866.327" cy="521.395" r="4" fill="#0" id="circle200"/>
	<circle cx="894.855" cy="522.692" r="4" fill="#0" id="circle201"/>
	<circle cx="920.79" cy="522.692" r="4" fill="#0" id="circle202"/>
	<circle cx="942.834" cy="521.395" r="4" fill="#0" id="circle203"/>
	<circle cx="967.472" cy="518.802" r="4" fill="#0" id="circle204"/>
	<circle cx="736.654" cy="492.868" r="4" fill="#0" id="circle205"/>
	<circle cx="715.906" cy="478.603" r="4" fill="#0" id="circle206"/>
	<circle cx="697.752" cy="459.153" r="4" fill="#0" id="circle207"/>
	<circle cx="682.191" cy="437.108" r="4" fill="#0" id="circle208"/>
	<circle cx="673.114" cy="415.064" r="4" fill="#0" id="circle209"/>
	<circle cx="665.333" cy="393.019" r="4" fill="#0" id="circle210"/>
	<circle cx="664.037" cy="370.975" r="4" fill="#0" id="circle211"/>
	<circle cx="662.741" cy="347.633" r="4" fill="#0" id="circle212"/>
	<circle cx="662.741" cy="328.182" r="4" fill="#0" id="circle213"/>
	<circle cx="667.926" cy="304.841" r="4" fill="#0" id="circle214"/>
	<circle cx="677.004" cy="282.796" r="4" fill="#0" id="circle215"/>
	<circle cx="683.488" cy="265.94" r="4" fill="#0" id="circle216"/>
	<circle cx="692.565" cy="247.785" r="4" fill="#0" id="circle217"/>
	<circle cx="701.642" cy="232.225" r="4" fill="#0" id="circle218"/>
	<circle cx="713.312" cy="217.96" r="4" fill="#0" id="circle219"/>
	<circle cx="730.17" cy="202.399" r="4" fill="#0" id="circle220"/>
	<circle cx="744.435" cy="188.136" r="4" fill="#0" id="circle221"/>
	<circle cx="762.588" cy="179.059" r="4" fill="#0" id="circle222"/>
	<circle cx="782.04" cy="169.981" r="4" fill="#0" id="circle223"/>
	<circle cx="804.083" cy="166.091" r="4" fill="#0" id="circle224"/>
	<circle cx="827.425" cy="160.904" r="4" fill="#0" id="circle225"/>
	<circle cx="852.062" cy="162.201" r="4" fill="#0" id="circle226"/>
	<circle cx="876.701" cy="169.981" r="4" fill="#0" id="circle227"/>
	<circle cx="900.042" cy="182.949" r="4" fill="#0" id="circle228"/>
	<circle cx="920.79" cy="197.212" r="4" fill="#0" id="circle229"/>
	<circle cx="940.24" cy="211.477" r="4" fill="#0" id="circle230"/>
	<circle cx="961.207" cy="239.549" r="4" fill="#0" id="circle231"/>
	<circle cx="975.358" cy="245.981" r="4" fill="#0" id="circle232"/>
	<circle cx="976.643" cy="230.544" r="4" fill="#0" id="circle233"/>
	<circle cx="977.847" cy="212.773" r="4" fill="#0" id="circle234"/>
	<circle cx="976.55" cy="193.322" r="4" fill="#0" id="circle235"/>
	<circle cx="976.55" cy="173.872" r="4" fill="#0" id="circle236"/>
	<circle cx="976.55" cy="151.826" r="4" fill="#0" id="circle237"/>
	<circle cx="973.956" cy="128.486" r="4" fill="#0" id="circle238"/>
	<circle cx="975.253" cy="109.034" r="4" fill="#0" id="circle239"/>
	<circle cx="976.55" cy="85.6939" r="4" fill="#0" id="circle240"/>
	<circle cx="975.253" cy="67.539" r="4" fill="#0" id="circle241"/>
	<circle cx="514.913" cy="207.586" r="4" fill="#0" id="circle242"/>
	<circle cx="526.584" cy="185.543" r="4" fill="#0" id="circle243"/>
	<circle cx="538.253" cy="160.904" r="4" fill="#0" id="circle244"/>
	<circle cx="555.111" cy="141.454" r="4" fill="#0" id="circle245"/>
	<circle cx="568.079" cy="122.002" r="4" fill="#0" id="circle246"/>
	<circle cx="582.342" cy="102.55" r="4" fill="#0" id="circle247"/>
	<circle cx="600.497" cy="88.2874" r="4" fill="#0" id="circle248"/>
	<circle cx="616.058" cy="74.0229" r="4" fill="#0" id="circle249"/>
	<circle cx="635.509" cy="58.4616" r="4" fill="#0" id="circle250"/>
	<circle cx="656.257" cy="44.1985" r="4" fill="#0" id="circle251"/>
	<circle cx="677.004" cy="35.1211" r="4" fill="#0" id="circle252"/>
	<circle cx="701.642" cy="27.3405" r="4" fill="#0" id="circle253"/>
	<circle cx="726.28" cy="18.2631" r="4" fill="#0" id="circle254"/>
	<circle cx="745.731" cy="10.4825" r="4" fill="#0" id="circle255"/>
	<circle cx="766.478" cy="7.88892" r="4" fill="#0" id="circle256"/>
	<circle cx="787.227" cy="6.59354" r="4" fill="#0" id="circle257"/>
	<circle cx="810.567" cy="7.88892" r="4" fill="#0" id="circle258"/>
	<circle cx="831.316" cy="4" r="4" fill="#0" id="circle259"/>
	<circle cx="857.25" cy="6.59354" r="4" fill="#0" id="circle260"/>
	<circle cx="877.998" cy="14.3728" r="4" fill="#0" id="circle261"/>
	<circle cx="900.042" cy="20.8566" r="4" fill="#0" id="circle262"/>
	<circle cx="919.493" cy="32.5276" r="4" fill="#0" id="circle263"/>
	<circle cx="940.24" cy="41.605" r="4" fill="#0" id="circle264"/>
	<circle cx="957.098" cy="53.2745" r="4" fill="#0" id="circle265"/>
	<circle cx="505.835" cy="232.225" r="4" fill="#0" id="circle266"/>
	<circle cx="495.461" cy="255.565" r="4" fill="#0" id="circle267"/>
	<circle cx="487.681" cy="286.687" r="4" fill="#0" id="circle268"/>
	<circle cx="481.198" cy="312.622" r="4" fill="#0" id="circle269"/>
	<circle cx="479.901" cy="341.15" r="4" fill="#0" id="circle270"/>
	<circle cx="479.901" cy="368.382" r="4" fill="#0" id="circle271"/>
	<circle cx="485.087" cy="396.909" r="4" fill="#0" id="circle272"/>
	<circle cx="487.681" cy="422.843" r="4" fill="#0" id="circle273"/>
	<circle cx="494.165" cy="447.482" r="4" fill="#0" id="circle274"/>
	<circle cx="505.835" cy="470.823" r="4" fill="#0" id="circle275"/>
	<circle cx="516.21" cy="492.868" r="4" fill="#0" id="circle276"/>
	<circle cx="527.881" cy="517.505" r="4" fill="#0" id="circle277"/>
	<circle cx="547.331" cy="536.957" r="4" fill="#0" id="circle278"/>
	<circle cx="565.486" cy="561.594" r="4" fill="#0" id="circle279"/>
	<circle cx="581.045" cy="581.045" r="4" fill="#0" id="circle280"/>
	<circle cx="597.904" cy="600.496" r="4" fill="#0" id="circle281"/>
	<circle cx="618.652" cy="618.65" r="4" fill="#0" id="circle282"/>
	<circle cx="640.696" cy="630.321" r="4" fill="#0" id="circle283"/>
	<circle cx="658.85" cy="640.696" r="4" fill="#0" id="circle284"/>
	<circle cx="678.301" cy="651.068" r="4" fill="#0" id="circle285"/>
	<circle cx="701.642" cy="660.146" r="4" fill="#0" id="circle286"/>
	<circle cx="723.686" cy="667.926" r="4" fill="#0" id="circle287"/>
	<circle cx="750.918" cy="675.707" r="4" fill="#0" id="circle288"/>
	<circle cx="778.149" cy="677.004" r="4" fill="#0" id="circle289"/>
	<circle cx="801.49" cy="679.597" r="4" fill="#0" id="circle290"/>
	<circle cx="831.316" cy="680.894" r="4" fill="#0" id="circle291"/>
	<circle cx="854.656" cy="682.191" r="4" fill="#0" id="circle292"/>
	<circle cx="876.701" cy="682.191" r="4" fill="#0" id="circle293"/>
	<circle cx="897.448" cy="686.081" r="4" fill="#0" id="circle294"/>
	<circle cx="919.493" cy="683.488" r="4" fill="#0" id="circle295"/>
	<circle cx="945.427" cy="683.488" r="4" fill="#0" id="circle296"/>
	<circle cx="967.472" cy="682.191" r="4" fill="#0" id="circle297"/>
	<circle cx="993.406" cy="277.611" r="4" fill="#0" id="circle298"/>
	<circle cx="952.2" cy="226.684" r="4" fill="#0" id="circle299"/>
	</g>
</svg>