<?xml version="1.0" encoding="UTF-8" standalone="no"?>
<!-- Created with CurveBenchmark -->
<svg
	xmlns:dc="http://purl.org/dc/elements/1.1/"
	xmlns:cc="http://creativecommons.org/ns#"
	xmlns:rdf="http://www.w3.org/1999/02/22-rdf-syntax-ns#"
	xmlns:svg="http://www.w3.org/2000/svg"
	xmlns="http://www.w3.org/2000/svg"
	xmlns:sodipodi="http://sodipodi.sourceforge.net/DTD/sodipodi-0.dtd"
	xmlns:inkscape="http://www.inkscape.org/namespaces/inkscape"
	width="1000"
	height="1000"
	id="svg2"
	version="1.1"
	sodipodi:docname="multiple-curves/vicur-mc33.txt">
<defs
	id="defs4" />
<metadata
	id="metadata7">
	<rdf:RDF>
		<cc:Work
			rdf:about="">
			<dc:format>image/svg+xml</dc:format>
			<dc:type
				rdf:resource="http://purl.org/dc/dcmitype/StillImage" />
			<dc:title></dc:title>
		</cc:Work>
	</rdf:RDF>
</metadata>
<g
	inkscape:label="Layer 1"
	inkscape:groupmode="layer"
	id="layer1">
	<path style="fill:none;stroke:red;stroke-width:1px;stroke-linecap:butt;stroke-linejoin:miter;stroke-opacity:1" d="M 490.969,501.552 508.749,498.729 z" id="boundary" inkscape:connector-curvature="0" />
	<path style="fill:none;stroke:red;stroke-width:1px;stroke-linecap:butt;stroke-linejoin:miter;stroke-opacity:1" d="M 508.749,498.729 518.626,478.973 z" id="boundary" inkscape:connector-curvature="0" />
	<path style="fill:none;stroke:red;stroke-width:1px;stroke-linecap:butt;stroke-linejoin:miter;stroke-opacity:1" d="M 518.626,478.973 498.871,463.452 z" id="boundary" inkscape:connector-curvature="0" />
	<path style="fill:none;stroke:red;stroke-width:1px;stroke-linecap:butt;stroke-linejoin:miter;stroke-opacity:1" d="M 498.871,463.452 469.238,469.096 z" id="boundary" inkscape:connector-curvature="0" />
	<path style="fill:none;stroke:red;stroke-width:1px;stroke-linecap:butt;stroke-linejoin:miter;stroke-opacity:1" d="M 469.238,469.096 452.304,494.495 z" id="boundary" inkscape:connector-curvature="0" />
	<path style="fill:none;stroke:red;stroke-width:1px;stroke-linecap:butt;stroke-linejoin:miter;stroke-opacity:1" d="M 452.304,494.495 463.594,521.307 z" id="boundary" inkscape:connector-curvature="0" />
	<path style="fill:none;stroke:red;stroke-width:1px;stroke-linecap:butt;stroke-linejoin:miter;stroke-opacity:1" d="M 463.594,521.307 490.404,539.65 z" id="boundary" inkscape:connector-curvature="0" />
	<path style="fill:none;stroke:red;stroke-width:1px;stroke-linecap:butt;stroke-linejoin:miter;stroke-opacity:1" d="M 490.404,539.65 519.049,540.215 z" id="boundary" inkscape:connector-curvature="0" />
	<path style="fill:none;stroke:red;stroke-width:1px;stroke-linecap:butt;stroke-linejoin:miter;stroke-opacity:1" d="M 546.849,528.362 563.781,500.139 z" id="boundary" inkscape:connector-curvature="0" />
	<path style="fill:none;stroke:red;stroke-width:1px;stroke-linecap:butt;stroke-linejoin:miter;stroke-opacity:1" d="M 546.849,528.362 519.049,540.215 z" id="boundary" inkscape:connector-curvature="0" />
	<path style="fill:none;stroke:red;stroke-width:1px;stroke-linecap:butt;stroke-linejoin:miter;stroke-opacity:1" d="M 563.781,500.139 562.371,457.808 z" id="boundary" inkscape:connector-curvature="0" />
	<path style="fill:none;stroke:red;stroke-width:1px;stroke-linecap:butt;stroke-linejoin:miter;stroke-opacity:1" d="M 562.371,457.808 534.148,423.941 z" id="boundary" inkscape:connector-curvature="0" />
	<path style="fill:none;stroke:red;stroke-width:1px;stroke-linecap:butt;stroke-linejoin:miter;stroke-opacity:1" d="M 534.148,423.941 484.76,412.653 z" id="boundary" inkscape:connector-curvature="0" />
	<path style="fill:none;stroke:red;stroke-width:1px;stroke-linecap:butt;stroke-linejoin:miter;stroke-opacity:1" d="M 484.76,412.653 439.605,422.53 z" id="boundary" inkscape:connector-curvature="0" />
	<path style="fill:none;stroke:red;stroke-width:1px;stroke-linecap:butt;stroke-linejoin:miter;stroke-opacity:1" d="M 439.605,422.53 414.206,460.629 z" id="boundary" inkscape:connector-curvature="0" />
	<path style="fill:none;stroke:red;stroke-width:1px;stroke-linecap:butt;stroke-linejoin:miter;stroke-opacity:1" d="M 414.206,460.629 407.149,500.139 z" id="boundary" inkscape:connector-curvature="0" />
	<path style="fill:none;stroke:red;stroke-width:1px;stroke-linecap:butt;stroke-linejoin:miter;stroke-opacity:1" d="M 407.149,500.139 408.984,535.981 z" id="boundary" inkscape:connector-curvature="0" />
	<path style="fill:none;stroke:red;stroke-width:1px;stroke-linecap:butt;stroke-linejoin:miter;stroke-opacity:1" d="M 436.782,573.516 477.423,596.095 z" id="boundary" inkscape:connector-curvature="0" />
	<path style="fill:none;stroke:red;stroke-width:1px;stroke-linecap:butt;stroke-linejoin:miter;stroke-opacity:1" d="M 436.782,573.516 408.984,535.981 z" id="boundary" inkscape:connector-curvature="0" />
	<path style="fill:none;stroke:red;stroke-width:1px;stroke-linecap:butt;stroke-linejoin:miter;stroke-opacity:1" d="M 477.423,596.095 527.093,592.989 z" id="boundary" inkscape:connector-curvature="0" />
	<path style="fill:none;stroke:red;stroke-width:1px;stroke-linecap:butt;stroke-linejoin:miter;stroke-opacity:1" d="M 527.093,592.989 568.015,572.106 z" id="boundary" inkscape:connector-curvature="0" />
	<path style="fill:none;stroke:red;stroke-width:1px;stroke-linecap:butt;stroke-linejoin:miter;stroke-opacity:1" d="M 425.494,367.498 465.004,359.596 z" id="boundary" inkscape:connector-curvature="0" />
	<path style="fill:none;stroke:red;stroke-width:1px;stroke-linecap:butt;stroke-linejoin:miter;stroke-opacity:1" d="M 425.494,367.498 397.554,391.485 z" id="boundary" inkscape:connector-curvature="0" />
	<path style="fill:none;stroke:red;stroke-width:1px;stroke-linecap:butt;stroke-linejoin:miter;stroke-opacity:1" d="M 465.004,359.596 504.515,357.62 z" id="boundary" inkscape:connector-curvature="0" />
	<path style="fill:none;stroke:red;stroke-width:1px;stroke-linecap:butt;stroke-linejoin:miter;stroke-opacity:1" d="M 504.515,357.62 544.591,365.803 z" id="boundary" inkscape:connector-curvature="0" />
	<path style="fill:none;stroke:red;stroke-width:1px;stroke-linecap:butt;stroke-linejoin:miter;stroke-opacity:1" d="M 397.554,391.485 370.461,429.585 z" id="boundary" inkscape:connector-curvature="0" />
	<path style="fill:none;stroke:red;stroke-width:1px;stroke-linecap:butt;stroke-linejoin:miter;stroke-opacity:1" d="M 370.461,429.585 360.584,467.12 z" id="boundary" inkscape:connector-curvature="0" />
	<path style="fill:none;stroke:red;stroke-width:1px;stroke-linecap:butt;stroke-linejoin:miter;stroke-opacity:1" d="M 360.584,467.12 349.295,510.017 z" id="boundary" inkscape:connector-curvature="0" />
	<path style="fill:none;stroke:red;stroke-width:1px;stroke-linecap:butt;stroke-linejoin:miter;stroke-opacity:1" d="M 349.295,510.017 356.633,552.351 z" id="boundary" inkscape:connector-curvature="0" />
	<path style="fill:none;stroke:red;stroke-width:1px;stroke-linecap:butt;stroke-linejoin:miter;stroke-opacity:1" d="M 356.633,552.351 380.339,598.635 z" id="boundary" inkscape:connector-curvature="0" />
	<path style="fill:none;stroke:red;stroke-width:1px;stroke-linecap:butt;stroke-linejoin:miter;stroke-opacity:1" d="M 380.339,598.635 418.439,637.016 z" id="boundary" inkscape:connector-curvature="0" />
	<path style="fill:none;stroke:red;stroke-width:1px;stroke-linecap:butt;stroke-linejoin:miter;stroke-opacity:1" d="M 418.439,637.016 467.545,652.82 z" id="boundary" inkscape:connector-curvature="0" />
	<path style="fill:none;stroke:red;stroke-width:1px;stroke-linecap:butt;stroke-linejoin:miter;stroke-opacity:1" d="M 467.545,652.82 509.594,655.361 z" id="boundary" inkscape:connector-curvature="0" />
	<path style="fill:none;stroke:red;stroke-width:1px;stroke-linecap:butt;stroke-linejoin:miter;stroke-opacity:1" d="M 509.594,655.361 545.154,647.459 z" id="boundary" inkscape:connector-curvature="0" />
	<path style="fill:none;stroke:red;stroke-width:1px;stroke-linecap:butt;stroke-linejoin:miter;stroke-opacity:1" d="M 545.154,647.459 590.591,632.782 z" id="boundary" inkscape:connector-curvature="0" />
	<path style="fill:none;stroke:red;stroke-width:1px;stroke-linecap:butt;stroke-linejoin:miter;stroke-opacity:1" d="M 590.591,632.782 614.58,612.745 z" id="boundary" inkscape:connector-curvature="0" />
	<path style="fill:none;stroke:red;stroke-width:1px;stroke-linecap:butt;stroke-linejoin:miter;stroke-opacity:1" d="M 614.58,612.745 634.335,579.161 z" id="boundary" inkscape:connector-curvature="0" />
	<path style="fill:none;stroke:red;stroke-width:1px;stroke-linecap:butt;stroke-linejoin:miter;stroke-opacity:1" d="M 634.335,579.161 649.576,535.981 z" id="boundary" inkscape:connector-curvature="0" />
	<path style="fill:none;stroke:red;stroke-width:1px;stroke-linecap:butt;stroke-linejoin:miter;stroke-opacity:1" d="M 649.576,535.981 662.558,478.973 z" id="boundary" inkscape:connector-curvature="0" />
	<path style="fill:none;stroke:red;stroke-width:1px;stroke-linecap:butt;stroke-linejoin:miter;stroke-opacity:1" d="M 662.558,478.973 638.569,422.53 z" id="boundary" inkscape:connector-curvature="0" />
	<path style="fill:none;stroke:red;stroke-width:1px;stroke-linecap:butt;stroke-linejoin:miter;stroke-opacity:1" d="M 638.569,422.53 614.862,402.775 z" id="boundary" inkscape:connector-curvature="0" />
	<path style="fill:none;stroke:red;stroke-width:1px;stroke-linecap:butt;stroke-linejoin:miter;stroke-opacity:1" d="M 614.862,402.775 584.384,381.607 z" id="boundary" inkscape:connector-curvature="0" />
	<path style="fill:none;stroke:red;stroke-width:1px;stroke-linecap:butt;stroke-linejoin:miter;stroke-opacity:1" d="M 584.384,381.607 544.591,365.803 z" id="boundary" inkscape:connector-curvature="0" />
	<path style="fill:none;stroke:red;stroke-width:1px;stroke-linecap:butt;stroke-linejoin:miter;stroke-opacity:1" d="M 470.649,296.942 462.181,265.898 z" id="boundary" inkscape:connector-curvature="0" />
	<path style="fill:none;stroke:red;stroke-width:1px;stroke-linecap:butt;stroke-linejoin:miter;stroke-opacity:1" d="M 470.649,296.942 506.35,303.151 z" id="boundary" inkscape:connector-curvature="0" />
	<path style="fill:none;stroke:red;stroke-width:1px;stroke-linecap:butt;stroke-linejoin:miter;stroke-opacity:1" d="M 462.181,265.898 467.827,219.333 z" id="boundary" inkscape:connector-curvature="0" />
	<path style="fill:none;stroke:red;stroke-width:1px;stroke-linecap:butt;stroke-linejoin:miter;stroke-opacity:1" d="M 467.827,219.333 490.404,171.355 z" id="boundary" inkscape:connector-curvature="0" />
	<path style="fill:none;stroke:red;stroke-width:1px;stroke-linecap:butt;stroke-linejoin:miter;stroke-opacity:1" d="M 490.404,171.355 503.105,137.489 z" id="boundary" inkscape:connector-curvature="0" />
	<path style="fill:none;stroke:red;stroke-width:1px;stroke-linecap:butt;stroke-linejoin:miter;stroke-opacity:1" d="M 503.105,137.489 528.504,109.266 z" id="boundary" inkscape:connector-curvature="0" />
	<path style="fill:none;stroke:red;stroke-width:1px;stroke-linecap:butt;stroke-linejoin:miter;stroke-opacity:1" d="M 528.504,109.266 495.06,94.3095 z" id="boundary" inkscape:connector-curvature="0" />
	<path style="fill:none;stroke:red;stroke-width:1px;stroke-linecap:butt;stroke-linejoin:miter;stroke-opacity:1" d="M 450.893,88.1004 407.149,90.9234 z" id="boundary" inkscape:connector-curvature="0" />
	<path style="fill:none;stroke:red;stroke-width:1px;stroke-linecap:butt;stroke-linejoin:miter;stroke-opacity:1" d="M 450.893,88.1004 495.06,94.3095 z" id="boundary" inkscape:connector-curvature="0" />
	<path style="fill:none;stroke:red;stroke-width:1px;stroke-linecap:butt;stroke-linejoin:miter;stroke-opacity:1" d="M 407.149,90.9234 352.117,99.3886 z" id="boundary" inkscape:connector-curvature="0" />
	<path style="fill:none;stroke:red;stroke-width:1px;stroke-linecap:butt;stroke-linejoin:miter;stroke-opacity:1" d="M 352.117,99.3886 301.318,121.967 z" id="boundary" inkscape:connector-curvature="0" />
	<path style="fill:none;stroke:red;stroke-width:1px;stroke-linecap:butt;stroke-linejoin:miter;stroke-opacity:1" d="M 301.318,121.967 266.041,150.189 z" id="boundary" inkscape:connector-curvature="0" />
	<path style="fill:none;stroke:red;stroke-width:1px;stroke-linecap:butt;stroke-linejoin:miter;stroke-opacity:1" d="M 266.041,150.189 243.462,195.344 z" id="boundary" inkscape:connector-curvature="0" />
	<path style="fill:none;stroke:red;stroke-width:1px;stroke-linecap:butt;stroke-linejoin:miter;stroke-opacity:1" d="M 243.462,195.344 226.53,243.32 z" id="boundary" inkscape:connector-curvature="0" />
	<path style="fill:none;stroke:red;stroke-width:1px;stroke-linecap:butt;stroke-linejoin:miter;stroke-opacity:1" d="M 226.53,243.32 225.117,295.531 z" id="boundary" inkscape:connector-curvature="0" />
	<path style="fill:none;stroke:red;stroke-width:1px;stroke-linecap:butt;stroke-linejoin:miter;stroke-opacity:1" d="M 225.117,295.531 229.351,344.92 z" id="boundary" inkscape:connector-curvature="0" />
	<path style="fill:none;stroke:red;stroke-width:1px;stroke-linecap:butt;stroke-linejoin:miter;stroke-opacity:1" d="M 229.351,344.92 256.163,394.308 z" id="boundary" inkscape:connector-curvature="0" />
	<path style="fill:none;stroke:red;stroke-width:1px;stroke-linecap:butt;stroke-linejoin:miter;stroke-opacity:1" d="M 256.163,394.308 284.383,418.297 z" id="boundary" inkscape:connector-curvature="0" />
	<path style="fill:none;stroke:red;stroke-width:1px;stroke-linecap:butt;stroke-linejoin:miter;stroke-opacity:1" d="M 284.383,418.297 314.016,445.107 z" id="boundary" inkscape:connector-curvature="0" />
	<path style="fill:none;stroke:red;stroke-width:1px;stroke-linecap:butt;stroke-linejoin:miter;stroke-opacity:1" d="M 314.016,445.107 298.919,484.9 z" id="boundary" inkscape:connector-curvature="0" />
	<path style="fill:none;stroke:red;stroke-width:1px;stroke-linecap:butt;stroke-linejoin:miter;stroke-opacity:1" d="M 391.627,151.6 359.173,176.999 z" id="boundary" inkscape:connector-curvature="0" />
	<path style="fill:none;stroke:red;stroke-width:1px;stroke-linecap:butt;stroke-linejoin:miter;stroke-opacity:1" d="M 359.173,176.999 339.418,236.265 z" id="boundary" inkscape:connector-curvature="0" />
	<path style="fill:none;stroke:red;stroke-width:1px;stroke-linecap:butt;stroke-linejoin:miter;stroke-opacity:1" d="M 339.418,236.265 340.828,289.887 z" id="boundary" inkscape:connector-curvature="0" />
	<path style="fill:none;stroke:red;stroke-width:1px;stroke-linecap:butt;stroke-linejoin:miter;stroke-opacity:1" d="M 340.828,289.887 356.35,325.164 z" id="boundary" inkscape:connector-curvature="0" />
	<path style="fill:none;stroke:red;stroke-width:1px;stroke-linecap:butt;stroke-linejoin:miter;stroke-opacity:1" d="M 126.341,392.897 115.053,432.408 z" id="boundary" inkscape:connector-curvature="0" />
	<path style="fill:none;stroke:red;stroke-width:1px;stroke-linecap:butt;stroke-linejoin:miter;stroke-opacity:1" d="M 126.341,392.897 167.264,454.985 z" id="boundary" inkscape:connector-curvature="0" />
	<path style="fill:none;stroke:red;stroke-width:1px;stroke-linecap:butt;stroke-linejoin:miter;stroke-opacity:1" d="M 115.053,432.408 110.819,474.74 z" id="boundary" inkscape:connector-curvature="0" />
	<path style="fill:none;stroke:red;stroke-width:1px;stroke-linecap:butt;stroke-linejoin:miter;stroke-opacity:1" d="M 110.819,474.74 110.819,518.484 z" id="boundary" inkscape:connector-curvature="0" />
	<path style="fill:none;stroke:red;stroke-width:1px;stroke-linecap:butt;stroke-linejoin:miter;stroke-opacity:1" d="M 110.819,518.484 115.053,560.818 z" id="boundary" inkscape:connector-curvature="0" />
	<path style="fill:none;stroke:red;stroke-width:1px;stroke-linecap:butt;stroke-linejoin:miter;stroke-opacity:1" d="M 115.053,560.818 164.441,527.516 z" id="boundary" inkscape:connector-curvature="0" />
	<path style="fill:none;stroke:red;stroke-width:1px;stroke-linecap:butt;stroke-linejoin:miter;stroke-opacity:1" d="M 167.264,454.985 161.62,493.085 z" id="boundary" inkscape:connector-curvature="0" />
	<path style="fill:none;stroke:red;stroke-width:1px;stroke-linecap:butt;stroke-linejoin:miter;stroke-opacity:1" d="M 161.62,493.085 164.441,527.516 z" id="boundary" inkscape:connector-curvature="0" />
	<path style="fill:none;stroke:red;stroke-width:1px;stroke-linecap:butt;stroke-linejoin:miter;stroke-opacity:1" d="M 494.637,4.84553 425.494,7.66856 z" id="boundary" inkscape:connector-curvature="0" />
	<path style="fill:none;stroke:red;stroke-width:1px;stroke-linecap:butt;stroke-linejoin:miter;stroke-opacity:1" d="M 494.637,4.84553 557.149,4 z" id="boundary" inkscape:connector-curvature="0" />
	<path style="fill:none;stroke:red;stroke-width:1px;stroke-linecap:butt;stroke-linejoin:miter;stroke-opacity:1" d="M 425.494,7.66856 356.35,21.7798 z" id="boundary" inkscape:connector-curvature="0" />
	<path style="fill:none;stroke:red;stroke-width:1px;stroke-linecap:butt;stroke-linejoin:miter;stroke-opacity:1" d="M 356.35,21.7798 299.907,40.1226 z" id="boundary" inkscape:connector-curvature="0" />
	<path style="fill:none;stroke:red;stroke-width:1px;stroke-linecap:butt;stroke-linejoin:miter;stroke-opacity:1" d="M 299.907,40.1226 246.285,71.1681 z" id="boundary" inkscape:connector-curvature="0" />
	<path style="fill:none;stroke:red;stroke-width:1px;stroke-linecap:butt;stroke-linejoin:miter;stroke-opacity:1" d="M 246.285,71.1681 188.43,109.266 z" id="boundary" inkscape:connector-curvature="0" />
	<path style="fill:none;stroke:red;stroke-width:1px;stroke-linecap:butt;stroke-linejoin:miter;stroke-opacity:1" d="M 188.43,109.266 136.218,154.421 z" id="boundary" inkscape:connector-curvature="0" />
	<path style="fill:none;stroke:red;stroke-width:1px;stroke-linecap:butt;stroke-linejoin:miter;stroke-opacity:1" d="M 136.218,154.421 93.8867,205.222 z" id="boundary" inkscape:connector-curvature="0" />
	<path style="fill:none;stroke:red;stroke-width:1px;stroke-linecap:butt;stroke-linejoin:miter;stroke-opacity:1" d="M 93.8867,205.222 58.6097,263.075 z" id="boundary" inkscape:connector-curvature="0" />
	<path style="fill:none;stroke:red;stroke-width:1px;stroke-linecap:butt;stroke-linejoin:miter;stroke-opacity:1" d="M 58.6097,263.075 24.7431,333.631 z" id="boundary" inkscape:connector-curvature="0" />
	<path style="fill:none;stroke:red;stroke-width:1px;stroke-linecap:butt;stroke-linejoin:miter;stroke-opacity:1" d="M 24.7431,333.631 6.3983,394.308 z" id="boundary" inkscape:connector-curvature="0" />
	<path style="fill:none;stroke:red;stroke-width:1px;stroke-linecap:butt;stroke-linejoin:miter;stroke-opacity:1" d="M 6.3983,394.308 4,465.427 z" id="boundary" inkscape:connector-curvature="0" />
	<path style="fill:none;stroke:red;stroke-width:1px;stroke-linecap:butt;stroke-linejoin:miter;stroke-opacity:1" d="M 506.35,303.151 538.804,308.795 z" id="boundary" inkscape:connector-curvature="0" />
	<path style="fill:none;stroke:red;stroke-width:1px;stroke-linecap:butt;stroke-linejoin:miter;stroke-opacity:1" d="M 538.804,308.795 574.081,318.673 z" id="boundary" inkscape:connector-curvature="0" />
	<path style="fill:none;stroke:red;stroke-width:1px;stroke-linecap:butt;stroke-linejoin:miter;stroke-opacity:1" d="M 574.081,318.673 602.304,329.963 z" id="boundary" inkscape:connector-curvature="0" />
	<path style="fill:none;stroke:red;stroke-width:1px;stroke-linecap:butt;stroke-linejoin:miter;stroke-opacity:1" d="M 631.937,352.539 663.545,346.613 z" id="boundary" inkscape:connector-curvature="0" />
	<path style="fill:none;stroke:red;stroke-width:1px;stroke-linecap:butt;stroke-linejoin:miter;stroke-opacity:1" d="M 631.937,352.539 602.304,329.963 z" id="boundary" inkscape:connector-curvature="0" />
	<path style="fill:none;stroke:red;stroke-width:1px;stroke-linecap:butt;stroke-linejoin:miter;stroke-opacity:1" d="M 663.545,346.613 691.203,338.428 z" id="boundary" inkscape:connector-curvature="0" />
	<path style="fill:none;stroke:red;stroke-width:1px;stroke-linecap:butt;stroke-linejoin:miter;stroke-opacity:1" d="M 691.203,338.428 742.002,337.018 z" id="boundary" inkscape:connector-curvature="0" />
	<path style="fill:none;stroke:red;stroke-width:1px;stroke-linecap:butt;stroke-linejoin:miter;stroke-opacity:1" d="M 742.002,337.018 791.39,345.485 z" id="boundary" inkscape:connector-curvature="0" />
	<path style="fill:none;stroke:red;stroke-width:1px;stroke-linecap:butt;stroke-linejoin:miter;stroke-opacity:1" d="M 791.39,345.485 843.601,375.118 z" id="boundary" inkscape:connector-curvature="0" />
	<path style="fill:none;stroke:red;stroke-width:1px;stroke-linecap:butt;stroke-linejoin:miter;stroke-opacity:1" d="M 843.601,375.118 892.99,427.327 z" id="boundary" inkscape:connector-curvature="0" />
	<path style="fill:none;stroke:red;stroke-width:1px;stroke-linecap:butt;stroke-linejoin:miter;stroke-opacity:1" d="M 892.99,427.327 915.566,486.593 z" id="boundary" inkscape:connector-curvature="0" />
	<path style="fill:none;stroke:red;stroke-width:1px;stroke-linecap:butt;stroke-linejoin:miter;stroke-opacity:1" d="M 915.566,486.593 908.512,544.449 z" id="boundary" inkscape:connector-curvature="0" />
	<path style="fill:none;stroke:red;stroke-width:1px;stroke-linecap:butt;stroke-linejoin:miter;stroke-opacity:1" d="M 908.512,544.449 901.457,598.07 z" id="boundary" inkscape:connector-curvature="0" />
	<path style="fill:none;stroke:red;stroke-width:1px;stroke-linecap:butt;stroke-linejoin:miter;stroke-opacity:1" d="M 887.346,646.048 861.946,698.258 z" id="boundary" inkscape:connector-curvature="0" />
	<path style="fill:none;stroke:red;stroke-width:1px;stroke-linecap:butt;stroke-linejoin:miter;stroke-opacity:1" d="M 887.346,646.048 832.313,589.603 z" id="boundary" inkscape:connector-curvature="0" />
	<path style="fill:none;stroke:red;stroke-width:1px;stroke-linecap:butt;stroke-linejoin:miter;stroke-opacity:1" d="M 861.946,698.258 818.202,729.301 z" id="boundary" inkscape:connector-curvature="0" />
	<path style="fill:none;stroke:red;stroke-width:1px;stroke-linecap:butt;stroke-linejoin:miter;stroke-opacity:1" d="M 818.202,729.301 799.857,694.024 z" id="boundary" inkscape:connector-curvature="0" />
	<path style="fill:none;stroke:red;stroke-width:1px;stroke-linecap:butt;stroke-linejoin:miter;stroke-opacity:1" d="M 799.857,694.024 782.925,657.336 z" id="boundary" inkscape:connector-curvature="0" />
	<path style="fill:none;stroke:red;stroke-width:1px;stroke-linecap:butt;stroke-linejoin:miter;stroke-opacity:1" d="M 765.991,624.88 733.537,596.66 z" id="boundary" inkscape:connector-curvature="0" />
	<path style="fill:none;stroke:red;stroke-width:1px;stroke-linecap:butt;stroke-linejoin:miter;stroke-opacity:1" d="M 765.991,624.88 782.925,657.336 z" id="boundary" inkscape:connector-curvature="0" />
	<path style="fill:none;stroke:red;stroke-width:1px;stroke-linecap:butt;stroke-linejoin:miter;stroke-opacity:1" d="M 733.537,596.66 702.491,583.959 z" id="boundary" inkscape:connector-curvature="0" />
	<path style="fill:none;stroke:red;stroke-width:1px;stroke-linecap:butt;stroke-linejoin:miter;stroke-opacity:1" d="M 702.491,583.959 681.325,616.415 z" id="boundary" inkscape:connector-curvature="0" />
	<path style="fill:none;stroke:red;stroke-width:1px;stroke-linecap:butt;stroke-linejoin:miter;stroke-opacity:1" d="M 681.325,616.415 657.336,637.581 z" id="boundary" inkscape:connector-curvature="0" />
	<path style="fill:none;stroke:red;stroke-width:1px;stroke-linecap:butt;stroke-linejoin:miter;stroke-opacity:1" d="M 657.336,637.581 633.347,660.157 z" id="boundary" inkscape:connector-curvature="0" />
	<path style="fill:none;stroke:red;stroke-width:1px;stroke-linecap:butt;stroke-linejoin:miter;stroke-opacity:1" d="M 633.347,660.157 602.304,679.913 z" id="boundary" inkscape:connector-curvature="0" />
	<path style="fill:none;stroke:red;stroke-width:1px;stroke-linecap:butt;stroke-linejoin:miter;stroke-opacity:1" d="M 602.304,679.913 571.26,691.203 z" id="boundary" inkscape:connector-curvature="0" />
	<path style="fill:none;stroke:red;stroke-width:1px;stroke-linecap:butt;stroke-linejoin:miter;stroke-opacity:1" d="M 533.16,699.668 571.26,691.203 z" id="boundary" inkscape:connector-curvature="0" />
	<path style="fill:none;stroke:red;stroke-width:1px;stroke-linecap:butt;stroke-linejoin:miter;stroke-opacity:1" d="M 533.16,699.668 531.75,747.646 z" id="boundary" inkscape:connector-curvature="0" />
	<path style="fill:none;stroke:red;stroke-width:1px;stroke-linecap:butt;stroke-linejoin:miter;stroke-opacity:1" d="M 744.825,451.316 778.691,462.604 z" id="boundary" inkscape:connector-curvature="0" />
	<path style="fill:none;stroke:red;stroke-width:1px;stroke-linecap:butt;stroke-linejoin:miter;stroke-opacity:1" d="M 778.691,462.604 809.735,486.593 z" id="boundary" inkscape:connector-curvature="0" />
	<path style="fill:none;stroke:red;stroke-width:1px;stroke-linecap:butt;stroke-linejoin:miter;stroke-opacity:1" d="M 809.735,486.593 829.49,538.804 z" id="boundary" inkscape:connector-curvature="0" />
	<path style="fill:none;stroke:red;stroke-width:1px;stroke-linecap:butt;stroke-linejoin:miter;stroke-opacity:1" d="M 829.49,538.804 832.313,589.603 z" id="boundary" inkscape:connector-curvature="0" />
	<path style="fill:none;stroke:red;stroke-width:1px;stroke-linecap:butt;stroke-linejoin:miter;stroke-opacity:1" d="M 610.771,181.798 634.76,195.907 z" id="boundary" inkscape:connector-curvature="0" />
	<path style="fill:none;stroke:red;stroke-width:1px;stroke-linecap:butt;stroke-linejoin:miter;stroke-opacity:1" d="M 610.771,181.798 602.304,128.176 z" id="boundary" inkscape:connector-curvature="0" />
	<path style="fill:none;stroke:red;stroke-width:1px;stroke-linecap:butt;stroke-linejoin:miter;stroke-opacity:1" d="M 634.76,195.907 660.159,218.486 z" id="boundary" inkscape:connector-curvature="0" />
	<path style="fill:none;stroke:red;stroke-width:1px;stroke-linecap:butt;stroke-linejoin:miter;stroke-opacity:1" d="M 660.159,218.486 727.891,222.719 z" id="boundary" inkscape:connector-curvature="0" />
	<path style="fill:none;stroke:red;stroke-width:1px;stroke-linecap:butt;stroke-linejoin:miter;stroke-opacity:1" d="M 602.304,128.176 643.225,145.108 z" id="boundary" inkscape:connector-curvature="0" />
	<path style="fill:none;stroke:red;stroke-width:1px;stroke-linecap:butt;stroke-linejoin:miter;stroke-opacity:1" d="M 643.225,145.108 672.858,162.043 z" id="boundary" inkscape:connector-curvature="0" />
	<path style="fill:none;stroke:red;stroke-width:1px;stroke-linecap:butt;stroke-linejoin:miter;stroke-opacity:1" d="M 672.858,162.043 703.904,187.442 z" id="boundary" inkscape:connector-curvature="0" />
	<path style="fill:none;stroke:red;stroke-width:1px;stroke-linecap:butt;stroke-linejoin:miter;stroke-opacity:1" d="M 703.904,187.442 727.891,222.719 z" id="boundary" inkscape:connector-curvature="0" />
	<path style="fill:none;stroke:red;stroke-width:1px;stroke-linecap:butt;stroke-linejoin:miter;stroke-opacity:1" d="M 298.919,484.9 292.993,524.411 z" id="boundary" inkscape:connector-curvature="0" />
	<path style="fill:none;stroke:red;stroke-width:1px;stroke-linecap:butt;stroke-linejoin:miter;stroke-opacity:1" d="M 292.993,524.411 298.919,571.823 z" id="boundary" inkscape:connector-curvature="0" />
	<path style="fill:none;stroke:red;stroke-width:1px;stroke-linecap:butt;stroke-linejoin:miter;stroke-opacity:1" d="M 298.919,571.823 318.675,613.31 z" id="boundary" inkscape:connector-curvature="0" />
	<path style="fill:none;stroke:red;stroke-width:1px;stroke-linecap:butt;stroke-linejoin:miter;stroke-opacity:1" d="M 318.675,613.31 328.552,638.992 z" id="boundary" inkscape:connector-curvature="0" />
	<path style="fill:none;stroke:red;stroke-width:1px;stroke-linecap:butt;stroke-linejoin:miter;stroke-opacity:1" d="M 328.552,638.992 289.042,644.918 z" id="boundary" inkscape:connector-curvature="0" />
	<path style="fill:none;stroke:red;stroke-width:1px;stroke-linecap:butt;stroke-linejoin:miter;stroke-opacity:1" d="M 289.042,644.918 242.474,655.926 z" id="boundary" inkscape:connector-curvature="0" />
	<path style="fill:none;stroke:red;stroke-width:1px;stroke-linecap:butt;stroke-linejoin:miter;stroke-opacity:1" d="M 242.474,655.926 186.032,661.57 z" id="boundary" inkscape:connector-curvature="0" />
	<path style="fill:none;stroke:red;stroke-width:1px;stroke-linecap:butt;stroke-linejoin:miter;stroke-opacity:1" d="M 186.032,661.57 139.464,655.926 z" id="boundary" inkscape:connector-curvature="0" />
	<path style="fill:none;stroke:red;stroke-width:1px;stroke-linecap:butt;stroke-linejoin:miter;stroke-opacity:1" d="M 139.464,655.926 138.054,696.847 z" id="boundary" inkscape:connector-curvature="0" />
	<path style="fill:none;stroke:red;stroke-width:1px;stroke-linecap:butt;stroke-linejoin:miter;stroke-opacity:1" d="M 585.372,811.145 619.236,797.034 z" id="boundary" inkscape:connector-curvature="0" />
	<path style="fill:none;stroke:red;stroke-width:1px;stroke-linecap:butt;stroke-linejoin:miter;stroke-opacity:1" d="M 585.372,811.145 550.093,870.411 z" id="boundary" inkscape:connector-curvature="0" />
	<path style="fill:none;stroke:red;stroke-width:1px;stroke-linecap:butt;stroke-linejoin:miter;stroke-opacity:1" d="M 619.236,797.034 650.282,773.045 z" id="boundary" inkscape:connector-curvature="0" />
	<path style="fill:none;stroke:red;stroke-width:1px;stroke-linecap:butt;stroke-linejoin:miter;stroke-opacity:1" d="M 650.282,773.045 716.602,778.689 z" id="boundary" inkscape:connector-curvature="0" />
	<path style="fill:none;stroke:red;stroke-width:1px;stroke-linecap:butt;stroke-linejoin:miter;stroke-opacity:1" d="M 550.093,870.411 592.426,866.178 z" id="boundary" inkscape:connector-curvature="0" />
	<path style="fill:none;stroke:red;stroke-width:1px;stroke-linecap:butt;stroke-linejoin:miter;stroke-opacity:1" d="M 592.426,866.178 629.114,846.423 z" id="boundary" inkscape:connector-curvature="0" />
	<path style="fill:none;stroke:red;stroke-width:1px;stroke-linecap:butt;stroke-linejoin:miter;stroke-opacity:1" d="M 629.114,846.423 664.393,825.257 z" id="boundary" inkscape:connector-curvature="0" />
	<path style="fill:none;stroke:red;stroke-width:1px;stroke-linecap:butt;stroke-linejoin:miter;stroke-opacity:1" d="M 664.393,825.257 695.437,805.501 z" id="boundary" inkscape:connector-curvature="0" />
	<path style="fill:none;stroke:red;stroke-width:1px;stroke-linecap:butt;stroke-linejoin:miter;stroke-opacity:1" d="M 695.437,805.501 716.602,778.689 z" id="boundary" inkscape:connector-curvature="0" />
	<path style="fill:none;stroke:red;stroke-width:1px;stroke-linecap:butt;stroke-linejoin:miter;stroke-opacity:1" d="M 400.517,718.013 341.251,734.947 z" id="boundary" inkscape:connector-curvature="0" />
	<path style="fill:none;stroke:red;stroke-width:1px;stroke-linecap:butt;stroke-linejoin:miter;stroke-opacity:1" d="M 341.251,734.947 281.985,734.947 z" id="boundary" inkscape:connector-curvature="0" />
	<path style="fill:none;stroke:red;stroke-width:1px;stroke-linecap:butt;stroke-linejoin:miter;stroke-opacity:1" d="M 281.985,734.947 239.653,723.657 z" id="boundary" inkscape:connector-curvature="0" />
	<path style="fill:none;stroke:red;stroke-width:1px;stroke-linecap:butt;stroke-linejoin:miter;stroke-opacity:1" d="M 138.054,696.847 163.453,733.535 z" id="boundary" inkscape:connector-curvature="0" />
	<path style="fill:none;stroke:red;stroke-width:1px;stroke-linecap:butt;stroke-linejoin:miter;stroke-opacity:1" d="M 163.453,733.535 197.32,780.102 z" id="boundary" inkscape:connector-curvature="0" />
	<path style="fill:none;stroke:red;stroke-width:1px;stroke-linecap:butt;stroke-linejoin:miter;stroke-opacity:1" d="M 197.32,780.102 238.241,823.846 z" id="boundary" inkscape:connector-curvature="0" />
	<path style="fill:none;stroke:red;stroke-width:1px;stroke-linecap:butt;stroke-linejoin:miter;stroke-opacity:1" d="M 238.241,823.846 294.686,849.246 z" id="boundary" inkscape:connector-curvature="0" />
	<path style="fill:none;stroke:red;stroke-width:1px;stroke-linecap:butt;stroke-linejoin:miter;stroke-opacity:1" d="M 294.686,849.246 355.362,856.3 z" id="boundary" inkscape:connector-curvature="0" />
	<path style="fill:none;stroke:red;stroke-width:1px;stroke-linecap:butt;stroke-linejoin:miter;stroke-opacity:1" d="M 355.362,856.3 423.095,842.189 z" id="boundary" inkscape:connector-curvature="0" />
	<path style="fill:none;stroke:red;stroke-width:1px;stroke-linecap:butt;stroke-linejoin:miter;stroke-opacity:1" d="M 423.095,842.189 469.661,818.2 z" id="boundary" inkscape:connector-curvature="0" />
	<path style="fill:none;stroke:red;stroke-width:1px;stroke-linecap:butt;stroke-linejoin:miter;stroke-opacity:1" d="M 469.661,818.2 510.582,784.335 z" id="boundary" inkscape:connector-curvature="0" />
	<path style="fill:none;stroke:red;stroke-width:1px;stroke-linecap:butt;stroke-linejoin:miter;stroke-opacity:1" d="M 510.582,784.335 531.75,747.646 z" id="boundary" inkscape:connector-curvature="0" />
	<path style="fill:none;stroke:red;stroke-width:1px;stroke-linecap:butt;stroke-linejoin:miter;stroke-opacity:1" d="M 557.149,4 619.236,15.2882 z" id="boundary" inkscape:connector-curvature="0" />
	<path style="fill:none;stroke:red;stroke-width:1px;stroke-linecap:butt;stroke-linejoin:miter;stroke-opacity:1" d="M 619.236,15.2882 692.613,36.4541 z" id="boundary" inkscape:connector-curvature="0" />
	<path style="fill:none;stroke:red;stroke-width:1px;stroke-linecap:butt;stroke-linejoin:miter;stroke-opacity:1" d="M 692.613,36.4541 750.469,67.4976 z" id="boundary" inkscape:connector-curvature="0" />
	<path style="fill:none;stroke:red;stroke-width:1px;stroke-linecap:butt;stroke-linejoin:miter;stroke-opacity:1" d="M 750.469,67.4976 813.968,107.008 z" id="boundary" inkscape:connector-curvature="0" />
	<path style="fill:none;stroke:red;stroke-width:1px;stroke-linecap:butt;stroke-linejoin:miter;stroke-opacity:1" d="M 813.968,107.008 859.123,153.575 z" id="boundary" inkscape:connector-curvature="0" />
	<path style="fill:none;stroke:red;stroke-width:1px;stroke-linecap:butt;stroke-linejoin:miter;stroke-opacity:1" d="M 859.123,153.575 902.867,204.374 z" id="boundary" inkscape:connector-curvature="0" />
	<path style="fill:none;stroke:red;stroke-width:1px;stroke-linecap:butt;stroke-linejoin:miter;stroke-opacity:1" d="M 902.867,204.374 939.555,265.051 z" id="boundary" inkscape:connector-curvature="0" />
	<path style="fill:none;stroke:red;stroke-width:1px;stroke-linecap:butt;stroke-linejoin:miter;stroke-opacity:1" d="M 939.555,265.051 966.367,337.018 z" id="boundary" inkscape:connector-curvature="0" />
	<path style="fill:none;stroke:red;stroke-width:1px;stroke-linecap:butt;stroke-linejoin:miter;stroke-opacity:1" d="M 966.367,337.018 988.943,408.984 z" id="boundary" inkscape:connector-curvature="0" />
	<path style="fill:none;stroke:red;stroke-width:1px;stroke-linecap:butt;stroke-linejoin:miter;stroke-opacity:1" d="M 988.943,408.984 996,473.894 z" id="boundary" inkscape:connector-curvature="0" />
	<path style="fill:none;stroke:red;stroke-width:1px;stroke-linecap:butt;stroke-linejoin:miter;stroke-opacity:1" d="M 996,473.894 991.766,541.625 z" id="boundary" inkscape:connector-curvature="0" />
	<path style="fill:none;stroke:red;stroke-width:1px;stroke-linecap:butt;stroke-linejoin:miter;stroke-opacity:1" d="M 991.766,541.625 988.943,605.125 z" id="boundary" inkscape:connector-curvature="0" />
	<path style="fill:none;stroke:red;stroke-width:1px;stroke-linecap:butt;stroke-linejoin:miter;stroke-opacity:1" d="M 988.943,605.125 969.188,670.035 z" id="boundary" inkscape:connector-curvature="0" />
	<path style="fill:none;stroke:red;stroke-width:1px;stroke-linecap:butt;stroke-linejoin:miter;stroke-opacity:1" d="M 969.188,670.035 943.789,722.246 z" id="boundary" inkscape:connector-curvature="0" />
	<path style="fill:none;stroke:red;stroke-width:1px;stroke-linecap:butt;stroke-linejoin:miter;stroke-opacity:1" d="M 943.789,722.246 921.212,774.458 z" id="boundary" inkscape:connector-curvature="0" />
	<path style="fill:none;stroke:red;stroke-width:1px;stroke-linecap:butt;stroke-linejoin:miter;stroke-opacity:1" d="M 921.212,774.458 873.234,825.257 z" id="boundary" inkscape:connector-curvature="0" />
	<path style="fill:none;stroke:red;stroke-width:1px;stroke-linecap:butt;stroke-linejoin:miter;stroke-opacity:1" d="M 873.234,825.257 818.202,877.466 z" id="boundary" inkscape:connector-curvature="0" />
	<path style="fill:none;stroke:red;stroke-width:1px;stroke-linecap:butt;stroke-linejoin:miter;stroke-opacity:1" d="M 818.202,877.466 756.113,914.156 z" id="boundary" inkscape:connector-curvature="0" />
	<path style="fill:none;stroke:red;stroke-width:1px;stroke-linecap:butt;stroke-linejoin:miter;stroke-opacity:1" d="M 756.113,914.156 677.092,950.843 z" id="boundary" inkscape:connector-curvature="0" />
	<path style="fill:none;stroke:red;stroke-width:1px;stroke-linecap:butt;stroke-linejoin:miter;stroke-opacity:1" d="M 677.092,950.843 593.414,966.215 z" id="boundary" inkscape:connector-curvature="0" />
	<path style="fill:none;stroke:red;stroke-width:1px;stroke-linecap:butt;stroke-linejoin:miter;stroke-opacity:1" d="M 4,465.427 4,544.449 z" id="boundary" inkscape:connector-curvature="0" />
	<path style="fill:none;stroke:red;stroke-width:1px;stroke-linecap:butt;stroke-linejoin:miter;stroke-opacity:1" d="M 4,544.449 19.5218,624.88 z" id="boundary" inkscape:connector-curvature="0" />
	<path style="fill:none;stroke:red;stroke-width:1px;stroke-linecap:butt;stroke-linejoin:miter;stroke-opacity:1" d="M 19.5218,624.88 44.9212,694.024 z" id="boundary" inkscape:connector-curvature="0" />
	<path style="fill:none;stroke:red;stroke-width:1px;stroke-linecap:butt;stroke-linejoin:miter;stroke-opacity:1" d="M 44.9212,694.024 73.1437,760.347 z" id="boundary" inkscape:connector-curvature="0" />
	<path style="fill:none;stroke:red;stroke-width:1px;stroke-linecap:butt;stroke-linejoin:miter;stroke-opacity:1" d="M 73.1437,760.347 111.244,811.145 z" id="boundary" inkscape:connector-curvature="0" />
	<path style="fill:none;stroke:red;stroke-width:1px;stroke-linecap:butt;stroke-linejoin:miter;stroke-opacity:1" d="M 111.244,811.145 160.632,854.89 z" id="boundary" inkscape:connector-curvature="0" />
	<path style="fill:none;stroke:red;stroke-width:1px;stroke-linecap:butt;stroke-linejoin:miter;stroke-opacity:1" d="M 160.632,854.89 214.252,894.4 z" id="boundary" inkscape:connector-curvature="0" />
	<path style="fill:none;stroke:red;stroke-width:1px;stroke-linecap:butt;stroke-linejoin:miter;stroke-opacity:1" d="M 214.252,894.4 259.126,921.493 z" id="boundary" inkscape:connector-curvature="0" />
	<path style="fill:none;stroke:red;stroke-width:1px;stroke-linecap:butt;stroke-linejoin:miter;stroke-opacity:1" d="M 259.126,921.493 315.852,950.843 z" id="boundary" inkscape:connector-curvature="0" />
	<path style="fill:none;stroke:red;stroke-width:1px;stroke-linecap:butt;stroke-linejoin:miter;stroke-opacity:1" d="M 315.852,950.843 370.884,963.544 z" id="boundary" inkscape:connector-curvature="0" />
	<path style="fill:none;stroke:red;stroke-width:1px;stroke-linecap:butt;stroke-linejoin:miter;stroke-opacity:1" d="M 370.884,963.544 435.371,972.141 z" id="boundary" inkscape:connector-curvature="0" />
	<path style="fill:none;stroke:red;stroke-width:1px;stroke-linecap:butt;stroke-linejoin:miter;stroke-opacity:1" d="M 435.371,972.141 514.393,972.141 z" id="boundary" inkscape:connector-curvature="0" />
	<path style="fill:none;stroke:red;stroke-width:1px;stroke-linecap:butt;stroke-linejoin:miter;stroke-opacity:1" d="M 514.393,972.141 593.414,966.215 z" id="boundary" inkscape:connector-curvature="0" />
	<circle cx="490.969" cy="501.552" r="4" fill="#0" id="circle0"/>
	<circle cx="508.749" cy="498.729" r="4" fill="#0" id="circle1"/>
	<circle cx="518.626" cy="478.973" r="4" fill="#0" id="circle2"/>
	<circle cx="498.871" cy="463.452" r="4" fill="#0" id="circle3"/>
	<circle cx="469.238" cy="469.096" r="4" fill="#0" id="circle4"/>
	<circle cx="452.304" cy="494.495" r="4" fill="#0" id="circle5"/>
	<circle cx="463.594" cy="521.307" r="4" fill="#0" id="circle6"/>
	<circle cx="490.404" cy="539.65" r="4" fill="#0" id="circle7"/>
	<circle cx="546.849" cy="528.362" r="4" fill="#0" id="circle8"/>
	<circle cx="563.781" cy="500.139" r="4" fill="#0" id="circle9"/>
	<circle cx="562.371" cy="457.808" r="4" fill="#0" id="circle10"/>
	<circle cx="534.148" cy="423.941" r="4" fill="#0" id="circle11"/>
	<circle cx="484.76" cy="412.653" r="4" fill="#0" id="circle12"/>
	<circle cx="439.605" cy="422.53" r="4" fill="#0" id="circle13"/>
	<circle cx="414.206" cy="460.629" r="4" fill="#0" id="circle14"/>
	<circle cx="407.149" cy="500.139" r="4" fill="#0" id="circle15"/>
	<circle cx="436.782" cy="573.516" r="4" fill="#0" id="circle16"/>
	<circle cx="477.423" cy="596.095" r="4" fill="#0" id="circle17"/>
	<circle cx="527.093" cy="592.989" r="4" fill="#0" id="circle18"/>
	<circle cx="568.015" cy="572.106" r="4" fill="#0" id="circle19"/>
	<circle cx="425.494" cy="367.498" r="4" fill="#0" id="circle20"/>
	<circle cx="465.004" cy="359.596" r="4" fill="#0" id="circle21"/>
	<circle cx="504.515" cy="357.62" r="4" fill="#0" id="circle22"/>
	<circle cx="397.554" cy="391.485" r="4" fill="#0" id="circle23"/>
	<circle cx="370.461" cy="429.585" r="4" fill="#0" id="circle24"/>
	<circle cx="360.584" cy="467.12" r="4" fill="#0" id="circle25"/>
	<circle cx="349.295" cy="510.017" r="4" fill="#0" id="circle26"/>
	<circle cx="356.633" cy="552.351" r="4" fill="#0" id="circle27"/>
	<circle cx="380.339" cy="598.635" r="4" fill="#0" id="circle28"/>
	<circle cx="418.439" cy="637.016" r="4" fill="#0" id="circle29"/>
	<circle cx="467.545" cy="652.82" r="4" fill="#0" id="circle30"/>
	<circle cx="509.594" cy="655.361" r="4" fill="#0" id="circle31"/>
	<circle cx="545.154" cy="647.459" r="4" fill="#0" id="circle32"/>
	<circle cx="590.591" cy="632.782" r="4" fill="#0" id="circle33"/>
	<circle cx="614.58" cy="612.745" r="4" fill="#0" id="circle34"/>
	<circle cx="634.335" cy="579.161" r="4" fill="#0" id="circle35"/>
	<circle cx="649.576" cy="535.981" r="4" fill="#0" id="circle36"/>
	<circle cx="662.558" cy="478.973" r="4" fill="#0" id="circle37"/>
	<circle cx="638.569" cy="422.53" r="4" fill="#0" id="circle38"/>
	<circle cx="614.862" cy="402.775" r="4" fill="#0" id="circle39"/>
	<circle cx="584.384" cy="381.607" r="4" fill="#0" id="circle40"/>
	<circle cx="544.591" cy="365.803" r="4" fill="#0" id="circle41"/>
	<circle cx="470.649" cy="296.942" r="4" fill="#0" id="circle42"/>
	<circle cx="462.181" cy="265.898" r="4" fill="#0" id="circle43"/>
	<circle cx="467.827" cy="219.333" r="4" fill="#0" id="circle44"/>
	<circle cx="490.404" cy="171.355" r="4" fill="#0" id="circle45"/>
	<circle cx="503.105" cy="137.489" r="4" fill="#0" id="circle46"/>
	<circle cx="528.504" cy="109.266" r="4" fill="#0" id="circle47"/>
	<circle cx="450.893" cy="88.1004" r="4" fill="#0" id="circle48"/>
	<circle cx="407.149" cy="90.9234" r="4" fill="#0" id="circle49"/>
	<circle cx="352.117" cy="99.3886" r="4" fill="#0" id="circle50"/>
	<circle cx="301.318" cy="121.967" r="4" fill="#0" id="circle51"/>
	<circle cx="266.041" cy="150.189" r="4" fill="#0" id="circle52"/>
	<circle cx="243.462" cy="195.344" r="4" fill="#0" id="circle53"/>
	<circle cx="226.53" cy="243.32" r="4" fill="#0" id="circle54"/>
	<circle cx="225.117" cy="295.531" r="4" fill="#0" id="circle55"/>
	<circle cx="229.351" cy="344.92" r="4" fill="#0" id="circle56"/>
	<circle cx="256.163" cy="394.308" r="4" fill="#0" id="circle57"/>
	<circle cx="284.383" cy="418.297" r="4" fill="#0" id="circle58"/>
	<circle cx="314.016" cy="445.107" r="4" fill="#0" id="circle59"/>
	<circle cx="391.627" cy="151.6" r="4" fill="#0" id="circle60"/>
	<circle cx="359.173" cy="176.999" r="4" fill="#0" id="circle61"/>
	<circle cx="339.418" cy="236.265" r="4" fill="#0" id="circle62"/>
	<circle cx="340.828" cy="289.887" r="4" fill="#0" id="circle63"/>
	<circle cx="356.35" cy="325.164" r="4" fill="#0" id="circle64"/>
	<circle cx="126.341" cy="392.897" r="4" fill="#0" id="circle65"/>
	<circle cx="115.053" cy="432.408" r="4" fill="#0" id="circle66"/>
	<circle cx="110.819" cy="474.74" r="4" fill="#0" id="circle67"/>
	<circle cx="110.819" cy="518.484" r="4" fill="#0" id="circle68"/>
	<circle cx="115.053" cy="560.818" r="4" fill="#0" id="circle69"/>
	<circle cx="167.264" cy="454.985" r="4" fill="#0" id="circle70"/>
	<circle cx="161.62" cy="493.085" r="4" fill="#0" id="circle71"/>
	<circle cx="164.441" cy="527.516" r="4" fill="#0" id="circle72"/>
	<circle cx="494.637" cy="4.84553" r="4" fill="#0" id="circle73"/>
	<circle cx="425.494" cy="7.66856" r="4" fill="#0" id="circle74"/>
	<circle cx="356.35" cy="21.7798" r="4" fill="#0" id="circle75"/>
	<circle cx="299.907" cy="40.1226" r="4" fill="#0" id="circle76"/>
	<circle cx="246.285" cy="71.1681" r="4" fill="#0" id="circle77"/>
	<circle cx="188.43" cy="109.266" r="4" fill="#0" id="circle78"/>
	<circle cx="136.218" cy="154.421" r="4" fill="#0" id="circle79"/>
	<circle cx="93.8867" cy="205.222" r="4" fill="#0" id="circle80"/>
	<circle cx="58.6097" cy="263.075" r="4" fill="#0" id="circle81"/>
	<circle cx="24.7431" cy="333.631" r="4" fill="#0" id="circle82"/>
	<circle cx="6.3983" cy="394.308" r="4" fill="#0" id="circle83"/>
	<circle cx="495.06" cy="94.3095" r="4" fill="#0" id="circle84"/>
	<circle cx="519.049" cy="540.215" r="4" fill="#0" id="circle85"/>
	<circle cx="408.984" cy="535.981" r="4" fill="#0" id="circle86"/>
	<circle cx="506.35" cy="303.151" r="4" fill="#0" id="circle87"/>
	<circle cx="538.804" cy="308.795" r="4" fill="#0" id="circle88"/>
	<circle cx="574.081" cy="318.673" r="4" fill="#0" id="circle89"/>
	<circle cx="631.937" cy="352.539" r="4" fill="#0" id="circle90"/>
	<circle cx="663.545" cy="346.613" r="4" fill="#0" id="circle91"/>
	<circle cx="602.304" cy="329.963" r="4" fill="#0" id="circle92"/>
	<circle cx="691.203" cy="338.428" r="4" fill="#0" id="circle93"/>
	<circle cx="742.002" cy="337.018" r="4" fill="#0" id="circle94"/>
	<circle cx="791.39" cy="345.485" r="4" fill="#0" id="circle95"/>
	<circle cx="843.601" cy="375.118" r="4" fill="#0" id="circle96"/>
	<circle cx="892.99" cy="427.327" r="4" fill="#0" id="circle97"/>
	<circle cx="915.566" cy="486.593" r="4" fill="#0" id="circle98"/>
	<circle cx="908.512" cy="544.449" r="4" fill="#0" id="circle99"/>
	<circle cx="901.457" cy="598.07" r="4" fill="#0" id="circle100"/>
	<circle cx="887.346" cy="646.048" r="4" fill="#0" id="circle101"/>
	<circle cx="861.946" cy="698.258" r="4" fill="#0" id="circle102"/>
	<circle cx="818.202" cy="729.301" r="4" fill="#0" id="circle103"/>
	<circle cx="799.857" cy="694.024" r="4" fill="#0" id="circle104"/>
	<circle cx="765.991" cy="624.88" r="4" fill="#0" id="circle105"/>
	<circle cx="733.537" cy="596.66" r="4" fill="#0" id="circle106"/>
	<circle cx="702.491" cy="583.959" r="4" fill="#0" id="circle107"/>
	<circle cx="681.325" cy="616.415" r="4" fill="#0" id="circle108"/>
	<circle cx="657.336" cy="637.581" r="4" fill="#0" id="circle109"/>
	<circle cx="633.347" cy="660.157" r="4" fill="#0" id="circle110"/>
	<circle cx="602.304" cy="679.913" r="4" fill="#0" id="circle111"/>
	<circle cx="533.16" cy="699.668" r="4" fill="#0" id="circle112"/>
	<circle cx="571.26" cy="691.203" r="4" fill="#0" id="circle113"/>
	<circle cx="744.825" cy="451.316" r="4" fill="#0" id="circle114"/>
	<circle cx="778.691" cy="462.604" r="4" fill="#0" id="circle115"/>
	<circle cx="809.735" cy="486.593" r="4" fill="#0" id="circle116"/>
	<circle cx="829.49" cy="538.804" r="4" fill="#0" id="circle117"/>
	<circle cx="832.313" cy="589.603" r="4" fill="#0" id="circle118"/>
	<circle cx="610.771" cy="181.798" r="4" fill="#0" id="circle119"/>
	<circle cx="634.76" cy="195.907" r="4" fill="#0" id="circle120"/>
	<circle cx="660.159" cy="218.486" r="4" fill="#0" id="circle121"/>
	<circle cx="602.304" cy="128.176" r="4" fill="#0" id="circle122"/>
	<circle cx="643.225" cy="145.108" r="4" fill="#0" id="circle123"/>
	<circle cx="672.858" cy="162.043" r="4" fill="#0" id="circle124"/>
	<circle cx="703.904" cy="187.442" r="4" fill="#0" id="circle125"/>
	<circle cx="727.891" cy="222.719" r="4" fill="#0" id="circle126"/>
	<circle cx="298.919" cy="484.9" r="4" fill="#0" id="circle127"/>
	<circle cx="292.993" cy="524.411" r="4" fill="#0" id="circle128"/>
	<circle cx="298.919" cy="571.823" r="4" fill="#0" id="circle129"/>
	<circle cx="318.675" cy="613.31" r="4" fill="#0" id="circle130"/>
	<circle cx="328.552" cy="638.992" r="4" fill="#0" id="circle131"/>
	<circle cx="289.042" cy="644.918" r="4" fill="#0" id="circle132"/>
	<circle cx="242.474" cy="655.926" r="4" fill="#0" id="circle133"/>
	<circle cx="186.032" cy="661.57" r="4" fill="#0" id="circle134"/>
	<circle cx="139.464" cy="655.926" r="4" fill="#0" id="circle135"/>
	<circle cx="782.925" cy="657.336" r="4" fill="#0" id="circle136"/>
	<circle cx="585.372" cy="811.145" r="4" fill="#0" id="circle137"/>
	<circle cx="619.236" cy="797.034" r="4" fill="#0" id="circle138"/>
	<circle cx="650.282" cy="773.045" r="4" fill="#0" id="circle139"/>
	<circle cx="550.093" cy="870.411" r="4" fill="#0" id="circle140"/>
	<circle cx="592.426" cy="866.178" r="4" fill="#0" id="circle141"/>
	<circle cx="629.114" cy="846.423" r="4" fill="#0" id="circle142"/>
	<circle cx="664.393" cy="825.257" r="4" fill="#0" id="circle143"/>
	<circle cx="695.437" cy="805.501" r="4" fill="#0" id="circle144"/>
	<circle cx="716.602" cy="778.689" r="4" fill="#0" id="circle145"/>
	<circle cx="400.517" cy="718.013" r="4" fill="#0" id="circle146"/>
	<circle cx="341.251" cy="734.947" r="4" fill="#0" id="circle147"/>
	<circle cx="281.985" cy="734.947" r="4" fill="#0" id="circle148"/>
	<circle cx="239.653" cy="723.657" r="4" fill="#0" id="circle149"/>
	<circle cx="138.054" cy="696.847" r="4" fill="#0" id="circle150"/>
	<circle cx="163.453" cy="733.535" r="4" fill="#0" id="circle151"/>
	<circle cx="197.32" cy="780.102" r="4" fill="#0" id="circle152"/>
	<circle cx="238.241" cy="823.846" r="4" fill="#0" id="circle153"/>
	<circle cx="294.686" cy="849.246" r="4" fill="#0" id="circle154"/>
	<circle cx="355.362" cy="856.3" r="4" fill="#0" id="circle155"/>
	<circle cx="423.095" cy="842.189" r="4" fill="#0" id="circle156"/>
	<circle cx="469.661" cy="818.2" r="4" fill="#0" id="circle157"/>
	<circle cx="510.582" cy="784.335" r="4" fill="#0" id="circle158"/>
	<circle cx="531.75" cy="747.646" r="4" fill="#0" id="circle159"/>
	<circle cx="557.149" cy="4" r="4" fill="#0" id="circle160"/>
	<circle cx="619.236" cy="15.2882" r="4" fill="#0" id="circle161"/>
	<circle cx="692.613" cy="36.4541" r="4" fill="#0" id="circle162"/>
	<circle cx="750.469" cy="67.4976" r="4" fill="#0" id="circle163"/>
	<circle cx="813.968" cy="107.008" r="4" fill="#0" id="circle164"/>
	<circle cx="859.123" cy="153.575" r="4" fill="#0" id="circle165"/>
	<circle cx="902.867" cy="204.374" r="4" fill="#0" id="circle166"/>
	<circle cx="939.555" cy="265.051" r="4" fill="#0" id="circle167"/>
	<circle cx="966.367" cy="337.018" r="4" fill="#0" id="circle168"/>
	<circle cx="988.943" cy="408.984" r="4" fill="#0" id="circle169"/>
	<circle cx="996" cy="473.894" r="4" fill="#0" id="circle170"/>
	<circle cx="991.766" cy="541.625" r="4" fill="#0" id="circle171"/>
	<circle cx="988.943" cy="605.125" r="4" fill="#0" id="circle172"/>
	<circle cx="969.188" cy="670.035" r="4" fill="#0" id="circle173"/>
	<circle cx="943.789" cy="722.246" r="4" fill="#0" id="circle174"/>
	<circle cx="921.212" cy="774.458" r="4" fill="#0" id="circle175"/>
	<circle cx="873.234" cy="825.257" r="4" fill="#0" id="circle176"/>
	<circle cx="818.202" cy="877.466" r="4" fill="#0" id="circle177"/>
	<circle cx="756.113" cy="914.156" r="4" fill="#0" id="circle178"/>
	<circle cx="677.092" cy="950.843" r="4" fill="#0" id="circle179"/>
	<circle cx="4" cy="465.427" r="4" fill="#0" id="circle180"/>
	<circle cx="4" cy="544.449" r="4" fill="#0" id="circle181"/>
	<circle cx="19.5218" cy="624.88" r="4" fill="#0" id="circle182"/>
	<circle cx="44.9212" cy="694.024" r="4" fill="#0" id="circle183"/>
	<circle cx="73.1437" cy="760.347" r="4" fill="#0" id="circle184"/>
	<circle cx="111.244" cy="811.145" r="4" fill="#0" id="circle185"/>
	<circle cx="160.632" cy="854.89" r="4" fill="#0" id="circle186"/>
	<circle cx="214.252" cy="894.4" r="4" fill="#0" id="circle187"/>
	<circle cx="259.126" cy="921.493" r="4" fill="#0" id="circle188"/>
	<circle cx="315.852" cy="950.843" r="4" fill="#0" id="circle189"/>
	<circle cx="370.884" cy="963.544" r="4" fill="#0" id="circle190"/>
	<circle cx="435.371" cy="972.141" r="4" fill="#0" id="circle191"/>
	<circle cx="514.393" cy="972.141" r="4" fill="#0" id="circle192"/>
	<circle cx="593.414" cy="966.215" r="4" fill="#0" id="circle193"/>
	</g>
</svg>