<?xml version="1.0" encoding="UTF-8" standalone="no"?>
<!-- Created with CurveBenchmark -->
<svg
	xmlns:dc="http://purl.org/dc/elements/1.1/"
	xmlns:cc="http://creativecommons.org/ns#"
	xmlns:rdf="http://www.w3.org/1999/02/22-rdf-syntax-ns#"
	xmlns:svg="http://www.w3.org/2000/svg"
	xmlns="http://www.w3.org/2000/svg"
	xmlns:sodipodi="http://sodipodi.sourceforge.net/DTD/sodipodi-0.dtd"
	xmlns:inkscape="http://www.inkscape.org/namespaces/inkscape"
	width="1000"
	height="1000"
	id="svg2"
	version="1.1"
	sodipodi:docname="outliers-5/fitconnect-mc32.txt">
<defs
	id="defs4" />
<metadata
	id="metadata7">
	<rdf:RDF>
		<cc:Work
			rdf:about="">
			<dc:format>image/svg+xml</dc:format>
			<dc:type
				rdf:resource="http://purl.org/dc/dcmitype/StillImage" />
			<dc:title></dc:title>
		</cc:Work>
	</rdf:RDF>
</metadata>
<g
	inkscape:label="Layer 1"
	inkscape:groupmode="layer"
	id="layer1">
	<path style="fill:none;stroke:red;stroke-width:1px;stroke-linecap:butt;stroke-linejoin:miter;stroke-opacity:1" d="M 4.56819,127.337 4.5643,75.4685 z" id="boundary" inkscape:connector-curvature="0" />
	<path style="fill:none;stroke:red;stroke-width:1px;stroke-linecap:butt;stroke-linejoin:miter;stroke-opacity:1" d="M 60.3561,218.864 34.8948,259.751 z" id="boundary" inkscape:connector-curvature="0" />
	<path style="fill:none;stroke:red;stroke-width:1px;stroke-linecap:butt;stroke-linejoin:miter;stroke-opacity:1" d="M 60.3561,218.864 238.827,321.295 z" id="boundary" inkscape:connector-curvature="0" />
	<path style="fill:none;stroke:red;stroke-width:1px;stroke-linecap:butt;stroke-linejoin:miter;stroke-opacity:1" d="M 34.8948,259.751 4,290.441 z" id="boundary" inkscape:connector-curvature="0" />
	<path style="fill:none;stroke:red;stroke-width:1px;stroke-linecap:butt;stroke-linejoin:miter;stroke-opacity:1" d="M 4,290.441 35.1092,320.868 z" id="boundary" inkscape:connector-curvature="0" />
	<path style="fill:none;stroke:red;stroke-width:1px;stroke-linecap:butt;stroke-linejoin:miter;stroke-opacity:1" d="M 35.1092,320.868 96.2682,320.782 z" id="boundary" inkscape:connector-curvature="0" />
	<path style="fill:none;stroke:red;stroke-width:1px;stroke-linecap:butt;stroke-linejoin:miter;stroke-opacity:1" d="M 96.2682,320.782 136.652,320.743 z" id="boundary" inkscape:connector-curvature="0" />
	<path style="fill:none;stroke:red;stroke-width:1px;stroke-linecap:butt;stroke-linejoin:miter;stroke-opacity:1" d="M 136.652,320.743 188.454,320.757 z" id="boundary" inkscape:connector-curvature="0" />
	<path style="fill:none;stroke:red;stroke-width:1px;stroke-linecap:butt;stroke-linejoin:miter;stroke-opacity:1" d="M 188.454,320.757 238.827,321.295 z" id="boundary" inkscape:connector-curvature="0" />
	<path style="fill:none;stroke:red;stroke-width:1px;stroke-linecap:butt;stroke-linejoin:miter;stroke-opacity:1" d="M 4.5643,75.4685 35.1806,55.2241 z" id="boundary" inkscape:connector-curvature="0" />
	<path style="fill:none;stroke:red;stroke-width:1px;stroke-linecap:butt;stroke-linejoin:miter;stroke-opacity:1" d="M 35.1806,55.2241 75.6395,75.86 z" id="boundary" inkscape:connector-curvature="0" />
	<path style="fill:none;stroke:red;stroke-width:1px;stroke-linecap:butt;stroke-linejoin:miter;stroke-opacity:1" d="M 75.6395,75.86 126.422,76.2403 z" id="boundary" inkscape:connector-curvature="0" />
	<path style="fill:none;stroke:red;stroke-width:1px;stroke-linecap:butt;stroke-linejoin:miter;stroke-opacity:1" d="M 126.422,76.2403 178.453,76.228 z" id="boundary" inkscape:connector-curvature="0" />
	<path style="fill:none;stroke:red;stroke-width:1px;stroke-linecap:butt;stroke-linejoin:miter;stroke-opacity:1" d="M 229.142,75.632 422.918,24.6178 z" id="boundary" inkscape:connector-curvature="0" />
	<path style="fill:none;stroke:red;stroke-width:1px;stroke-linecap:butt;stroke-linejoin:miter;stroke-opacity:1" d="M 229.142,75.632 546.323,86.2147 z" id="boundary" inkscape:connector-curvature="0" />
	<path style="fill:none;stroke:red;stroke-width:1px;stroke-linecap:butt;stroke-linejoin:miter;stroke-opacity:1" d="M 331.425,86.4417 321.438,14.8197 z" id="boundary" inkscape:connector-curvature="0" />
	<path style="fill:none;stroke:red;stroke-width:1px;stroke-linecap:butt;stroke-linejoin:miter;stroke-opacity:1" d="M 331.425,86.4417 510.042,745.23 z" id="boundary" inkscape:connector-curvature="0" />
	<path style="fill:none;stroke:red;stroke-width:1px;stroke-linecap:butt;stroke-linejoin:miter;stroke-opacity:1" d="M 321.438,14.8197 372.072,4 z" id="boundary" inkscape:connector-curvature="0" />
	<path style="fill:none;stroke:red;stroke-width:1px;stroke-linecap:butt;stroke-linejoin:miter;stroke-opacity:1" d="M 372.072,4 422.918,24.6178 z" id="boundary" inkscape:connector-curvature="0" />
	<path style="fill:none;stroke:red;stroke-width:1px;stroke-linecap:butt;stroke-linejoin:miter;stroke-opacity:1" d="M 546.323,86.2147 597.514,35.2001 z" id="boundary" inkscape:connector-curvature="0" />
	<path style="fill:none;stroke:red;stroke-width:1px;stroke-linecap:butt;stroke-linejoin:miter;stroke-opacity:1" d="M 320.813,577.223 372.477,587.369 z" id="boundary" inkscape:connector-curvature="0" />
	<path style="fill:none;stroke:red;stroke-width:1px;stroke-linecap:butt;stroke-linejoin:miter;stroke-opacity:1" d="M 372.477,587.369 412.876,566.113 z" id="boundary" inkscape:connector-curvature="0" />
	<path style="fill:none;stroke:red;stroke-width:1px;stroke-linecap:butt;stroke-linejoin:miter;stroke-opacity:1" d="M 412.876,566.113 444.016,515.642 z" id="boundary" inkscape:connector-curvature="0" />
	<path style="fill:none;stroke:red;stroke-width:1px;stroke-linecap:butt;stroke-linejoin:miter;stroke-opacity:1" d="M 597.514,35.2001 638.478,95.9551 z" id="boundary" inkscape:connector-curvature="0" />
	<path style="fill:none;stroke:red;stroke-width:1px;stroke-linecap:butt;stroke-linejoin:miter;stroke-opacity:1" d="M 638.478,95.9551 688.658,34.664 z" id="boundary" inkscape:connector-curvature="0" />
	<path style="fill:none;stroke:red;stroke-width:1px;stroke-linecap:butt;stroke-linejoin:miter;stroke-opacity:1" d="M 688.658,34.664 780.735,65.4071 z" id="boundary" inkscape:connector-curvature="0" />
	<path style="fill:none;stroke:red;stroke-width:1px;stroke-linecap:butt;stroke-linejoin:miter;stroke-opacity:1" d="M 780.735,65.4071 791.61,137.461 z" id="boundary" inkscape:connector-curvature="0" />
	<path style="fill:none;stroke:red;stroke-width:1px;stroke-linecap:butt;stroke-linejoin:miter;stroke-opacity:1" d="M 791.61,137.461 862.537,126.731 z" id="boundary" inkscape:connector-curvature="0" />
	<path style="fill:none;stroke:red;stroke-width:1px;stroke-linecap:butt;stroke-linejoin:miter;stroke-opacity:1" d="M 862.537,126.731 908.354,171.636 z" id="boundary" inkscape:connector-curvature="0" />
	<path style="fill:none;stroke:red;stroke-width:1px;stroke-linecap:butt;stroke-linejoin:miter;stroke-opacity:1" d="M 924.529,198.566 903.534,269.772 z" id="boundary" inkscape:connector-curvature="0" />
	<path style="fill:none;stroke:red;stroke-width:1px;stroke-linecap:butt;stroke-linejoin:miter;stroke-opacity:1" d="M 924.529,198.566 908.354,171.636 z" id="boundary" inkscape:connector-curvature="0" />
	<path style="fill:none;stroke:red;stroke-width:1px;stroke-linecap:butt;stroke-linejoin:miter;stroke-opacity:1" d="M 903.534,269.772 985.768,300.406 z" id="boundary" inkscape:connector-curvature="0" />
	<path style="fill:none;stroke:red;stroke-width:1px;stroke-linecap:butt;stroke-linejoin:miter;stroke-opacity:1" d="M 985.768,300.406 944.792,361.883 z" id="boundary" inkscape:connector-curvature="0" />
	<path style="fill:none;stroke:red;stroke-width:1px;stroke-linecap:butt;stroke-linejoin:miter;stroke-opacity:1" d="M 944.792,361.883 995.572,423.764 z" id="boundary" inkscape:connector-curvature="0" />
	<path style="fill:none;stroke:red;stroke-width:1px;stroke-linecap:butt;stroke-linejoin:miter;stroke-opacity:1" d="M 995.572,423.764 944.508,464.451 z" id="boundary" inkscape:connector-curvature="0" />
	<path style="fill:none;stroke:red;stroke-width:1px;stroke-linecap:butt;stroke-linejoin:miter;stroke-opacity:1" d="M 944.508,464.451 996,515.317 z" id="boundary" inkscape:connector-curvature="0" />
	<path style="fill:none;stroke:red;stroke-width:1px;stroke-linecap:butt;stroke-linejoin:miter;stroke-opacity:1" d="M 996,515.317 944.763,545.894 z" id="boundary" inkscape:connector-curvature="0" />
	<path style="fill:none;stroke:red;stroke-width:1px;stroke-linecap:butt;stroke-linejoin:miter;stroke-opacity:1" d="M 944.763,545.894 995.831,597.36 z" id="boundary" inkscape:connector-curvature="0" />
	<path style="fill:none;stroke:red;stroke-width:1px;stroke-linecap:butt;stroke-linejoin:miter;stroke-opacity:1" d="M 995.831,597.36 955.331,699.089 z" id="boundary" inkscape:connector-curvature="0" />
	<path style="fill:none;stroke:red;stroke-width:1px;stroke-linecap:butt;stroke-linejoin:miter;stroke-opacity:1" d="M 955.331,699.089 894.034,760.939 z" id="boundary" inkscape:connector-curvature="0" />
	<path style="fill:none;stroke:red;stroke-width:1px;stroke-linecap:butt;stroke-linejoin:miter;stroke-opacity:1" d="M 894.034,760.939 801.693,811.525 z" id="boundary" inkscape:connector-curvature="0" />
	<path style="fill:none;stroke:red;stroke-width:1px;stroke-linecap:butt;stroke-linejoin:miter;stroke-opacity:1" d="M 801.693,811.525 689.621,709.796 z" id="boundary" inkscape:connector-curvature="0" />
	<path style="fill:none;stroke:red;stroke-width:1px;stroke-linecap:butt;stroke-linejoin:miter;stroke-opacity:1" d="M 510.042,745.23 689.621,709.796 z" id="boundary" inkscape:connector-curvature="0" />
	<circle cx="4.56819" cy="127.337" r="4" fill="#0" id="circle0"/>
	<circle cx="26.1879" cy="168.191" r="4" fill="#0" id="circle1"/>
	<circle cx="55.4832" cy="126.892" r="4" fill="#0" id="circle2"/>
	<circle cx="78.0571" cy="167.638" r="4" fill="#0" id="circle3"/>
	<circle cx="106.092" cy="126.692" r="4" fill="#0" id="circle4"/>
	<circle cx="131.851" cy="167.831" r="4" fill="#0" id="circle5"/>
	<circle cx="157.091" cy="126.865" r="4" fill="#0" id="circle6"/>
	<circle cx="188.712" cy="167.549" r="4" fill="#0" id="circle7"/>
	<circle cx="219.296" cy="126.783" r="4" fill="#0" id="circle8"/>
	<circle cx="249.554" cy="167.741" r="4" fill="#0" id="circle9"/>
	<circle cx="279.922" cy="137.403" r="4" fill="#0" id="circle10"/>
	<circle cx="300.965" cy="177.835" r="4" fill="#0" id="circle11"/>
	<circle cx="321.246" cy="157.406" r="4" fill="#0" id="circle12"/>
	<circle cx="362.075" cy="178.212" r="4" fill="#0" id="circle13"/>
	<circle cx="351.467" cy="208.841" r="4" fill="#0" id="circle14"/>
	<circle cx="321.282" cy="249.934" r="4" fill="#0" id="circle15"/>
	<circle cx="280.226" cy="229.222" r="4" fill="#0" id="circle16"/>
	<circle cx="259.913" cy="260.278" r="4" fill="#0" id="circle17"/>
	<circle cx="228.945" cy="219.454" r="4" fill="#0" id="circle18"/>
	<circle cx="198.761" cy="260.022" r="4" fill="#0" id="circle19"/>
	<circle cx="167.853" cy="218.855" r="4" fill="#0" id="circle20"/>
	<circle cx="146.799" cy="259.777" r="4" fill="#0" id="circle21"/>
	<circle cx="117.027" cy="218.669" r="4" fill="#0" id="circle22"/>
	<circle cx="85.4701" cy="259.681" r="4" fill="#0" id="circle23"/>
	<circle cx="60.3561" cy="218.864" r="4" fill="#0" id="circle24"/>
	<circle cx="34.8948" cy="259.751" r="4" fill="#0" id="circle25"/>
	<circle cx="4" cy="290.441" r="4" fill="#0" id="circle26"/>
	<circle cx="35.1092" cy="320.868" r="4" fill="#0" id="circle27"/>
	<circle cx="96.2682" cy="320.782" r="4" fill="#0" id="circle28"/>
	<circle cx="136.652" cy="320.743" r="4" fill="#0" id="circle29"/>
	<circle cx="188.454" cy="320.757" r="4" fill="#0" id="circle30"/>
	<circle cx="238.827" cy="321.295" r="4" fill="#0" id="circle31"/>
	<circle cx="289.94" cy="341.928" r="4" fill="#0" id="circle32"/>
	<circle cx="352.247" cy="331.247" r="4" fill="#0" id="circle33"/>
	<circle cx="402.619" cy="301.018" r="4" fill="#0" id="circle34"/>
	<circle cx="4.5643" cy="75.4685" r="4" fill="#0" id="circle35"/>
	<circle cx="35.1806" cy="55.2241" r="4" fill="#0" id="circle36"/>
	<circle cx="75.6395" cy="75.86" r="4" fill="#0" id="circle37"/>
	<circle cx="126.422" cy="76.2403" r="4" fill="#0" id="circle38"/>
	<circle cx="178.453" cy="76.228" r="4" fill="#0" id="circle39"/>
	<circle cx="229.142" cy="75.632" r="4" fill="#0" id="circle40"/>
	<circle cx="270.028" cy="45.2966" r="4" fill="#0" id="circle41"/>
	<circle cx="290.166" cy="44.915" r="4" fill="#0" id="circle42"/>
	<circle cx="316.342" cy="65.9183" r="4" fill="#0" id="circle43"/>
	<circle cx="310.955" cy="85.8252" r="4" fill="#0" id="circle44"/>
	<circle cx="331.425" cy="86.4417" r="4" fill="#0" id="circle45"/>
	<circle cx="341.681" cy="65.6658" r="4" fill="#0" id="circle46"/>
	<circle cx="311.059" cy="35.3026" r="4" fill="#0" id="circle47"/>
	<circle cx="321.438" cy="14.8197" r="4" fill="#0" id="circle48"/>
	<circle cx="372.072" cy="4" r="4" fill="#0" id="circle49"/>
	<circle cx="422.918" cy="24.6178" r="4" fill="#0" id="circle50"/>
	<circle cx="463.919" cy="85.8876" r="4" fill="#0" id="circle51"/>
	<circle cx="515.413" cy="34.9718" r="4" fill="#0" id="circle52"/>
	<circle cx="546.323" cy="86.2147" r="4" fill="#0" id="circle53"/>
	<circle cx="412.864" cy="371.923" r="4" fill="#0" id="circle54"/>
	<circle cx="392.528" cy="433.497" r="4" fill="#0" id="circle55"/>
	<circle cx="371.979" cy="494.85" r="4" fill="#0" id="circle56"/>
	<circle cx="320.809" cy="536.098" r="4" fill="#0" id="circle57"/>
	<circle cx="320.813" cy="577.223" r="4" fill="#0" id="circle58"/>
	<circle cx="372.477" cy="587.369" r="4" fill="#0" id="circle59"/>
	<circle cx="412.876" cy="566.113" r="4" fill="#0" id="circle60"/>
	<circle cx="444.016" cy="515.642" r="4" fill="#0" id="circle61"/>
	<circle cx="474.032" cy="453.69" r="4" fill="#0" id="circle62"/>
	<circle cx="505.562" cy="382.909" r="4" fill="#0" id="circle63"/>
	<circle cx="535.518" cy="341.552" r="4" fill="#0" id="circle64"/>
	<circle cx="597.027" cy="413.628" r="4" fill="#0" id="circle65"/>
	<circle cx="657.945" cy="495.168" r="4" fill="#0" id="circle66"/>
	<circle cx="750.35" cy="546.289" r="4" fill="#0" id="circle67"/>
	<circle cx="597.514" cy="35.2001" r="4" fill="#0" id="circle68"/>
	<circle cx="638.478" cy="95.9551" r="4" fill="#0" id="circle69"/>
	<circle cx="688.658" cy="34.664" r="4" fill="#0" id="circle70"/>
	<circle cx="719.929" cy="106.922" r="4" fill="#0" id="circle71"/>
	<circle cx="780.735" cy="65.4071" r="4" fill="#0" id="circle72"/>
	<circle cx="791.61" cy="137.461" r="4" fill="#0" id="circle73"/>
	<circle cx="862.537" cy="126.731" r="4" fill="#0" id="circle74"/>
	<circle cx="842.157" cy="198.099" r="4" fill="#0" id="circle75"/>
	<circle cx="924.529" cy="198.566" r="4" fill="#0" id="circle76"/>
	<circle cx="903.534" cy="269.772" r="4" fill="#0" id="circle77"/>
	<circle cx="985.768" cy="300.406" r="4" fill="#0" id="circle78"/>
	<circle cx="944.792" cy="361.883" r="4" fill="#0" id="circle79"/>
	<circle cx="995.572" cy="423.764" r="4" fill="#0" id="circle80"/>
	<circle cx="944.508" cy="464.451" r="4" fill="#0" id="circle81"/>
	<circle cx="996" cy="515.317" r="4" fill="#0" id="circle82"/>
	<circle cx="944.763" cy="545.894" r="4" fill="#0" id="circle83"/>
	<circle cx="995.831" cy="597.36" r="4" fill="#0" id="circle84"/>
	<circle cx="934.523" cy="627.995" r="4" fill="#0" id="circle85"/>
	<circle cx="955.331" cy="699.089" r="4" fill="#0" id="circle86"/>
	<circle cx="883.8" cy="689.384" r="4" fill="#0" id="circle87"/>
	<circle cx="894.034" cy="760.939" r="4" fill="#0" id="circle88"/>
	<circle cx="822.277" cy="750.111" r="4" fill="#0" id="circle89"/>
	<circle cx="801.693" cy="811.525" r="4" fill="#0" id="circle90"/>
	<circle cx="740.079" cy="781.248" r="4" fill="#0" id="circle91"/>
	<circle cx="719.99" cy="842.92" r="4" fill="#0" id="circle92"/>
	<circle cx="658.106" cy="801.181" r="4" fill="#0" id="circle93"/>
	<circle cx="628.154" cy="852.567" r="4" fill="#0" id="circle94"/>
	<circle cx="587.329" cy="806.705" r="4" fill="#0" id="circle95"/>
	<circle cx="556.096" cy="847.342" r="4" fill="#0" id="circle96"/>
	<circle cx="525.632" cy="806.615" r="4" fill="#0" id="circle97"/>
	<circle cx="495.036" cy="842.11" r="4" fill="#0" id="circle98"/>
	<circle cx="464.433" cy="801.3" r="4" fill="#0" id="circle99"/>
	<circle cx="443.596" cy="842.313" r="4" fill="#0" id="circle100"/>
	<circle cx="413.541" cy="801.833" r="4" fill="#0" id="circle101"/>
	<circle cx="392.479" cy="842.314" r="4" fill="#0" id="circle102"/>
	<circle cx="361.817" cy="802.046" r="4" fill="#0" id="circle103"/>
	<circle cx="341.05" cy="831.901" r="4" fill="#0" id="circle104"/>
	<circle cx="310.981" cy="802.124" r="4" fill="#0" id="circle105"/>
	<circle cx="290.741" cy="832.194" r="4" fill="#0" id="circle106"/>
	<circle cx="259.646" cy="801.46" r="4" fill="#0" id="circle107"/>
	<circle cx="229.183" cy="812.363" r="4" fill="#0" id="circle108"/>
	<circle cx="208.538" cy="791.186" r="4" fill="#0" id="circle109"/>
	<circle cx="167.682" cy="781.236" r="4" fill="#0" id="circle110"/>
	<circle cx="147.674" cy="761.048" r="4" fill="#0" id="circle111"/>
	<circle cx="106.755" cy="724.485" r="4" fill="#0" id="circle112"/>
	<circle cx="126.5" cy="740.33" r="4" fill="#0" id="circle113"/>
	<circle cx="116.814" cy="689.254" r="4" fill="#0" id="circle114"/>
	<circle cx="147.062" cy="709.892" r="4" fill="#0" id="circle115"/>
	<circle cx="178.079" cy="725.391" r="4" fill="#0" id="circle116"/>
	<circle cx="209.134" cy="740.396" r="4" fill="#0" id="circle117"/>
	<circle cx="249.911" cy="750.388" r="4" fill="#0" id="circle118"/>
	<circle cx="300.453" cy="750.412" r="4" fill="#0" id="circle119"/>
	<circle cx="351.88" cy="750.503" r="4" fill="#0" id="circle120"/>
	<circle cx="402.846" cy="750.079" r="4" fill="#0" id="circle121"/>
	<circle cx="453.526" cy="745.77" r="4" fill="#0" id="circle122"/>
	<circle cx="510.042" cy="745.23" r="4" fill="#0" id="circle123"/>
	<circle cx="566.788" cy="740.006" r="4" fill="#0" id="circle124"/>
	<circle cx="627.36" cy="730.609" r="4" fill="#0" id="circle125"/>
	<circle cx="689.621" cy="709.796" r="4" fill="#0" id="circle126"/>
	<circle cx="750.316" cy="679.144" r="4" fill="#0" id="circle127"/>
	<circle cx="811.354" cy="607.299" r="4" fill="#0" id="circle128"/>
	<circle cx="837.466" cy="338.66" r="4" fill="#0" id="circle129"/>
	<circle cx="780.834" cy="681.53" r="4" fill="#0" id="circle130"/>
	<circle cx="908.354" cy="171.636" r="4" fill="#0" id="circle131"/>
	<circle cx="336.541" cy="655.894" r="4" fill="#0" id="circle132"/>
	<circle cx="279.553" cy="474.08" r="4" fill="#0" id="circle133"/>
	<circle cx="477.578" cy="537.639" r="4" fill="#0" id="circle134"/>
	</g>
</svg>