59 557
59 582
59 607
59 632
59 657
64 522
64 682
69 497
69 707
74 732
79 457
79 757
89 427
89 780
96 804
99 402
109 826
111 380
119 849
124 352
129 872
139 327
144 892
154 307
159 912
169 287
174 932
184 267
189 952
202 249
207 970
220 231
225 988
240 216
245 1003
260 201
265 1018
280 186
287 1030
302 174
307 1045
324 162
330 1055
346 150
353 1065
371 144
377 1074
394 27
394 134
402 1080
406 49
415 73
416 14
419 129
427 1085
430 93
441 14
444 124
452 1090
466 14
467 114
477 1095
491 19
502 1095
514 29
527 1095
533 46
548 66
552 1094
558 89
577 1090
578 74
595 95
600 61
602 119
602 1085
621 75
627 114
627 1080
635 54
652 109
652 1085
655 70
675 54
677 109
677 1085
702 109
702 1085
727 114
727 1080
752 114
752 1080
777 119
777 1074
800 129
801 1065
824 136
825 1055
848 145
849 1047
870 157
871 1035
892 169
893 1023
912 184
915 1010
934 196
935 995
952 214
954 977
972 229
974 962
987 249
989 942
1005 267
1007 924
1020 287
1022 904
1035 307
1035 880
1047 329
1050 860
1060 351
1063 838
1070 374
1075 805
1080 397
1085 780
1090 420
1095 750
1097 444
1105 468
1105 715
1110 493
1110 685
1115 518
1115 543
1115 650
1120 568
1120 593
1120 618
