899 557
899 582
899 607
899 632
899 657
899 682
899 707
904 732
909 522
909 757
909 782
914 807
914 832
919 492
919 857
919 882
924 457
924 907
924 932
924 957
929 207
929 232
929 257
929 282
929 307
929 332
929 357
929 382
929 407
929 432
929 982
939 1005
941 185
954 1025
964 174
977 1035
989 174
1002 1035
1010 188
1020 211
1027 235
1027 1035
1035 259
1040 284
1045 309
1045 334
1050 359
1052 1034
1060 382
1065 407
1075 430
1077 1035
1089 451
1100 474
1102 1035
1110 497
1115 522
1125 545
1127 1034
1130 570
1135 595
1142 619
1145 644
1150 669
1152 1030
1155 694
1160 719
1160 744
1165 769
1165 794
1170 819
1170 844
1175 869
1175 894
1177 1025
1180 919
1185 944
1190 969
1190 994
