559 962
559 987
559 1012
564 932
564 1037
569 857
569 882
569 907
574 827
579 787
586 1050
589 737
589 762
594 667
594 692
604 642
609 1060
616 620
629 592
634 1065
639 567
649 527
659 502
659 1070
669 462
674 387
674 412
674 437
679 342
684 1070
694 322
709 1065
719 319
734 1060
744 319
745 430
745 455
745 480
745 505
745 530
745 555
745 580
745 605
745 1035
750 385
750 630
755 655
755 985
755 1010
760 339
760 680
760 915
760 940
765 705
765 890
770 730
770 755
770 860
775 780
775 805
775 830
