364 1157
364 1182
369 1207
374 1232
384 1255
386 1144
395 1278
407 1129
420 1275
425 1111
440 1091
445 1270
455 1071
470 1051
470 1270
475 1026
479 947
479 972
479 997
489 922
495 1270
507 904
520 1270
532 899
545 1270
557 899
570 1270
582 894
595 1275
607 894
620 1275
632 894
639 1292
657 894
657 1310
677 1325
682 894
697 1340
705 904
719 1352
725 919
743 1360
745 934
764 951
768 1360
782 969
793 1355
807 974
818 1350
832 974
843 1348
857 974
868 1345
882 974
893 1340
907 969
918 1335
932 964
943 1330
955 954
968 1325
980 949
993 1325
1005 944
1018 1325
1030 944
1043 1325
1055 944
1068 1325
1080 944
1093 1325
1105 944
1118 1325
1130 944
1143 1325
1155 944
1166 1335
1180 944
1187 1349
1203 954
1207 1364
1225 967
1227 1380
1245 982
1247 1395
1269 991
1270 1405
1294 994
1295 1400
1319 999
1320 1395
1344 1004
1345 1390
1369 1009
1369 1382
1393 1373
1394 1009
1417 1364
1419 1009
1420 1270
1420 1295
1422 1320
1435 1250
1435 1342
1444 1009
1455 1235
1469 1009
1470 1210
1480 1185
1490 1023
1495 1150
1499 1047
1504 1072
1515 1095
1518 1138
