364 1187
369 1212
374 1237
384 1172
384 1260
387 1285
399 1307
402 1154
417 1134
424 1305
435 1116
449 1300
454 1092
472 1074
474 1300
492 1059
494 932
494 957
494 982
494 1007
494 1032
499 1300
516 919
524 1300
541 919
549 1300
566 914
574 1300
591 914
599 1305
616 909
622 1315
641 909
642 1330
664 919
665 1340
685 933
686 1354
703 951
706 1369
723 966
724 1387
743 981
748 1395
767 989
773 1390
792 984
798 1385
817 979
823 1380
842 974
848 1375
867 969
873 1368
892 964
898 1365
917 964
923 1358
942 959
947 1349
967 954
972 1344
992 954
997 1340
1017 949
1022 1335
1042 949
1047 1330
1067 944
1072 1330
1092 939
1097 1330
1117 934
1122 1330
1140 944
1147 1330
1165 944
1170 1340
1190 949
1191 1354
1211 1369
1214 956
1234 1380
1236 969
1254 1395
1256 984
1276 1408
1278 996
1300 1008
1301 1405
1325 1014
1326 1400
1350 1019
1351 1395
1375 1019
1376 1390
1400 1014
1400 1380
1420 1220
1420 1245
1420 1270
1425 1014
1425 1295
1425 1375
1430 1320
1435 1200
1437 1344
1450 1009
1455 1185
1470 1165
1475 1014
1485 1037
1489 1147
1495 1060
1505 1083
1507 1129
1520 1103
