494 1007
506 985
512 1025
515 961
534 944
535 1015
559 949
559 1172
559 1197
559 1222
560 1010
564 1247
569 1147
574 1031
576 1269
581 1125
582 959
584 1054
584 1079
601 1265
605 969
610 1175
610 1200
610 1225
628 979
630 1160
651 989
653 1150
671 1004
678 1145
695 1012
703 1140
720 1014
728 1135
745 1014
753 1135
770 1014
778 1130
795 1014
803 1135
815 1157
820 1014
830 1177
839 1201
839 1226
839 1251
843 1025
844 1276
865 1037
869 1272
870 1150
870 1175
870 1200
870 1225
885 1052
885 1077
895 1145
904 1094
920 1140
929 1094
939 1157
939 1182
939 1207
944 1232
949 1257
954 1094
961 1279
979 1089
979 1297
999 1002
999 1027
1003 1305
1004 1052
1004 1077
1017 984
1028 1310
1041 975
1049 887
1049 912
1053 1303
1059 935
1064 867
1073 1288
1085 1115
1085 1265
1089 871
1095 1138
1098 1243
1100 894
1100 1163
1100 1188
1100 1213
1105 919
1105 944
1110 969
1110 1115
1120 992
1128 1016
1135 1040
1135 1115
1140 1065
1154 1132
1157 1084
1166 1154
1179 1176
1182 1084
1187 1200
1196 1224
1207 1084
1211 1244
1224 1042
1235 1252
1236 1020
1260 1011
1260 1255
1279 952
1284 1002
1285 1255
1289 975
1291 930
1310 1255
1314 919
1329 1272
1339 921
1341 1294
1359 936
1364 1305
1374 956
1387 1315
1392 974
1405 996
1412 1320
1428 1006
1437 1325
1448 1021
1455 1045
1455 1070
1455 1095
1457 1120
1462 1325
1475 1138
1485 1315
1495 1153
1500 1295
1513 1171
1515 1275
1525 1193
1525 1245
1530 1218
