689 1017
699 992
707 1035
711 970
724 947
730 1020
744 932
755 1015
769 929
769 1036
774 1061
784 1084
789 1262
794 934
794 1287
799 1237
804 1100
811 1124
814 1217
815 948
816 1300
824 1192
829 1142
829 1167
833 966
841 1300
851 984
861 1285
865 1255
870 1215
875 1180
876 989
895 1165
901 994
915 1150
926 994
940 1145
950 1002
965 1145
975 1004
990 1145
1000 1004
1004 1267
1009 1162
1009 1292
1014 1187
1014 1212
1014 1237
1025 1004
1027 1310
1050 1004
1052 1310
1074 1011
1077 1310
1089 1031
1095 1056
1100 1081
1102 1309
1105 1170
1105 1195
1110 1104
1112 1219
1122 1294
1124 1241
1130 1170
1130 1266
1135 1104
1147 1229
1152 1204
1154 1273
1155 1170
1160 1104
1173 1290
1185 1104
1197 1299
1199 1052
1199 1077
1211 1030
1217 1314
1226 1010
1240 1325
1244 932
1244 992
1249 957
1254 902
1265 1330
1272 884
1290 1330
1295 894
1310 914
1313 1318
1320 937
1325 962
1325 1295
1333 986
1335 1011
1335 1215
1335 1240
1335 1265
1340 1036
1340 1061
1354 1082
1360 1215
1378 1089
1385 1215
1403 1089
1410 1215
1423 1074
1435 1215
1438 1054
1453 1034
1459 992
1460 1215
1471 970
1485 1215
1491 954
1506 1229
1514 1253
1516 959
1524 1276
1529 1301
1534 977
1549 1316
1554 992
1574 1320
1578 999
1599 1320
1603 1004
1624 1320
1626 1014
1649 1320
1651 1014
1674 1315
1676 1019
1696 1034
1697 1304
1700 1059
1700 1084
1705 1109
1715 1285
1724 1126
1728 1263
1735 1225
1740 1146
1740 1171
1740 1196
