144 257
149 282
154 232
159 305
178 224
184 310
203 219
209 315
228 219
234 315
253 219
259 320
278 219
284 320
303 219
309 320
328 219
334 325
353 219
359 325
378 214
384 325
403 214
409 325
428 214
434 330
453 214
454 552
454 577
454 602
454 627
454 652
459 335
459 402
459 427
459 452
459 477
459 502
459 527
459 677
459 702
464 360
464 727
474 750
477 204
489 770
502 204
506 789
526 804
527 209
549 815
552 209
574 820
577 209
599 825
602 209
624 825
627 209
649 830
652 209
674 830
677 209
699 830
702 209
724 830
727 209
749 830
752 209
774 830
777 209
799 830
802 209
824 830
827 209
849 830
852 214
874 830
877 214
897 840
902 214
922 845
927 214
947 840
952 214
972 840
977 214
997 834
1002 214
1022 830
1027 214
1045 840
1052 214
1070 840
1077 214
1095 845
1102 214
1120 845
1127 214
1145 840
1152 214
1170 835
1177 214
1195 835
1202 214
1220 835
1227 214
1245 835
1252 214
1270 835
1277 219
1295 835
1302 219
1320 835
1327 219
1345 835
1352 219
1370 835
1377 219
1395 840
1402 214
1420 840
1427 214
1445 840
1452 214
1470 840
1477 214
1495 840
1502 214
1520 840
1527 214
1545 840
1552 219
1570 840
1577 214
1595 840
1602 219
1620 840
1627 214
1645 840
1652 214
1670 840
1677 214
1695 840
1702 214
1720 840
1727 214
1745 840
1752 219
1770 840
1777 219
1795 840
1802 219
1820 840
1827 224
1845 840
1852 224
1870 840
1877 224
1895 840
1902 224
1920 840
1927 224
1945 840
1952 224
1970 840
1977 224
1995 840
2002 224
2020 840
2027 224
2045 840
2052 224
2070 840
2077 224
2095 840
2102 224
2120 840
2127 224
2145 840
2152 224
2170 840
2177 229
2193 830
2199 241
2205 266
2205 295
2205 320
2205 345
2205 370
2205 395
2205 420
2205 445
2205 470
2205 495
2205 520
2205 545
2205 570
2205 595
2205 620
2205 645
2205 670
2205 695
2205 720
2205 745
2205 770
2205 795
