64 247
64 272
64 297
74 320
79 222
85 343
97 204
100 363
119 380
121 195
141 180
142 390
164 167
167 385
189 162
192 380
214 159
217 384
229 406
237 169
251 418
260 179
270 435
275 199
288 221
295 440
310 234
314 502
320 440
327 214
332 484
341 454
345 196
352 500
364 179
370 450
370 475
377 505
384 162
389 137
390 435
397 520
401 115
415 435
416 95
424 62
429 22
429 477
440 437
451 9
451 490
470 455
474 500
476 4
480 430
484 476
495 410
499 505
501 9
510 390
522 515
525 17
525 115
525 370
530 85
535 40
538 348
540 135
543 323
547 159
550 290
554 57
560 181
565 245
565 270
570 204
