444 832
444 857
444 882
444 907
449 807
449 932
459 782
459 955
469 757
469 1052
479 970
481 735
481 1074
484 1032
496 715
504 975
506 1080
508 1024
511 695
528 1040
529 677
529 980
531 1085
545 1059
549 662
554 980
556 1085
567 644
570 1054
579 985
581 1085
587 629
595 1054
604 985
606 1080
610 619
620 1054
629 985
631 1080
633 609
645 1049
654 985
655 1072
658 609
668 1039
679 985
679 1012
680 1065
683 604
705 1065
708 604
730 1060
733 604
755 1055
758 604
780 1050
783 604
789 467
805 1050
807 449
807 485
808 604
830 439
830 1045
832 485
833 604
844 507
844 532
855 434
855 1045
858 604
866 545
874 569
880 434
880 1045
905 434
905 515
905 1040
907 540
910 475
915 564
915 589
930 434
930 1040
934 467
938 599
953 1028
955 980
956 580
975 965
979 569
1000 960
1004 569
1025 960
1029 569
1050 960
1054 569
1075 960
1078 576
1093 596
1100 960
1118 599
1125 960
1130 665
1135 845
1135 870
1143 599
1147 684
1150 955
1155 660
1159 837
1159 879
1168 599
1172 684
1175 950
1180 655
1183 830
1184 879
1190 612
1197 684
1198 938
1203 643
1205 893
1206 820
1222 684
1229 810
1247 684
1252 800
1272 684
1275 790
1297 679
1298 778
1320 765
1322 679
1343 753
1347 679
1365 740
1372 679
1390 735
1397 674
1413 725
1422 669
1438 718
1447 664
1462 710
1472 659
1487 705
1497 659
1512 700
1522 659
1535 690
