259 952
259 977
264 892
264 917
269 857
271 999
279 827
284 797
291 1014
299 777
311 755
316 1015
331 739
341 1015
355 732
357 1035
366 1059
379 741
379 1081
394 1101
397 759
414 1116
417 774
434 1131
442 769
458 1140
464 757
483 1145
484 742
506 730
508 1150
529 719
533 1145
552 709
556 1135
574 697
579 1125
598 689
600 1105
618 674
619 1087
629 547
629 572
629 597
629 622
634 512
634 647
634 1067
649 492
659 1065
667 474
682 1075
690 464
707 1080
715 459
732 1085
740 454
757 1085
765 449
782 1085
790 449
805 1075
815 446
829 1067
840 444
849 1052
865 444
871 1040
890 444
896 1040
915 439
921 1040
940 439
946 1040
965 439
971 1040
990 439
996 1040
1015 439
1021 1040
1040 439
1046 1040
1065 439
1071 1040
1090 439
1096 1040
1115 439
1121 1035
1140 439
1146 1035
1165 439
1171 1035
1190 439
1196 1035
1215 439
1221 1035
1240 439
1246 1035
1265 439
1271 1035
1290 439
1296 1035
1315 439
1321 1035
1340 439
1346 1035
1365 439
1371 1035
1390 439
1396 1035
1415 444
1421 1040
1435 460
1435 485
1435 510
1435 535
1435 560
1435 585
1437 610
1440 635
1446 1040
1464 644
1471 1040
1489 639
1496 1040
1514 639
1521 1040
1539 639
1546 1035
1564 639
1571 1035
1589 639
1596 1035
1614 641
1621 1035
1639 644
1639 1053
1649 1076
1661 1098
1664 644
1679 1116
1689 644
1697 1134
1714 644
1719 1146
1739 644
1743 1155
1764 644
1768 1160
1789 644
1793 1160
1812 634
1818 1160
1837 629
1843 1153
1862 634
1867 1144
1880 652
1887 1129
1900 667
1907 1114
1918 685
1932 1110
1935 704
1955 719
1957 1105
1978 730
1980 1095
1998 745
2005 1090
2010 767
2025 787
2028 1080
2045 802
2048 1063
2066 1045
2069 811
2080 1020
2084 831
2092 855
2095 880
2095 905
2105 1015
2119 914
2130 1010
2140 928
2149 992
2155 948
