284 402
284 427
284 452
284 477
284 502
284 527
284 552
289 577
289 602
289 627
289 652
289 677
289 702
294 727
294 752
294 777
294 802
294 827
294 852
294 877
299 377
299 902
299 927
299 952
304 977
304 1002
304 1027
304 1052
309 1077
309 1102
309 1127
314 1152
314 1177
314 1202
319 362
319 1227
319 1252
324 1277
329 1302
329 1327
329 1352
334 1377
334 1402
334 1427
339 1452
343 354
349 1475
364 1495
367 344
379 1515
392 344
399 1530
417 339
419 1545
441 1558
442 339
465 1567
467 339
489 1575
492 334
512 1585
517 334
537 1590
542 334
562 1595
567 334
587 1599
592 329
612 1600
617 329
637 1605
642 329
662 1605
667 329
687 1610
692 329
712 1610
717 329
737 1609
742 329
762 1605
767 329
787 1605
792 329
812 1600
817 334
837 1599
842 334
862 1595
867 329
887 1590
892 329
912 1585
917 329
937 1579
942 329
961 1570
967 329
984 1560
992 334
1007 1550
1017 334
1029 1537
1042 334
1049 1522
1067 339
1069 1507
1087 1489
1092 344
1102 1469
1114 356
1114 1447
1115 1290
1115 1315
1115 1340
1115 1365
1115 1390
1115 1415
1120 1210
1120 1235
1120 1260
1125 960
1125 1130
1125 1155
1125 1180
1130 895
1130 920
1130 985
1130 1010
1130 1035
1130 1060
1130 1085
1132 374
1135 775
1135 800
1135 825
1135 850
1140 740
1144 1222
1144 1247
1145 396
1145 421
1145 446
1149 1142
1149 1167
1149 1192
1150 471
1150 710
1154 1097
1160 685
1166 1260
1167 490
1169 1117
1170 660
1185 640
1185 1137
1191 499
1191 1263
1198 618
1200 1157
1207 594
1216 494
1216 1265
1218 1175
1225 575
1239 1189
1241 489
1241 1265
1245 560
1264 1189
1266 489
1266 1260
1270 555
1289 1184
1291 489
1291 1255
1295 557
1312 1174
1314 1245
1315 497
1317 569
1330 1156
1337 584
1337 1235
1339 504
1345 1136
1352 604
1357 1219
1359 1107
1360 518
1364 626
1369 1077
1372 650
1374 1052
1377 1204
1379 674
1379 1027
1380 534
1384 699
1384 997
1389 724
1389 962
1392 1184
1394 749
1394 774
1394 907
1394 932
1395 554
1399 799
1399 824
1399 849
1399 874
1404 1162
1410 574
1416 1140
1423 596
1425 1115
1435 618
1435 1080
1440 643
1445 1035
1449 667
1450 1010
1454 692
1455 717
1455 975
1460 742
1460 930
1465 767
1465 792
1465 817
1465 842
1465 867
1465 892
