424 2277
439 2252
448 2285
451 2230
466 2210
473 2285
479 2187
494 2162
498 2283
509 2142
523 2280
524 2122
536 2100
548 2278
551 2080
566 2060
573 2275
579 2037
594 2017
598 2275
609 1992
623 2270
624 1972
639 1952
648 2268
651 1930
666 1910
673 2265
681 1890
694 1867
698 2260
709 1847
723 2260
724 1822
739 1802
748 2255
754 1777
769 1757
773 2253
784 1732
798 2250
799 1712
814 1687
823 2245
829 1667
844 1642
848 2245
859 1622
871 1600
873 2240
886 1580
898 2238
899 1557
914 1532
923 2235
929 1512
941 1490
948 2230
954 1467
969 1442
973 2230
984 1422
996 1400
998 2228
1011 1380
1019 1352
1023 2225
1037 1334
1048 2220
1049 1312
1061 1290
1073 2220
1074 1267
1089 1242
1098 2218
1114 1242
1123 2215
1139 1242
1148 2215
1163 1234
1173 2210
1186 1224
1191 2228
1205 1206
1211 2243
1220 1186
1233 2255
1234 972
1235 1166
1244 937
1244 995
1244 1137
1249 1020
1253 2270
1254 907
1254 1045
1254 1077
1254 1102
1264 867
1274 837
1275 2282
1284 797
1294 767
1299 2290
1304 727
1314 692
1322 2300
1324 657
1334 617
1344 582
1347 2305
1354 547
1364 507
1372 2310
1374 467
1384 432
1394 397
1397 2315
1404 357
1414 322
1422 2315
1430 342
1435 367
1440 392
1445 417
1447 2315
1450 442
1454 467
1455 492
1460 517
1465 542
1470 567
1470 905
1470 930
1470 955
1472 2315
1475 592
1475 875
1475 980
1480 617
1480 1005
1485 642
1485 840
1487 1029
1490 667
1494 692
1495 717
1495 815
1497 2314
1499 1051
1500 742
1505 767
1505 792
1510 1074
1522 2310
1525 1094
1540 1114
1547 2305
1560 1129
1572 2300
1580 1144
1595 2290
1603 1155
1619 2282
1625 1167
1641 2270
1649 1174
1663 2258
1674 1179
1683 2243
1699 1179
1703 2228
1720 1193
1727 2220
1735 1213
1745 1236
1752 2220
1759 1257
1770 1280
1777 2225
1784 1301
1795 1324
1802 2229
1810 1344
1823 1366
1827 2230
1835 1388
1847 1410
1852 2234
1862 1430
1874 1452
1877 2235
1889 1472
1901 1494
1902 2240
1915 1515
1927 2244
1929 1536
1940 1559
1952 2245
1955 1579
1968 1601
1977 2250
1983 1621
1998 1641
2002 2250
2010 1663
2025 1683
2027 2255
2040 1703
2052 1725
2052 2259
2067 1745
2077 2260
2080 1767
2095 1787
2102 2265
2110 1807
2122 1829
2127 2265
2137 1849
2152 1869
2152 2270
2167 1889
2177 2270
2180 1911
2195 1931
2202 2275
2209 1952
2224 1972
2227 2275
2239 1992
2251 2014
2252 2280
2266 2034
2277 2280
2280 2055
2295 2075
2302 2285
2309 2096
2320 2119
2327 2285
2335 2139
2350 2159
2352 2285
2363 2181
2377 2285
2378 2201
2390 2223
2402 2245
2402 2290
2417 2265
