314 552
314 577
314 602
314 627
314 652
314 677
319 702
324 727
329 752
329 932
329 957
334 777
334 982
339 549
339 802
344 907
349 825
352 1000
356 849
362 889
364 552
372 1015
389 552
397 1015
414 554
422 1015
439 556
447 1010
464 554
469 997
489 559
489 982
513 973
514 557
536 963
539 559
561 960
564 557
586 960
589 559
611 963
614 559
635 970
639 559
656 984
664 559
681 985
689 559
706 990
714 559
731 993
739 559
756 995
764 559
781 995
789 557
806 1000
814 557
831 1000
839 559
856 1000
864 559
881 1000
889 559
906 1000
914 559
931 1003
939 559
956 1003
964 557
979 1782
979 1807
979 1832
979 1857
979 1887
981 1000
984 1727
984 1752
984 1912
984 1937
988 549
989 1692
989 1962
989 1987
994 1667
994 2012
999 1637
999 2037
1004 2062
1006 1005
1009 1592
1009 2087
1013 544
1014 2112
1019 1562
1019 2137
1024 2162
1029 1532
1031 1005
1034 2185
1038 539
1039 1502
1039 2210
1049 1477
1049 2233
1055 2258
1056 1008
1061 1455
1063 534
1064 2282
1074 1427
1074 2305
1081 1010
1085 2328
1086 1405
1088 534
1097 2350
1099 1382
1106 1010
1109 2372
1113 529
1114 1362
1121 2394
1126 1340
1131 1015
1136 2414
1138 525
1141 1320
1154 2432
1156 1015
1156 1300
1163 524
1171 1280
1172 2450
1181 1020
1188 519
1189 1257
1192 2465
1204 1237
1206 1020
1213 519
1217 2470
1222 1219
1231 1025
1237 1199
1238 519
1242 2474
1254 1177
1256 1030
1263 519
1266 2465
1269 1157
1281 1035
1284 1132
1288 515
1288 2453
1299 1112
1306 1040
1311 1090
1312 2444
1313 519
1324 1067
1337 2440
1338 519
1362 2440
1363 519
1387 2440
1388 520
1411 2448
1413 524
1435 2455
1438 525
1458 2465
1463 529
1482 2474
1488 530
1506 2483
1513 534
1530 2492
1538 539
1550 1820
1550 1850
1550 1875
1550 1900
1550 1925
1550 1955
1555 1790
1555 1980
1555 2005
1555 2495
1560 1765
1560 2030
1563 544
1565 1740
1565 2055
1570 2080
1575 1705
1575 2105
1578 2483
1580 2130
1585 1675
1585 2155
1587 2180
1588 544
1595 1650
1595 2204
1595 2229
1595 2460
1600 2254
1605 1625
1605 2279
1605 2304
1605 2430
1610 2329
1610 2355
1610 2385
1613 549
1615 1600
1630 1575
1638 550
1643 1553
1655 1525
1662 559
1668 1503
1680 1475
1687 564
1693 1453
1705 1420
1712 564
1718 1398
1727 1374
1735 1345
1737 569
1745 1315
1755 1280
1762 574
1778 1270
1787 574
1800 1282
1812 579
1824 1290
1837 584
1847 1300
1862 584
1870 1310
1887 589
1895 1315
1912 589
1920 1320
1937 594
1945 1320
1962 599
1970 1320
1987 599
1995 1320
2012 604
2020 1320
2037 609
2045 1315
2062 614
2070 1310
2087 614
2095 1305
2112 614
2120 1300
2137 619
2144 1292
2162 619
2168 1285
2187 619
2191 1275
2211 610
2213 1263
2235 1250
2236 604
2258 1238
2261 599
2278 1223
2286 594
2296 1205
2310 586
2311 1185
2326 1165
2335 581
2341 1145
2359 574
2364 1135
2384 569
2389 1135
2409 567
2409 1150
2432 1160
2434 562
2457 1155
2459 557
2480 1145
2484 554
2499 1127
2509 549
2515 945
2517 1109
2520 920
2522 969
2525 895
2530 865
2530 1085
2534 549
2535 820
2535 991
2540 580
2540 725
2540 750
2540 775
2540 1016
2540 1041
2545 605
2545 630
2545 655
2545 680
