64 1652
64 1677
82 1695
86 1639
94 1732
104 1755
111 1644
114 1778
124 1597
124 1622
124 1801
139 1821
148 1589
157 1839
164 1567
165 1863
174 1887
182 1549
184 1912
199 1932
207 1544
211 1954
219 1517
220 1978
232 2000
237 1499
244 527
250 2018
256 549
260 1509
264 573
265 598
269 1472
271 529
272 2030
279 467
279 492
280 618
287 1454
289 647
289 672
290 1985
295 2015
303 459
304 625
307 690
309 732
312 1454
314 757
315 1982
322 710
328 465
329 422
334 1422
335 1997
337 1459
338 765
351 409
355 2012
358 1414
362 774
374 372
374 397
374 796
379 2005
383 1409
389 1367
392 354
395 810
402 1994
409 831
414 1369
417 359
417 855
424 322
424 879
427 1990
438 900
439 1374
448 314
452 1989
463 905
464 1367
473 309
474 262
474 1977
479 1332
481 923
498 1985
499 259
499 941
501 1320
515 1960
523 266
524 942
526 1324
540 1955
547 274
548 950
551 1320
560 972
563 1965
566 1300
572 274
575 992
585 1925
586 1975
591 1299
593 1010
594 286
595 1948
610 1927
611 1028
615 1291
618 294
631 1043
635 1276
635 1925
639 1172
639 1197
643 299
649 1061
649 1220
649 1245
651 1150
655 1910
668 299
669 1076
671 1135
680 1912
681 1098
688 315
705 334
705 1905
715 357
725 1890
737 369
748 1880
762 369
765 1860
775 391
780 1840
797 404
805 1840
820 414
830 1835
840 429
853 1823
860 444
868 1803
879 461
883 1783
904 464
907 1775
910 489
925 509
931 1783
945 524
949 1801
965 539
967 1819
975 575
988 549
989 596
992 1824
1000 571
1013 605
1017 1830
1034 619
1037 1845
1040 650
1050 673
1059 632
1059 1902
1061 1853
1069 1925
1070 656
1081 1868
1083 1894
1084 1945
1084 1972
1089 1997
1089 2052
1089 2077
1094 664
1099 2020
1099 2100
1109 2167
1110 2123
1119 667
1121 2189
1136 2209
1141 654
1144 2233
1149 2292
1157 2255
1159 2315
1166 659
1174 2335
1189 2355
1191 655
1194 2380
1199 622
1199 2405
1210 2428
1222 2450
1223 630
1234 2472
1239 2497
1245 642
1251 2519
1265 657
1269 2537
1279 632
1289 592
1294 2535
1299 487
1301 570
1309 510
1319 547
1319 2530
1329 494
1342 2540
1352 484
1354 437
1367 2540
1378 430
1384 377
1384 402
1392 2540
1408 369
1417 2540
1424 327
1433 369
1442 2540
1448 319
1459 262
1460 2515
1464 287
1483 254
1485 2517
1507 2529
1508 249
1514 217
1530 2485
1531 2520
1539 214
1549 162
1549 187
1555 2485
1573 154
1575 2500
1598 159
1598 2510
1609 112
1621 2500
1633 104
1635 1795
1643 2488
1649 1816
1650 1775
1650 2430
1654 77
1655 2455
1664 1836
1670 2305
1675 1772
1675 1859
1675 1884
1675 2050
1675 2425
1678 84
1680 1920
1680 1975
1680 2075
1680 2328
1682 1945
1685 2395
1690 1998
1693 2295
1695 1740
1695 2348
1697 2094
1700 1765
1700 2045
1700 2140
1700 2165
1700 2190
1700 2215
1700 2240
1701 94
1705 2018
1707 2264
1708 1718
1709 2116
1724 104
1731 1708
1745 118
1748 1688
1768 1673
1770 119
1775 895
1783 1653
1789 916
1795 116
1795 875
1795 960
1795 1630
1800 985
1808 853
1813 925
1817 1004
1818 126
1820 962
1820 1635
1828 838
1836 144
1837 1654
1839 1016
1840 815
1852 1674
1853 793
1855 745
1856 159
1857 1034
1865 1058
1875 1660
1878 733
1880 152
1880 1078
1900 167
1900 1665
1902 724
1905 640
1905 1079
1912 664
1915 689
1918 185
1919 1682
1928 630
1930 1079
1939 199
1940 595
1944 1677
1950 515
1953 573
1953 1089
1955 540
1964 199
1968 1670
1975 510
1976 1099
1978 220
1980 415
1980 440
1985 465
1986 1688
1990 242
2000 400
2001 1104
2001 1708
2005 262
2005 287
2005 355
2015 310
2023 1720
2026 1104
2042 1084
2045 1690
2064 1096
2070 1690
2082 1114
2093 1700
2107 1119
2117 1709
2119 1097
2141 1109
2142 1705
2156 1129
2166 1105
2167 1710
2191 1104
2192 1704
2213 1116
2217 1699
2231 1134
2235 1717
2246 1154
2250 1695
2257 1729
2269 1164
2275 1690
2289 1147
2300 1690
2314 1146
2325 1169
2325 1690
2340 1189
2349 1697
2363 1199
2374 1695
2386 1189
2398 1688
2404 1207
2423 1688
2424 1222
2438 1668
2448 1214
2456 1650
2470 1227
2479 1640
2488 1245
2502 1629
2505 1264
2505 1520
2510 1470
2510 1495
2510 1575
2510 1600
2512 1544
2520 1284
2525 1395
2530 1307
2532 1419
2535 1475
2538 1331
2544 1441
2545 1380
2547 1355
