459 1252
459 1402
459 1497
464 1152
469 1520
469 1577
471 1274
474 1175
474 1317
474 1342
474 1422
479 1382
481 1240
481 1555
481 1599
483 1489
484 1445
485 1198
488 1145
494 1621
508 1160
512 1639
532 1169
537 1639
555 1620
557 1169
566 1145
580 1620
591 1149
601 1634
611 1164
626 1635
635 1156
651 1630
660 1154
674 1640
683 1165
695 1615
706 1155
718 1605
729 1144
738 1620
750 1158
758 1635
773 1169
783 1640
798 1174
803 1623
809 1147
825 1610
827 1165
845 1183
849 1617
860 1203
865 1595
878 1221
880 1575
900 1234
905 1570
920 1249
930 1565
939 1266
955 1246
955 1570
977 1234
979 1577
980 1545
999 1246
1005 1550
1023 1254
1028 1560
1048 1249
1053 1560
1066 1230
1075 1572
1081 1210
1090 1592
1104 2082
1106 1204
1108 1610
1109 2107
1119 2032
1119 2057
1121 2129
1125 1585
1129 1192
1129 2153
1130 2178
1134 2012
1139 1167
1139 1932
1139 1987
1144 932
1144 1602
1144 1672
1144 1957
1145 2198
1149 457
1149 957
1149 1697
1154 1052
1154 1625
1159 480
1159 505
1159 557
1159 980
1159 1077
1159 1720
1160 2218
1161 1919
1162 1005
1164 582
1164 1164
1164 2297
1166 919
1168 1664
1169 528
1169 1029
1169 1743
1171 1140
1174 459
1174 817
1174 1097
1174 2320
1175 2238
1179 602
1179 897
1179 1807
1181 2344
1184 840
1184 1832
1185 1763
1185 1911
1189 2294
1194 642
1194 872
1194 1887
1195 2253
1198 810
1199 454
1199 667
1199 1852
1203 1799
1203 2315
1209 690
1209 715
1214 740
1214 765
1217 2265
1217 2294
1221 789
1223 461
1231 2315
1247 469
1256 2313
1270 459
1280 2322
1294 466
1305 2325
1314 481
1328 2335
1338 489
1344 457
1353 2328
1369 459
1378 2325
1394 454
1400 2337
1419 456
1422 2349
1435 2315
1444 454
1460 2320
1468 461
1484 2312
1492 469
1509 2315
1516 460
1532 2325
1540 467
1550 655
1552 680
1557 2329
1560 482
1567 700
1570 575
1575 600
1575 655
1580 722
1580 747
1580 815
1580 1810
1580 2260
1580 2285
1582 840
1582 1835
1582 2335
1584 489
1585 623
1585 772
1585 2215
1587 2309
1589 457
1589 557
1590 1720
1590 1745
1593 1788
1594 1857
1595 862
1600 525
1600 1680
1609 1877
1610 882
1610 1100
1610 1902
1610 2212
1610 2320
1614 459
1615 505
1615 1125
1615 1927
1620 910
1620 935
1620 1635
1620 1665
1625 1040
1625 1148
1627 959
1627 1065
1628 483
1630 2165
1632 2190
1633 1945
1633 2330
1635 983
1635 1008
1635 1100
1645 1632
1645 1967
1650 1154
1650 2150
1655 1990
1655 2050
1665 2073
1667 1644
1669 2011
1670 2135
1673 1165
1677 2095
1685 1615
1696 1155
1708 1605
1719 1144
1728 1620
1740 1158
1748 1635
1763 1169
1773 1640
1788 1174
1793 1623
1799 1147
1818 1620
1824 1144
1838 1635
1844 1159
1863 1638
1869 1157
1887 1630
1894 1154
1909 1642
1917 1164
1934 1637
1935 1605
1942 1159
1957 1139
1960 1607
1979 1151
1980 1622
1998 1640
2001 1164
2023 1638
2025 1172
2034 1147
2037 1659
2043 1623
2052 1129
2057 1644
2059 1671
2077 1134
2083 1680
2099 1122
2105 1692
2109 1092
2127 1704
2134 1094
2152 1710
2159 1087
2177 1715
2184 1086
2199 1702
2206 1099
2221 1690
2228 1111
2245 1680
2248 1126
2266 1144
2270 1675
2280 1215
2280 1465
2286 1129
2287 1239
2289 1657
2290 1488
2298 1633
2302 1259
2305 1212
2305 1335
2305 1460
2305 1508
2305 1580
2307 1605
2308 1141
2310 1360
2310 1385
2310 1410
2313 1166
2315 1300
2315 1550
2324 1431
2325 1188
2330 1456
