399 1412
399 1482
404 1307
404 1332
404 1357
404 1382
404 1507
409 1262
409 1532
414 1232
414 1557
419 1197
419 1582
423 1419
423 1489
424 1607
429 1157
429 1632
434 1657
439 1122
444 1405
444 1680
446 1499
449 1087
449 1705
459 1057
459 1728
467 1395
469 1032
469 1509
469 1751
474 1776
479 1007
486 1798
491 985
492 1389
494 1514
494 1822
500 961
506 1844
512 939
517 1385
519 1514
519 1866
524 912
529 1889
536 890
542 1385
543 1910
544 1511
549 867
555 1932
564 847
567 1385
568 1504
569 1953
579 822
582 1975
592 1390
592 1494
594 802
597 1995
609 782
609 2017
615 1400
615 1484
624 762
627 2035
636 1470
638 1410
639 742
642 2055
656 1455
657 724
660 1422
660 2073
675 706
679 2090
694 682
694 2110
714 667
714 2125
731 2144
732 649
749 2162
750 631
769 2177
770 616
787 2195
789 597
807 2210
811 584
827 2225
831 569
847 2240
852 554
869 2252
872 539
891 2265
894 527
914 2275
916 515
934 2290
939 502
957 2300
961 490
979 2312
984 479
1001 2324
1007 469
1025 2332
1030 459
1049 2340
1054 452
1072 2350
1078 444
1096 2358
1101 434
1120 2365
1126 429
1144 2372
1149 419
1169 2375
1174 414
1192 2385
1199 409
1217 2389
1224 404
1242 2390
1249 401
1267 2395
1274 399
1285 540
1285 565
1287 590
1290 505
1292 615
1292 2395
1295 480
1299 394
1300 639
1305 445
1305 664
1310 2240
1310 2265
1312 2290
1315 420
1317 2315
1317 2400
1318 686
1320 2205
1324 396
1325 2339
1330 708
1330 2180
1338 2361
1342 2400
1345 728
1345 2155
1360 2135
1363 746
1379 392
1379 2117
1381 764
1394 412
1399 742
1404 389
1404 435
1404 2120
1414 717
1414 2387
1415 458
1419 2140
1424 482
1424 692
1426 2365
1429 391
1434 505
1434 662
1434 2160
1438 2395
1439 530
1439 637
1439 2332
1444 555
1444 580
1444 605
1445 2183
1449 2297
1454 394
1454 2207
1454 2247
1454 2272
1463 2395
1479 394
1488 2395
1504 399
1513 2395
1529 399
1538 2390
1554 404
1563 2388
1579 409
1588 2385
1604 414
1613 2378
1629 419
1637 2370
1653 426
1662 2365
1677 434
1687 2359
1702 439
1711 2350
1725 449
1734 2340
1748 459
1757 2330
1771 469
1780 2320
1794 479
1803 2310
1817 489
1826 2300
1840 499
1848 2288
1860 514
1870 2275
1883 524
1893 2263
1905 537
1915 2250
1927 549
1935 2235
1947 564
1958 2223
1967 579
1978 2208
1987 594
1998 2193
2007 609
2016 2175
2027 624
2036 2160
2045 642
2054 2142
2063 660
2072 2124
2080 679
2090 2105
2099 696
2100 1345
2109 2087
2117 714
2119 1327
2119 1362
2127 2069
2135 732
2139 1312
2141 1374
2142 2049
2150 752
2159 1297
2160 2030
2161 1389
2165 772
2175 2010
2183 790
2183 1288
2185 1397
2190 1990
2195 812
2205 1965
2207 1280
2209 1404
2210 832
2220 1945
2225 852
2232 1275
2233 1923
2234 1409
2237 874
2245 1900
2249 896
2257 1275
2259 1409
2260 919
2260 1875
2273 941
2273 1853
2282 1280
2284 1404
2285 963
2285 1825
2294 987
2295 1800
2305 1010
2305 1775
2307 1285
2307 1394
2315 1033
2315 1750
2320 1058
2325 1720
2329 1382
2330 1081
2331 1293
2335 1690
2337 1105
2345 1129
2345 1655
2349 1367
2350 1154
2355 1179
2355 1302
2355 1610
2360 1204
2365 1229
2365 1555
2365 1580
2367 1349
2370 1254
2370 1520
2375 1279
2375 1373
2375 1398
2375 1425
2375 1475
2377 1314
2380 1450
