449 2242
454 2267
464 2222
489 2219
499 2182
509 2235
523 2174
534 2232
540 2205
548 2174
549 2142
565 2200
567 2124
580 2180
592 2124
604 2087
605 2177
622 2069
630 2170
644 2052
645 2150
662 2034
670 2152
679 2012
695 2150
697 1994
708 2128
714 1962
718 2105
736 1949
740 2117
759 1939
765 2120
769 1902
787 1884
788 2110
808 2093
809 1872
819 1847
833 2090
841 1835
858 2088
859 1812
873 2068
874 1787
884 1742
898 2065
908 1734
923 2060
932 1724
948 2060
950 1706
954 1652
954 1677
972 1634
973 2063
978 2038
996 1625
1003 2035
1020 1616
1028 2040
1029 1592
1034 1552
1039 1527
1045 1995
1045 2020
1051 1505
1068 2005
1076 1509
1086 2023
1089 1432
1094 1487
1104 1452
1111 2025
1114 1429
1124 1372
1129 1397
1136 2020
1148 1365
1158 2008
1164 1307
1172 1374
1174 1330
1183 2005
1188 1299
1208 2005
1209 1242
1209 1267
1213 1294
1219 1217
1229 1194
1233 2005
1252 1184
1255 2017
1259 1132
1259 1157
1274 1097
1275 1970
1275 1995
1284 1072
1289 972
1294 997
1300 1972
1302 1054
1309 1017
1314 971
1320 1987
1334 912
1339 937
1339 974
1340 2002
1352 894
1359 862
1365 2000
1369 747
1369 807
1369 832
1374 772
1387 729
1388 1990
1399 622
1399 647
1409 577
1409 670
1411 720
1413 1990
1416 694
1419 607
1424 507
1425 640
1431 565
1434 530
1435 663
1438 1995
1445 586
1452 644
1453 681
1454 546
1455 755
1459 607
1463 1990
1465 778
1471 699
1480 723
1480 750
1485 793
1485 830
1485 2002
1495 853
1495 900
1505 876
1507 2015
1515 1010
1515 1975
1518 910
1520 1035
1535 1055
1539 924
1539 1002
1540 1970
1549 1076
1555 1160
1558 941
1560 985
1560 1099
1561 1984
1569 1181
1579 1116
1580 1157
1581 2000
1589 1196
1605 2007
1609 1211
1624 1231
1629 2000
1632 1255
1635 1290
1640 1315
1654 2000
1657 1334
1672 1354
1679 2005
1680 1378
1685 1403
1695 1426
1704 2005
1705 1449
1720 1469
1725 1494
1729 2010
1735 1517
1749 2025
1750 1537
1765 1557
1772 2035
1773 1581
1780 1985
1782 2010
1795 1594
1803 1995
1810 1614
1818 2015
1825 1634
1830 1659
1836 2033
1843 1681
1860 1700
1860 2042
1874 1721
1884 2050
1889 1741
1909 1756
1909 2055
1927 1774
1934 2060
1942 1794
1954 2075
1955 1816
1969 1837
1977 2085
1993 1845
2001 2093
2010 1864
2015 1889
2026 2090
2030 1909
2049 1926
2051 2085
2060 1949
2070 1972
2072 2099
2090 1987
2090 2117
2114 2125
2115 1987
2137 1999
2139 2125
2155 2017
2155 2042
2159 2140
2170 2062
2182 2150
2190 2077
2200 2130
2212 2089
2221 2144
2232 2104
2241 2159
2247 2124
2262 2144
2264 2170
2285 2156
2286 2183
2297 2134
2311 2180
2312 2154
2334 2190
2351 2209
2369 2227
2391 2240
2412 2254
2430 2272
