424 1172
429 1197
439 1220
444 1157
446 1244
454 1268
460 1293
464 1142
469 1317
484 1127
494 1315
504 1112
509 1432
514 1300
514 1457
519 1482
524 1097
529 1417
529 1505
534 1285
536 1529
544 1082
544 1553
549 1402
554 1270
554 1576
559 1601
564 1067
567 1625
569 1387
573 1253
574 1649
581 1673
584 1052
589 1372
589 1697
593 1238
599 1720
604 1037
604 1745
609 1357
610 1445
613 1223
614 1768
615 1470
620 1793
624 1022
625 1493
629 1342
629 1817
630 1518
633 1208
633 1433
634 1842
640 1541
644 1007
644 1865
647 1565
649 1327
649 1890
653 1193
655 1420
655 1589
659 1913
664 992
665 1612
665 1938
669 1312
670 1637
673 1178
674 1962
678 1410
680 1660
684 977
684 1985
687 1684
689 1297
689 2010
693 1163
695 1708
696 2034
700 1395
700 1733
704 962
704 2058
709 1282
710 1756
713 1148
714 1416
714 2081
717 1780
719 1441
719 2106
724 947
725 1804
727 1465
729 1267
729 2129
733 1133
734 1489
734 2154
735 1827
740 1852
741 1513
744 932
744 2177
748 1876
749 1252
749 1537
749 2202
753 1118
754 1562
755 1900
759 2225
764 917
764 1585
764 2250
765 1923
769 1237
769 1610
770 1948
773 1103
774 2273
779 1633
780 1971
780 2298
784 1658
786 904
787 1995
789 1222
789 2322
793 1088
794 1681
795 2019
799 1706
805 2042
806 889
807 1730
809 1207
810 2067
811 2335
813 1073
814 1754
820 2090
821 1778
825 2115
826 874
829 1192
829 1802
833 1058
834 1827
835 2138
836 2335
840 2163
844 1850
846 859
849 1177
849 1875
850 2186
851 1040
856 1899
857 2210
861 2335
864 1923
865 2234
866 844
869 1162
870 1948
871 1025
875 2257
879 1972
880 2282
884 1997
886 829
886 2335
888 2306
889 1147
891 1010
894 2020
899 2045
906 814
909 1132
909 2068
911 995
914 2093
924 2116
927 799
929 1117
929 2141
931 980
937 2165
944 2189
947 784
949 1102
951 965
951 2213
959 2237
964 2262
967 769
969 1087
971 950
974 2285
979 2310
987 754
989 1072
990 2333
991 935
1007 739
1009 1057
1011 920
1015 2335
1020 2160
1025 2185
1027 724
1027 2210
1029 1042
1030 2235
1031 905
1040 2335
1045 2160
1047 709
1049 1027
1051 890
1054 2244
1065 2335
1067 694
1069 1012
1070 2160
1071 875
1079 2244
1087 679
1089 997
1090 2335
1091 860
1095 2160
1104 2244
1107 664
1109 982
1111 845
1115 2335
1120 2160
1127 649
1129 967
1129 2244
1131 830
1140 2335
1145 2160
1147 634
1149 952
1151 815
1154 2244
1165 2335
1167 619
1169 937
1170 2160
1171 800
1179 2244
1187 604
1189 922
1190 2335
1191 785
1195 2160
1204 2244
1207 589
1209 907
1211 770
1215 2335
1220 2160
1227 574
1229 892
1229 2244
1236 773
1240 2335
1245 2160
1249 795
1249 877
1252 579
1254 2244
1264 815
1265 2335
1269 862
1270 2160
1272 594
1279 835
1279 2244
1290 2335
1292 609
1295 2160
1304 2244
1309 517
1312 624
1315 2335
1320 2160
1327 535
1329 502
1329 2244
1332 639
1340 2335
1345 2160
1347 550
1349 487
1352 654
1354 2244
1365 2335
1367 565
1369 472
1370 672
1370 2160
1379 2244
1389 457
1389 577
1390 687
1390 2335
1395 2160
1404 2244
1409 592
1410 702
1411 469
1415 2335
1420 2160
1429 607
1429 2244
1430 717
1431 484
1440 2335
1445 2160
1449 622
1450 732
1453 496
1454 2244
1465 2335
1469 637
1470 747
1470 2160
1473 511
1479 2244
1489 652
1490 762
1490 2335
1493 526
1495 2160
1504 2244
1509 667
1510 777
1513 541
1515 2335
1520 2160
1529 682
1529 2244
1530 792
1533 556
1540 2335
1545 2160
1549 697
1549 809
1553 571
1554 2244
1565 2335
1569 712
1569 824
1570 2160
1573 586
1579 2244
1589 727
1589 839
1590 2335
1593 601
1595 2160
1604 2244
1608 856
1609 742
1613 616
1615 2335
1620 2160
1628 871
1629 757
1629 2244
1633 631
1640 2335
1645 2160
1648 886
1649 772
1653 646
1654 2244
1665 2335
1668 901
1669 787
1670 2160
1673 661
1679 2244
1688 916
1689 802
1690 2335
1693 676
1695 2160
1704 2244
1708 931
1709 817
1713 691
1715 2335
1720 2160
1728 946
1729 2244
1731 830
1733 706
1740 2335
1745 2160
1748 961
1751 845
1754 2244
1755 719
1765 2335
1768 976
1770 2160
1771 860
1775 734
1779 2244
1788 991
1790 2335
1791 875
1795 749
1795 2160
1804 2244
1806 1009
1811 890
1815 764
1815 2335
1820 2160
1826 1024
1829 2244
1832 904
1835 779
1840 2335
1845 2160
1846 1039
1852 919
1854 2244
1855 794
1860 2050
1865 2335
1866 1054
1870 2020
1870 2160
1872 934
1875 809
1877 2069
1879 2244
1880 1995
1886 1069
1890 1965
1890 2335
1892 949
1895 824
1895 2160
1900 1935
1902 2074
1904 2244
1906 1084
1910 1905
1912 964
1915 839
1915 2335
1920 1875
1920 2160
1926 1099
1927 2079
1929 2244
1930 1845
1932 979
1935 854
1940 1815
1940 2335
1945 2160
1946 1114
1950 1790
1952 994
1952 2084
1954 2244
1955 869
1960 1760
1965 2335
1966 1129
1969 2062
1970 1730
1970 2160
1972 1009
1975 884
1979 2032
1979 2244
1980 1700
1986 1144
1989 2002
1990 1670
1990 2335
1992 1024
1995 899
1995 2160
1999 1967
2000 1640
2000 2310
2004 2244
2009 1937
2010 1610
2010 2275
2011 1139
2012 1039
2015 914
2019 1907
2020 1585
2020 2160
2029 1877
2030 1555
2031 1124
2032 1054
2035 929
2039 1842
2040 1525
2045 2160
2049 1812
2050 1495
2052 1069
2052 1109
2055 944
2055 2135
2059 1782
2060 1465
2065 2105
2069 1752
2070 1435
2072 1084
2075 959
2075 2075
2079 1722
2080 1405
2085 2045
2089 1687
2090 1380
2095 974
2095 2010
2099 1657
2100 1350
2105 1980
2109 1627
2110 1320
2115 989
2115 1950
2119 1597
2120 1290
2125 1920
2129 1567
2130 1260
2135 1004
2135 1885
2139 1537
2140 1230
2145 1855
2149 1502
2150 1200
2155 1825
2158 1015
2159 1472
2160 1175
2165 1795
2169 1442
2170 1145
2175 1760
2178 1030
2179 1407
2180 1115
2185 1730
2189 1377
2190 1085
2195 1700
2198 1045
2199 1347
2205 1670
2209 1317
2215 1635
2219 1287
2225 1605
2229 1257
2235 1575
2239 1222
2245 1545
2249 1192
2255 1510
2259 1162
2265 1480
2269 1127
2275 1450
2285 1420
2291 1114
2295 1385
2305 1355
2311 1129
2315 1325
2325 1295
2331 1144
2335 1260
2345 1230
2351 1159
2355 1200
