474 1167
479 1192
484 1222
492 1149
494 1245
499 1277
509 1300
512 1134
514 1325
519 1350
524 1375
531 1399
532 1119
536 1424
541 1449
546 1474
549 1499
552 1104
554 1532
564 1555
564 1580
569 1612
572 1089
579 1635
582 1660
587 1685
592 1074
592 1710
597 1735
602 1760
607 1785
612 1059
612 1810
619 1834
624 1859
631 1883
632 1044
639 1907
644 1932
649 1957
652 1029
659 1980
664 2005
671 2029
672 1014
679 2053
685 2078
692 999
694 2102
704 2125
711 2149
714 987
719 2173
729 2196
734 972
734 2221
744 2244
754 2267
756 960
764 2290
771 2314
779 947
780 2338
789 2362
799 2385
801 934
822 919
824 2390
844 907
849 2390
866 895
874 2390
889 884
899 2390
911 870
924 2390
934 859
949 2390
957 849
974 2390
979 837
999 2390
1001 825
1024 814
1024 2390
1047 804
1049 2390
1070 794
1074 2390
1093 784
1099 2392
1116 774
1124 2395
1139 762
1149 2395
1161 750
1174 2395
1185 741
1199 2395
1207 729
1224 2395
1230 719
1249 2400
1253 709
1274 2400
1275 696
1297 684
1299 2400
1319 672
1324 2405
1341 660
1349 2405
1364 647
1374 2405
1384 632
1399 2405
1406 619
1424 2410
1427 604
1447 589
1449 2410
1467 574
1474 2412
1487 559
1499 2415
1507 544
1524 2415
1532 539
1549 2415
1552 554
1572 569
1574 2415
1592 584
1599 2420
1610 602
1624 2420
1630 617
1649 634
1649 2420
1668 651
1674 2420
1686 669
1699 2420
1706 684
1724 702
1724 2420
1742 720
1749 2420
1760 738
1774 2420
1778 756
1796 774
1799 2420
1814 792
1824 2420
1832 810
1849 2420
1850 828
1868 846
1874 2420
1886 864
1899 2420
1901 884
1919 902
1924 2420
1937 920
1949 2420
1955 938
1970 958
1974 2420
1988 976
1999 2415
2006 994
2015 2385
2024 1012
2025 2345
2030 2320
2040 2285
2042 1030
2050 2245
2060 1048
2060 2210
2070 2175
2078 1066
2080 2140
2090 2110
2096 1084
2100 2080
2110 2050
2116 1099
2120 2020
2130 1995
2134 1117
2140 1970
2150 1945
2153 1134
2160 1915
2173 1149
2173 1893
2182 1869
2190 1845
2193 1165
2203 1823
2212 1799
2214 1179
2220 1775
2233 1753
2234 1194
2242 1729
2250 1705
2254 1209
2260 1680
2273 1658
2275 1223
2282 1634
2290 1610
2295 1238
2300 1585
2310 1560
2317 1250
2320 1535
2330 1510
2339 1262
2340 1485
2350 1460
2360 1430
2361 1274
2370 1400
2380 1375
2381 1289
2390 1345
2400 1315
