69 1672
79 1695
87 1654
89 1718
99 1741
102 1634
107 1765
116 1789
120 1616
129 1811
139 1597
139 1834
149 1857
157 1579
161 1879
174 1901
175 1561
186 1923
194 1544
201 1943
213 1965
214 1527
228 1985
232 1509
243 2005
250 1491
254 527
259 552
266 2015
269 507
271 574
272 1479
284 482
284 596
290 1461
291 2010
294 619
302 464
304 642
312 1449
316 664
316 2010
319 442
329 686
330 1431
337 424
341 708
341 2005
352 1419
354 730
355 406
366 2005
370 386
371 749
374 1407
384 771
389 367
391 2000
394 1392
396 793
409 352
414 811
416 1380
416 1995
426 833
427 334
439 1367
440 1985
444 851
447 319
459 871
461 1354
465 301
465 1985
474 891
484 284
484 1344
488 1975
492 909
506 270
507 1334
509 928
513 1970
525 948
526 255
529 1322
538 1963
544 965
551 259
553 1314
562 1955
564 980
573 271
576 1304
581 999
585 1945
595 283
600 1296
601 1015
609 1937
618 294
621 1030
624 1287
633 1928
641 304
642 1044
644 1227
644 1252
649 1187
654 1157
657 1920
660 1062
663 316
664 1117
674 1083
679 1907
685 329
703 1898
708 340
725 1885
729 354
748 371
748 1875
770 383
771 1865
791 1850
792 395
810 413
813 1838
832 425
835 1825
850 443
855 1810
870 458
875 1795
890 474
898 1785
909 491
922 1794
927 509
944 1806
947 524
965 542
965 1820
980 562
986 1834
998 580
1009 1845
1015 599
1030 619
1032 1855
1043 641
1056 1863
1061 659
1080 1872
1081 674
1084 1897
1084 1922
1084 1947
1089 1972
1089 1997
1094 2022
1094 2047
1099 2072
1104 2097
1106 669
1109 2122
1114 2147
1119 2172
1124 2197
1131 664
1134 2220
1141 2244
1149 2268
1155 656
1155 2293
1164 2317
1176 2339
1180 654
1185 2363
1197 2385
1204 2409
1205 649
1218 2430
1229 2453
1230 644
1239 2476
1251 2498
1255 644
1264 2520
1280 641
1281 2539
1289 617
1299 582
1306 2540
1309 557
1319 532
1331 2540
1334 502
1346 480
1355 456
1356 2540
1370 436
1381 2540
1382 414
1394 392
1406 2535
1409 367
1424 347
1431 2530
1436 325
1451 305
1456 2530
1466 285
1481 265
1481 2525
1496 245
1506 2520
1514 227
1531 2515
1532 209
1547 189
1556 2510
1565 171
1581 2505
1584 152
1602 134
1605 2495
1620 116
1630 2490
1639 97
1640 1785
1647 1809
1655 1833
1655 2485
1659 82
1660 1770
1660 1858
1665 2460
1669 1882
1670 2435
1675 1907
1679 1752
1679 1932
1680 2385
1680 2410
1683 75
1685 1957
1685 2355
1689 1982
1690 2007
1690 2320
1695 2032
1695 2057
1695 2270
1695 2295
1699 1737
1700 2082
1700 2107
1700 2132
1700 2157
1700 2182
1700 2207
1700 2232
1707 84
1717 1719
1730 94
1735 1700
1750 1680
1753 104
1769 1662
1778 110
1784 1642
1785 885
1785 910
1800 122
1800 930
1804 867
1809 1645
1814 951
1819 847
1822 134
1825 974
1831 825
1832 1655
1838 996
1845 144
1845 795
1850 1018
1857 1660
1859 1042
1860 775
1868 155
1868 1066
1873 753
1881 1668
1885 725
1886 1084
1890 167
1898 703
1905 1675
1907 679
1911 1084
1912 179
1920 650
1930 625
1930 1677
1932 194
1936 1084
1940 600
1950 570
1954 206
1954 1685
1960 540
1961 1089
1970 505
1976 219
1979 1685
1980 470
1985 440
1986 1089
1995 400
1996 234
2000 370
2004 1690
2005 330
2010 290
2011 1089
2015 251
2029 1695
2036 1094
2054 1695
2061 1099
2079 1700
2086 1104
2104 1700
2111 1109
2129 1700
2136 1114
2154 1700
2161 1119
2179 1700
2186 1124
2204 1700
2210 1132
2229 1700
2234 1139
2254 1700
2258 1146
2279 1695
2282 1154
2304 1695
2305 1164
2329 1690
2330 1169
2353 1180
2354 1687
2377 1189
2379 1685
2399 1201
2404 1680
2421 1214
2429 1675
2444 1224
2454 1670
2467 1234
2478 1663
2487 1249
2487 1639
2495 1605
2505 1565
2509 1261
2515 1520
2520 1495
2525 1465
2530 1425
2531 1274
2535 1385
2540 1298
2540 1323
2540 1348
