369 1167
369 1192
369 1217
369 1242
369 1267
369 1292
369 1317
369 1342
369 1367
369 1392
369 1417
391 1430
394 1164
416 1430
419 1164
441 1430
444 1164
466 1430
469 1164
491 1430
494 1164
516 1430
519 1164
541 1430
544 1164
566 1430
569 1164
579 657
579 1952
591 1430
594 1164
597 639
597 675
597 1934
597 1970
615 621
615 693
615 1916
615 1988
616 1430
619 1164
634 602
634 710
634 1897
634 2005
641 1430
644 1164
651 729
651 2024
652 584
652 1879
666 1430
669 747
669 1164
669 2042
670 566
670 1861
687 765
687 2060
689 547
689 1837
691 1430
694 1164
702 785
705 2078
707 529
707 1819
716 1430
719 1164
720 803
724 2095
725 511
725 1801
739 820
741 1430
741 2114
744 492
744 1164
744 1782
759 835
759 2132
762 474
762 1764
766 1430
769 1164
774 855
780 1746
783 2123
784 486
791 874
791 1430
794 1164
799 1727
800 506
801 2105
809 892
816 1430
816 2085
817 1709
819 1164
820 522
827 910
834 2067
835 1691
838 540
841 1430
844 1164
845 928
852 2049
854 1672
855 559
864 945
866 1430
869 1164
870 579
870 2030
872 1654
881 964
889 596
889 2012
890 1636
891 1430
894 1164
899 982
907 614
907 1994
909 1617
916 1430
917 1000
919 1164
925 632
925 1975
927 1599
935 1018
941 1430
943 650
944 1164
944 1957
945 1581
954 1035
960 669
962 1939
964 1562
966 1430
969 1164
971 1054
979 686
979 1542
980 1920
989 1072
991 1430
994 1164
997 704
997 1524
999 1902
1007 1090
1015 722
1015 1506
1016 1430
1017 1884
1019 1164
1022 1110
1033 740
1034 1487
1035 1865
1040 1128
1041 1430
1044 1164
1050 759
1050 1845
1052 1469
1065 779
1065 1150
1066 1430
1070 1825
1085 794
1090 1805
1104 811
1110 1785
1119 831
1129 1767
1137 849
1147 1749
1155 867
1165 1730
1173 885
1184 1712
1190 904
1202 1694
1209 921
1220 1675
1227 939
1239 1657
1245 957
1257 1639
1263 975
1269 252
1269 277
1269 302
1269 327
1269 352
1269 377
1269 402
1269 427
1269 452
1269 477
1269 502
1269 527
1269 552
1269 577
1269 602
1269 627
1269 652
1269 677
1269 702
1269 727
1269 752
1269 777
1269 802
1269 827
1269 852
1269 877
1269 902
1269 927
1269 1661
1269 1686
1269 1711
1269 1736
1269 1761
1269 1786
1269 1811
1269 1836
1269 1861
1269 1886
1269 1911
1269 1936
1269 1961
1269 1986
1269 2011
1269 2036
1269 2061
1269 2086
1269 2111
1269 2136
1269 2161
1269 2186
1269 2211
1269 2236
1269 2261
1269 2286
1269 2311
1269 2336
1293 2345
1294 249
1318 2345
1319 249
1343 2345
1344 249
1368 2345
1369 249
1393 2345
1394 249
1418 2345
1419 249
1443 2345
1444 249
1468 2345
1469 249
1493 2345
1494 249
1518 2345
1519 249
1535 269
1535 294
1535 319
1535 344
1535 369
1535 394
1535 419
1535 444
1535 469
1535 494
1535 519
1535 544
1535 569
1535 594
1535 619
1535 644
1535 669
1535 694
1535 719
1535 744
1535 769
1535 794
1535 819
1535 844
1535 869
1535 894
1535 919
1535 944
1535 969
1535 1630
1535 1655
1535 1680
1535 1705
1535 1730
1535 1755
1535 1780
1535 1805
1535 1830
1535 1855
1535 1880
1535 1905
1535 1930
1535 1955
1535 1980
1535 2005
1535 2030
1535 2055
1535 2080
1535 2105
1535 2130
1535 2155
1535 2180
1535 2205
1535 2230
1535 2255
1535 2280
1535 2305
1558 959
1560 1657
1576 940
1579 1674
1594 922
1599 1690
1612 904
1614 1710
1627 884
1631 1729
1645 866
1649 1747
1664 847
1667 1765
1682 829
1685 1783
1700 811
1704 1800
1710 1430
1719 792
1721 1819
1725 1160
1729 1447
1737 774
1739 1837
1744 1142
1747 1465
1748 1430
1755 756
1756 1164
1757 1855
1762 1124
1762 1485
1773 1430
1774 737
1775 1873
1780 1105
1780 1503
1781 1164
1792 719
1794 1890
1798 1430
1798 1521
1799 1087
1806 1164
1810 701
1811 1909
1816 1539
1817 1069
1823 1430
1829 682
1829 1927
1831 1164
1834 1557
1835 1050
1847 664
1847 1945
1848 1430
1852 1575
1854 1032
1856 1164
1865 646
1865 1963
1870 1593
1872 1014
1873 1430
1881 1164
1884 627
1884 1980
1888 1611
1890 995
1898 1430
1901 1999
1902 609
1906 1164
1906 1629
1909 977
1919 2017
1920 591
1923 1430
1924 1647
1927 959
1931 1164
1935 571
1937 2035
1942 1665
1945 940
1948 1430
1954 552
1955 2053
1956 1164
1960 920
1960 1683
1973 1430
1974 532
1974 2070
1975 1703
1980 900
1981 1164
1989 2090
1994 512
1995 1718
1998 1430
2000 880
2006 1164
2006 2109
2012 494
2013 1736
2020 860
2023 1430
2024 2127
2030 476
2031 1164
2031 1754
2039 842
2046 1774
2048 1430
2049 2127
2053 486
2056 1164
2057 824
2064 1792
2067 2109
2071 504
2073 1430
2075 805
2081 1164
2082 1810
2085 2090
2089 522
2094 787
2098 1430
2100 1828
2104 2072
2106 1164
2107 540
2112 769
2118 1846
2122 2054
2123 1430
2125 558
2130 750
2131 1164
2136 1864
2140 2035
2143 576
2148 1430
2149 732
2154 1882
2156 1164
2159 2017
2161 594
2167 714
2172 1900
2173 1430
2177 1999
2179 612
2181 1164
2185 695
2190 1918
2194 1980
2195 632
2198 1430
2204 677
2206 1164
2208 1936
2215 647
2223 1430
2231 1164
2248 1430
2256 1164
2273 1430
2281 1164
2298 1430
2306 1164
2323 1430
2331 1164
2348 1430
2356 1164
2373 1430
2381 1164
2398 1430
2406 1164
2423 1430
2431 1164
2435 1189
2435 1214
2435 1239
2435 1264
2435 1289
2435 1314
2435 1339
2435 1364
2435 1389
