109 1277
127 1259
127 1295
142 1239
147 1310
160 1221
170 1320
179 1204
193 1330
199 1187
218 1335
221 1174
241 1345
242 1159
264 1147
265 1352
282 1129
289 1360
302 1114
312 1370
324 1097
332 1385
344 1082
352 1400
364 1067
364 1422
379 1442
382 1049
397 1460
399 1027
414 1007
422 1465
429 987
447 969
447 1470
467 954
472 1474
487 939
497 1469
510 929
522 1465
533 919
547 1460
557 909
572 1454
582 909
596 1445
599 1662
604 1632
604 1687
605 899
609 1712
614 1602
614 1737
614 1952
614 1987
614 2027
619 1762
619 1787
619 1817
619 1857
619 1892
619 1917
619 2052
621 1445
624 1572
624 2077
624 2102
629 2127
630 894
639 1542
644 2147
646 1440
649 397
651 1520
654 422
654 2170
655 889
659 362
659 447
664 1497
669 337
669 470
669 2190
670 1447
676 494
676 1475
680 886
685 518
686 2209
687 319
697 540
699 707
704 2227
705 884
707 304
709 562
709 592
709 672
709 730
719 622
719 647
720 753
729 2227
730 879
732 309
739 770
751 2215
755 319
755 876
759 785
774 805
774 2205
779 326
780 871
794 820
799 2200
804 329
805 869
814 835
824 2200
829 334
829 855
849 2200
854 339
874 2202
879 339
899 2197
904 339
921 2185
929 339
939 2167
954 339
955 2145
970 2125
979 341
980 2100
995 2070
1003 349
1010 2040
1025 2015
1026 359
1040 1995
1049 369
1059 1977
1072 379
1081 1965
1092 394
1105 1955
1114 406
1124 1937
1134 421
1143 1920
1154 436
1161 1938
1172 454
1180 1955
1192 469
1201 1969
1210 487
1224 1980
1229 504
1246 1993
1248 521
1266 539
1268 2005
1286 554
1286 2023
1306 569
1306 2038
1321 2058
1329 579
1341 2073
1352 589
1361 2088
1370 607
1379 2106
1390 622
1399 2121
1405 601
1419 2136
1424 582
1437 2154
1446 569
1457 2169
1470 561
1479 2181
1490 546
1501 2193
1509 527
1519 502
1523 2205
1534 482
1546 460
1548 2210
1559 432
1571 2220
1574 407
1589 382
1596 2220
1607 364
1621 2220
1627 349
1646 2220
1650 339
1671 2220
1674 332
1696 2220
1699 332
1715 1695
1721 2225
1723 339
1729 1716
1740 1690
1746 2230
1747 1734
1748 339
1762 1754
1765 1685
1771 329
1771 2235
1782 1769
1790 1685
1795 2242
1796 324
1800 1787
1810 1895
1815 1680
1815 1807
1815 1920
1815 1945
1819 314
1819 2250
1820 1870
1820 1970
1825 1830
1830 1993
1839 329
1840 1675
1840 2016
1842 2239
1850 2039
1857 2219
1858 346
1860 2062
1865 1670
1869 2197
1870 1080
1870 2085
1873 366
1875 2110
1880 1055
1880 2135
1880 2160
1888 386
1890 1670
1891 1094
1893 1033
1900 408
1905 1010
1910 431
1915 456
1915 985
1915 1665
1916 1099
1920 481
1920 655
1920 685
1920 720
1920 745
1922 770
1923 506
1925 531
1925 560
1925 590
1925 615
1925 795
1925 960
1930 820
1935 845
1935 915
1937 870
1940 1660
1941 1094
1964 1652
1966 1094
1989 1647
1991 1089
2013 1640
2016 1084
2036 1630
2039 1074
2059 1620
2064 1074
2082 1609
2089 1071
2102 1594
2114 1072
2120 1575
2135 1555
2139 1074
2150 1535
2162 1084
2165 1515
2182 1099
2184 1497
2195 1125
2204 1482
2212 1144
2222 1464
2230 1162
2242 1449
2250 1177
2262 1434
2274 1184
2282 1419
2297 1194
2302 1404
2320 1204
2322 1389
2342 1374
2345 1209
2362 1359
2368 1220
2382 1344
2392 1229
2400 1325
2415 1239
2420 1310
2435 1254
2435 1290
