339 1277
339 1302
339 1327
339 1352
339 1377
339 1402
339 1427
339 1452
344 1237
344 1477
344 1502
349 1197
349 1527
354 1167
354 1552
354 1577
359 1602
364 1127
369 1625
374 1092
374 1650
379 1675
384 1052
386 1699
394 1022
394 1723
400 1748
404 997
409 1772
414 972
419 1795
424 947
430 1818
434 922
439 1842
444 897
449 1865
456 875
464 1885
469 852
475 1908
481 830
487 1930
499 1952
504 819
511 1974
526 1994
529 822
539 2016
549 722
554 819
554 2036
564 702
572 2054
574 725
579 682
579 819
584 2076
597 664
599 725
602 2094
604 819
617 2114
622 664
624 725
629 819
635 2132
647 664
649 725
653 2150
654 819
671 2168
672 664
674 725
679 819
689 2186
697 664
699 552
699 730
704 816
707 2204
719 537
722 664
724 725
727 2219
729 560
729 819
739 522
745 2237
747 664
749 727
754 560
754 814
757 504
765 2252
772 664
774 730
777 489
779 560
779 814
785 2267
797 474
797 664
799 730
804 560
804 814
807 2280
817 459
822 664
824 730
827 2295
829 560
829 811
839 447
847 664
847 2310
849 730
854 560
854 809
861 435
869 2322
872 659
874 730
879 560
879 809
884 422
891 2335
897 659
899 730
904 560
904 809
906 409
914 2345
922 659
924 730
927 394
929 560
929 806
934 2360
947 659
949 732
950 384
954 560
954 804
957 2370
972 654
973 374
974 735
979 560
979 804
980 2380
997 364
997 654
999 735
1003 2390
1004 560
1004 804
1021 355
1022 654
1024 735
1026 2400
1029 560
1029 802
1044 344
1047 649
1049 735
1049 2410
1054 560
1054 799
1067 334
1072 649
1072 2420
1074 735
1079 560
1079 799
1092 329
1097 644
1097 2425
1099 735
1104 560
1104 799
1116 320
1121 2433
1122 639
1124 735
1129 560
1129 797
1141 314
1145 2440
1147 639
1149 740
1154 560
1154 794
1166 309
1170 2445
1172 634
1174 740
1179 560
1179 794
1189 299
1194 2452
1197 634
1199 740
1204 560
1204 794
1214 294
1219 2455
1221 625
1224 740
1229 560
1229 789
1239 289
1244 2460
1246 620
1249 740
1254 560
1254 789
1264 287
1269 2465
1271 619
1274 742
1279 560
1279 787
1289 284
1294 2470
1295 611
1299 745
1304 560
1304 784
1314 279
1319 2470
1320 606
1324 745
1329 560
1329 784
1339 277
1344 599
1344 2475
1349 750
1354 560
1354 779
1364 274
1369 594
1369 2475
1374 750
1379 560
1379 779
1389 274
1394 587
1394 2480
1399 750
1404 560
1406 774
1414 274
1419 2475
1421 579
1424 755
1438 560
1439 274
1444 2477
1445 769
1463 560
1464 274
1469 2475
1489 274
1494 2475
1495 2025
1505 1895
1514 279
1516 2039
1519 2472
1530 1890
1539 281
1539 2027
1544 2470
1551 2049
1554 1897
1564 284
1567 2029
1569 2465
1575 2057
1576 1885
1589 289
1592 2029
1594 2462
1599 1896
1599 2064
1614 291
1617 2025
1619 1880
1619 2460
1624 2069
1636 1899
1639 294
1642 2029
1644 1875
1644 2455
1649 2074
1661 1899
1662 304
1667 2025
1668 2448
1669 1875
1674 2079
1686 1899
1687 309
1692 2025
1692 2440
1694 1870
1699 2084
1711 1899
1712 314
1717 2025
1717 2435
1719 1867
1724 2089
1735 324
1736 1899
1742 2025
1742 2429
1744 1865
1749 2091
1760 329
1761 1899
1766 2420
1767 2025
1769 1865
1774 2094
1783 339
1786 1900
1790 2410
1792 2025
1794 1860
1799 2096
1806 349
1811 1904
1814 2402
1817 2025
1819 1860
1824 2099
1830 357
1836 1904
1838 2393
1842 2025
1844 1857
1849 2102
1854 366
1860 2380
1861 1904
1867 2025
1869 1855
1874 2104
1878 375
1884 2372
1886 1904
1892 2025
1894 1855
1899 2104
1902 384
1908 2363
1911 1904
1917 2025
1919 1850
1922 399
1924 2107
1930 2350
1936 1904
1942 2025
1944 1850
1945 409
1949 2109
1950 2335
1961 1904
1965 424
1967 2025
1969 1850
1973 2323
1974 2109
1986 1904
1988 435
1992 2025
1994 1850
1995 2310
1999 2109
2008 450
2011 1905
2017 2025
2018 2298
2019 1845
2024 2109
2029 464
2036 1905
2038 2283
2042 2025
2044 1845
2049 2109
2050 478
2058 2268
2061 1909
2067 2025
2069 1845
2070 493
2074 2109
2080 2255
2086 1909
2092 505
2092 2025
2094 1845
2099 2109
2099 2237
2110 523
2111 1909
2117 2025
2119 1845
2119 2222
2124 2107
2130 538
2136 1909
2137 2204
2142 2024
2144 1840
2148 556
2149 2109
2155 2185
2161 1909
2166 574
2167 2024
2169 1840
2174 2106
2174 2167
2184 592
2186 1909
2192 2020
2192 2149
2194 1840
2199 2107
2202 610
2210 2130
2211 1909
2217 2024
2219 1840
2220 628
2224 2109
2236 1909
2238 646
2242 2024
2244 1840
2253 666
2261 1909
2267 2020
2268 686
2269 1840
2285 705
2286 1909
2292 2024
2294 1840
2299 726
2310 2005
2311 1909
2314 746
2319 1840
2325 769
2325 1985
2336 1909
2340 789
2340 1960
2344 1840
2353 811
2355 1935
2361 1909
2368 831
2369 1840
2380 853
2390 876
2394 1840
2400 899
2410 922
2413 1823
2420 945
2425 1795
2430 968
2435 1765
2440 991
2445 1735
2447 1015
2455 1039
2455 1705
2460 1064
2465 1680
2470 1087
2475 1112
2475 1640
2483 1136
2485 1600
2490 1160
2490 1565
2492 1185
2495 1210
2495 1525
2500 1235
2500 1490
2502 1260
2505 1285
2505 1310
2505 1345
2505 1380
2505 1415
2505 1450
