249 807
254 832
264 782
264 855
269 880
279 903
288 775
289 926
294 522
294 547
294 572
294 597
294 622
294 647
294 672
294 697
297 950
299 722
304 477
304 747
304 974
309 452
310 787
314 422
314 997
324 372
324 397
326 1019
334 347
341 1039
346 325
359 297
361 1055
374 277
382 1069
384 1094
384 1119
384 1144
389 257
389 1169
403 1190
404 232
415 1212
419 212
433 1230
439 197
448 1250
454 1307
454 1332
454 1357
457 179
459 1282
459 1382
469 1405
477 164
484 1425
499 152
501 1444
519 1462
521 140
537 1480
544 127
557 1495
568 119
575 1513
593 114
594 1530
616 1543
618 114
636 1558
643 114
656 1573
668 109
678 1585
693 109
698 1600
718 114
723 1600
743 119
746 1590
768 124
770 1580
791 134
794 1572
811 149
816 1560
831 164
836 1545
851 179
859 1535
874 169
875 1515
895 1500
899 169
914 1482
924 174
929 1462
944 1442
947 184
959 1422
967 199
971 1400
985 1375
989 211
995 1350
1005 1315
1007 229
1010 1200
1010 1225
1010 1250
1010 1275
1020 1175
1025 247
1035 1145
1037 269
1050 1115
1052 289
1055 1090
1060 313
1060 1065
1065 1010
1065 1035
1072 335
1084 357
1090 1010
1093 381
1100 405
1100 430
1100 455
1100 480
1100 505
1100 530
1100 555
1102 580
1105 605
1105 630
1105 655
1110 680
1110 990
1117 704
1123 968
1130 940
1135 905
1140 805
1140 830
1140 855
1140 880
1142 704
1145 770
1150 740
