224 797
224 822
229 847
239 777
239 870
254 890
257 759
269 910
282 759
284 930
294 522
294 547
294 572
294 597
294 622
294 647
294 672
294 697
294 953
299 722
304 487
304 747
304 976
312 1000
314 462
324 417
327 1020
329 387
334 357
342 1040
344 332
356 310
362 1055
371 290
382 1070
384 1095
384 1120
384 1145
386 270
389 1170
399 247
404 1190
415 1213
417 229
434 1230
435 211
449 1250
454 192
454 1307
454 1332
454 1357
459 1282
459 1382
469 1405
472 174
484 1425
490 156
501 1444
509 137
519 1462
529 122
537 1480
551 110
557 1495
575 101
575 1513
594 1530
600 96
616 1543
625 94
636 1558
650 94
656 1573
675 94
678 1585
698 1600
700 99
723 109
723 1600
746 119
746 1590
770 1580
771 124
794 134
794 1572
814 149
816 1560
833 166
836 1545
858 169
859 1535
875 1515
880 156
895 1500
904 147
914 1482
929 144
929 1462
944 1442
954 144
959 1422
971 1400
978 151
985 1375
995 1350
1000 163
1005 1315
1010 1200
1010 1225
1010 1250
1010 1275
1020 178
1020 1175
1035 198
1035 1145
1050 218
1050 1115
1055 1090
1060 1065
1065 238
1065 1010
1065 1035
1077 260
1090 282
1090 1010
1095 307
1100 332
1100 470
1100 495
1100 520
1100 545
1100 570
1104 357
1105 382
1105 407
1105 432
1105 595
1105 620
1105 645
1105 670
1110 990
1112 694
1123 968
1130 940
1135 704
1135 905
1140 880
1153 858
1158 715
1165 830
1170 737
1175 805
1178 761
