69 772
69 797
69 822
74 747
74 847
84 870
86 725
95 893
101 705
104 382
104 407
104 432
104 457
104 482
109 507
109 532
110 913
114 352
114 557
114 582
119 607
124 632
124 694
124 934
129 327
129 657
134 957
139 302
146 979
154 282
160 1000
169 257
180 1015
187 239
202 219
203 1025
219 1045
220 201
234 1065
235 181
244 1088
254 162
254 1317
254 1342
259 1108
259 1292
264 1133
264 1158
264 1183
264 1208
264 1233
264 1258
269 1362
274 147
279 1385
289 1408
296 135
299 1431
311 1453
319 122
329 1471
341 110
347 1489
364 99
365 1507
383 1525
387 89
401 1543
410 79
423 1555
433 69
446 1565
458 69
469 1575
483 64
492 1585
508 64
517 1590
533 64
542 1584
558 69
566 1575
583 69
586 1560
608 74
609 1550
628 89
628 1533
648 104
650 1520
670 117
670 1505
690 132
690 1490
702 154
710 1475
727 159
733 1465
752 159
753 1448
768 1428
777 164
780 1395
790 1370
799 176
800 1340
810 1280
810 1305
820 1205
820 1230
820 1255
821 189
839 207
839 1187
851 1165
861 219
866 1145
875 1115
880 1090
881 234
885 1025
885 1050
898 1003
899 252
908 276
913 983
923 296
930 320
933 968
935 345
940 370
940 395
940 420
940 445
940 470
940 495
940 520
940 545
945 570
945 595
945 620
945 645
945 670
951 950
962 689
965 920
974 711
975 880
985 734
985 855
990 759
990 784
990 809
