4 102
28 94
42 115
56 94
70 115
84 94
90 130
109 94
115 125
134 89
140 125
159 89
165 125
184 89
190 125
209 89
215 130
234 89
240 130
259 89
265 130
284 84
290 135
309 79
315 135
334 77
340 140
359 74
365 145
384 74
390 147
409 69
415 150
434 69
440 150
459 69
465 155
484 69
490 155
509 74
515 157
534 74
540 160
559 74
565 160
584 74
590 165
609 79
615 165
634 79
640 165
659 77
665 165
684 74
690 165
709 74
715 165
734 74
740 160
759 69
765 160
784 74
790 160
809 74
815 160
834 69
840 155
859 69
865 155
884 69
890 155
909 69
915 150
934 69
940 150
959 67
965 150
984 64
990 150
1009 64
1015 145
1034 64
1040 145
1059 59
1065 145
1082 49
1090 140
1102 64
1115 140
1127 64
1140 140
1152 64
1165 140
1177 64
1190 145
1202 59
1215 145
1225 69
1240 140
1246 55
1264 147
1266 40
1279 167
1286 24
1299 182
1309 12
1321 195
1333 4
1340 30
1340 55
1340 170
1350 78
1353 148
1375 81
1377 140
1400 77
1402 135
1424 84
1427 134
1449 89
1452 134
1474 89
1476 125
1499 89
1501 123
1524 84
1526 125
1547 74
1549 135
1565 56
1569 150
1587 44
1594 155
1610 34
1615 85
1619 160
1622 109
1630 60
1635 29
1637 129
1644 157
