994 497
994 522
994 547
994 572
994 597
994 622
994 647
999 437
999 462
999 672
1004 322
1004 347
1004 372
1004 397
1004 697
1009 277
1014 720
1024 257
1024 743
1040 763
1044 2117
1044 2142
1044 2167
1046 245
1049 1797
1049 1822
1049 1847
1049 1872
1049 1897
1049 1922
1049 1947
1049 1972
1049 1997
1049 2022
1049 2047
1049 2072
1049 2192
1049 2217
1049 2242
1049 2267
1049 2292
1054 784
1054 1687
1054 1712
1054 1737
1054 1762
1054 2317
1059 1552
1059 1577
1059 1602
1059 1627
1059 1652
1064 1447
1064 1472
1064 1497
1064 1522
1069 2337
1071 239
1071 803
1074 1402
1079 1377
1084 1347
1084 2357
1089 1317
1091 818
1093 251
1095 843
1099 1272
1104 1242
1106 2370
1107 865
1108 271
1109 1192
1109 1217
1110 340
1110 480
1110 505
1110 530
1110 555
1110 580
1110 605
1110 630
1110 655
1114 947
1114 972
1114 997
1114 1022
1114 1047
1114 1072
1114 1097
1114 1122
1114 1147
1115 295
1115 365
1115 390
1115 415
1115 440
1115 680
1116 889
1119 914
1122 704
1130 728
1131 2370
1145 748
1156 2370
1159 712
1164 662
1164 687
1169 602
1169 627
1174 507
1174 532
1174 557
1179 427
1179 452
1179 477
1179 2360
1184 322
1184 347
1184 372
1184 397
1189 262
1189 287
1198 2343
1204 242
1213 2323
1215 825
1220 795
1225 765
1225 848
1225 2295
1228 234
1230 720
1235 675
1235 2270
1240 615
1240 640
1245 515
1245 540
1245 565
1245 590
1245 863
1245 2245
1250 247
1250 440
1250 465
1250 490
1255 335
1255 360
1255 385
1255 410
1258 2223
1260 270
1260 295
1267 2199
1268 874
1275 2165
1280 2140
1285 2110
1290 861
1290 2045
1290 2070
1294 812
1295 1960
1295 1985
1295 2010
1299 772
1300 1910
1300 1935
1304 722
1304 747
1305 1820
1305 1845
1305 1870
1309 682
1310 1590
1310 1615
1310 1640
1310 1665
1310 1690
1310 1715
1310 1740
1310 1765
1310 1790
1314 647
1315 1565
1319 582
1319 607
1324 552
1325 1530
1329 527
1334 497
1335 1475
1335 1500
1339 467
1344 432
1345 1430
1349 382
1349 407
1354 262
1354 287
1354 312
1354 337
1355 1395
1360 855
1362 880
1365 820
1365 1360
1369 242
1370 780
1375 735
1375 1335
1379 899
1380 695
1385 655
1385 1295
1390 595
1390 620
1393 234
1395 560
1395 1255
1404 902
1405 505
1405 530
1408 1233
1410 475
1415 247
1415 445
1417 1209
1420 395
1420 420
1425 270
1425 295
1425 320
1425 345
1425 370
1426 889
1429 1187
1435 1155
1442 869
1445 1130
1455 1105
1460 851
1465 1080
1478 1058
1479 832
1487 1034
1497 814
1502 1014
1509 792
1517 994
1521 770
1532 974
1534 742
1546 720
1547 954
1554 692
1559 932
1569 667
1574 912
1581 645
1586 890
1590 621
1598 868
1599 582
1609 552
1610 845
1619 512
1623 823
1629 487
1635 790
1639 452
1645 760
1649 407
1655 725
1659 367
1665 685
1669 332
1670 660
1675 635
1679 287
1685 580
1685 605
1689 262
1690 555
1695 510
1705 470
1710 445
1714 259
1720 410
1725 385
1730 279
1730 355
1735 304
1735 329
