1035 836
1035 861
1040 801
1045 756
1045 1931
1045 1956
1045 1981
1050 361
1050 386
1050 411
1050 436
1050 461
1050 486
1050 511
1050 671
1050 696
1050 721
1050 881
1050 1891
1055 536
1055 561
1055 586
1055 611
1055 636
1055 1786
1055 1811
1055 1836
1055 1861
1055 2004
1060 1751
1061 2029
1065 341
1070 1716
1074 890
1076 2049
1080 1676
1090 335
1090 1651
1099 890
1100 1621
1101 2055
1110 810
1110 1591
1111 349
1115 770
1118 2074
1120 373
1120 398
1120 423
1120 448
1120 473
1120 498
1120 680
1120 705
1120 730
1120 1561
1123 899
1125 523
1125 548
1125 573
1125 598
1125 623
1125 648
1125 830
1130 1521
1140 1481
1143 2078
1148 895
1150 835
1150 1441
1160 1411
1163 2063
1170 1371
1173 900
1175 830
1175 2030
1180 1331
1190 1301
1195 2010
1196 910
1198 840
1200 1261
1205 751
1205 776
1205 801
1210 721
1210 1216
1210 1990
1220 656
1220 681
1220 1171
1220 1960
1221 905
1225 621
1230 1111
1230 1136
1235 591
1235 1915
1235 1940
1240 1031
1240 1056
1240 1081
1245 561
1245 1006
1245 1865
1246 910
1250 1890
1255 531
1255 1820
1258 984
1260 1710
1260 1845
1265 501
1265 1500
1265 1525
1265 1580
1265 1620
1265 1660
1265 1750
1268 1798
1269 920
1270 945
1270 1550
1270 1685
1275 471
1275 760
1275 785
1275 810
1275 835
1275 1420
1275 1445
1280 436
1280 720
1280 1395
1280 1470
1289 856
1290 391
1290 670
1290 695
1290 1365
1295 635
1295 1340
1300 600
1300 1315
1305 371
1310 570
1310 1265
1310 1290
1314 860
1320 540
1325 1230
1330 365
1330 510
1335 1200
1337 870
1340 480
1345 1170
1350 435
1351 379
1355 1140
1360 403
1361 879
1365 1105
1370 1080
1378 859
1380 1040
1390 990
1390 1015
1395 836
1395 965
1400 801
1405 771
1415 716
1415 741
1420 960
1425 676
1435 646
1440 895
1443 970
1445 606
1450 571
1455 531
1455 870
1460 401
1460 426
1463 905
1465 451
1465 476
1465 501
1468 848
1468 969
1470 815
1475 381
1475 770
1485 715
1485 740
1488 910
1491 980
1495 675
1500 375
1508 653
1513 915
1515 620
1516 985
1520 580
1521 389
1525 530
1525 555
1530 413
1535 438
1535 485
1538 920
1541 990
1563 925
1564 1000
1588 930
1589 1005
1605 896
1614 1005
1615 866
1625 796
1625 821
1630 846
1635 676
1635 716
1635 756
1639 1000
1645 571
1645 596
1645 626
1650 651
1655 526
1655 980
1665 486
1665 925
1665 950
1670 426
1670 451
1675 895
1680 401
1680 860
1690 790
1693 379
1695 815
1695 840
1700 660
1700 695
1700 735
1705 356
1705 760
1710 605
1715 570
1715 630
1725 525
1728 345
1735 495
1740 445
1740 470
1750 415
1753 350
1765 395
1768 370
