429 1027
429 1052
439 997
447 1070
449 972
459 947
471 925
471 1078
480 901
495 1087
500 886
515 1102
522 874
535 1117
546 865
559 1125
571 859
582 1135
596 854
606 1143
614 832
624 802
631 1148
644 787
655 1155
668 779
680 1155
691 769
705 1155
715 761
730 1160
739 754
755 1160
764 749
769 552
779 575
780 1160
787 534
789 744
802 585
805 1160
812 529
814 739
827 590
830 1165
837 524
839 739
852 594
855 1165
862 524
864 734
874 606
874 631
874 656
874 681
874 706
880 1165
887 519
899 437
899 462
899 487
905 1170
921 424
930 1170
946 429
955 453
955 478
955 503
955 528
955 1170
970 585
970 610
970 635
970 660
970 685
975 710
980 524
980 735
980 1170
987 759
995 580
1005 524
1005 1170
1012 764
1020 575
1030 524
1030 1170
1035 774
1044 567
1055 524
1055 1170
1060 779
1068 558
1078 535
1080 1165
1083 789
1105 1160
1108 795
1130 1160
1132 804
1155 1155
1157 804
1180 1150
1182 804
1205 1145
1207 804
1230 1140
1232 809
1240 833
1240 858
1250 1125
1252 880
1273 1115
1276 889
1296 1105
1301 894
1319 1095
1323 906
1344 1090
1345 919
1367 1079
1368 929
1388 1065
1393 934
1410 1050
1416 944
1429 1032
1435 1005
1436 959
