424 1002
424 1027
429 1052
434 972
444 942
451 1065
459 922
475 1072
479 907
495 1087
501 895
513 1105
524 884
536 1115
549 879
560 1122
571 865
584 1130
596 859
604 822
609 1135
614 797
634 1135
636 785
657 1145
660 776
682 1149
684 769
707 759
707 1150
732 754
732 1155
757 749
757 1160
779 542
782 749
782 1165
794 562
797 524
807 749
807 1169
818 570
820 514
832 744
832 1170
841 580
845 511
857 739
857 1175
866 583
870 509
879 697
879 722
882 1175
889 593
889 618
889 643
889 668
895 509
899 417
899 442
904 467
907 1175
921 404
932 1175
945 412
950 437
950 462
950 487
950 512
950 630
950 655
950 680
950 705
950 730
957 1175
958 536
960 605
967 749
982 544
982 1175
983 595
992 754
1007 544
1007 1175
1008 590
1017 754
1031 580
1032 544
1032 1175
1042 759
1054 570
1057 544
1057 1175
1067 764
1078 563
1082 1174
1092 769
1106 1165
1117 774
1131 1160
1142 779
1156 1155
1167 779
1179 1145
1192 779
1202 1135
1217 784
1225 1125
1240 794
1250 817
1250 842
1250 867
1250 1120
1269 884
1274 1112
1294 889
1299 1107
1317 899
1323 1100
1340 909
1348 1095
1363 920
1371 1085
1380 939
1386 1065
1403 950
1404 1047
1415 1020
1423 965
1428 998
