664 1117
664 1142
664 1167
664 1192
664 1217
664 1242
664 1267
664 1292
664 1317
669 1092
669 1342
674 1367
679 1047
679 1392
679 1417
684 1022
689 1440
696 1000
699 1463
701 975
709 947
709 1486
719 922
721 1508
734 902
734 1530
739 1555
746 880
754 1575
761 860
765 1598
774 1622
776 840
785 816
789 1642
797 794
799 1665
814 1685
817 779
829 1705
835 761
844 1725
854 742
859 1745
876 729
876 1764
891 1784
897 714
904 1806
919 437
919 462
919 702
922 1824
924 487
929 407
929 512
937 1844
941 385
943 694
944 532
954 357
955 1862
962 550
966 684
969 337
973 1880
982 565
987 319
987 669
993 1895
994 587
994 612
999 637
1008 1915
1009 307
1028 1930
1029 292
1039 2032
1039 2057
1039 2082
1044 2007
1046 1948
1047 274
1051 2104
1059 1987
1064 2126
1066 1963
1070 264
1082 2144
1093 254
1102 2160
1118 249
1125 2170
1143 244
1148 2180
1168 244
1168 2195
1188 2210
1190 231
1211 2220
1215 229
1234 2230
1240 229
1259 2230
1265 229
1284 2230
1290 229
1309 2230
1315 234
1334 2230
1340 234
1359 2225
1365 234
1384 2222
1390 234
1409 2217
1414 241
1433 2210
1438 249
1458 2205
1463 250
1483 2200
1487 259
1508 2195
1509 271
1529 286
1530 640
1531 2185
1540 605
1549 301
1550 555
1550 580
1551 654
1553 2173
1569 537
1571 314
1571 669
1573 2158
1580 1975
1585 515
1589 332
1591 2140
1595 1995
1596 674
1599 1957
1600 355
1600 490
1610 378
1610 455
1611 2125
1612 2014
1615 403
1615 428
1617 1939
1620 682
1625 2036
1626 2105
1630 1915
1630 2061
1640 697
1645 1895
1660 1875
1664 706
1675 1855
1686 719
1690 1825
1703 1803
1706 734
1715 1780
1724 752
1728 1758
1740 1735
1744 767
1755 1710
1762 785
1768 1688
1777 805
1780 1665
1792 825
1795 1640
1807 845
1808 1618
1817 1594
1825 863
1829 1572
1834 887
1838 1548
1845 1515
1846 909
1850 1490
1855 933
1865 956
1865 1465
1878 1443
1879 977
1890 1000
1890 1410
1900 1023
1900 1375
1909 1047
1910 1072
1910 1330
1915 1097
1920 1122
1920 1147
1920 1172
1920 1197
1920 1222
1920 1247
1920 1272
1920 1297
