334 457
334 677
334 702
334 727
339 427
339 482
339 507
339 532
339 557
339 582
339 607
339 632
339 752
339 777
339 802
339 827
339 852
339 877
339 902
339 927
344 377
344 402
344 952
344 977
344 1002
344 1027
349 1052
356 355
361 1074
376 339
384 1085
401 334
409 1085
426 334
434 1090
451 329
459 1090
476 329
484 1095
501 329
509 1095
526 324
534 1095
551 324
559 1100
576 324
584 1100
601 319
609 1100
626 319
634 1100
651 319
659 1105
676 314
684 1105
701 314
709 1105
726 314
734 1105
751 314
759 1110
776 309
784 1110
801 309
809 1110
826 309
833 1103
846 324
857 1094
861 344
870 368
870 393
875 418
875 1075
885 441
888 1053
892 465
900 489
900 1025
905 514
910 995
918 536
925 965
935 940
943 539
950 920
963 898
966 549
987 890
991 549
1012 890
1016 549
1037 885
1041 549
1061 564
1062 884
1084 574
1084 872
1099 852
1107 584
1119 837
1132 589
1144 835
1157 589
1169 835
1182 589
1194 835
1207 589
1219 830
1232 589
1244 835
1257 589
1269 835
1282 589
1294 835
1307 589
1319 830
1332 589
1344 830
1357 589
1369 835
1382 584
1394 835
1407 584
1417 825
1432 589
1442 825
1457 589
1467 830
1482 589
1492 830
1507 589
1517 830
1532 589
1542 830
1557 589
1567 830
1582 589
1592 830
1607 589
1617 830
1632 584
1642 830
1657 589
1667 830
1682 589
1692 830
1707 589
1717 830
1732 584
1742 830
1757 584
1767 830
1782 589
1792 830
1807 589
1817 830
1832 589
1842 830
1857 589
1867 830
1882 589
1892 825
1907 589
1917 824
1932 594
1937 809
1950 785
1954 606
1965 765
1972 624
1978 743
1987 644
2000 666
2000 730
2007 690
