234 402
234 427
234 452
239 477
239 502
244 377
244 527
244 552
249 577
249 602
254 627
256 355
259 652
259 677
259 702
264 727
264 752
264 802
269 777
269 827
269 852
271 335
279 875
294 322
296 894
318 314
319 905
343 309
344 910
368 304
369 910
393 304
394 910
418 299
419 915
443 300
444 915
468 304
469 915
493 299
494 920
518 294
519 920
543 294
544 920
568 289
569 920
593 289
594 925
618 289
619 925
643 284
644 925
668 284
669 925
693 284
694 925
718 279
719 930
743 279
744 930
768 279
769 930
793 274
794 930
818 274
819 930
843 274
844 930
868 269
869 930
893 269
894 930
918 269
919 930
943 264
944 930
968 264
969 930
993 264
994 925
1015 910
1018 264
1035 895
1043 264
1045 870
1055 845
1065 820
1068 259
1078 798
1090 765
1093 259
1103 743
1112 719
1118 259
1120 675
1130 635
1140 590
1143 254
1155 570
1168 254
1180 570
1193 254
1205 570
1218 249
1230 570
1243 249
1254 577
1268 244
1278 585
1293 244
1303 590
1318 244
1328 590
1343 239
1353 585
1368 239
1373 568
1382 544
1393 234
1395 520
1400 495
1418 234
1423 485
1443 234
1443 468
1463 453
1468 229
1481 435
1493 229
1506 430
1518 229
1531 433
1543 224
1555 442
1568 224
1579 450
1593 219
1604 445
1618 219
1629 440
1643 219
1653 433
1668 214
1678 435
1693 214
1701 445
1718 214
1726 450
1743 209
1751 450
1768 209
1776 455
1793 209
1801 450
1818 204
1826 450
1843 204
1848 438
1868 204
1870 425
1893 199
1893 415
1918 199
1918 410
1943 194
1943 415
1968 195
1968 410
1988 393
1990 207
2006 375
2008 225
2015 249
2025 272
2026 360
2035 295
2044 342
