184 747
184 772
189 677
189 702
189 797
189 822
194 622
194 647
199 845
206 869
209 597
219 891
221 575
231 913
239 557
249 931
261 544
264 951
279 522
282 969
294 502
302 984
309 482
322 1000
327 464
340 1018
347 449
355 1038
362 429
375 1053
384 417
394 1070
402 399
409 1090
422 384
431 1103
442 369
453 1115
462 354
478 1120
482 339
500 1132
504 327
524 1140
528 319
546 1153
551 309
570 1162
572 294
592 279
594 1170
617 274
619 1170
642 274
644 1170
667 279
669 1170
689 291
694 1167
709 306
718 1160
725 326
741 1150
743 344
763 1138
765 357
783 1123
785 372
803 1108
805 387
823 1093
825 402
840 422
841 1075
858 440
859 1057
873 460
874 1037
888 480
889 1017
904 997
905 499
916 975
920 519
931 955
939 536
945 930
959 551
965 915
977 569
985 900
1000 579
1009 892
1025 582
1033 885
1050 584
1058 880
1075 584
1083 875
1100 587
1108 870
1122 599
1133 863
1144 611
1148 843
1153 818
1166 624
1168 798
1190 785
1191 629
1214 777
1216 629
1239 775
1241 629
1264 770
1266 629
1289 765
1291 629
1314 760
1316 629
1339 755
1341 625
1364 755
1366 624
1389 755
1391 619
1411 768
1416 614
1426 788
1441 609
1448 800
1466 609
1473 800
1491 609
1498 800
1516 605
1523 795
1541 599
1548 795
1566 594
1573 795
1591 590
1598 790
1616 589
1618 773
1638 758
1641 589
1663 760
1666 589
1683 775
1691 584
1706 785
1716 579
1731 785
1741 574
1756 785
1766 569
1781 780
1791 569
1803 768
1816 569
1820 745
1840 730
1841 564
1865 556
1865 725
1890 554
1890 720
1915 554
1915 720
1940 551
1940 720
1965 546
1965 720
1989 539
1990 715
2014 539
2015 715
2039 539
2040 710
2064 544
2064 702
2086 690
2088 551
2108 678
2112 559
2128 663
2134 571
2145 640
2149 591
2155 616
