194 567
194 592
194 617
194 642
194 667
194 692
194 717
194 742
199 492
199 517
199 542
199 767
199 792
204 447
204 817
204 842
209 867
219 427
227 885
237 409
250 895
260 399
271 909
283 389
296 915
305 376
319 925
329 367
342 935
351 355
365 945
374 344
388 955
397 334
413 960
421 325
437 969
445 316
462 975
469 309
486 983
492 299
510 990
516 290
535 995
541 284
560 1000
566 279
585 1000
591 274
610 1005
615 266
635 1007
640 261
660 1010
665 256
685 1015
690 254
710 1010
715 254
733 1000
740 254
758 993
763 264
780 980
786 274
790 950
800 845
800 870
800 895
800 920
804 292
815 315
815 825
825 338
825 363
825 388
825 413
837 435
838 813
861 444
863 810
886 449
888 805
911 454
913 805
936 459
938 805
961 464
963 800
979 482
988 506
988 800
1013 504
1013 800
1036 790
1037 494
1061 785
1062 489
1086 780
1087 489
1111 775
1112 494
1136 775
1137 494
1161 775
1162 499
1186 775
1187 499
1211 770
1212 504
1236 770
1237 504
1261 770
1262 504
1286 765
1287 504
1311 760
1312 499
1336 755
1337 499
1361 750
1362 499
1386 753
1387 499
1411 755
1412 494
1436 750
1437 494
1461 745
1462 499
1484 735
1487 499
1509 740
1512 499
1534 745
1537 504
1559 745
1562 504
1584 745
1587 504
1609 745
1612 504
1632 735
1637 504
1655 745
1662 504
1680 750
1687 504
1705 745
1712 504
1730 745
1737 504
1754 737
1762 504
1772 719
1787 504
1790 695
1809 677
1810 514
1827 659
1830 529
1845 549
1845 640
1855 572
1864 622
1865 595
