194 702
194 727
194 752
194 777
194 847
199 802
204 662
204 870
219 627
226 883
229 602
244 582
246 898
259 562
269 887
270 705
270 730
270 755
270 780
270 855
275 805
275 830
277 544
280 680
289 872
290 650
293 744
299 532
299 712
299 895
303 628
304 920
307 945
311 690
318 608
321 519
324 667
329 957
338 593
344 652
346 514
349 972
359 632
360 770
360 795
360 820
360 845
363 590
367 869
369 987
370 735
371 514
375 893
380 918
380 943
383 624
383 713
388 590
389 812
389 837
392 874
394 372
394 397
394 422
394 447
394 472
396 519
399 332
399 777
403 698
404 307
404 925
405 611
409 747
409 950
414 267
419 973
424 237
424 727
424 998
425 685
436 215
437 1020
442 709
445 191
450 685
459 167
462 1025
465 815
465 840
467 865
470 890
474 147
475 780
475 915
487 1025
489 127
489 936
494 762
495 961
500 986
507 109
509 807
509 832
509 857
509 882
509 907
514 932
518 755
519 780
524 955
525 91
529 980
539 1003
545 76
545 1028
567 64
570 1030
585 810
585 835
585 860
585 885
585 910
590 54
595 933
595 1030
600 958
605 795
610 981
615 49
620 1004
630 800
640 44
653 810
665 44
675 822
679 1027
690 49
690 842
694 1002
702 864
704 977
704 1030
706 889
709 914
709 939
713 59
729 1027
735 775
736 69
752 794
753 1020
756 84
759 767
765 816
775 839
775 1000
776 99
780 864
784 765
785 889
785 914
785 939
785 964
794 117
801 784
804 997
812 135
814 806
814 942
814 967
819 831
819 907
820 695
824 856
824 881
825 157
828 1005
839 712
840 177
852 199
853 998
854 732
860 223
860 620
869 752
870 246
873 983
880 269
881 634
881 774
885 294
885 540
888 963
890 319
890 515
890 798
895 344
895 369
895 475
895 823
895 910
895 935
900 394
900 419
900 444
900 848
900 873
902 620
903 646
910 544
920 940
921 664
927 620
935 544
935 685
940 925
947 635
949 706
958 554
960 729
960 910
964 654
965 754
970 779
974 677
974 702
975 804
980 567
980 829
983 898
985 854
1000 582
1004 871
1018 600
1025 850
1030 622
1040 645
1040 825
1047 669
1050 694
1053 803
1055 719
1055 744
1055 769
