139 1152
154 1132
157 1170
172 1114
174 847
174 872
174 897
175 1188
179 922
184 812
187 1094
189 945
194 787
194 970
194 1067
197 1200
199 442
199 467
199 492
199 517
201 994
204 412
204 542
204 1019
204 1044
209 567
209 767
214 372
214 592
215 1180
224 347
224 615
227 749
230 1160
234 322
234 638
242 729
245 1135
247 660
249 297
250 855
250 880
254 1192
255 905
259 682
260 825
260 930
260 1100
262 714
264 272
267 954
269 1167
275 805
275 978
275 1070
278 1200
279 252
280 1003
280 1028
284 847
284 872
284 897
284 922
284 1147
290 785
292 959
294 822
294 1122
297 234
299 985
303 1200
304 1010
304 1097
309 1035
313 773
314 1060
315 216
328 1205
334 197
345 1185
352 179
360 850
360 875
360 900
360 925
360 1155
365 950
374 167
375 830
375 973
375 1120
380 998
385 1023
385 1085
389 882
389 907
389 932
390 1048
394 152
395 957
398 820
399 847
399 1197
404 981
409 1006
414 1031
414 1167
416 140
419 1056
419 1212
424 1081
424 1117
424 1142
439 129
444 1215
462 119
465 890
465 915
469 1220
470 940
475 865
475 965
485 109
485 988
485 1190
489 897
489 922
490 1013
490 1038
494 947
495 1155
499 872
499 1062
500 1087
500 1120
509 995
510 104
519 1018
519 1207
524 1043
524 1068
529 1093
529 1118
529 1143
529 1168
533 94
541 1220
558 89
565 900
565 925
566 1220
570 950
575 875
580 973
583 89
590 996
591 1220
595 1021
600 880
600 1046
600 1071
600 1195
605 1096
605 1121
605 1146
608 84
625 880
633 84
650 880
658 84
675 880
683 84
689 1002
689 1027
689 1052
689 1077
689 1102
689 1127
689 1152
699 967
699 1175
700 875
704 1200
708 89
709 899
709 942
727 1210
733 94
752 1210
758 99
765 1010
765 1035
765 1060
765 1085
765 1110
765 1135
770 1160
775 975
777 1205
780 865
783 104
785 890
788 1024
789 1092
789 1117
790 915
790 940
794 997
801 1139
804 962
806 114
809 897
814 1161
829 1181
830 122
850 1195
852 134
860 825
860 1035
860 1060
865 1085
870 848
870 1010
870 1110
875 144
875 1195
880 965
884 1131
885 868
885 893
885 918
895 159
900 1195
902 1149
910 867
917 1169
918 170
919 891
919 1027
919 1052
919 1077
924 916
924 992
924 1102
929 941
929 966
929 1127
935 780
938 185
944 1147
949 801
955 204
959 1167
963 780
967 819
974 221
980 841
983 795
983 1175
990 864
992 239
995 1030
995 1055
1000 715
1000 887
1000 912
1000 995
1000 1080
1001 813
1005 937
1005 962
1007 259
1007 1104
1008 1168
1015 695
1019 732
1019 831
1022 279
1022 1124
1030 670
1031 853
1032 1160
1035 301
1041 744
1043 648
1043 875
1049 322
1049 900
1054 925
1055 620
1056 764
1058 346
1059 950
1059 975
1059 1000
1064 1025
1065 595
1067 370
1069 1050
1074 782
1075 394
1075 555
1080 419
1080 525
1084 1070
1085 444
1085 469
1085 494
1086 804
1091 1094
1101 824
1106 1114
1110 848
1119 872
1119 1136
1125 897
1130 922
1135 947
1135 972
1135 997
1140 1022
1144 1132
1152 1044
1162 1114
1164 1066
1175 1089
