289 462
289 487
289 512
301 534
307 444
324 545
332 444
349 550
357 444
374 550
382 439
399 555
407 444
424 555
432 444
449 555
457 444
474 555
482 444
499 555
507 444
524 555
532 439
549 555
557 439
574 555
582 439
599 555
607 439
624 555
632 439
649 555
657 439
674 555
682 439
699 555
707 439
724 555
732 439
749 555
757 439
774 555
782 439
799 550
807 439
824 550
832 439
849 550
857 439
874 550
882 439
899 550
907 439
924 550
932 434
949 550
957 434
974 550
982 434
999 550
1007 434
1024 550
1032 434
1049 550
1057 434
1074 550
1082 434
1099 550
1107 434
1124 550
1132 434
1149 550
1157 434
1174 550
1182 434
1199 550
1207 434
1224 550
1232 434
1249 550
1257 434
1274 550
1282 434
1299 550
1307 429
1324 550
1332 434
1349 550
1357 434
1374 550
1382 434
1399 550
1407 434
1424 550
1432 429
1449 550
1457 434
1474 550
1482 434
1499 550
1507 434
1524 550
1532 434
1549 550
1557 434
1574 550
1582 434
1599 550
1607 434
1624 545
1632 434
1649 545
1657 429
1674 545
1682 429
1699 545
1707 429
1724 545
1732 429
1749 545
1757 434
1774 545
1782 434
1799 550
1807 429
1824 550
1832 429
1849 555
1852 414
1874 560
1876 405
1899 560
1901 404
1924 560
1926 409
1949 560
1951 409
1974 555
1976 414
1999 555
2001 414
2024 555
2026 414
2049 555
2051 414
2074 550
2076 414
2099 550
2101 414
2124 550
2126 414
2149 550
2151 414
2174 550
2176 419
2199 545
2201 419
2224 545
2226 419
2249 545
2251 419
2274 545
2276 419
2299 540
2301 419
2323 533
2326 424
2343 518
2345 441
2355 464
2355 489
