269 542
269 567
269 592
269 617
269 642
274 667
279 692
287 524
296 500
303 700
305 476
320 456
328 705
339 432
352 714
357 414
359 738
369 761
372 394
381 783
392 379
396 803
415 369
420 812
440 364
444 820
463 354
469 825
488 349
494 830
513 344
519 825
538 344
544 822
563 339
566 810
586 795
588 339
606 780
613 339
628 768
634 297
638 339
644 272
653 765
664 257
678 765
688 249
703 765
713 244
728 765
735 231
753 760
755 216
775 201
778 760
795 186
803 760
815 171
828 760
835 156
853 760
857 144
878 755
880 134
903 755
905 129
927 764
930 124
942 784
955 124
962 799
980 119
982 814
1005 119
1005 825
1028 835
1030 116
1053 835
1055 114
1078 835
1080 114
1103 840
1105 109
1128 840
1130 109
1153 840
1155 109
1178 840
1180 109
1203 835
1205 109
1228 830
1230 109
1253 823
1255 109
1270 800
1280 109
1283 778
1295 750
1305 109
1315 735
1330 109
1335 720
1355 109
1358 710
1380 109
1383 703
1405 109
1407 695
1430 109
1430 685
1453 119
1455 680
1475 132
1478 670
1497 144
1501 660
1519 156
1526 660
1539 171
1551 655
1557 189
1576 655
1577 204
1594 673
1597 219
1600 698
1615 237
1620 713
1633 255
1640 728
1650 274
1665 730
1675 279
1690 725
1700 279
1714 717
1723 290
1738 710
1740 309
1759 326
1760 695
1770 349
1775 655
1780 372
1780 630
1785 397
1785 605
1790 550
1790 575
1793 421
1795 515
1800 445
1805 470
