109 592
114 617
119 567
119 642
124 667
129 692
134 547
139 715
144 492
149 517
154 467
156 734
169 442
181 735
189 427
202 749
211 415
219 768
232 790
235 406
244 812
259 397
262 830
281 385
287 835
305 376
312 835
329 369
337 835
354 364
362 835
379 359
387 835
404 352
410 825
429 349
433 813
454 344
455 800
470 760
479 344
493 750
504 337
518 750
522 319
537 299
543 755
562 294
568 755
587 289
593 755
607 274
618 755
627 259
643 755
647 244
665 226
668 755
685 211
693 755
705 196
718 755
724 179
740 767
747 169
754 788
767 810
770 159
790 820
795 154
813 830
820 149
836 840
845 144
861 840
870 139
886 840
895 134
911 840
920 131
936 835
945 129
956 820
970 124
974 802
992 784
995 124
1007 764
1020 119
1025 745
1045 119
1048 735
1070 114
1073 728
1095 114
1097 720
1120 109
1122 720
1145 109
1147 725
1170 109
1172 725
1195 114
1197 725
1220 114
1222 720
1245 114
1247 720
1270 114
1272 720
1295 119
1297 715
1320 119
1322 715
1345 119
1347 715
1370 119
1372 715
1395 124
1397 715
1420 124
1422 710
1445 129
1447 710
1468 140
1472 710
1492 149
1497 710
1515 159
1515 728
1524 752
1535 174
1544 767
1558 185
1568 775
1579 199
1593 780
1600 213
1618 785
1622 225
1643 239
1643 785
1660 258
1668 783
1675 278
1686 765
1698 289
1698 743
1707 719
1715 690
1723 289
1730 670
1748 294
1753 660
1770 307
1776 650
1788 325
1795 630
1803 345
1808 608
1817 584
1818 365
1820 390
1820 415
1820 440
1820 465
1820 490
1825 555
1827 514
