84 707
84 732
94 755
104 582
104 692
109 607
114 552
114 632
114 657
117 765
132 534
140 775
152 519
159 792
174 507
174 812
192 830
198 499
215 840
221 489
238 850
244 479
263 855
269 474
288 860
294 467
313 860
318 459
336 870
341 449
355 887
366 444
375 902
391 439
395 917
416 434
417 930
441 429
442 935
466 424
467 940
491 419
492 935
515 411
515 925
535 910
540 409
554 892
565 404
578 885
590 399
601 895
615 394
626 900
640 391
651 905
665 389
676 910
688 379
701 910
708 364
726 915
728 349
743 329
751 920
761 310
776 920
781 295
799 277
801 920
817 259
826 920
837 244
851 920
857 229
876 920
877 214
897 199
901 920
919 187
926 920
941 174
951 920
964 164
976 920
989 159
1001 920
1014 154
1026 920
1039 154
1051 920
1064 154
1076 920
1089 149
1101 920
1114 144
1126 920
1139 144
1151 920
1164 139
1176 920
1189 139
1201 923
1214 139
1219 941
1239 137
1239 956
1263 965
1264 134
1288 965
1289 139
1313 965
1314 139
1338 960
1339 134
1361 950
1364 134
1381 935
1389 139
1401 920
1410 895
1414 139
1425 875
1439 139
1450 870
1464 144
1475 870
1489 144
1500 870
1514 144
1525 865
1539 144
1550 865
1564 149
1575 865
1589 149
1600 865
1614 154
1625 865
1639 159
1650 865
1664 159
1675 860
1688 166
1700 855
1712 174
1725 855
1737 179
1750 855
1762 184
1775 855
1787 189
1800 850
1812 194
1825 850
1834 206
1850 845
1856 219
1875 840
1878 231
1898 246
1900 835
1916 264
1925 830
1934 282
1950 832
1952 300
1970 318
1972 845
1988 336
1992 860
2006 354
2017 860
2024 372
2039 392
2042 860
2057 410
2064 847
2075 428
2084 832
2095 443
2096 810
2108 788
2119 451
2120 765
2143 460
2144 757
2167 469
2168 750
2187 484
2191 740
2209 496
2216 735
2227 514
2240 536
2240 725
2250 559
2255 584
2255 609
2259 707
2260 634
2273 656
2274 687
