334 632
334 657
334 682
344 602
346 704
359 582
359 726
374 746
377 564
389 766
395 546
404 786
417 534
422 804
437 519
442 820
457 504
462 835
479 492
484 847
501 480
508 855
520 877
526 474
535 897
550 917
551 469
570 932
575 461
592 945
599 454
616 953
624 454
640 960
649 449
665 960
674 442
690 955
699 439
714 947
724 434
736 935
749 432
761 935
774 429
786 940
799 429
811 945
824 424
835 952
849 424
860 957
874 424
885 962
899 419
910 967
924 424
935 970
949 424
960 975
974 424
985 975
999 424
1010 980
1024 424
1035 980
1049 419
1060 985
1071 405
1085 985
1091 390
1109 992
1111 375
1124 1012
1129 1037
1134 362
1141 1059
1154 347
1156 1079
1174 1097
1176 334
1194 1112
1199 322
1218 1120
1221 309
1241 1130
1242 294
1266 285
1266 1135
1290 276
1291 1140
1314 269
1316 1140
1337 259
1341 1135
1362 254
1366 1130
1387 254
1390 1120
1412 249
1414 1112
1436 1100
1437 254
1456 1085
1462 254
1476 1070
1487 254
1494 1052
1509 1032
1512 259
1521 1010
1537 259
1541 995
1562 264
1566 990
1587 264
1591 990
1612 264
1616 990
1637 269
1641 990
1662 269
1666 985
1687 274
1691 985
1712 279
1716 985
1737 284
1741 980
1762 284
1766 980
1787 289
1791 975
1812 294
1816 975
1837 294
1841 970
1860 304
1866 970
1885 304
1891 965
1908 314
1916 960
1933 319
1941 960
1958 324
1966 958
1981 334
1990 967
2002 989
2006 339
2017 1009
2029 349
2035 1027
2052 359
2053 1045
2075 369
2075 1057
2097 1069
2098 380
2120 392
2122 1070
2140 407
2147 1070
2162 419
2172 1070
2184 431
2195 1060
2206 444
2220 1055
2224 462
2240 1040
2246 474
2260 1025
2264 492
2279 1007
2284 507
2294 987
2302 525
2309 967
2320 543
2320 940
2338 561
2339 922
2356 579
2363 913
2376 594
2388 908
2391 614
2408 893
2409 632
2415 865
2420 835
2421 654
2430 810
2436 674
2440 785
2445 698
2450 723
2450 750
