664 1147
686 1160
691 1135
711 1160
716 1129
719 722
719 747
724 772
731 700
734 795
736 1160
741 1124
746 680
759 795
761 1160
766 665
766 1124
783 788
784 647
786 1160
791 1124
799 627
805 775
809 317
809 342
811 605
811 1160
814 367
816 1124
819 292
819 392
819 992
819 1017
819 1042
820 581
825 556
828 763
829 942
829 967
829 1065
831 270
834 412
834 527
834 907
836 1160
841 1124
844 242
844 497
844 1085
846 885
848 748
849 432
854 472
859 217
859 862
859 1105
861 1155
870 735
874 837
877 199
886 815
886 1150
890 1050
890 1075
895 730
895 791
897 1099
902 199
905 1123
907 769
910 1035
916 745
927 199
935 1035
952 204
960 1035
970 222
979 1117
979 1142
985 1035
989 1087
990 237
991 1164
999 1056
1008 255
1010 725
1010 750
1010 1130
1012 775
1016 1170
1025 274
1025 797
1029 1112
1035 730
1035 820
1035 845
1040 870
1040 895
1041 1134
1041 1175
1042 920
1044 291
1045 945
1045 1090
1052 315
1055 340
1055 365
1055 630
1055 655
1056 744
1058 1068
1062 964
1066 1129
1066 1175
1067 1044
1069 676
1070 610
1076 759
1079 374
1079 1022
1083 588
1084 976
1091 1124
1091 1175
1094 681
1094 777
1095 565
1101 1010
1104 367
1108 543
1109 979
1112 795
1116 345
1116 1119
1116 1175
1118 690
1126 1010
1127 815
1130 530
1130 712
1131 325
1134 979
1135 737
1141 1119
1141 1175
1142 835
1150 757
1151 544
1151 1010
1154 312
1159 979
1162 850
1166 1114
1166 1175
1175 552
1175 759
1176 299
1176 1010
1182 969
1185 820
1187 845
1190 1122
1191 1170
1199 560
1200 759
1201 299
1201 1010
1207 964
1210 825
1210 1137
1219 575
1224 766
1226 299
1226 1010
1232 959
1235 820
1244 575
1248 775
1250 307
1251 1005
1255 799
1257 954
1269 572
1272 319
1276 1000
1279 937
1289 827
1289 852
1289 877
1289 902
1291 560
1294 802
1295 329
1298 988
1304 772
1309 542
1310 349
1310 950
1314 747
1320 510
1320 870
1320 895
1320 920
1324 722
1325 369
1325 394
1325 419
1325 444
1325 469
1325 830
1330 795
1340 760
1342 704
1353 738
1365 694
