664 1172
674 1147
686 1125
689 1175
694 787
709 767
711 1119
714 1170
716 800
721 745
734 722
736 1119
739 790
739 1170
746 700
759 672
761 1119
762 780
764 1170
774 647
784 612
785 770
786 1119
789 1175
796 590
804 557
810 765
811 1119
814 327
814 352
814 377
814 532
814 1022
814 1047
814 1180
819 297
819 402
819 947
819 972
819 997
824 272
824 507
824 1070
831 925
834 237
835 765
836 1119
837 420
839 482
839 1090
839 1180
840 901
846 215
852 879
854 457
860 760
861 195
861 855
864 1185
874 832
884 184
885 760
885 1170
886 810
890 1060
890 1085
890 1110
890 1135
899 782
909 184
910 755
915 1055
934 184
940 1055
958 191
965 1055
974 1127
974 1152
982 199
984 1072
984 1097
996 1165
1002 214
1020 232
1021 1165
1030 655
1030 680
1030 1100
1030 1125
1035 745
1035 770
1035 795
1038 250
1040 355
1040 380
1040 820
1040 845
1045 330
1046 1165
1047 699
1047 869
1050 1085
1053 270
1054 647
1055 295
1055 893
1055 1124
1060 745
1060 918
1061 394
1065 1065
1069 942
1071 1165
1072 704
1075 967
1078 640
1080 1040
1080 1121
1081 759
1085 386
1087 989
1095 714
1096 1165
1099 362
1099 777
1101 630
1105 1035
1105 1119
1111 340
1112 989
1114 797
1115 729
1116 610
1121 1160
1125 575
1126 320
1126 819
1130 1035
1130 1114
1135 744
1137 989
1139 841
1146 305
1146 1160
1150 575
1150 764
1154 861
1155 1035
1155 1114
1162 989
1169 294
1171 1160
1173 774
1175 575
1179 862
1180 820
1180 1030
1180 1119
1187 989
1194 294
1195 1167
1196 784
1200 575
1201 834
1204 1126
1205 1025
1211 980
1215 1149
1219 296
1220 792
1224 845
1225 570
1229 1017
1234 967
1240 807
1243 304
1249 562
1249 842
1253 1010
1254 942
1264 917
1266 314
1273 555
1274 882
1276 1000
1284 332
1284 842
1289 802
1293 538
1294 777
1298 988
1299 352
1308 518
1309 752
1310 375
1315 400
1316 970
1320 490
1325 423
1325 448
1329 737
1330 815
1330 840
1330 865
1330 890
1330 915
1330 940
1335 790
1345 765
1351 724
1365 750
1374 714
