654 1162
664 1137
678 1170
682 1119
694 762
703 1170
705 1109
709 742
712 780
719 717
728 1170
729 692
730 1109
737 780
744 672
753 1170
754 647
755 1109
762 775
769 627
778 1170
780 1114
781 605
785 765
799 587
803 1125
803 1170
809 272
809 297
809 322
809 347
809 1002
809 1027
809 1052
810 760
814 567
819 237
819 370
819 1075
821 980
824 937
826 394
826 545
828 1129
828 1170
829 907
830 1098
831 215
833 750
835 521
839 877
841 414
847 499
851 855
853 1170
854 202
854 436
856 475
856 740
864 832
876 810
878 1170
879 199
881 735
889 787
895 1065
895 1090
895 1115
899 753
901 1160
904 199
920 1060
929 199
945 1060
954 201
970 1060
974 1142
978 209
989 1112
992 1160
994 1067
1001 219
1010 750
1010 775
1012 800
1017 1160
1020 655
1020 680
1023 231
1024 822
1033 740
1036 844
1040 1080
1040 1105
1041 249
1041 694
1042 1160
1043 643
1048 866
1050 1055
1053 891
1057 1124
1058 740
1059 267
1065 292
1065 317
1065 342
1065 367
1065 630
1065 913
1066 699
1067 1164
1069 1037
1074 937
1078 755
1080 1114
1084 612
1085 960
1089 374
1090 707
1090 777
1092 1165
1093 1030
1100 351
1100 590
1102 979
1105 1114
1108 725
1108 795
1110 565
1115 331
1117 1165
1118 1030
1123 745
1124 815
1127 979
1129 307
1130 1114
1133 555
1139 835
1142 1165
1143 760
1143 1030
1149 292
1152 979
1154 855
1155 1114
1158 560
1160 779
1167 274
1167 1165
1168 1030
1171 874
1177 979
1180 815
1180 840
1180 1114
1183 565
1185 784
1187 259
1192 1170
1193 1025
1202 979
1203 1124
1205 820
1208 565
1210 789
1212 254
1217 1164
1218 1020
1224 967
1228 830
1233 565
1234 796
1237 259
1241 1010
1242 949
1257 929
1258 565
1259 271
1263 998
1269 897
1278 978
1279 286
1279 842
1279 867
1281 555
1284 807
1290 950
1296 785
1297 304
1303 543
1303 928
1311 765
1312 904
1315 322
1315 515
1320 870
1325 475
1330 342
1330 450
1330 810
1330 835
1331 750
1335 367
1335 392
1335 417
1335 775
1346 730
1366 715
1366 745
1388 733
