4 572
4 597
9 622
19 552
19 645
24 670
34 693
37 534
47 715
55 516
67 730
75 501
84 749
95 486
104 765
117 474
124 780
137 459
141 799
157 444
159 817
179 432
179 832
197 850
201 419
209 1407
214 1432
215 868
224 407
229 1452
233 1399
235 883
244 392
249 1467
255 898
258 1404
266 380
271 1480
274 915
283 1405
286 365
294 930
294 1490
298 1425
306 350
313 1445
314 945
317 1500
326 335
334 960
334 1459
337 1434
341 315
341 1508
354 975
361 300
362 1429
366 1510
377 985
381 284
384 1441
391 1515
397 264
402 990
406 1454
412 244
416 1515
427 224
427 995
431 1459
439 1042
439 1067
441 1510
442 204
449 1007
454 1447
457 184
457 1085
466 1505
474 1432
475 166
479 1097
488 1493
489 1412
494 147
494 1117
504 1387
509 122
509 1137
510 1480
514 1362
524 102
524 1332
527 1155
529 1302
530 1465
534 1179
534 1204
534 1232
534 1257
539 77
545 1445
554 52
560 1015
560 1425
564 27
575 1400
588 19
588 1378
600 1325
605 1295
605 1350
610 31
610 1155
610 1245
610 1270
615 1180
620 54
623 1133
625 1203
630 77
638 1113
640 100
654 121
661 1103
665 144
680 164
680 995
685 1020
686 1100
690 1045
690 1070
699 181
705 1000
714 201
729 221
730 995
744 241
753 985
759 261
775 281
776 975
790 301
800 960
810 317
823 948
825 337
845 352
847 939
863 370
867 924
880 389
888 910
900 404
908 895
919 421
931 885
939 436
951 870
957 454
971 855
979 466
991 840
997 484
1011 825
1017 499
1031 810
1037 514
1049 792
1052 534
1069 777
1072 549
1087 759
1090 567
1104 740
1108 585
1118 718
1123 605
1125 685
1130 645
