154 1147
154 1172
159 1197
164 1112
164 1222
169 1247
169 1272
174 1297
176 1090
179 1322
185 1066
191 1344
199 1042
204 1366
211 1020
219 1386
229 997
234 1406
247 979
254 1421
262 959
272 1439
277 939
292 919
292 1454
310 901
310 1250
310 1275
315 1465
320 1225
325 881
330 1195
334 1282
338 1475
340 861
340 1170
353 1148
358 1274
360 846
361 1485
370 1125
375 826
383 1103
383 1269
384 1495
395 811
398 1083
408 1264
409 1500
413 1063
414 792
428 1043
430 1251
432 774
432 1510
443 1023
450 756
450 1528
454 1244
458 1003
469 737
474 1520
475 980
479 1239
487 719
490 960
499 1525
502 1229
505 701
509 942
524 684
524 922
524 1525
525 1219
542 904
544 667
548 1209
549 1525
554 882
562 649
570 860
570 1196
574 1522
577 629
585 835
594 1187
595 611
599 1520
600 815
614 592
614 1172
615 795
623 1513
630 770
632 574
636 1159
647 1505
649 752
650 556
659 1147
661 730
662 534
672 1499
675 705
681 1134
682 519
690 685
696 1490
697 499
700 1116
705 665
712 479
719 1480
720 630
722 1104
727 459
735 600
740 1465
742 1089
744 437
745 560
755 525
760 500
760 1450
765 451
765 1079
775 1430
786 1065
788 1408
800 1375
806 1050
815 1355
826 1035
838 1343
844 1017
862 1334
866 1004
882 1319
887 989
904 1307
905 971
925 956
926 1295
945 941
946 1280
965 926
966 1265
984 909
989 1255
1004 892
1010 1240
1028 884
1033 1230
1048 869
1056 1220
1068 854
1072 829
1074 1202
1096 1190
1097 829
1116 1175
1122 834
1138 1163
1146 825
1158 1148
1171 819
1180 1135
1196 814
1200 1120
1219 1102
1221 809
1241 1090
1246 809
1261 1075
1267 794
1281 1060
1292 799
1301 1045
1312 784
1321 1030
1334 772
1341 1015
1356 759
1361 1000
1377 744
1381 985
1399 732
1401 970
1419 717
1421 955
1437 699
1441 940
1457 684
1461 925
1477 669
1481 910
1497 654
1501 895
1519 642
1521 880
1539 862
1541 629
1559 847
1564 619
1577 829
1589 614
1601 820
1614 609
1621 805
1639 612
1641 790
1661 775
1664 609
1681 760
1689 604
1703 748
1714 599
1723 733
1739 599
1741 715
1745 630
1756 695
1768 673
1770 634
