109 592
109 642
114 617
119 547
129 517
129 657
134 682
139 492
146 704
151 470
164 447
165 620
169 715
170 645
170 670
176 425
178 598
186 734
191 405
192 704
193 578
205 550
209 382
211 733
224 362
224 532
232 719
233 745
239 512
242 344
257 724
258 750
259 497
260 326
274 302
275 475
280 714
281 740
289 282
294 457
300 699
304 730
307 264
312 439
317 679
323 713
327 249
327 419
335 661
340 690
342 399
345 231
354 644
360 380
364 212
371 625
379 192
379 362
389 592
395 340
396 620
397 174
404 562
412 154
414 322
414 602
422 544
426 300
430 136
432 584
440 275
440 526
445 116
450 565
459 509
460 260
469 107
469 547
474 489
479 242
480 523
494 102
497 224
515 205
518 94
534 187
541 84
552 169
564 74
567 149
587 64
587 134
602 114
612 69
622 99
