69 617
69 642
74 592
79 665
89 572
94 685
107 554
114 700
127 539
134 715
149 527
157 725
171 515
181 733
196 509
205 740
221 504
230 740
246 504
255 740
271 509
280 740
296 509
305 735
321 514
330 735
346 519
355 730
369 529
378 718
392 539
398 703
417 539
422 695
442 539
445 685
467 539
470 685
492 539
495 685
517 544
520 685
542 544
545 685
567 549
570 685
592 549
595 687
617 549
620 690
637 709
642 549
649 731
657 529
669 746
677 514
689 761
695 496
710 775
715 481
733 785
737 469
758 790
760 459
781 800
783 449
806 439
806 805
831 434
831 805
856 429
856 810
881 429
881 810
906 429
906 810
931 429
931 810
956 434
956 810
981 434
981 810
1005 800
1006 439
1030 795
1031 444
1055 790
1056 449
1078 780
1079 459
1100 473
1101 770
1121 755
1122 485
1139 737
1142 500
1159 722
1160 518
1178 536
1179 707
1190 558
1195 685
1205 578
1208 663
1210 603
1215 628
