85 1756
85 1781
85 1806
85 1831
85 1856
90 1731
95 1879
100 1691
105 1902
110 1666
120 1922
123 1644
135 1621
135 1942
148 1599
150 1962
163 1579
165 1982
177 2004
181 1560
190 2026
195 1780
195 1805
195 1830
200 1735
201 1545
201 1855
208 2044
210 1705
210 1879
223 1901
225 1536
225 1761
225 1786
230 1690
230 1811
230 1836
230 2056
235 1923
240 1741
241 1859
250 1530
252 2069
253 1678
253 1941
260 1876
265 1735
273 1956
275 1530
277 1670
277 2075
282 1889
286 1749
295 1773
297 1909
297 1965
300 1530
300 1798
302 1670
302 2080
304 1823
320 1920
322 1970
325 1530
325 1680
327 2080
328 1830
342 1699
345 1920
347 1970
350 1535
351 1820
352 2080
357 1719
360 1781
370 1741
370 1915
372 1970
373 1545
377 2080
393 1903
396 1555
397 1965
402 2080
410 1880
416 1570
417 1950
425 1860
425 2070
434 1588
435 1931
438 1838
446 1610
449 2062
450 1815
454 1913
459 1632
465 1785
468 1656
470 1681
470 1706
470 1731
470 1756
471 2050
472 1895
480 1221
480 1246
480 1271
480 1296
480 1321
480 1346
480 1371
480 1396
485 1186
485 1421
485 1446
485 1871
490 1471
490 1846
493 2038
495 1146
495 1496
500 1521
500 1811
505 1111
505 1546
505 1571
510 1771
511 2020
515 1076
515 1594
520 1619
520 1731
523 1998
525 1046
525 1644
525 1669
525 1694
535 1006
538 1978
545 981
555 951
556 1960
568 929
574 1942
575 901
585 876
589 1922
595 851
604 1902
608 829
615 801
622 1884
628 779
637 1864
640 751
652 1844
653 729
665 701
665 1820
678 1798
685 681
687 1774
695 646
695 1750
705 1720
710 621
715 1685
720 1655
725 1615
729 603
730 1555
730 1580
735 1085
735 1110
735 1135
735 1160
735 1185
735 1210
735 1235
735 1260
735 1285
735 1310
735 1335
735 1360
735 1385
735 1410
735 1435
735 1460
735 1485
735 1510
740 1005
740 1030
740 1055
744 583
745 970
750 945
755 920
762 565
765 880
775 850
777 545
785 820
792 525
795 790
810 765
812 510
820 740
827 490
833 718
845 695
849 478
858 673
871 465
873 653
888 633
891 450
900 691
900 716
900 741
903 613
911 764
914 438
915 671
918 593
925 785
935 655
936 425
938 578
939 806
954 826
956 640
958 563
961 420
970 715
972 844
976 625
980 550
980 738
984 410
990 700
990 862
992 760
999 613
1003 540
1005 782
1005 882
1007 400
1010 685
1021 600
1023 800
1023 900
1026 530
1032 400
1033 673
1040 819
1040 919
1044 590
1049 520
1055 660
1055 839
1057 395
1059 936
1067 580
1071 958
1072 510
1075 854
1078 650
1082 390
1089 976
1090 751
1090 776
1092 575
1095 500
1095 870
1101 799
1103 643
1105 731
1107 390
1107 994
1115 565
1116 819
1119 877
1120 495
1120 711
1127 635
1127 1009
1132 385
1140 560
1140 696
1141 825
1144 880
1145 490
1147 1024
1152 630
1157 385
1165 555
1165 700
1165 1042
1166 830
1169 881
1170 485
1175 755
1177 625
1181 720
1182 385
1187 1054
1190 555
1191 830
1194 885
1195 480
1200 760
1202 625
1207 385
1211 1063
1215 555
1216 830
1219 883
1220 480
1225 760
1227 625
1232 385
1233 1075
1240 555
1241 830
1243 875
1245 475
1250 760
1252 625
1257 390
1258 1079
1265 555
1266 830
1268 870
1270 475
1270 643
1275 755
1280 666
1281 399
1283 1080
1285 691
1289 733
1290 560
1291 825
1291 860
1295 481
1304 410
1308 1080
1309 577
1313 499
1314 815
1315 851
1324 597
1327 420
1333 798
1333 1080
1335 511
1335 620
1339 843
1345 643
1345 775
1351 429
1353 529
1355 666
1358 753
1358 1075
1360 691
1360 716
1361 830
1370 548
1373 441
1380 571
1381 815
1381 1065
1391 594
1393 456
1401 800
1403 1053
1404 616
1408 476
1410 641
1410 771
1415 666
1420 691
1420 716
1420 741
1420 1030
1423 496
1435 1010
1438 516
1445 985
1453 536
1455 955
1465 900
1465 925
1470 555
1475 860
1480 578
1485 815
1490 601
1490 755
1490 780
1500 624
1500 649
1500 674
1500 699
1500 724
