85 1171
85 1196
85 1221
90 1246
98 1149
101 1269
115 1290
116 1130
120 1175
120 1200
121 1225
130 1249
132 1309
135 1111
135 1155
143 1271
147 1329
155 1140
155 1186
155 1211
158 1099
159 1236
160 1290
165 1163
167 1344
174 1256
175 1125
176 1310
180 1086
187 1359
189 1276
190 1195
190 1220
196 1325
198 1115
203 1173
204 1078
204 1241
207 1374
209 1291
216 1340
218 1130
221 1105
221 1260
228 1070
228 1169
230 1305
232 1380
241 1345
243 1135
243 1189
244 1271
246 1100
246 1214
253 1065
255 1310
257 1385
258 1155
266 1350
269 1225
269 1270
271 1100
273 1175
278 1065
279 1302
280 1199
282 1385
291 1350
292 1260
295 1107
301 1290
303 1070
307 1385
312 1245
315 1122
316 1345
320 1221
323 1085
323 1278
325 1191
330 1142
330 1375
339 1333
341 1260
343 1100
353 1238
353 1365
355 1311
360 1119
360 1195
365 1144
365 1169
368 1289
373 1348
383 1269
385 341
385 366
385 391
388 1328
390 416
390 1241
395 301
395 441
395 466
395 491
395 516
395 541
395 566
395 591
395 616
395 1216
397 1304
400 641
400 666
400 691
405 276
405 716
405 741
405 766
405 791
405 1146
405 1171
410 816
410 841
410 866
410 891
410 916
410 941
410 966
410 991
410 1016
410 1041
410 1066
410 1091
410 1116
412 1284
415 246
420 1250
425 216
430 716
430 1210
438 194
440 236
440 261
440 286
440 1185
445 311
445 336
445 361
445 386
445 411
450 156
450 436
450 1125
450 1150
455 461
455 1095
460 486
460 1065
463 193
465 136
465 511
465 536
465 561
465 635
465 1030
468 586
470 660
470 950
470 975
470 1000
475 690
475 715
475 740
475 765
475 790
475 815
475 840
475 865
475 890
475 915
480 116
480 170
495 150
500 96
514 132
523 85
536 120
548 80
561 115
565 276
565 301
570 326
573 80
578 254
578 350
586 115
590 372
595 231
598 80
600 285
602 394
605 310
610 335
611 118
613 263
614 213
620 358
622 409
623 85
628 243
632 195
635 125
638 376
642 424
646 225
648 90
652 180
658 391
660 130
664 436
666 210
673 95
675 291
676 170
678 406
680 316
685 136
688 445
690 200
695 336
696 105
698 280
701 165
702 415
710 457
713 300
715 201
716 350
721 110
721 150
725 425
726 175
733 315
735 460
737 214
741 350
744 120
746 160
749 186
750 425
753 299
755 232
760 257
760 460
765 340
766 205
767 130
773 179
773 414
780 320
781 225
784 452
787 145
790 198
790 295
791 395
794 247
800 430
805 163
805 218
806 375
815 351
819 245
820 183
820 415
825 270
825 295
825 320
835 203
835 390
845 226
845 365
855 249
855 330
860 274
865 299
