175 1596
175 1621
175 1646
175 1671
175 1696
180 1566
180 1721
185 1541
190 1744
195 1516
200 1767
208 1494
212 1789
226 1475
227 1809
235 1833
245 1456
245 1605
245 1630
245 1655
245 1680
250 1575
250 1705
250 1853
255 1550
256 1730
265 1873
268 1444
268 1528
269 1752
280 1775
285 1888
288 1513
290 1798
292 1435
295 1676
295 1701
295 1726
300 1651
304 1905
308 1816
310 1746
312 1504
315 1631
317 1430
320 271
320 296
320 321
320 346
320 371
320 396
324 1920
325 246
325 421
325 1766
326 1834
330 221
333 445
337 1500
338 1619
340 191
340 469
342 1430
343 1784
345 1851
346 1933
350 166
350 492
359 516
360 541
362 1504
362 1610
363 1799
365 141
366 1865
367 1430
370 564
370 1941
380 121
380 587
380 612
380 1096
383 1815
384 1121
387 1510
387 1610
389 1876
390 280
390 305
390 330
390 355
390 380
390 405
390 635
390 1730
391 1439
392 1954
395 255
395 911
395 1076
397 659
399 936
400 428
401 1140
403 109
405 215
405 453
405 683
405 1827
409 1622
409 1747
410 891
410 1521
411 1889
414 477
415 190
415 706
415 1448
415 1965
416 955
418 89
418 1065
418 1723
420 502
421 1644
423 730
426 1145
428 1539
429 1762
429 1835
430 170
430 525
433 1666
434 1900
435 356
435 381
435 406
435 550
435 752
435 885
435 1700
437 1460
438 74
440 431
440 777
440 1971
441 575
441 960
443 1059
445 150
445 316
448 1554
449 1135
450 599
450 800
451 454
454 1758
454 1835
455 624
458 59
458 294
459 1472
459 1905
460 823
460 885
463 1574
464 1980
465 647
465 848
465 1046
466 960
468 138
470 271
470 471
472 1125
472 1740
473 671
477 1490
477 1824
478 1594
480 46
480 695
484 1910
485 251
485 1618
487 1720
488 123
489 1980
490 486
490 718
490 1040
490 1643
491 960
495 1115
495 1508
495 1668
495 1693
497 1809
499 742
503 35
504 233
505 365
505 390
506 415
506 1020
508 108
509 1910
510 501
510 765
510 1528
514 1980
515 325
515 967
515 1100
516 790
517 1794
522 215
525 814
526 430
528 30
528 1546
530 300
530 516
530 839
530 987
531 1015
532 100
532 1774
534 1910
539 1980
540 1095
540 1568
544 203
544 860
546 445
547 1754
549 282
550 1591
553 25
554 525
557 95
557 1615
559 1732
559 1910
560 1080
564 188
564 1980
565 1639
565 1664
565 1689
567 850
569 267
569 456
570 1103
577 535
578 25
580 381
580 940
580 1126
582 95
584 406
584 1910
588 179
588 1150
589 1980
591 255
592 845
593 465
594 961
595 361
595 1174
599 426
600 986
600 1199
602 540
603 25
604 932
607 95
609 1910
610 1222
610 1247
612 170
614 245
614 1980
617 850
618 470
620 355
620 1270
621 438
625 986
626 920
627 540
627 1294
628 25
630 1065
632 95
634 1908
635 1318
636 1090
637 170
639 240
639 1980
640 1343
641 369
642 855
643 470
645 445
645 1114
645 1368
650 910
650 980
650 1139
650 1393
652 540
653 25
655 1065
655 1170
657 100
659 1903
660 873
660 1416
660 1441
662 170
664 240
664 1975
666 375
668 469
669 1191
670 1466
670 1491
675 445
675 978
675 1216
677 539
677 1885
678 30
680 110
680 1060
680 1241
680 1514
680 1539
680 1566
685 1591
685 1861
686 253
686 360
687 175
687 1265
687 1965
690 1616
690 1641
690 1836
695 460
695 993
695 1289
695 1801
700 274
700 331
700 1040
700 1314
700 1664
700 1689
700 1714
700 1739
700 1764
701 40
701 124
702 534
705 299
705 1360
708 438
710 185
710 1955
719 1381
720 141
721 55
725 1406
725 1445
725 1935
726 525
728 423
729 202
739 1466
740 156
740 1491
740 1915
741 70
745 400
745 1545
746 510
747 220
750 1514
750 1570
750 1890
755 176
756 1595
758 378
760 87
760 1620
760 1845
761 1645
762 240
765 1815
766 495
770 264
770 350
770 1669
770 1694
770 1719
770 1744
770 1769
773 194
775 289
775 314
780 103
784 477
788 214
794 343
798 121
799 457
800 236
803 319
810 259
810 284
813 141
817 439
830 415
831 159
845 385
846 179
860 200
860 355
870 223
870 330
880 246
880 271
880 296
