1289 542
1294 567
1304 522
1312 585
1329 519
1334 597
1334 872
1345 539
1349 617
1352 854
1356 884
1359 732
1364 757
1364 782
1364 807
1364 832
1367 635
1368 549
1374 712
1381 890
1389 687
1391 643
1393 554
1396 870
1405 715
1405 740
1405 835
1409 672
1410 765
1410 790
1418 559
1430 715
1443 564
1455 710
1468 565
1479 702
1484 727
1492 574
1494 750
1509 770
1510 592
1526 789
1529 609
1543 630
1544 807
1545 655
1545 680
1545 705
1545 730
1552 754
1564 822
1574 766
1586 835
1590 786
1605 852
1607 805
1625 867
1628 819
1634 891
1651 829
1658 898
1663 851
1670 875
