1219 567
1231 545
1231 589
1251 604
1256 539
1274 615
1281 544
1281 639
1300 561
1304 650
1319 757
1324 569
1329 655
1334 737
1334 777
1344 800
1349 571
1351 668
1354 717
1354 823
1354 907
1359 692
1359 848
1369 871
1370 750
1371 584
1379 910
1380 773
1390 796
1393 740
1396 589
1400 819
1404 915
1410 842
1413 723
1421 594
1422 864
1424 772
1424 797
1427 904
1429 743
1442 815
1445 602
1462 799
1465 617
1482 784
1483 635
1495 690
1495 715
1495 740
1500 654
1506 775
1519 747
1531 775
1539 732
1556 775
1559 717
1581 775
1584 714
1604 785
1607 724
1615 748
