484 837
484 862
484 887
484 912
489 937
494 962
502 819
504 985
509 572
509 597
509 622
514 547
515 1008
519 645
524 522
524 807
527 1030
530 668
532 1055
536 500
544 1077
545 688
549 804
551 480
554 1100
560 708
565 1123
572 814
574 467
579 725
584 1140
587 834
598 459
599 740
604 1155
605 852
621 753
623 465
625 867
627 1165
643 480
645 760
647 879
649 307
649 332
650 504
650 529
652 1170
654 357
664 282
664 380
667 894
670 544
670 760
677 1170
679 400
679 784
682 264
684 809
684 834
687 909
689 859
695 544
699 415
700 1160
707 264
720 544
721 428
725 1160
730 254
744 537
746 433
748 1150
753 244
759 187
759 212
764 147
766 448
769 473
769 498
769 523
771 1140
776 125
791 1125
796 110
811 1110
821 104
830 1080
846 109
854 1087
869 119
878 1095
892 129
901 1105
917 134
926 1105
942 139
951 1105
967 139
976 1105
992 144
1001 1105
1017 144
1025 1095
1042 139
1044 1077
1067 139
1068 1070
1085 121
1086 1088
1104 1106
1110 122
1110 455
1117 479
1122 144
1125 1120
1129 501
1133 445
1140 162
1148 1130
1151 514
1158 180
1158 440
1171 1140
1173 200
1176 514
1181 430
1190 219
1192 1154
1201 514
1203 418
1210 234
1212 1169
1218 398
1220 285
1225 522
1230 249
1234 306
1235 375
1236 1178
1245 537
1249 326
1254 357
1260 557
1260 1170
1275 577
1280 1155
1290 597
1300 1140
1305 617
1320 637
1320 1125
1335 657
1335 1105
1350 1080
1354 674
1365 1060
1374 689
1380 1040
1393 706
1393 1018
1395 810
1397 835
1405 990
1410 857
1411 724
1414 792
1415 882
1415 907
1415 932
1415 957
1423 746
1429 772
