464 857
464 882
464 907
464 932
469 957
476 835
481 979
490 1003
494 532
494 557
494 582
494 607
494 632
494 817
499 657
502 1025
504 502
514 1047
516 805
517 675
519 482
524 1070
535 693
539 467
540 796
541 1089
555 708
556 1109
563 459
565 794
575 723
576 1124
588 459
590 794
597 735
599 1135
611 469
613 805
620 745
624 1140
628 825
629 332
629 357
634 307
634 382
635 477
640 847
644 752
646 285
646 404
649 1145
655 867
657 489
659 262
661 424
665 513
665 538
665 890
669 755
674 1145
675 913
681 250
684 775
685 432
689 527
689 800
695 929
696 824
698 1138
704 848
704 873
704 898
706 244
710 435
714 524
722 1130
729 452
731 239
739 475
739 524
745 1120
754 495
756 235
764 147
764 518
768 1110
769 172
769 197
776 125
789 102
791 1100
811 89
811 1085
834 1075
836 94
859 104
859 1075
879 1090
880 118
899 1105
904 126
924 1110
929 129
949 1115
954 129
974 1115
979 129
998 1108
1004 124
1020 1095
1029 119
1040 1075
1054 114
1064 1082
1079 109
1082 1100
1102 1115
1104 111
1122 1130
1126 124
1130 455
1130 480
1135 505
1145 435
1145 1140
1146 139
1155 163
1159 514
1170 183
1170 430
1170 1145
1180 206
1184 509
1194 422
1195 1150
1200 222
1209 509
1215 260
1216 410
1219 1157
1229 281
1233 516
1236 395
1240 304
1244 1160
1245 329
1245 354
1253 531
1269 1160
1271 549
1286 569
1292 1149
1301 589
1307 1129
1316 609
1319 1107
1330 630
1334 1087
1344 651
1345 1060
1358 1038
1360 1010
1362 669
1370 965
1380 935
1382 684
1390 845
1390 875
1390 900
1402 699
1409 827
1414 721
1425 744
1427 809
1430 769
