374 887
389 867
398 895
401 845
416 825
423 895
429 802
441 780
448 893
454 477
454 502
454 527
456 760
459 552
464 577
469 452
469 737
470 880
476 599
481 715
485 623
487 434
489 648
489 673
493 868
505 416
513 853
524 257
524 282
524 397
534 232
536 375
536 843
542 300
549 207
549 324
549 349
549 865
559 182
566 884
569 909
569 934
569 959
574 162
574 984
574 1009
579 1034
579 1059
581 1084
584 1109
584 1134
589 142
589 1159
604 112
609 1175
614 82
615 895
615 920
615 945
620 970
620 995
625 1020
625 1045
626 60
627 1070
630 1095
630 1120
632 1164
640 895
650 67
665 87
665 900
675 110
685 133
690 320
690 345
690 370
690 905
697 155
697 394
700 650
700 675
702 700
709 177
709 302
709 416
713 628
714 912
715 722
717 440
720 200
722 225
725 250
725 275
725 600
725 745
730 462
735 768
739 910
740 575
744 792
745 482
753 506
753 553
756 814
760 895
771 834
775 875
789 854
