314 997
326 1019
329 967
347 949
351 1020
354 862
359 927
364 837
366 884
374 1030
376 815
379 692
385 791
389 667
389 715
394 752
399 1030
404 642
414 532
416 620
424 497
424 592
424 1035
426 554
434 462
444 362
444 437
449 1030
454 337
454 407
466 315
474 1025
479 292
489 212
489 262
491 1044
499 187
499 235
514 167
516 1045
524 142
539 112
541 1040
549 87
554 1062
554 1177
559 1087
559 1112
559 1137
561 65
566 1199
570 41
591 1195
592 29
605 1055
610 1080
610 1105
610 1130
610 1155
612 44
620 68
628 1045
635 88
645 111
653 1040
655 134
665 157
676 1050
680 177
685 260
690 200
695 283
701 1055
704 221
705 306
705 385
710 410
719 327
720 433
725 352
725 458
726 1060
734 482
745 505
750 1050
755 585
760 525
765 608
770 548
774 632
775 1050
783 656
790 745
792 680
795 770
800 704
800 795
800 1055
810 727
810 818
819 842
820 925
825 867
825 950
825 1055
830 975
833 891
840 998
849 1047
855 1018
