274 477
292 495
296 464
315 446
317 495
324 727
335 431
339 707
342 495
344 282
346 740
354 687
357 419
366 665
367 495
368 274
371 740
377 404
384 642
386 255
388 290
392 495
396 740
399 392
399 622
406 240
413 295
414 602
417 374
417 499
421 740
426 225
429 582
437 359
438 295
442 500
444 202
446 740
449 567
460 349
462 184
463 300
464 547
466 508
470 747
480 166
481 335
495 146
495 752
515 131
517 764
535 116
535 782
547 804
550 96
555 828
562 74
564 852
569 1032
569 1057
569 1082
569 1107
569 1132
574 875
574 900
574 925
574 950
579 975
579 1000
580 56
587 1150
605 52
612 1150
620 72
637 1150
638 90
658 105
662 1150
678 120
687 1155
695 139
712 1155
718 149
725 790
725 815
725 840
730 760
735 863
737 1160
738 164
740 285
740 888
742 310
745 920
750 745
755 943
758 180
760 270
760 328
762 1160
764 967
775 740
775 990
780 192
780 344
780 500
780 525
785 270
787 1160
789 1011
790 548
797 1035
799 209
799 361
800 740
803 490
805 1059
810 265
810 563
812 1154
815 1082
820 1107
822 219
823 370
824 732
825 1132
828 490
830 578
835 260
843 385
844 231
849 730
853 490
853 589
860 260
864 399
869 236
873 605
874 725
878 490
883 416
895 617
899 720
903 490
905 428
915 632
924 717
925 443
928 490
934 649
949 715
950 449
953 490
953 666
970 464
974 710
975 678
978 488
995 693
1002 479
