999 887
1009 952
1009 977
1014 867
1014 1002
1021 900
1031 939
1032 1020
1038 859
1046 900
1056 934
1057 1025
1062 849
1071 900
1079 924
1082 1025
1087 844
1107 1025
1111 835
1132 1019
1136 834
1153 1005
1161 834
1178 1005
1186 829
1203 1010
1211 829
1224 797
1228 1010
1236 775
1250 1022
1259 764
1274 1030
1284 764
1299 1025
1309 764
1320 1000
1334 764
1343 988
1359 764
1368 985
1375 784
1380 809
1393 985
1395 829
1414 846
1418 990
1425 869
1430 1012
1445 884
1454 1005
1468 895
1470 975
1483 915
1490 939
1493 964
