234 372
239 402
249 332
257 420
267 314
275 438
289 702
289 732
290 304
299 445
307 684
307 750
313 294
321 458
325 768
331 675
338 295
340 788
341 473
356 675
360 490
362 800
363 295
379 662
382 815
383 500
388 300
397 644
405 825
406 510
413 304
420 634
429 520
430 830
436 314
440 619
451 533
455 825
459 324
461 605
469 551
474 807
478 341
484 592
489 566
494 792
496 359
514 777
516 374
526 755
531 394
549 745
551 409
564 847
569 730
570 426
576 869
580 753
586 835
590 442
594 887
595 773
606 909
609 794
610 826
614 449
624 927
639 449
639 947
661 435
661 960
676 415
686 960
694 397
709 377
711 960
726 940
734 374
747 954
757 384
765 972
780 394
780 992
785 865
795 1012
805 389
810 1032
828 1050
830 384
840 1072
855 381
855 1092
867 1114
879 374
885 1132
903 1150
904 371
914 1173
927 1195
928 379
935 1125
947 1210
951 389
962 1230
975 397
977 1250
992 1270
994 1417
994 1442
995 412
1004 1292
1004 1465
1009 1397
1019 421
1019 1312
1024 1337
1024 1480
1031 1385
1034 1360
1039 1500
1041 434
1059 1515
1063 446
1083 461
1084 1520
1101 479
1107 1530
1116 499
1132 1534
1135 520
1154 537
1157 1535
1169 557
1180 1525
1185 577
1199 1507
1204 594
1223 1515
1224 609
1238 1535
1244 624
1255 1480
1260 1510
1263 641
1278 1470
1283 656
1300 675
1301 1460
1316 1440
1317 694
1335 712
1335 1420
1350 732
1350 1400
1365 752
1365 1375
1370 1340
1380 1295
1385 767
1385 1265
1395 1240
1400 787
1410 1210
1415 807
1430 827
1430 1180
1445 847
1445 1155
1455 880
1460 1130
1469 901
1470 1105
1475 926
1480 951
1480 1055
1480 1080
1485 976
1485 1001
1485 1026
