339 532
349 332
349 422
349 447
349 472
351 554
354 357
354 497
359 382
367 314
376 555
392 309
401 555
417 309
426 555
442 309
451 555
467 309
476 555
492 309
501 555
517 309
526 555
542 309
551 555
567 309
576 555
592 309
601 555
617 309
626 555
642 309
651 555
667 309
676 560
692 309
701 560
717 309
726 560
742 309
751 560
767 309
776 560
792 309
799 570
817 309
824 570
842 309
846 583
867 304
868 595
888 610
891 295
908 625
914 282
933 630
934 267
956 255
956 640
976 240
981 645
994 222
1005 652
1016 210
1030 657
1041 209
1055 662
1066 204
1080 665
1091 204
1105 665
1116 209
1130 665
1141 204
1155 665
1166 204
1180 665
1191 204
1205 660
1216 209
1229 652
1241 214
1254 647
1266 214
1278 640
1291 214
1303 633
1316 219
1328 630
1340 227
1353 625
1364 234
1378 620
1387 244
1403 615
1410 254
1428 610
1430 269
1453 280
1453 605
1477 289
1478 603
1502 294
1502 594
1523 580
1527 299
1546 570
1552 299
1571 570
1577 299
1596 570
1602 304
1621 570
1627 304
1646 570
1652 309
1671 570
1677 309
1696 570
1702 309
1721 570
1727 309
1746 570
1752 309
1771 570
1777 309
1796 570
1802 309
1821 570
1827 309
1846 570
1852 309
1871 570
1877 309
1896 570
1902 309
1921 570
1927 309
1946 570
1952 309
1971 570
1977 309
1996 570
2002 314
2021 570
2027 314
2046 570
2052 319
2071 570
2077 319
2096 570
2102 319
2121 570
2127 319
2146 565
2152 319
2168 553
2174 331
2180 356
2180 525
2185 385
2185 485
2187 410
2190 455
