<?xml version="1.0" encoding="UTF-8" standalone="no"?>
<!-- Created with CurveBenchmark -->
<svg
	xmlns:dc="http://purl.org/dc/elements/1.1/"
	xmlns:cc="http://creativecommons.org/ns#"
	xmlns:rdf="http://www.w3.org/1999/02/22-rdf-syntax-ns#"
	xmlns:svg="http://www.w3.org/2000/svg"
	xmlns="http://www.w3.org/2000/svg"
	xmlns:sodipodi="http://sodipodi.sourceforge.net/DTD/sodipodi-0.dtd"
	xmlns:inkscape="http://www.inkscape.org/namespaces/inkscape"
	width="1000"
	height="1000"
	id="svg2"
	version="1.1"
	sodipodi:docname="sampling-0.25/stretchdenoise-bunny.svg">
<defs
	id="defs4" />
<metadata
	id="metadata7">
	<rdf:RDF>
		<cc:Work
			rdf:about="">
			<dc:format>image/svg+xml</dc:format>
			<dc:type
				rdf:resource="http://purl.org/dc/dcmitype/StillImage" />
			<dc:title></dc:title>
		</cc:Work>
	</rdf:RDF>
</metadata>
<g
	inkscape:label="Layer 1"
	inkscape:groupmode="layer"
	id="layer1">
	<path style="fill:none;stroke:red;stroke-width:1px;stroke-linecap:butt;stroke-linejoin:miter;stroke-opacity:1" d="M 255.005,798.452 249.695,775.981 z" id="boundary" inkscape:connector-curvature="0" />
	<path style="fill:none;stroke:red;stroke-width:1px;stroke-linecap:butt;stroke-linejoin:miter;stroke-opacity:1" d="M 255.005,798.452 255.102,811.068 z" id="boundary" inkscape:connector-curvature="0" />
	<path style="fill:none;stroke:red;stroke-width:1px;stroke-linecap:butt;stroke-linejoin:miter;stroke-opacity:1" d="M 249.695,775.981 234.547,750.733 z" id="boundary" inkscape:connector-curvature="0" />
	<path style="fill:none;stroke:red;stroke-width:1px;stroke-linecap:butt;stroke-linejoin:miter;stroke-opacity:1" d="M 234.547,750.733 209.331,726.035 z" id="boundary" inkscape:connector-curvature="0" />
	<path style="fill:none;stroke:red;stroke-width:1px;stroke-linecap:butt;stroke-linejoin:miter;stroke-opacity:1" d="M 209.331,726.035 174.822,701.985 z" id="boundary" inkscape:connector-curvature="0" />
	<path style="fill:none;stroke:red;stroke-width:1px;stroke-linecap:butt;stroke-linejoin:miter;stroke-opacity:1" d="M 174.822,701.985 130.09,676.587 z" id="boundary" inkscape:connector-curvature="0" />
	<path style="fill:none;stroke:red;stroke-width:1px;stroke-linecap:butt;stroke-linejoin:miter;stroke-opacity:1" d="M 130.09,676.587 86.0858,652.714 z" id="boundary" inkscape:connector-curvature="0" />
	<path style="fill:none;stroke:red;stroke-width:1px;stroke-linecap:butt;stroke-linejoin:miter;stroke-opacity:1" d="M 86.0858,652.714 56.6424,634.676 z" id="boundary" inkscape:connector-curvature="0" />
	<path style="fill:none;stroke:red;stroke-width:1px;stroke-linecap:butt;stroke-linejoin:miter;stroke-opacity:1" d="M 56.6424,634.676 35.3964,617.865 z" id="boundary" inkscape:connector-curvature="0" />
	<path style="fill:none;stroke:red;stroke-width:1px;stroke-linecap:butt;stroke-linejoin:miter;stroke-opacity:1" d="M 35.3964,617.865 20.3286,598.226 z" id="boundary" inkscape:connector-curvature="0" />
	<path style="fill:none;stroke:red;stroke-width:1px;stroke-linecap:butt;stroke-linejoin:miter;stroke-opacity:1" d="M 20.3286,598.226 10.645,574.112 z" id="boundary" inkscape:connector-curvature="0" />
	<path style="fill:none;stroke:red;stroke-width:1px;stroke-linecap:butt;stroke-linejoin:miter;stroke-opacity:1" d="M 10.645,574.112 4,544.494 z" id="boundary" inkscape:connector-curvature="0" />
	<path style="fill:none;stroke:red;stroke-width:1px;stroke-linecap:butt;stroke-linejoin:miter;stroke-opacity:1" d="M 4,544.494 4.07236,502.792 z" id="boundary" inkscape:connector-curvature="0" />
	<path style="fill:none;stroke:red;stroke-width:1px;stroke-linecap:butt;stroke-linejoin:miter;stroke-opacity:1" d="M 4.07236,502.792 20.7622,446.468 z" id="boundary" inkscape:connector-curvature="0" />
	<path style="fill:none;stroke:red;stroke-width:1px;stroke-linecap:butt;stroke-linejoin:miter;stroke-opacity:1" d="M 20.7622,446.468 52.5145,393.485 z" id="boundary" inkscape:connector-curvature="0" />
	<path style="fill:none;stroke:red;stroke-width:1px;stroke-linecap:butt;stroke-linejoin:miter;stroke-opacity:1" d="M 52.5145,393.485 78.7227,360.085 z" id="boundary" inkscape:connector-curvature="0" />
	<path style="fill:none;stroke:red;stroke-width:1px;stroke-linecap:butt;stroke-linejoin:miter;stroke-opacity:1" d="M 78.7227,360.085 94.4048,335.434 z" id="boundary" inkscape:connector-curvature="0" />
	<path style="fill:none;stroke:red;stroke-width:1px;stroke-linecap:butt;stroke-linejoin:miter;stroke-opacity:1" d="M 94.4048,335.434 101.505,314.018 z" id="boundary" inkscape:connector-curvature="0" />
	<path style="fill:none;stroke:red;stroke-width:1px;stroke-linecap:butt;stroke-linejoin:miter;stroke-opacity:1" d="M 101.505,314.018 104.523,293.348 z" id="boundary" inkscape:connector-curvature="0" />
	<path style="fill:none;stroke:red;stroke-width:1px;stroke-linecap:butt;stroke-linejoin:miter;stroke-opacity:1" d="M 104.523,293.348 105.798,273.536 z" id="boundary" inkscape:connector-curvature="0" />
	<path style="fill:none;stroke:red;stroke-width:1px;stroke-linecap:butt;stroke-linejoin:miter;stroke-opacity:1" d="M 105.798,273.536 106.378,252.839 z" id="boundary" inkscape:connector-curvature="0" />
	<path style="fill:none;stroke:red;stroke-width:1px;stroke-linecap:butt;stroke-linejoin:miter;stroke-opacity:1" d="M 106.378,252.839 106.605,232.393 z" id="boundary" inkscape:connector-curvature="0" />
	<path style="fill:none;stroke:red;stroke-width:1px;stroke-linecap:butt;stroke-linejoin:miter;stroke-opacity:1" d="M 106.605,232.393 106.683,211.162 z" id="boundary" inkscape:connector-curvature="0" />
	<path style="fill:none;stroke:red;stroke-width:1px;stroke-linecap:butt;stroke-linejoin:miter;stroke-opacity:1" d="M 106.683,211.162 106.705,189.739 z" id="boundary" inkscape:connector-curvature="0" />
	<path style="fill:none;stroke:red;stroke-width:1px;stroke-linecap:butt;stroke-linejoin:miter;stroke-opacity:1" d="M 106.705,189.739 106.738,167.6 z" id="boundary" inkscape:connector-curvature="0" />
	<path style="fill:none;stroke:red;stroke-width:1px;stroke-linecap:butt;stroke-linejoin:miter;stroke-opacity:1" d="M 106.738,167.6 106.927,146.522 z" id="boundary" inkscape:connector-curvature="0" />
	<path style="fill:none;stroke:red;stroke-width:1px;stroke-linecap:butt;stroke-linejoin:miter;stroke-opacity:1" d="M 106.927,146.522 107.379,124.965 z" id="boundary" inkscape:connector-curvature="0" />
	<path style="fill:none;stroke:red;stroke-width:1px;stroke-linecap:butt;stroke-linejoin:miter;stroke-opacity:1" d="M 107.379,124.965 108.147,104.573 z" id="boundary" inkscape:connector-curvature="0" />
	<path style="fill:none;stroke:red;stroke-width:1px;stroke-linecap:butt;stroke-linejoin:miter;stroke-opacity:1" d="M 108.147,104.573 109.434,83.8307 z" id="boundary" inkscape:connector-curvature="0" />
	<path style="fill:none;stroke:red;stroke-width:1px;stroke-linecap:butt;stroke-linejoin:miter;stroke-opacity:1" d="M 109.434,83.8307 111.448,63.7631 z" id="boundary" inkscape:connector-curvature="0" />
	<path style="fill:none;stroke:red;stroke-width:1px;stroke-linecap:butt;stroke-linejoin:miter;stroke-opacity:1" d="M 111.448,63.7631 114.572,44.7912 z" id="boundary" inkscape:connector-curvature="0" />
	<path style="fill:none;stroke:red;stroke-width:1px;stroke-linecap:butt;stroke-linejoin:miter;stroke-opacity:1" d="M 114.572,44.7912 118.916,29.1451 z" id="boundary" inkscape:connector-curvature="0" />
	<path style="fill:none;stroke:red;stroke-width:1px;stroke-linecap:butt;stroke-linejoin:miter;stroke-opacity:1" d="M 118.916,29.1451 124.573,17.453 z" id="boundary" inkscape:connector-curvature="0" />
	<path style="fill:none;stroke:red;stroke-width:1px;stroke-linecap:butt;stroke-linejoin:miter;stroke-opacity:1" d="M 124.573,17.453 133.45,8.30567 z" id="boundary" inkscape:connector-curvature="0" />
	<path style="fill:none;stroke:red;stroke-width:1px;stroke-linecap:butt;stroke-linejoin:miter;stroke-opacity:1" d="M 133.45,8.30567 145.411,4 z" id="boundary" inkscape:connector-curvature="0" />
	<path style="fill:none;stroke:red;stroke-width:1px;stroke-linecap:butt;stroke-linejoin:miter;stroke-opacity:1" d="M 145.411,4 158.575,4.09266 z" id="boundary" inkscape:connector-curvature="0" />
	<path style="fill:none;stroke:red;stroke-width:1px;stroke-linecap:butt;stroke-linejoin:miter;stroke-opacity:1" d="M 158.575,4.09266 170.177,8.87415 z" id="boundary" inkscape:connector-curvature="0" />
	<path style="fill:none;stroke:red;stroke-width:1px;stroke-linecap:butt;stroke-linejoin:miter;stroke-opacity:1" d="M 170.177,8.87415 178.53,18.5207 z" id="boundary" inkscape:connector-curvature="0" />
	<path style="fill:none;stroke:red;stroke-width:1px;stroke-linecap:butt;stroke-linejoin:miter;stroke-opacity:1" d="M 178.53,18.5207 183.443,30.8969 z" id="boundary" inkscape:connector-curvature="0" />
	<path style="fill:none;stroke:red;stroke-width:1px;stroke-linecap:butt;stroke-linejoin:miter;stroke-opacity:1" d="M 183.443,30.8969 186.318,46.2637 z" id="boundary" inkscape:connector-curvature="0" />
	<path style="fill:none;stroke:red;stroke-width:1px;stroke-linecap:butt;stroke-linejoin:miter;stroke-opacity:1" d="M 186.318,46.2637 187.491,60.9224 z" id="boundary" inkscape:connector-curvature="0" />
	<path style="fill:none;stroke:red;stroke-width:1px;stroke-linecap:butt;stroke-linejoin:miter;stroke-opacity:1" d="M 187.491,60.9224 187.842,74.2839 z" id="boundary" inkscape:connector-curvature="0" />
	<path style="fill:none;stroke:red;stroke-width:1px;stroke-linecap:butt;stroke-linejoin:miter;stroke-opacity:1" d="M 187.842,74.2839 187.806,87.0696 z" id="boundary" inkscape:connector-curvature="0" />
	<path style="fill:none;stroke:red;stroke-width:1px;stroke-linecap:butt;stroke-linejoin:miter;stroke-opacity:1" d="M 187.806,87.0696 187.572,99.706 z" id="boundary" inkscape:connector-curvature="0" />
	<path style="fill:none;stroke:red;stroke-width:1px;stroke-linecap:butt;stroke-linejoin:miter;stroke-opacity:1" d="M 187.572,99.706 187.261,112.014 z" id="boundary" inkscape:connector-curvature="0" />
	<path style="fill:none;stroke:red;stroke-width:1px;stroke-linecap:butt;stroke-linejoin:miter;stroke-opacity:1" d="M 187.261,112.014 186.942,124.648 z" id="boundary" inkscape:connector-curvature="0" />
	<path style="fill:none;stroke:red;stroke-width:1px;stroke-linecap:butt;stroke-linejoin:miter;stroke-opacity:1" d="M 186.942,124.648 186.719,135.91 z" id="boundary" inkscape:connector-curvature="0" />
	<path style="fill:none;stroke:red;stroke-width:1px;stroke-linecap:butt;stroke-linejoin:miter;stroke-opacity:1" d="M 186.719,135.91 186.605,147.314 z" id="boundary" inkscape:connector-curvature="0" />
	<path style="fill:none;stroke:red;stroke-width:1px;stroke-linecap:butt;stroke-linejoin:miter;stroke-opacity:1" d="M 186.605,147.314 186.651,158.808 z" id="boundary" inkscape:connector-curvature="0" />
	<path style="fill:none;stroke:red;stroke-width:1px;stroke-linecap:butt;stroke-linejoin:miter;stroke-opacity:1" d="M 186.651,158.808 186.862,168.882 z" id="boundary" inkscape:connector-curvature="0" />
	<path style="fill:none;stroke:red;stroke-width:1px;stroke-linecap:butt;stroke-linejoin:miter;stroke-opacity:1" d="M 186.862,168.882 187.064,178.821 z" id="boundary" inkscape:connector-curvature="0" />
	<path style="fill:none;stroke:red;stroke-width:1px;stroke-linecap:butt;stroke-linejoin:miter;stroke-opacity:1" d="M 187.064,178.821 187.131,188.408 z" id="boundary" inkscape:connector-curvature="0" />
	<path style="fill:none;stroke:red;stroke-width:1px;stroke-linecap:butt;stroke-linejoin:miter;stroke-opacity:1" d="M 187.131,188.408 187.079,197.646 z" id="boundary" inkscape:connector-curvature="0" />
	<path style="fill:none;stroke:red;stroke-width:1px;stroke-linecap:butt;stroke-linejoin:miter;stroke-opacity:1" d="M 187.079,197.646 186.922,206.536 z" id="boundary" inkscape:connector-curvature="0" />
	<path style="fill:none;stroke:red;stroke-width:1px;stroke-linecap:butt;stroke-linejoin:miter;stroke-opacity:1" d="M 186.922,206.536 186.675,215.081 z" id="boundary" inkscape:connector-curvature="0" />
	<path style="fill:none;stroke:red;stroke-width:1px;stroke-linecap:butt;stroke-linejoin:miter;stroke-opacity:1" d="M 186.675,215.081 186.318,224.082 z" id="boundary" inkscape:connector-curvature="0" />
	<path style="fill:none;stroke:red;stroke-width:1px;stroke-linecap:butt;stroke-linejoin:miter;stroke-opacity:1" d="M 186.318,224.082 185.848,233.429 z" id="boundary" inkscape:connector-curvature="0" />
	<path style="fill:none;stroke:red;stroke-width:1px;stroke-linecap:butt;stroke-linejoin:miter;stroke-opacity:1" d="M 185.848,233.429 185.318,242.287 z" id="boundary" inkscape:connector-curvature="0" />
	<path style="fill:none;stroke:red;stroke-width:1px;stroke-linecap:butt;stroke-linejoin:miter;stroke-opacity:1" d="M 185.318,242.287 184.757,250.657 z" id="boundary" inkscape:connector-curvature="0" />
	<path style="fill:none;stroke:red;stroke-width:1px;stroke-linecap:butt;stroke-linejoin:miter;stroke-opacity:1" d="M 184.757,250.657 184.188,258.544 z" id="boundary" inkscape:connector-curvature="0" />
	<path style="fill:none;stroke:red;stroke-width:1px;stroke-linecap:butt;stroke-linejoin:miter;stroke-opacity:1" d="M 184.188,258.544 183.548,267.137 z" id="boundary" inkscape:connector-curvature="0" />
	<path style="fill:none;stroke:red;stroke-width:1px;stroke-linecap:butt;stroke-linejoin:miter;stroke-opacity:1" d="M 183.548,267.137 182.976,275.081 z" id="boundary" inkscape:connector-curvature="0" />
	<path style="fill:none;stroke:red;stroke-width:1px;stroke-linecap:butt;stroke-linejoin:miter;stroke-opacity:1" d="M 182.976,275.081 182.481,282.877 z" id="boundary" inkscape:connector-curvature="0" />
	<path style="fill:none;stroke:red;stroke-width:1px;stroke-linecap:butt;stroke-linejoin:miter;stroke-opacity:1" d="M 182.481,282.877 182.145,290.384 z" id="boundary" inkscape:connector-curvature="0" />
	<path style="fill:none;stroke:red;stroke-width:1px;stroke-linecap:butt;stroke-linejoin:miter;stroke-opacity:1" d="M 182.145,290.384 182.072,297.452 z" id="boundary" inkscape:connector-curvature="0" />
	<path style="fill:none;stroke:red;stroke-width:1px;stroke-linecap:butt;stroke-linejoin:miter;stroke-opacity:1" d="M 182.072,297.452 182.424,304.255 z" id="boundary" inkscape:connector-curvature="0" />
	<path style="fill:none;stroke:red;stroke-width:1px;stroke-linecap:butt;stroke-linejoin:miter;stroke-opacity:1" d="M 182.424,304.255 183.464,310.442 z" id="boundary" inkscape:connector-curvature="0" />
	<path style="fill:none;stroke:red;stroke-width:1px;stroke-linecap:butt;stroke-linejoin:miter;stroke-opacity:1" d="M 183.464,310.442 185.321,315.247 z" id="boundary" inkscape:connector-curvature="0" />
	<path style="fill:none;stroke:red;stroke-width:1px;stroke-linecap:butt;stroke-linejoin:miter;stroke-opacity:1" d="M 185.321,315.247 188.294,318.814 z" id="boundary" inkscape:connector-curvature="0" />
	<path style="fill:none;stroke:red;stroke-width:1px;stroke-linecap:butt;stroke-linejoin:miter;stroke-opacity:1" d="M 188.294,318.814 191.617,320.63 z" id="boundary" inkscape:connector-curvature="0" />
	<path style="fill:none;stroke:red;stroke-width:1px;stroke-linecap:butt;stroke-linejoin:miter;stroke-opacity:1" d="M 191.617,320.63 194.742,321.352 z" id="boundary" inkscape:connector-curvature="0" />
	<path style="fill:none;stroke:red;stroke-width:1px;stroke-linecap:butt;stroke-linejoin:miter;stroke-opacity:1" d="M 194.742,321.352 197.695,320.988 z" id="boundary" inkscape:connector-curvature="0" />
	<path style="fill:none;stroke:red;stroke-width:1px;stroke-linecap:butt;stroke-linejoin:miter;stroke-opacity:1" d="M 197.695,320.988 200.21,319.345 z" id="boundary" inkscape:connector-curvature="0" />
	<path style="fill:none;stroke:red;stroke-width:1px;stroke-linecap:butt;stroke-linejoin:miter;stroke-opacity:1" d="M 200.21,319.345 202.232,316.871 z" id="boundary" inkscape:connector-curvature="0" />
	<path style="fill:none;stroke:red;stroke-width:1px;stroke-linecap:butt;stroke-linejoin:miter;stroke-opacity:1" d="M 202.232,316.871 204.209,313.2 z" id="boundary" inkscape:connector-curvature="0" />
	<path style="fill:none;stroke:red;stroke-width:1px;stroke-linecap:butt;stroke-linejoin:miter;stroke-opacity:1" d="M 204.209,313.2 206.134,308.161 z" id="boundary" inkscape:connector-curvature="0" />
	<path style="fill:none;stroke:red;stroke-width:1px;stroke-linecap:butt;stroke-linejoin:miter;stroke-opacity:1" d="M 206.134,308.161 207.907,301.98 z" id="boundary" inkscape:connector-curvature="0" />
	<path style="fill:none;stroke:red;stroke-width:1px;stroke-linecap:butt;stroke-linejoin:miter;stroke-opacity:1" d="M 207.907,301.98 209.462,295.146 z" id="boundary" inkscape:connector-curvature="0" />
	<path style="fill:none;stroke:red;stroke-width:1px;stroke-linecap:butt;stroke-linejoin:miter;stroke-opacity:1" d="M 209.462,295.146 210.844,287.869 z" id="boundary" inkscape:connector-curvature="0" />
	<path style="fill:none;stroke:red;stroke-width:1px;stroke-linecap:butt;stroke-linejoin:miter;stroke-opacity:1" d="M 210.844,287.869 212.086,280.336 z" id="boundary" inkscape:connector-curvature="0" />
	<path style="fill:none;stroke:red;stroke-width:1px;stroke-linecap:butt;stroke-linejoin:miter;stroke-opacity:1" d="M 212.086,280.336 213.297,272.106 z" id="boundary" inkscape:connector-curvature="0" />
	<path style="fill:none;stroke:red;stroke-width:1px;stroke-linecap:butt;stroke-linejoin:miter;stroke-opacity:1" d="M 213.297,272.106 214.409,263.854 z" id="boundary" inkscape:connector-curvature="0" />
	<path style="fill:none;stroke:red;stroke-width:1px;stroke-linecap:butt;stroke-linejoin:miter;stroke-opacity:1" d="M 214.409,263.854 215.438,255.729 z" id="boundary" inkscape:connector-curvature="0" />
	<path style="fill:none;stroke:red;stroke-width:1px;stroke-linecap:butt;stroke-linejoin:miter;stroke-opacity:1" d="M 215.438,255.729 216.478,247.127 z" id="boundary" inkscape:connector-curvature="0" />
	<path style="fill:none;stroke:red;stroke-width:1px;stroke-linecap:butt;stroke-linejoin:miter;stroke-opacity:1" d="M 216.478,247.127 217.541,238.06 z" id="boundary" inkscape:connector-curvature="0" />
	<path style="fill:none;stroke:red;stroke-width:1px;stroke-linecap:butt;stroke-linejoin:miter;stroke-opacity:1" d="M 217.541,238.06 218.544,229.349 z" id="boundary" inkscape:connector-curvature="0" />
	<path style="fill:none;stroke:red;stroke-width:1px;stroke-linecap:butt;stroke-linejoin:miter;stroke-opacity:1" d="M 218.544,229.349 219.486,221.105 z" id="boundary" inkscape:connector-curvature="0" />
	<path style="fill:none;stroke:red;stroke-width:1px;stroke-linecap:butt;stroke-linejoin:miter;stroke-opacity:1" d="M 219.486,221.105 220.464,212.56 z" id="boundary" inkscape:connector-curvature="0" />
	<path style="fill:none;stroke:red;stroke-width:1px;stroke-linecap:butt;stroke-linejoin:miter;stroke-opacity:1" d="M 220.464,212.56 221.484,203.718 z" id="boundary" inkscape:connector-curvature="0" />
	<path style="fill:none;stroke:red;stroke-width:1px;stroke-linecap:butt;stroke-linejoin:miter;stroke-opacity:1" d="M 221.484,203.718 222.551,194.587 z" id="boundary" inkscape:connector-curvature="0" />
	<path style="fill:none;stroke:red;stroke-width:1px;stroke-linecap:butt;stroke-linejoin:miter;stroke-opacity:1" d="M 222.551,194.587 223.672,185.172 z" id="boundary" inkscape:connector-curvature="0" />
	<path style="fill:none;stroke:red;stroke-width:1px;stroke-linecap:butt;stroke-linejoin:miter;stroke-opacity:1" d="M 223.672,185.172 224.852,175.481 z" id="boundary" inkscape:connector-curvature="0" />
	<path style="fill:none;stroke:red;stroke-width:1px;stroke-linecap:butt;stroke-linejoin:miter;stroke-opacity:1" d="M 224.852,175.481 226.098,165.519 z" id="boundary" inkscape:connector-curvature="0" />
	<path style="fill:none;stroke:red;stroke-width:1px;stroke-linecap:butt;stroke-linejoin:miter;stroke-opacity:1" d="M 226.098,165.519 227.416,155.294 z" id="boundary" inkscape:connector-curvature="0" />
	<path style="fill:none;stroke:red;stroke-width:1px;stroke-linecap:butt;stroke-linejoin:miter;stroke-opacity:1" d="M 227.416,155.294 228.753,144.909 z" id="boundary" inkscape:connector-curvature="0" />
	<path style="fill:none;stroke:red;stroke-width:1px;stroke-linecap:butt;stroke-linejoin:miter;stroke-opacity:1" d="M 228.753,144.909 230.251,133.05 z" id="boundary" inkscape:connector-curvature="0" />
	<path style="fill:none;stroke:red;stroke-width:1px;stroke-linecap:butt;stroke-linejoin:miter;stroke-opacity:1" d="M 230.251,133.05 231.754,121.278 z" id="boundary" inkscape:connector-curvature="0" />
	<path style="fill:none;stroke:red;stroke-width:1px;stroke-linecap:butt;stroke-linejoin:miter;stroke-opacity:1" d="M 231.754,121.278 233.299,109.674 z" id="boundary" inkscape:connector-curvature="0" />
	<path style="fill:none;stroke:red;stroke-width:1px;stroke-linecap:butt;stroke-linejoin:miter;stroke-opacity:1" d="M 233.299,109.674 235.133,96.9203 z" id="boundary" inkscape:connector-curvature="0" />
	<path style="fill:none;stroke:red;stroke-width:1px;stroke-linecap:butt;stroke-linejoin:miter;stroke-opacity:1" d="M 235.133,96.9203 237.122,84.596 z" id="boundary" inkscape:connector-curvature="0" />
	<path style="fill:none;stroke:red;stroke-width:1px;stroke-linecap:butt;stroke-linejoin:miter;stroke-opacity:1" d="M 237.122,84.596 239.575,71.5457 z" id="boundary" inkscape:connector-curvature="0" />
	<path style="fill:none;stroke:red;stroke-width:1px;stroke-linecap:butt;stroke-linejoin:miter;stroke-opacity:1" d="M 239.575,71.5457 242.656,58.1542 z" id="boundary" inkscape:connector-curvature="0" />
	<path style="fill:none;stroke:red;stroke-width:1px;stroke-linecap:butt;stroke-linejoin:miter;stroke-opacity:1" d="M 242.656,58.1542 247.123,43.3993 z" id="boundary" inkscape:connector-curvature="0" />
	<path style="fill:none;stroke:red;stroke-width:1px;stroke-linecap:butt;stroke-linejoin:miter;stroke-opacity:1" d="M 247.123,43.3993 253.402,29.2138 z" id="boundary" inkscape:connector-curvature="0" />
	<path style="fill:none;stroke:red;stroke-width:1px;stroke-linecap:butt;stroke-linejoin:miter;stroke-opacity:1" d="M 253.402,29.2138 261.171,18.5353 z" id="boundary" inkscape:connector-curvature="0" />
	<path style="fill:none;stroke:red;stroke-width:1px;stroke-linecap:butt;stroke-linejoin:miter;stroke-opacity:1" d="M 261.171,18.5353 271.727,11.5523 z" id="boundary" inkscape:connector-curvature="0" />
	<path style="fill:none;stroke:red;stroke-width:1px;stroke-linecap:butt;stroke-linejoin:miter;stroke-opacity:1" d="M 271.727,11.5523 284.339,10.2169 z" id="boundary" inkscape:connector-curvature="0" />
	<path style="fill:none;stroke:red;stroke-width:1px;stroke-linecap:butt;stroke-linejoin:miter;stroke-opacity:1" d="M 284.339,10.2169 296.85,13.7915 z" id="boundary" inkscape:connector-curvature="0" />
	<path style="fill:none;stroke:red;stroke-width:1px;stroke-linecap:butt;stroke-linejoin:miter;stroke-opacity:1" d="M 296.85,13.7915 308.613,22.9681 z" id="boundary" inkscape:connector-curvature="0" />
	<path style="fill:none;stroke:red;stroke-width:1px;stroke-linecap:butt;stroke-linejoin:miter;stroke-opacity:1" d="M 308.613,22.9681 316.94,37.7801 z" id="boundary" inkscape:connector-curvature="0" />
	<path style="fill:none;stroke:red;stroke-width:1px;stroke-linecap:butt;stroke-linejoin:miter;stroke-opacity:1" d="M 316.94,37.7801 321.237,55.6809 z" id="boundary" inkscape:connector-curvature="0" />
	<path style="fill:none;stroke:red;stroke-width:1px;stroke-linecap:butt;stroke-linejoin:miter;stroke-opacity:1" d="M 321.237,55.6809 322.549,75.8935 z" id="boundary" inkscape:connector-curvature="0" />
	<path style="fill:none;stroke:red;stroke-width:1px;stroke-linecap:butt;stroke-linejoin:miter;stroke-opacity:1" d="M 322.549,75.8935 321.548,97.508 z" id="boundary" inkscape:connector-curvature="0" />
	<path style="fill:none;stroke:red;stroke-width:1px;stroke-linecap:butt;stroke-linejoin:miter;stroke-opacity:1" d="M 321.548,97.508 318.81,119.77 z" id="boundary" inkscape:connector-curvature="0" />
	<path style="fill:none;stroke:red;stroke-width:1px;stroke-linecap:butt;stroke-linejoin:miter;stroke-opacity:1" d="M 318.81,119.77 314.978,141.274 z" id="boundary" inkscape:connector-curvature="0" />
	<path style="fill:none;stroke:red;stroke-width:1px;stroke-linecap:butt;stroke-linejoin:miter;stroke-opacity:1" d="M 314.978,141.274 310.374,162.244 z" id="boundary" inkscape:connector-curvature="0" />
	<path style="fill:none;stroke:red;stroke-width:1px;stroke-linecap:butt;stroke-linejoin:miter;stroke-opacity:1" d="M 310.374,162.244 305.45,183.039 z" id="boundary" inkscape:connector-curvature="0" />
	<path style="fill:none;stroke:red;stroke-width:1px;stroke-linecap:butt;stroke-linejoin:miter;stroke-opacity:1" d="M 305.45,183.039 300.931,204.066 z" id="boundary" inkscape:connector-curvature="0" />
	<path style="fill:none;stroke:red;stroke-width:1px;stroke-linecap:butt;stroke-linejoin:miter;stroke-opacity:1" d="M 300.931,204.066 297.167,224.424 z" id="boundary" inkscape:connector-curvature="0" />
	<path style="fill:none;stroke:red;stroke-width:1px;stroke-linecap:butt;stroke-linejoin:miter;stroke-opacity:1" d="M 297.167,224.424 294.285,244.049 z" id="boundary" inkscape:connector-curvature="0" />
	<path style="fill:none;stroke:red;stroke-width:1px;stroke-linecap:butt;stroke-linejoin:miter;stroke-opacity:1" d="M 294.285,244.049 292.293,264.545 z" id="boundary" inkscape:connector-curvature="0" />
	<path style="fill:none;stroke:red;stroke-width:1px;stroke-linecap:butt;stroke-linejoin:miter;stroke-opacity:1" d="M 292.293,264.545 291.664,284.795 z" id="boundary" inkscape:connector-curvature="0" />
	<path style="fill:none;stroke:red;stroke-width:1px;stroke-linecap:butt;stroke-linejoin:miter;stroke-opacity:1" d="M 291.664,284.795 292.936,306.026 z" id="boundary" inkscape:connector-curvature="0" />
	<path style="fill:none;stroke:red;stroke-width:1px;stroke-linecap:butt;stroke-linejoin:miter;stroke-opacity:1" d="M 292.936,306.026 297.456,328.907 z" id="boundary" inkscape:connector-curvature="0" />
	<path style="fill:none;stroke:red;stroke-width:1px;stroke-linecap:butt;stroke-linejoin:miter;stroke-opacity:1" d="M 297.456,328.907 308.566,354.351 z" id="boundary" inkscape:connector-curvature="0" />
	<path style="fill:none;stroke:red;stroke-width:1px;stroke-linecap:butt;stroke-linejoin:miter;stroke-opacity:1" d="M 308.566,354.351 330.742,378.689 z" id="boundary" inkscape:connector-curvature="0" />
	<path style="fill:none;stroke:red;stroke-width:1px;stroke-linecap:butt;stroke-linejoin:miter;stroke-opacity:1" d="M 330.742,378.689 359.993,394.877 z" id="boundary" inkscape:connector-curvature="0" />
	<path style="fill:none;stroke:red;stroke-width:1px;stroke-linecap:butt;stroke-linejoin:miter;stroke-opacity:1" d="M 359.993,394.877 395.553,403.299 z" id="boundary" inkscape:connector-curvature="0" />
	<path style="fill:none;stroke:red;stroke-width:1px;stroke-linecap:butt;stroke-linejoin:miter;stroke-opacity:1" d="M 395.553,403.299 438.742,400.541 z" id="boundary" inkscape:connector-curvature="0" />
	<path style="fill:none;stroke:red;stroke-width:1px;stroke-linecap:butt;stroke-linejoin:miter;stroke-opacity:1" d="M 438.742,400.541 494.519,383.65 z" id="boundary" inkscape:connector-curvature="0" />
	<path style="fill:none;stroke:red;stroke-width:1px;stroke-linecap:butt;stroke-linejoin:miter;stroke-opacity:1" d="M 494.519,383.65 564.364,356.548 z" id="boundary" inkscape:connector-curvature="0" />
	<path style="fill:none;stroke:red;stroke-width:1px;stroke-linecap:butt;stroke-linejoin:miter;stroke-opacity:1" d="M 564.364,356.548 659.876,335.156 z" id="boundary" inkscape:connector-curvature="0" />
	<path style="fill:none;stroke:red;stroke-width:1px;stroke-linecap:butt;stroke-linejoin:miter;stroke-opacity:1" d="M 659.876,335.156 772.112,356.197 z" id="boundary" inkscape:connector-curvature="0" />
	<path style="fill:none;stroke:red;stroke-width:1px;stroke-linecap:butt;stroke-linejoin:miter;stroke-opacity:1" d="M 772.112,356.197 857.394,406.014 z" id="boundary" inkscape:connector-curvature="0" />
	<path style="fill:none;stroke:red;stroke-width:1px;stroke-linecap:butt;stroke-linejoin:miter;stroke-opacity:1" d="M 857.394,406.014 917.291,471.899 z" id="boundary" inkscape:connector-curvature="0" />
	<path style="fill:none;stroke:red;stroke-width:1px;stroke-linecap:butt;stroke-linejoin:miter;stroke-opacity:1" d="M 917.291,471.899 945.516,553.205 z" id="boundary" inkscape:connector-curvature="0" />
	<path style="fill:none;stroke:red;stroke-width:1px;stroke-linecap:butt;stroke-linejoin:miter;stroke-opacity:1" d="M 945.516,553.205 949.29,632.144 z" id="boundary" inkscape:connector-curvature="0" />
	<path style="fill:none;stroke:red;stroke-width:1px;stroke-linecap:butt;stroke-linejoin:miter;stroke-opacity:1" d="M 949.29,632.144 945.997,682.318 z" id="boundary" inkscape:connector-curvature="0" />
	<path style="fill:none;stroke:red;stroke-width:1px;stroke-linecap:butt;stroke-linejoin:miter;stroke-opacity:1" d="M 945.997,682.318 940.073,718.512 z" id="boundary" inkscape:connector-curvature="0" />
	<path style="fill:none;stroke:red;stroke-width:1px;stroke-linecap:butt;stroke-linejoin:miter;stroke-opacity:1" d="M 940.073,718.512 939.048,751.311 z" id="boundary" inkscape:connector-curvature="0" />
	<path style="fill:none;stroke:red;stroke-width:1px;stroke-linecap:butt;stroke-linejoin:miter;stroke-opacity:1" d="M 939.048,751.311 947.368,778.633 z" id="boundary" inkscape:connector-curvature="0" />
	<path style="fill:none;stroke:red;stroke-width:1px;stroke-linecap:butt;stroke-linejoin:miter;stroke-opacity:1" d="M 947.368,778.633 963.464,801.038 z" id="boundary" inkscape:connector-curvature="0" />
	<path style="fill:none;stroke:red;stroke-width:1px;stroke-linecap:butt;stroke-linejoin:miter;stroke-opacity:1" d="M 963.464,801.038 980.322,816.655 z" id="boundary" inkscape:connector-curvature="0" />
	<path style="fill:none;stroke:red;stroke-width:1px;stroke-linecap:butt;stroke-linejoin:miter;stroke-opacity:1" d="M 980.322,816.655 991.719,835.702 z" id="boundary" inkscape:connector-curvature="0" />
	<path style="fill:none;stroke:red;stroke-width:1px;stroke-linecap:butt;stroke-linejoin:miter;stroke-opacity:1" d="M 991.719,835.702 996,858.318 z" id="boundary" inkscape:connector-curvature="0" />
	<path style="fill:none;stroke:red;stroke-width:1px;stroke-linecap:butt;stroke-linejoin:miter;stroke-opacity:1" d="M 996,858.318 995.365,885.881 z" id="boundary" inkscape:connector-curvature="0" />
	<path style="fill:none;stroke:red;stroke-width:1px;stroke-linecap:butt;stroke-linejoin:miter;stroke-opacity:1" d="M 995.365,885.881 983.234,918.22 z" id="boundary" inkscape:connector-curvature="0" />
	<path style="fill:none;stroke:red;stroke-width:1px;stroke-linecap:butt;stroke-linejoin:miter;stroke-opacity:1" d="M 983.234,918.22 955.96,943.66 z" id="boundary" inkscape:connector-curvature="0" />
	<path style="fill:none;stroke:red;stroke-width:1px;stroke-linecap:butt;stroke-linejoin:miter;stroke-opacity:1" d="M 955.96,943.66 920.117,959.558 z" id="boundary" inkscape:connector-curvature="0" />
	<path style="fill:none;stroke:red;stroke-width:1px;stroke-linecap:butt;stroke-linejoin:miter;stroke-opacity:1" d="M 920.117,959.558 874.634,970.215 z" id="boundary" inkscape:connector-curvature="0" />
	<path style="fill:none;stroke:red;stroke-width:1px;stroke-linecap:butt;stroke-linejoin:miter;stroke-opacity:1" d="M 874.634,970.215 814.941,977.234 z" id="boundary" inkscape:connector-curvature="0" />
	<path style="fill:none;stroke:red;stroke-width:1px;stroke-linecap:butt;stroke-linejoin:miter;stroke-opacity:1" d="M 814.941,977.234 739.084,980.841 z" id="boundary" inkscape:connector-curvature="0" />
	<path style="fill:none;stroke:red;stroke-width:1px;stroke-linecap:butt;stroke-linejoin:miter;stroke-opacity:1" d="M 739.084,980.841 639.802,981.53 z" id="boundary" inkscape:connector-curvature="0" />
	<path style="fill:none;stroke:red;stroke-width:1px;stroke-linecap:butt;stroke-linejoin:miter;stroke-opacity:1" d="M 639.802,981.53 521.985,980.163 z" id="boundary" inkscape:connector-curvature="0" />
	<path style="fill:none;stroke:red;stroke-width:1px;stroke-linecap:butt;stroke-linejoin:miter;stroke-opacity:1" d="M 521.985,980.163 434.157,978.981 z" id="boundary" inkscape:connector-curvature="0" />
	<path style="fill:none;stroke:red;stroke-width:1px;stroke-linecap:butt;stroke-linejoin:miter;stroke-opacity:1" d="M 434.157,978.981 370.111,977.9 z" id="boundary" inkscape:connector-curvature="0" />
	<path style="fill:none;stroke:red;stroke-width:1px;stroke-linecap:butt;stroke-linejoin:miter;stroke-opacity:1" d="M 370.111,977.9 322.025,976.681 z" id="boundary" inkscape:connector-curvature="0" />
	<path style="fill:none;stroke:red;stroke-width:1px;stroke-linecap:butt;stroke-linejoin:miter;stroke-opacity:1" d="M 322.025,976.681 282.841,975.108 z" id="boundary" inkscape:connector-curvature="0" />
	<path style="fill:none;stroke:red;stroke-width:1px;stroke-linecap:butt;stroke-linejoin:miter;stroke-opacity:1" d="M 282.841,975.108 249.74,972.977 z" id="boundary" inkscape:connector-curvature="0" />
	<path style="fill:none;stroke:red;stroke-width:1px;stroke-linecap:butt;stroke-linejoin:miter;stroke-opacity:1" d="M 249.74,972.977 219.918,969.816 z" id="boundary" inkscape:connector-curvature="0" />
	<path style="fill:none;stroke:red;stroke-width:1px;stroke-linecap:butt;stroke-linejoin:miter;stroke-opacity:1" d="M 219.918,969.816 194.433,965.165 z" id="boundary" inkscape:connector-curvature="0" />
	<path style="fill:none;stroke:red;stroke-width:1px;stroke-linecap:butt;stroke-linejoin:miter;stroke-opacity:1" d="M 194.433,965.165 175.403,958.992 z" id="boundary" inkscape:connector-curvature="0" />
	<path style="fill:none;stroke:red;stroke-width:1px;stroke-linecap:butt;stroke-linejoin:miter;stroke-opacity:1" d="M 175.403,958.992 160.783,949.943 z" id="boundary" inkscape:connector-curvature="0" />
	<path style="fill:none;stroke:red;stroke-width:1px;stroke-linecap:butt;stroke-linejoin:miter;stroke-opacity:1" d="M 160.783,949.943 151.18,935.892 z" id="boundary" inkscape:connector-curvature="0" />
	<path style="fill:none;stroke:red;stroke-width:1px;stroke-linecap:butt;stroke-linejoin:miter;stroke-opacity:1" d="M 151.18,935.892 148.149,918.839 z" id="boundary" inkscape:connector-curvature="0" />
	<path style="fill:none;stroke:red;stroke-width:1px;stroke-linecap:butt;stroke-linejoin:miter;stroke-opacity:1" d="M 148.149,918.839 150.181,899.328 z" id="boundary" inkscape:connector-curvature="0" />
	<path style="fill:none;stroke:red;stroke-width:1px;stroke-linecap:butt;stroke-linejoin:miter;stroke-opacity:1" d="M 150.181,899.328 159.547,882.329 z" id="boundary" inkscape:connector-curvature="0" />
	<path style="fill:none;stroke:red;stroke-width:1px;stroke-linecap:butt;stroke-linejoin:miter;stroke-opacity:1" d="M 159.547,882.329 175.398,870.821 z" id="boundary" inkscape:connector-curvature="0" />
	<path style="fill:none;stroke:red;stroke-width:1px;stroke-linecap:butt;stroke-linejoin:miter;stroke-opacity:1" d="M 175.398,870.821 195.326,862.954 z" id="boundary" inkscape:connector-curvature="0" />
	<path style="fill:none;stroke:red;stroke-width:1px;stroke-linecap:butt;stroke-linejoin:miter;stroke-opacity:1" d="M 195.326,862.954 218.246,855.205 z" id="boundary" inkscape:connector-curvature="0" />
	<path style="fill:none;stroke:red;stroke-width:1px;stroke-linecap:butt;stroke-linejoin:miter;stroke-opacity:1" d="M 218.246,855.205 236.683,845.661 z" id="boundary" inkscape:connector-curvature="0" />
	<path style="fill:none;stroke:red;stroke-width:1px;stroke-linecap:butt;stroke-linejoin:miter;stroke-opacity:1" d="M 236.683,845.661 249.983,830.491 z" id="boundary" inkscape:connector-curvature="0" />
	<path style="fill:none;stroke:red;stroke-width:1px;stroke-linecap:butt;stroke-linejoin:miter;stroke-opacity:1" d="M 249.983,830.491 255.102,811.068 z" id="boundary" inkscape:connector-curvature="0" />
	<circle cx="255.005" cy="798.452" r="4" fill="#0" id="circle0"/>
	<circle cx="249.695" cy="775.981" r="4" fill="#0" id="circle1"/>
	<circle cx="234.547" cy="750.733" r="4" fill="#0" id="circle2"/>
	<circle cx="209.331" cy="726.035" r="4" fill="#0" id="circle3"/>
	<circle cx="174.822" cy="701.985" r="4" fill="#0" id="circle4"/>
	<circle cx="130.09" cy="676.587" r="4" fill="#0" id="circle5"/>
	<circle cx="86.0858" cy="652.714" r="4" fill="#0" id="circle6"/>
	<circle cx="56.6424" cy="634.676" r="4" fill="#0" id="circle7"/>
	<circle cx="35.3964" cy="617.865" r="4" fill="#0" id="circle8"/>
	<circle cx="20.3286" cy="598.226" r="4" fill="#0" id="circle9"/>
	<circle cx="10.645" cy="574.112" r="4" fill="#0" id="circle10"/>
	<circle cx="4" cy="544.494" r="4" fill="#0" id="circle11"/>
	<circle cx="4.07236" cy="502.792" r="4" fill="#0" id="circle12"/>
	<circle cx="20.7622" cy="446.468" r="4" fill="#0" id="circle13"/>
	<circle cx="52.5145" cy="393.485" r="4" fill="#0" id="circle14"/>
	<circle cx="78.7227" cy="360.085" r="4" fill="#0" id="circle15"/>
	<circle cx="94.4048" cy="335.434" r="4" fill="#0" id="circle16"/>
	<circle cx="101.505" cy="314.018" r="4" fill="#0" id="circle17"/>
	<circle cx="104.523" cy="293.348" r="4" fill="#0" id="circle18"/>
	<circle cx="105.798" cy="273.536" r="4" fill="#0" id="circle19"/>
	<circle cx="106.378" cy="252.839" r="4" fill="#0" id="circle20"/>
	<circle cx="106.605" cy="232.393" r="4" fill="#0" id="circle21"/>
	<circle cx="106.683" cy="211.162" r="4" fill="#0" id="circle22"/>
	<circle cx="106.705" cy="189.739" r="4" fill="#0" id="circle23"/>
	<circle cx="106.738" cy="167.6" r="4" fill="#0" id="circle24"/>
	<circle cx="106.927" cy="146.522" r="4" fill="#0" id="circle25"/>
	<circle cx="107.379" cy="124.965" r="4" fill="#0" id="circle26"/>
	<circle cx="108.147" cy="104.573" r="4" fill="#0" id="circle27"/>
	<circle cx="109.434" cy="83.8307" r="4" fill="#0" id="circle28"/>
	<circle cx="111.448" cy="63.7631" r="4" fill="#0" id="circle29"/>
	<circle cx="114.572" cy="44.7912" r="4" fill="#0" id="circle30"/>
	<circle cx="118.916" cy="29.1451" r="4" fill="#0" id="circle31"/>
	<circle cx="124.573" cy="17.453" r="4" fill="#0" id="circle32"/>
	<circle cx="133.45" cy="8.30567" r="4" fill="#0" id="circle33"/>
	<circle cx="145.411" cy="4" r="4" fill="#0" id="circle34"/>
	<circle cx="158.575" cy="4.09266" r="4" fill="#0" id="circle35"/>
	<circle cx="170.177" cy="8.87415" r="4" fill="#0" id="circle36"/>
	<circle cx="178.53" cy="18.5207" r="4" fill="#0" id="circle37"/>
	<circle cx="183.443" cy="30.8969" r="4" fill="#0" id="circle38"/>
	<circle cx="186.318" cy="46.2637" r="4" fill="#0" id="circle39"/>
	<circle cx="187.491" cy="60.9224" r="4" fill="#0" id="circle40"/>
	<circle cx="187.842" cy="74.2839" r="4" fill="#0" id="circle41"/>
	<circle cx="187.806" cy="87.0696" r="4" fill="#0" id="circle42"/>
	<circle cx="187.572" cy="99.706" r="4" fill="#0" id="circle43"/>
	<circle cx="187.261" cy="112.014" r="4" fill="#0" id="circle44"/>
	<circle cx="186.942" cy="124.648" r="4" fill="#0" id="circle45"/>
	<circle cx="186.719" cy="135.91" r="4" fill="#0" id="circle46"/>
	<circle cx="186.605" cy="147.314" r="4" fill="#0" id="circle47"/>
	<circle cx="186.651" cy="158.808" r="4" fill="#0" id="circle48"/>
	<circle cx="186.862" cy="168.882" r="4" fill="#0" id="circle49"/>
	<circle cx="187.064" cy="178.821" r="4" fill="#0" id="circle50"/>
	<circle cx="187.131" cy="188.408" r="4" fill="#0" id="circle51"/>
	<circle cx="187.079" cy="197.646" r="4" fill="#0" id="circle52"/>
	<circle cx="186.922" cy="206.536" r="4" fill="#0" id="circle53"/>
	<circle cx="186.675" cy="215.081" r="4" fill="#0" id="circle54"/>
	<circle cx="186.318" cy="224.082" r="4" fill="#0" id="circle55"/>
	<circle cx="185.848" cy="233.429" r="4" fill="#0" id="circle56"/>
	<circle cx="185.318" cy="242.287" r="4" fill="#0" id="circle57"/>
	<circle cx="184.757" cy="250.657" r="4" fill="#0" id="circle58"/>
	<circle cx="184.188" cy="258.544" r="4" fill="#0" id="circle59"/>
	<circle cx="183.548" cy="267.137" r="4" fill="#0" id="circle60"/>
	<circle cx="182.976" cy="275.081" r="4" fill="#0" id="circle61"/>
	<circle cx="182.481" cy="282.877" r="4" fill="#0" id="circle62"/>
	<circle cx="182.145" cy="290.384" r="4" fill="#0" id="circle63"/>
	<circle cx="182.072" cy="297.452" r="4" fill="#0" id="circle64"/>
	<circle cx="182.424" cy="304.255" r="4" fill="#0" id="circle65"/>
	<circle cx="183.464" cy="310.442" r="4" fill="#0" id="circle66"/>
	<circle cx="185.321" cy="315.247" r="4" fill="#0" id="circle67"/>
	<circle cx="188.294" cy="318.814" r="4" fill="#0" id="circle68"/>
	<circle cx="191.617" cy="320.63" r="4" fill="#0" id="circle69"/>
	<circle cx="194.742" cy="321.352" r="4" fill="#0" id="circle70"/>
	<circle cx="197.695" cy="320.988" r="4" fill="#0" id="circle71"/>
	<circle cx="200.21" cy="319.345" r="4" fill="#0" id="circle72"/>
	<circle cx="202.232" cy="316.871" r="4" fill="#0" id="circle73"/>
	<circle cx="204.209" cy="313.2" r="4" fill="#0" id="circle74"/>
	<circle cx="206.134" cy="308.161" r="4" fill="#0" id="circle75"/>
	<circle cx="207.907" cy="301.98" r="4" fill="#0" id="circle76"/>
	<circle cx="209.462" cy="295.146" r="4" fill="#0" id="circle77"/>
	<circle cx="210.844" cy="287.869" r="4" fill="#0" id="circle78"/>
	<circle cx="212.086" cy="280.336" r="4" fill="#0" id="circle79"/>
	<circle cx="213.297" cy="272.106" r="4" fill="#0" id="circle80"/>
	<circle cx="214.409" cy="263.854" r="4" fill="#0" id="circle81"/>
	<circle cx="215.438" cy="255.729" r="4" fill="#0" id="circle82"/>
	<circle cx="216.478" cy="247.127" r="4" fill="#0" id="circle83"/>
	<circle cx="217.541" cy="238.06" r="4" fill="#0" id="circle84"/>
	<circle cx="218.544" cy="229.349" r="4" fill="#0" id="circle85"/>
	<circle cx="219.486" cy="221.105" r="4" fill="#0" id="circle86"/>
	<circle cx="220.464" cy="212.56" r="4" fill="#0" id="circle87"/>
	<circle cx="221.484" cy="203.718" r="4" fill="#0" id="circle88"/>
	<circle cx="222.551" cy="194.587" r="4" fill="#0" id="circle89"/>
	<circle cx="223.672" cy="185.172" r="4" fill="#0" id="circle90"/>
	<circle cx="224.852" cy="175.481" r="4" fill="#0" id="circle91"/>
	<circle cx="226.098" cy="165.519" r="4" fill="#0" id="circle92"/>
	<circle cx="227.416" cy="155.294" r="4" fill="#0" id="circle93"/>
	<circle cx="228.753" cy="144.909" r="4" fill="#0" id="circle94"/>
	<circle cx="230.251" cy="133.05" r="4" fill="#0" id="circle95"/>
	<circle cx="231.754" cy="121.278" r="4" fill="#0" id="circle96"/>
	<circle cx="233.299" cy="109.674" r="4" fill="#0" id="circle97"/>
	<circle cx="235.133" cy="96.9203" r="4" fill="#0" id="circle98"/>
	<circle cx="237.122" cy="84.596" r="4" fill="#0" id="circle99"/>
	<circle cx="239.575" cy="71.5457" r="4" fill="#0" id="circle100"/>
	<circle cx="242.656" cy="58.1542" r="4" fill="#0" id="circle101"/>
	<circle cx="247.123" cy="43.3993" r="4" fill="#0" id="circle102"/>
	<circle cx="253.402" cy="29.2138" r="4" fill="#0" id="circle103"/>
	<circle cx="261.171" cy="18.5353" r="4" fill="#0" id="circle104"/>
	<circle cx="271.727" cy="11.5523" r="4" fill="#0" id="circle105"/>
	<circle cx="284.339" cy="10.2169" r="4" fill="#0" id="circle106"/>
	<circle cx="296.85" cy="13.7915" r="4" fill="#0" id="circle107"/>
	<circle cx="308.613" cy="22.9681" r="4" fill="#0" id="circle108"/>
	<circle cx="316.94" cy="37.7801" r="4" fill="#0" id="circle109"/>
	<circle cx="321.237" cy="55.6809" r="4" fill="#0" id="circle110"/>
	<circle cx="322.549" cy="75.8935" r="4" fill="#0" id="circle111"/>
	<circle cx="321.548" cy="97.508" r="4" fill="#0" id="circle112"/>
	<circle cx="318.81" cy="119.77" r="4" fill="#0" id="circle113"/>
	<circle cx="314.978" cy="141.274" r="4" fill="#0" id="circle114"/>
	<circle cx="310.374" cy="162.244" r="4" fill="#0" id="circle115"/>
	<circle cx="305.45" cy="183.039" r="4" fill="#0" id="circle116"/>
	<circle cx="300.931" cy="204.066" r="4" fill="#0" id="circle117"/>
	<circle cx="297.167" cy="224.424" r="4" fill="#0" id="circle118"/>
	<circle cx="294.285" cy="244.049" r="4" fill="#0" id="circle119"/>
	<circle cx="292.293" cy="264.545" r="4" fill="#0" id="circle120"/>
	<circle cx="291.664" cy="284.795" r="4" fill="#0" id="circle121"/>
	<circle cx="292.936" cy="306.026" r="4" fill="#0" id="circle122"/>
	<circle cx="297.456" cy="328.907" r="4" fill="#0" id="circle123"/>
	<circle cx="308.566" cy="354.351" r="4" fill="#0" id="circle124"/>
	<circle cx="330.742" cy="378.689" r="4" fill="#0" id="circle125"/>
	<circle cx="359.993" cy="394.877" r="4" fill="#0" id="circle126"/>
	<circle cx="395.553" cy="403.299" r="4" fill="#0" id="circle127"/>
	<circle cx="438.742" cy="400.541" r="4" fill="#0" id="circle128"/>
	<circle cx="494.519" cy="383.65" r="4" fill="#0" id="circle129"/>
	<circle cx="564.364" cy="356.548" r="4" fill="#0" id="circle130"/>
	<circle cx="659.876" cy="335.156" r="4" fill="#0" id="circle131"/>
	<circle cx="772.112" cy="356.197" r="4" fill="#0" id="circle132"/>
	<circle cx="857.394" cy="406.014" r="4" fill="#0" id="circle133"/>
	<circle cx="917.291" cy="471.899" r="4" fill="#0" id="circle134"/>
	<circle cx="945.516" cy="553.205" r="4" fill="#0" id="circle135"/>
	<circle cx="949.29" cy="632.144" r="4" fill="#0" id="circle136"/>
	<circle cx="945.997" cy="682.318" r="4" fill="#0" id="circle137"/>
	<circle cx="940.073" cy="718.512" r="4" fill="#0" id="circle138"/>
	<circle cx="939.048" cy="751.311" r="4" fill="#0" id="circle139"/>
	<circle cx="947.368" cy="778.633" r="4" fill="#0" id="circle140"/>
	<circle cx="963.464" cy="801.038" r="4" fill="#0" id="circle141"/>
	<circle cx="980.322" cy="816.655" r="4" fill="#0" id="circle142"/>
	<circle cx="991.719" cy="835.702" r="4" fill="#0" id="circle143"/>
	<circle cx="996" cy="858.318" r="4" fill="#0" id="circle144"/>
	<circle cx="995.365" cy="885.881" r="4" fill="#0" id="circle145"/>
	<circle cx="983.234" cy="918.22" r="4" fill="#0" id="circle146"/>
	<circle cx="955.96" cy="943.66" r="4" fill="#0" id="circle147"/>
	<circle cx="920.117" cy="959.558" r="4" fill="#0" id="circle148"/>
	<circle cx="874.634" cy="970.215" r="4" fill="#0" id="circle149"/>
	<circle cx="814.941" cy="977.234" r="4" fill="#0" id="circle150"/>
	<circle cx="739.084" cy="980.841" r="4" fill="#0" id="circle151"/>
	<circle cx="639.802" cy="981.53" r="4" fill="#0" id="circle152"/>
	<circle cx="521.985" cy="980.163" r="4" fill="#0" id="circle153"/>
	<circle cx="434.157" cy="978.981" r="4" fill="#0" id="circle154"/>
	<circle cx="370.111" cy="977.9" r="4" fill="#0" id="circle155"/>
	<circle cx="322.025" cy="976.681" r="4" fill="#0" id="circle156"/>
	<circle cx="282.841" cy="975.108" r="4" fill="#0" id="circle157"/>
	<circle cx="249.74" cy="972.977" r="4" fill="#0" id="circle158"/>
	<circle cx="219.918" cy="969.816" r="4" fill="#0" id="circle159"/>
	<circle cx="194.433" cy="965.165" r="4" fill="#0" id="circle160"/>
	<circle cx="175.403" cy="958.992" r="4" fill="#0" id="circle161"/>
	<circle cx="160.783" cy="949.943" r="4" fill="#0" id="circle162"/>
	<circle cx="151.18" cy="935.892" r="4" fill="#0" id="circle163"/>
	<circle cx="148.149" cy="918.839" r="4" fill="#0" id="circle164"/>
	<circle cx="150.181" cy="899.328" r="4" fill="#0" id="circle165"/>
	<circle cx="159.547" cy="882.329" r="4" fill="#0" id="circle166"/>
	<circle cx="175.398" cy="870.821" r="4" fill="#0" id="circle167"/>
	<circle cx="195.326" cy="862.954" r="4" fill="#0" id="circle168"/>
	<circle cx="218.246" cy="855.205" r="4" fill="#0" id="circle169"/>
	<circle cx="236.683" cy="845.661" r="4" fill="#0" id="circle170"/>
	<circle cx="249.983" cy="830.491" r="4" fill="#0" id="circle171"/>
	<circle cx="255.102" cy="811.068" r="4" fill="#0" id="circle172"/>
	</g>
</svg>