63.50 183.50
74.00 140.63
93.00 109.75
110.50 98.67
128.50 111.00
130.00 130.50
122.50 158.50
116.50 191.33
142.00 208.00
156.50 190.50
169.50 213.33
193.00 243.00
199.00 264.75
222.50 185.50
249.00 185.38
274.50 152.50
277.50 119.50
275.50 95.00
280.50 72.50
287.50 46.50
304.00 28.50
326.50 28.50
335.50 65.50
335.50 98.00
333.50 145.50
330.50 167.50
322.50 192.50
312.21 221.81
326.50 229.83
340.50 222.83
349.50 210.17
360.00 195.38
369.00 170.38
377.50 153.50
393.50 137.50
417.00 138.63
421.00 169.38
385.50 220.33
368.00 252.75
345.50 292.50
331.50 314.33
298.50 355.00
275.50 387.50
233.50 394.50
258.00 432.50
117.50 409.50
115.50 356.83
91.00 297.25
63.50 231.83
161.50 161.50
166.50 134.50
167.50 113.50
169.50 96.33
171.50 70.33
182.50 42.50
201.50 16.50
215.50 18.50
224.50 52.50
224.50 82.33
214.50 123.50
213.50 159.50
426.00 42.38