136 24
136 11
146 12
153 20
155 30
155 44
156 54
156 64
156 74
157 84
157 94
158 104
158 114
159 124
159 134
160 144
160 154
161 164
161 174
161 184
162 194
163 204
165 214
166 224
166 234
167 244
167 254
166 268
164 287
154 285
146 279
146 260
143 250
142 240
141 230
143 218
146 205
148 194
142 186
140 176
140 166
139 143
138 120
137 97
136 64
136 54
136 44
136 34
