17 240
18 219
25 211
34 205
44 202
54 197
64 192
74 188
84 184
94 180
104 176
114 172
124 171
134 169
144 166
154 162
164 159
173 154
176 136
181 125
188 117
196 109
204 103
213 98
223 94
233 93
243 92
253 94
262 99
267 108
265 119
257 127
249 133
254 142
260 150
262 160
258 172
250 181
242 188
236 197
231 208
221 213
211 215
201 219
192 225
184 231
175 237
166 243
157 249
148 254
139 259
130 264
120 269
110 274
100 278
90 281
80 281
70 279
62 273
60 263
66 253
74 246
84 241
93 235
102 230
93 225
83 229
73 232
63 235
53 240
43 244
33 248
23 248
