29 127
29 117
32 107
36 97
42 87
49 79
57 73
66 67
76 63
86 60
96 58
106 57
116 56
126 56
136 59
146 58
156 60
166 62
176 64
186 67
196 71
206 75
216 79
226 83
235 88
244 93
253 98
262 103
270 109
278 115
286 121
294 128
301 136
309 143
315 151
321 159
327 167
333 175
339 183
343 193
348 202
352 212
354 222
356 232
357 242
358 252
359 262
362 272
368 280
376 287
384 293
392 299
401 304
409 310
418 315
427 320
435 326
444 331
453 336
462 341
470 347
479 352
489 356
498 361
508 365
516 371
524 378
532 384
540 390
549 395
557 401
566 406
574 412
583 417
593 421
602 426
611 431
620 436
630 440
638 446
647 451
656 456
665 461
674 466
683 471
692 476
701 481
710 486
718 492
727 497
735 503
743 509
752 514
762 518
772 522
781 527
790 532
799 537
807 543
814 551
823 556
832 561
841 566
850 571
859 576
868 581
876 587
884 593
892 599
900 606
908 613
915 621
921 629
927 637
932 646
935 656
938 673
935 684
928 693
918 698
908 700
900 694
892 688
884 682
876 676
867 671
857 667
847 663
837 659
827 655
817 651
808 646
799 641
790 636
781 631
773 625
765 619
757 613
749 607
741 601
733 595
725 589
717 583
709 576
701 570
693 564
686 556
678 550
670 543
662 536
654 530
646 523
638 516
630 509
622 503
614 496
606 490
598 483
590 476
582 470
574 464
566 458
558 452
550 446
542 440
534 434
526 428
518 422
510 416
502 410
494 404
486 398
478 392
470 386
462 380
454 374
446 368
438 362
429 357
420 352
412 346
403 341
394 336
385 331
376 326
366 322
356 318
346 315
336 314
326 314
316 317
306 320
296 323
286 325
276 327
266 328
256 329
246 332
236 328
226 326
216 324
206 322
196 318
186 315
177 310
167 307
157 307
149 301
141 295
134 287
127 279
119 273
110 268
100 264
95 251
89 243
81 236
75 228
69 220
63 212
57 204
52 195
47 186
42 177
38 167
34 157
32 147
30 137
