371 610
369 623
374 632
376 645
379 655
382 665
387 674
389 684
393 694
400 702
401 712
407 720
415 726
418 736
424 744
433 749
438 758
443 767
451 773
458 781
466 787
473 795
480 803
490 806
496 814
506 817
514 823
523 828
531 834
541 836
550 841
560 844
568 850
577 855
587 858
597 862
607 861
615 867
625 865
633 872
643 872
653 872
663 874
673 876
683 877
693 878
703 876
713 873
723 876
733 874
738 865
748 863
758 863
768 863
778 861
788 860
798 854
808 854
818 853
828 853
838 853
847 858
857 859
867 860
877 864
887 868
896 873
906 876
914 883
924 886
933 891
942 896
952 899
960 906
969 911
979 914
989 916
998 921
1008 925
1016 932
1026 936
1036 938
1044 944
1054 946
1062 953
1070 959
1079 964
1087 970
1097 973
1107 972
1113 980
1121 987
1129 994
1139 996
1149 999
1157 1006
1166 1011
1176 1014
1184 1020
1191 1028
1199 1034
1208 1039
1217 1044
1225 1050
1233 1056
1243 1060
1253 1064
1261 1070
1271 1072
1278 1080
1287 1085
1296 1090
1306 1094
1314 1100
1324 1103
1329 1112
1338 1117
1348 1119
1356 1125
1364 1131
1370 1139
1380 1143
1390 1144
1396 1152
1405 1157
1413 1163
1422 1168
1430 1174
1438 1181
1448 1185
1458 1189
1466 1196
1476 1199
1478 1210
1487 1215
1495 1221
1504 1226
1514 1229
1521 1237
1531 1239
1539 1245
1549 1246
1559 1247
1569 1249
1579 1250
1589 1246
1599 1242
1607 1234
1615 1227
1621 1219
1626 1208
1629 1197
1628 1187
1624 1177
1621 1167
1616 1158
1610 1150
1601 1145
1595 1137
1586 1132
1577 1127
1567 1123
1558 1118
1548 1116
1539 1111
1529 1108
1519 1104
1509 1100
1499 1096
1489 1092
1479 1089
1469 1085
1459 1082
1449 1078
1439 1074
1430 1069
1420 1066
1410 1063
1401 1058
1391 1055
1381 1052
1372 1047
1362 1044
1354 1038
1344 1036
1334 1032
1324 1028
1314 1025
1305 1020
1295 1016
1285 1012
1275 1009
1266 1004
1256 1000
1246 997
1237 992
1227 988
1217 985
1208 980
1198 977
1189 972
1179 969
1169 966
1160 961
1150 957
1140 953
1130 950
1122 944
1113 939
1103 935
1094 930
1084 926
1075 921
1065 917
1056 912
1047 907
1039 901
1029 898
1020 893
1011 888
1002 883
993 878
984 873
974 869
965 864
957 858
948 853
939 848
930 843
920 839
911 834
902 829
893 824
884 819
875 814
866 809
858 802
851 794
846 785
841 776
835 768
833 758
829 748
827 738
825 728
819 720
819 710
812 702
808 689
804 679
799 670
792 662
785 654
777 647
774 637
767 629
757 627
749 621
745 611
735 608
727 602
719 596
713 588
703 586
695 580
689 572
679 568
670 563
660 561
650 559
640 558
630 555
620 552
611 547
601 543
591 541
581 540
571 537
561 537
551 536
541 535
531 536
521 536
511 536
501 535
491 537
481 539
471 540
461 539
452 544
442 545
432 546
422 548
413 555
403 554
394 562
387 571
379 577
374 588
374 598
