86 51
86 41
89 29
93 19
100 11
110 7
120 11
125 20
130 29
133 39
133 53
131 67
125 75
116 82
114 92
117 102
117 112
118 122
118 132
118 142
119 152
119 162
119 172
119 182
120 192
117 209
107 213
101 205
101 195
101 185
101 175
101 165
102 146
102 136
102 126
101 116
102 102
105 87
98 79
91 71
87 61
