787 386
787 376
791 365
799 359
809 359
819 359
828 364
836 370
844 377
850 385
858 391
864 399
870 407
876 415
882 423
888 431
896 438
902 446
907 455
915 462
920 471
928 478
933 487
940 495
948 502
953 511
961 518
968 526
975 534
982 542
988 550
995 558
1003 564
1010 572
1016 580
1025 585
1030 594
1038 600
1045 608
1051 616
1059 622
1065 630
1073 636
1080 644
1088 650
1094 658
1102 664
1108 672
1114 680
1123 685
1130 693
1136 701
1142 709
1149 717
1157 723
1162 732
1169 740
1177 746
1183 754
1191 760
1196 769
1203 777
1210 785
1216 793
1225 798
1230 807
1237 815
1243 823
1251 829
1255 839
1258 849
1263 858
1264 868
1259 879
1266 887
1275 892
1285 896
1293 902
1300 910
1307 918
1313 926
1320 934
1328 941
1336 947
1342 955
1352 957
1353 967
1361 973
1370 982
1378 989
1385 997
1392 1005
1397 1014
1407 1018
1412 1027
1420 1035
1425 1044
1434 1049
1443 1054
1446 1064
1453 1072
1463 1076
1471 1082
1477 1090
1482 1099
1491 1104
1499 1111
1506 1119
1511 1128
1517 1136
1527 1140
1534 1148
1541 1156
1549 1162
1554 1171
1556 1181
1561 1193
1571 1197
1578 1206
1584 1214
1588 1224
1591 1234
1594 1244
1593 1261
1586 1271
1576 1272
1566 1271
1556 1272
1548 1266
1538 1262
1531 1254
1522 1249
1513 1244
1505 1238
1500 1229
1492 1222
1484 1216
1478 1208
1473 1199
1463 1195
1458 1186
1451 1178
1445 1170
1440 1161
1432 1154
1426 1146
1421 1137
1413 1130
1406 1122
1399 1114
1392 1106
1385 1098
1379 1090
1372 1082
1368 1072
1364 1062
1354 1059
1351 1049
1342 1044
1336 1036
1327 1031
1324 1021
1320 1011
1310 1007
1307 997
1302 988
1292 984
1286 973
1281 964
1273 958
1268 949
1262 941
1259 931
1254 922
1246 916
1241 907
1231 903
1221 900
1211 898
1201 897
1191 896
1183 890
1177 882
1169 875
1161 869
1153 863
1148 854
1140 848
1132 842
1127 833
1119 827
1111 821
1105 813
1097 807
1091 799
1083 792
1075 785
1066 780
1059 772
1053 764
1047 756
1039 749
1033 741
1025 734
1018 726
1012 718
1004 712
997 704
989 697
983 689
977 681
969 674
963 666
956 658
948 651
942 643
936 635
929 627
921 621
916 612
910 604
904 596
897 588
891 580
885 572
879 564
873 556
866 548
860 540
855 531
849 523
840 518
840 508
835 499
829 491
824 482
819 473
814 464
809 455
805 445
801 435
798 425
793 416
790 406
788 396
