227 271
227 261
230 251
237 243
247 238
255 232
265 231
275 234
283 240
292 245
300 251
309 256
318 261
326 267
334 273
342 279
351 284
359 290
367 296
376 301
384 308
392 314
401 319
409 325
417 331
426 336
434 343
442 349
450 355
459 360
467 366
475 372
484 377
492 384
500 390
508 396
516 402
525 407
533 414
541 420
549 426
557 432
565 438
574 443
582 449
590 455
598 461
606 467
614 474
622 480
631 485
639 491
647 497
654 505
663 510
671 517
679 524
687 530
695 537
703 544
711 551
719 557
727 563
735 570
742 578
750 584
758 590
765 598
773 604
781 610
788 618
797 623
805 630
813 637
821 644
827 652
836 657
844 664
852 670
860 677
868 684
874 692
883 697
891 704
900 709
909 714
916 722
925 727
933 733
941 739
949 745
957 751
966 756
974 762
982 768
991 773
999 779
1007 785
1015 792
1024 797
1033 802
1041 808
1049 814
1057 820
1065 826
1074 831
1083 836
1091 842
1101 846
1107 854
1117 857
1124 865
1134 868
1143 873
1151 880
1161 884
1167 892
1177 895
1184 903
1194 907
1204 909
1212 915
1220 921
1229 926
1238 931
1246 937
1255 942
1263 948
1273 952
1281 959
1290 964
1300 968
1308 975
1316 981
1325 986
1334 991
1342 998
1351 1003
1360 1008
1368 1014
1377 1019
1385 1025
1393 1032
1402 1037
1410 1044
1419 1049
1427 1055
1435 1061
1443 1067
1451 1073
1459 1079
1468 1084
1476 1090
1485 1095
1493 1102
1501 1108
1509 1115
1518 1120
1526 1127
1535 1132
1543 1138
1551 1144
1559 1150
1567 1156
1575 1162
1583 1169
1592 1174
1600 1180
1608 1186
1616 1193
1624 1199
1632 1206
1640 1213
1638 1232
1633 1242
1627 1251
1620 1259
1613 1267
1606 1276
1596 1277
1587 1272
1577 1268
1568 1263
1560 1257
1551 1252
1543 1246
1534 1241
1525 1236
1517 1230
1508 1225
1500 1218
1490 1214
1482 1208
1474 1202
1465 1197
1456 1192
1448 1186
1440 1180
1432 1173
1422 1169
1413 1164
1404 1159
1398 1151
1389 1146
1381 1140
1371 1136
1364 1128
1354 1124
1348 1116
1338 1113
1329 1108
1321 1102
1312 1097
1303 1092
1295 1086
1291 1076
1281 1075
1273 1069
1265 1062
1259 1054
1249 1054
1244 1045
1234 1041
1225 1036
1217 1030
1208 1025
1200 1018
1192 1011
1186 1003
1176 1000
1168 994
1162 986
1154 980
1144 976
1136 970
1130 962
1128 952
1118 949
1108 945
1098 942
1097 932
1087 930
1079 924
1069 920
1065 910
1055 906
1045 902
1037 896
1029 890
1021 883
1013 877
1004 872
996 866
987 861
978 856
970 850
962 844
954 838
946 831
937 826
928 821
919 816
911 810
902 805
893 800
885 794
876 789
867 784
858 779
849 774
840 769
831 764
823 758
813 754
803 750
794 745
785 740
775 736
766 731
756 727
747 722
737 718
728 713
719 708
711 702
701 701
693 695
683 692
674 687
665 682
656 677
646 673
638 667
628 664
620 658
611 653
601 649
593 643
583 640
575 633
565 630
556 625
547 620
538 615
529 610
520 605
512 599
504 593
494 589
486 583
478 577
470 571
461 566
453 560
445 554
439 546
430 541
423 533
416 525
408 519
400 512
392 506
386 498
378 492
370 485
361 480
353 473
347 465
338 460
331 452
323 445
317 437
309 430
302 422
294 415
287 407
281 399
276 390
270 382
264 374
259 365
254 356
248 348
246 338
242 328
236 320
235 310
230 301
228 291
227 281
