153 687
152 677
154 663
161 655
171 651
181 651
191 652
201 651
211 651
221 651
231 653
241 653
251 654
261 653
271 653
281 654
291 656
301 654
311 653
321 654
331 654
341 653
351 654
361 655
371 656
381 656
391 655
401 654
411 655
421 656
431 654
441 654
451 654
461 654
471 654
481 653
491 652
501 652
511 653
521 652
531 652
541 652
551 651
561 651
571 651
581 652
591 651
601 651
611 651
621 652
631 653
641 653
651 653
661 654
671 656
681 656
691 657
701 658
711 660
721 662
731 662
741 662
751 663
761 666
771 666
781 668
791 670
801 670
811 671
821 671
831 672
841 675
851 675
861 678
871 677
881 676
891 680
901 681
911 681
921 682
931 684
941 684
951 684
961 684
971 686
981 684
991 684
1001 684
1011 685
1021 686
1031 687
1041 687
1051 686
1061 687
1071 685
1081 687
1091 690
1101 689
1111 688
1121 689
1131 690
1141 690
1151 691
1161 691
1171 691
1181 691
1191 690
1201 692
1211 692
1221 689
1231 692
1241 692
1251 694
1261 693
1271 693
1281 697
1291 695
1301 694
1311 691
1321 691
1331 693
1341 694
1351 694
1361 695
1371 696
1381 694
1391 695
1401 694
1411 694
1421 693
1431 694
1441 694
1451 695
1461 693
1471 693
1481 693
1491 693
1501 695
1511 696
1521 694
1531 694
1541 694
1551 695
1561 694
1571 693
1581 693
1591 694
1601 694
1611 693
1621 693
1631 694
1641 692
1651 693
1661 693
1671 691
1681 693
1691 693
1701 693
1711 691
1721 692
1731 691
1741 691
1751 690
1761 689
1771 690
1781 690
1791 691
1801 691
1811 694
1820 699
1825 711
1824 725
1825 735
1826 747
1825 763
1821 776
1821 786
1819 796
1809 806
1799 805
1789 804
1779 804
1769 802
1759 804
1749 807
1740 802
1730 801
1720 803
1710 802
1700 800
1690 801
1680 798
1672 804
1662 800
1652 798
1642 799
1633 794
1623 793
1613 791
1603 794
1593 796
1583 796
1573 792
1563 796
1553 796
1545 790
1535 790
1525 791
1515 791
1505 791
1495 787
1485 788
1475 785
1465 788
1455 787
1445 785
1435 783
1425 782
1415 782
1405 782
1397 789
1387 789
1377 791
1367 790
1357 794
1347 791
1342 782
1332 780
1322 777
1312 777
1302 776
1294 783
1288 775
1278 773
1268 771
1258 773
1248 772
1238 771
1228 771
1218 771
1208 770
1198 770
1188 769
1178 766
1168 768
1158 770
1148 770
1138 772
1128 771
1118 769
1108 768
1098 768
1088 769
1078 769
1068 768
1058 767
1048 767
1038 766
1028 766
1018 765
1008 765
998 765
988 765
978 769
968 771
966 781
956 780
955 770
947 764
937 764
927 765
917 766
907 767
897 770
887 767
877 768
867 768
857 769
847 770
837 771
827 772
819 779
809 777
799 777
789 778
779 780
769 781
759 783
749 785
739 786
729 789
719 789
709 791
699 793
689 795
679 796
669 797
659 798
649 798
639 798
629 797
619 798
609 798
599 799
589 799
579 798
569 798
559 798
549 797
539 798
529 799
519 801
509 799
499 798
489 798
479 798
469 799
459 799
449 798
440 793
430 792
420 792
410 790
400 791
390 788
380 790
370 789
360 787
350 783
340 781
330 779
320 775
310 775
300 773
290 772
280 770
272 764
262 764
253 759
243 756
233 754
225 748
216 743
206 739
198 732
188 731
185 721
175 719
167 713
161 705
155 697
