27 37
33 45
39 53
46 61
52 69
60 76
68 83
77 88
87 89
97 91
105 97
113 104
121 111
128 119
136 125
143 133
151 139
158 147
165 155
173 162
180 170
188 177
194 185
201 193
211 195
216 180
208 174
199 169
191 163
183 157
175 151
95 79
90 70
84 62
77 54
38 14
44 22
50 30
57 38
64 46
67 56
