685 303
685 293
689 283
697 277
707 277
717 280
725 286
732 294
741 299
749 305
757 312
765 318
773 325
781 332
789 338
798 343
804 351
812 357
819 365
828 370
836 376
843 384
851 390
860 395
868 401
874 409
880 417
890 421
896 429
904 435
913 440
920 448
927 456
935 462
942 470
950 476
958 482
966 488
974 494
980 502
988 509
994 517
1001 525
1010 530
1015 539
1024 544
1031 552
1037 560
1045 567
1052 575
1060 581
1067 589
1075 595
1083 602
1089 610
1097 616
1103 624
1108 633
1113 642
1118 651
1125 659
1133 665
1136 675
1144 682
1150 690
1156 698
1164 704
1172 711
1180 717
1188 723
1197 728
1205 735
1214 740
1222 746
1230 752
1240 756
1248 763
1256 769
1266 772
1272 780
1280 787
1288 794
1296 800
1304 806
1312 813
1317 822
1325 828
1332 836
1341 841
1347 849
1353 857
1362 862
1368 870
1376 877
1384 883
1392 890
1398 898
1406 904
1414 910
1420 918
1428 924
1434 932
1441 940
1449 946
1457 953
1466 958
1471 967
1480 972
1486 980
1494 986
1500 994
1508 1001
1515 1009
1524 1014
1532 1021
1538 1029
1546 1035
1551 1044
1560 1049
1566 1057
1574 1064
1583 1069
1588 1078
1598 1082
1603 1091
1612 1096
1618 1104
1626 1111
1632 1119
1640 1125
1648 1131
1657 1136
1663 1144
1670 1152
1678 1158
1681 1171
1675 1180
1669 1188
1660 1194
1653 1202
1643 1209
1634 1204
1626 1198
1619 1190
1614 1181
1605 1176
1596 1171
1587 1166
1582 1157
1574 1151
1568 1143
1560 1136
1550 1134
1544 1126
1538 1118
1532 1110
1523 1105
1516 1097
1506 1093
1498 1086
1492 1078
1486 1070
1478 1064
1468 1061
1464 1051
1454 1047
1448 1039
1439 1034
1432 1026
1424 1019
1416 1013
1410 1005
1402 998
1392 994
1387 985
1379 979
1370 974
1363 966
1354 961
1349 952
1339 950
1333 942
1326 934
1318 928
1310 921
1301 916
1296 907
1288 901
1280 895
1270 891
1263 883
1258 874
1249 869
1241 863
1235 855
1227 848
1218 843
1211 835
1202 830
1200 820
1192 814
1187 805
1182 796
1177 787
1169 780
1161 774
1155 766
1147 760
1141 752
1134 744
1125 739
1115 735
1110 726
1101 721
1093 714
1084 709
1074 705
1064 703
1056 697
1046 694
1040 686
1032 680
1024 674
1015 669
1007 663
998 658
991 650
982 645
973 640
965 634
955 631
947 624
938 619
928 616
920 609
911 604
901 601
891 597
885 589
876 584
870 576
861 571
856 562
848 555
842 547
834 541
827 533
821 525
813 518
807 510
801 502
796 493
786 489
782 479
774 473
771 463
765 455
757 449
753 439
748 430
742 422
736 414
731 405
725 397
720 388
713 380
710 370
705 361
700 352
697 342
689 336
690 323
686 313
