59 70
59 60
60 46
62 29
69 83
70 68
70 58
71 48
71 38
72 22
79 84
81 69
81 59
81 49
81 39
80 28
87 77
86 92
83 103
78 112
77 166
77 181
77 191
78 201
79 211
79 221
80 231
82 241
82 251
83 261
78 273
68 276
60 270
60 260
60 250
62 234
64 218
65 208
66 198
68 186
68 176
69 160
70 149
70 139
70 129
70 119
67 109
62 100
60 90
59 80
