184 1289
186 1273
195 1268
204 1262
211 1254
220 1249
230 1245
239 1240
249 1236
258 1230
268 1228
278 1226
288 1222
298 1218
307 1213
317 1210
327 1208
337 1203
347 1198
357 1197
367 1196
377 1194
387 1193
397 1192
407 1188
417 1183
427 1181
437 1181
447 1177
457 1174
467 1172
477 1171
487 1170
497 1170
506 1164
516 1161
526 1159
536 1159
546 1157
556 1155
566 1153
576 1151
586 1151
596 1146
606 1145
616 1145
626 1143
636 1141
646 1140
656 1139
666 1137
676 1135
686 1135
696 1132
706 1129
716 1127
726 1129
736 1128
746 1127
756 1126
766 1126
776 1123
786 1122
796 1121
806 1120
816 1118
826 1117
836 1117
846 1115
856 1115
866 1113
876 1111
886 1113
896 1111
906 1110
916 1107
926 1106
936 1104
946 1105
956 1104
966 1101
976 1100
986 1099
996 1098
1006 1097
1016 1098
1026 1096
1036 1096
1046 1095
1056 1093
1066 1090
1076 1090
1086 1089
1096 1089
1106 1088
1116 1086
1126 1085
1136 1084
1146 1083
1156 1084
1166 1084
1176 1082
1186 1081
1196 1080
1206 1079
1216 1076
1226 1075
1236 1075
1246 1075
1256 1072
1266 1072
1276 1072
1286 1071
1296 1070
1306 1070
1316 1068
1326 1066
1336 1065
1346 1064
1356 1065
1366 1063
1376 1062
1386 1061
1396 1061
1406 1061
1416 1059
1426 1058
1436 1056
1446 1055
1456 1055
1466 1053
1476 1053
1486 1052
1496 1052
1506 1051
1516 1049
1526 1048
1536 1048
1546 1047
1556 1046
1566 1044
1576 1043
1586 1043
1596 1042
1606 1041
1616 1040
1626 1038
1636 1037
1646 1037
1656 1036
1666 1035
1676 1035
1686 1034
1696 1034
1706 1032
1716 1031
1726 1030
1736 1029
1746 1028
1756 1027
1766 1026
1776 1025
1786 1025
1796 1022
1806 1022
1816 1022
1826 1021
1836 1020
1846 1019
1856 1018
1866 1016
1876 1014
1886 1012
1896 1012
1906 1012
1916 1011
1926 1010
1936 1010
1946 1009
1956 1008
1966 1007
1976 1004
1986 1001
1996 999
2006 1001
2016 1001
2026 1002
2036 1002
2045 1007
2055 1010
2065 1010
2075 1010
2085 1010
2095 1009
2105 1006
2115 1003
2125 1003
2135 1004
2145 1004
2155 1002
2165 1001
2175 1001
2185 1001
2195 999
2205 997
2215 996
2225 995
2235 995
2245 994
2255 989
2265 985
2275 986
2285 986
2295 984
2305 985
2315 985
2325 985
2335 983
2345 979
2355 981
2365 982
2375 981
2385 982
2395 982
2405 980
2415 978
2425 974
2435 973
2445 975
2455 975
2465 972
2475 973
2485 973
2495 975
2505 974
2515 975
2525 970
2535 967
2545 966
2555 965
2565 965
2575 964
2585 965
2595 968
2605 964
2615 963
2625 962
2634 956
2644 952
2654 953
2664 953
2674 954
2684 952
2694 951
2704 951
2714 950
2724 948
2734 947
2744 947
2754 947
2764 946
2774 947
2784 945
2794 945
2804 942
2814 944
2824 942
2834 944
2844 940
2854 935
2864 935
2874 934
2884 931
2894 932
2904 932
2914 932
2924 931
2934 929
2944 927
2954 927
2964 927
2974 927
2984 926
2994 925
3004 924
3014 924
3024 922
3034 921
3044 918
3054 921
3064 918
3072 924
3082 920
3092 917
3102 915
3112 916
3122 914
3130 908
3140 907
3150 907
3160 908
3170 909
3180 905
3190 905
3200 905
3210 908
3220 908
3228 902
3238 899
3248 900
3258 899
3268 899
3278 900
3288 898
3298 898
3308 897
3318 896
3328 897
3338 896
3348 895
3358 893
3368 892
3378 891
3388 887
3398 889
3408 886
3418 887
3428 888
3438 887
3448 887
3458 888
3468 886
3478 884
3488 880
3498 878
3508 877
3518 879
3528 879
3538 882
3548 879
3558 877
3568 878
3578 879
3588 878
3598 879
3608 879
3618 878
3628 881
3638 876
3647 881
3657 884
3667 888
3677 889
3687 886
3695 892
3703 898
3713 902
3721 908
3729 915
3737 922
3743 930
3751 936
3759 943
3766 951
3771 960
3773 970
3781 977
3782 987
3786 997
3789 1007
3791 1020
3789 1031
3790 1041
3790 1051
3790 1061
3789 1072
3782 1081
3777 1091
3771 1099
3767 1112
3763 1123
3755 1131
3745 1134
3739 1142
3731 1150
3729 1165
3721 1172
3712 1177
3704 1185
3696 1191
3688 1197
3680 1205
3671 1211
3661 1214
3657 1224
3648 1230
3639 1235
3629 1235
3619 1238
3611 1245
3603 1251
3593 1256
3583 1260
3573 1261
3563 1262
3553 1266
3543 1267
3533 1269
3523 1273
3513 1270
3506 1262
3498 1256
3494 1246
3487 1238
3482 1229
3478 1219
3471 1211
3466 1202
3456 1199
3446 1195
3436 1193
3427 1188
3423 1178
3415 1172
3407 1166
3402 1157
3392 1156
3382 1161
3372 1161
3362 1164
3335 1145
3327 1151
3323 1163
3315 1157
3306 1152
3296 1152
3286 1154
3276 1155
3266 1159
3259 1167
3249 1167
3239 1167
3229 1170
3219 1171
3209 1173
3201 1179
3191 1181
3181 1179
3171 1178
3161 1175
3151 1173
3141 1175
3131 1175
3121 1174
3113 1180
3103 1183
3093 1186
3083 1187
3073 1190
3063 1193
3053 1189
3043 1185
3033 1189
3023 1195
3013 1193
3003 1194
2993 1198
2983 1202
2973 1201
2963 1199
2953 1198
2943 1201
2933 1204
2923 1206
2913 1205
2903 1205
2893 1204
2883 1206
2873 1208
2863 1212
2856 1204
2846 1202
2837 1207
2827 1210
2817 1211
2807 1209
2797 1208
2787 1206
2777 1207
2767 1207
2757 1207
2747 1210
2737 1210
2727 1213
2717 1214
2707 1212
2697 1211
2687 1212
2677 1208
2667 1208
2657 1207
2647 1208
2639 1201
2635 1215
2625 1212
2615 1209
2605 1209
2595 1207
2585 1209
2575 1213
2565 1212
2555 1210
2547 1204
2538 1209
2530 1203
2520 1202
2510 1206
2500 1203
2490 1204
2480 1208
2470 1204
2460 1205
2450 1201
2440 1201
2430 1206
2421 1201
2411 1200
2401 1197
2391 1199
2381 1199
2372 1194
2362 1193
2352 1194
2344 1200
2334 1200
2324 1199
2314 1198
2304 1198
2294 1194
2284 1193
2274 1189
2264 1193
2255 1188
2245 1186
2235 1187
2225 1192
2215 1193
2205 1192
2196 1197
2186 1200
2177 1205
2171 1213
2163 1220
2153 1225
2144 1230
2138 1238
2133 1247
2128 1256
2119 1261
2112 1269
2108 1279
2101 1287
2095 1296
2091 1308
2086 1321
2081 1331
2077 1342
2075 1353
2072 1364
2069 1375
2066 1394
2062 1405
2059 1416
2056 1426
2052 1438
2049 1448
2047 1460
2044 1472
2040 1483
2035 1494
2032 1505
2030 1515
2026 1525
2023 1536
2019 1546
2013 1555
2006 1563
1997 1569
1987 1572
1977 1574
1967 1575
1957 1576
1947 1577
1937 1577
1927 1578
1917 1577
1907 1577
1897 1578
1887 1577
1877 1577
1867 1577
1857 1578
1847 1579
1837 1578
1827 1578
1817 1578
1807 1579
1797 1578
1787 1578
1777 1578
1767 1578
1757 1578
1747 1577
1737 1577
1727 1577
1717 1578
1707 1578
1697 1578
1687 1578
1677 1578
1667 1578
1657 1578
1647 1577
1637 1577
1627 1576
1617 1576
1607 1576
1597 1576
1587 1575
1577 1576
1567 1576
1557 1575
1547 1575
1537 1575
1527 1574
1517 1574
1507 1574
1497 1573
1487 1573
1477 1574
1467 1573
1457 1572
1447 1572
1437 1572
1427 1571
1417 1571
1407 1571
1397 1571
1387 1571
1377 1570
1367 1570
1357 1569
1347 1569
1337 1568
1327 1568
1317 1567
1307 1567
1297 1567
1287 1564
1277 1564
1267 1565
1257 1564
1247 1563
1237 1562
1227 1563
1217 1560
1207 1559
1197 1559
1187 1560
1177 1559
1167 1556
1157 1557
1147 1557
1137 1557
1127 1556
1117 1555
1107 1553
1097 1551
1087 1551
1077 1550
1067 1551
1057 1549
1047 1548
1037 1546
1027 1546
1017 1545
1007 1545
997 1544
987 1544
977 1543
967 1542
957 1541
947 1538
937 1537
927 1537
917 1537
907 1537
897 1536
887 1534
877 1531
867 1530
857 1531
847 1528
837 1527
827 1525
817 1525
807 1522
797 1521
787 1517
777 1516
767 1512
757 1512
747 1510
737 1509
727 1506
717 1503
707 1500
697 1499
687 1497
677 1498
667 1496
657 1495
648 1490
638 1488
628 1486
619 1481
609 1484
599 1482
590 1477
580 1475
570 1471
560 1468
550 1468
544 1460
534 1456
524 1454
516 1448
506 1450
496 1454
488 1447
478 1443
469 1438
459 1436
449 1432
440 1427
430 1423
420 1422
410 1422
403 1414
393 1412
385 1405
375 1404
367 1398
358 1393
350 1387
340 1384
330 1382
323 1374
315 1368
305 1364
297 1358
287 1354
278 1349
270 1343
261 1338
253 1331
243 1328
234 1323
226 1317
218 1311
210 1305
201 1300
193 1294
