354 1186
351 1199
354 1209
360 1217
362 1244
368 1252
369 1268
372 1278
377 1287
375 1301
378 1311
386 1318
384 1336
384 1346
392 1353
398 1361
397 1372
398 1382
403 1391
409 1399
416 1407
422 1415
424 1425
426 1435
431 1444
436 1453
444 1460
450 1468
458 1475
463 1484
469 1492
475 1500
481 1508
485 1518
493 1525
501 1531
509 1538
517 1545
525 1551
534 1556
543 1561
551 1567
558 1575
566 1582
574 1589
584 1593
594 1597
604 1600
612 1606
620 1612
628 1618
638 1621
648 1624
657 1629
666 1634
676 1636
686 1637
695 1642
704 1647
714 1651
724 1652
734 1655
744 1658
754 1658
764 1660
774 1662
784 1664
794 1665
804 1665
814 1664
824 1665
834 1666
844 1666
854 1666
864 1667
874 1665
884 1663
894 1664
904 1663
914 1662
924 1661
934 1659
943 1654
952 1649
962 1650
972 1649
969 1633
979 1631
987 1637
995 1643
1005 1640
1012 1632
1022 1631
1032 1632
1041 1626
1049 1620
1059 1617
1069 1614
1079 1610
1089 1609
1099 1604
1109 1600
1118 1595
1127 1589
1135 1583
1144 1578
1154 1574
1163 1568
1171 1561
1178 1553
1185 1545
1193 1539
1203 1534
1211 1527
1217 1518
1222 1509
1229 1501
1236 1493
1246 1490
1256 1491
1265 1485
1271 1476
1278 1468
1286 1461
1293 1453
1299 1445
1305 1437
1312 1429
1320 1423
1328 1416
1335 1407
1341 1399
1349 1391
1357 1385
1365 1379
1373 1371
1381 1363
1389 1356
1396 1348
1403 1340
1410 1332
1416 1324
1423 1316
1430 1308
1438 1300
1446 1293
1454 1285
1461 1277
1468 1269
1476 1262
1485 1257
1495 1257
1505 1255
1515 1252
1524 1247
1534 1244
1544 1243
1554 1244
1564 1245
1574 1247
1584 1249
1594 1251
1604 1250
1614 1250
1624 1250
1634 1250
1644 1251
1654 1254
1664 1256
1674 1255
1684 1255
1694 1255
1704 1253
1714 1251
1724 1252
1734 1254
1744 1256
1754 1256
1764 1256
1774 1257
1784 1257
1794 1257
1804 1260
1814 1260
1824 1258
1834 1258
1844 1260
1854 1261
1864 1261
1873 1266
1883 1270
1893 1269
1903 1268
1913 1267
1923 1268
1932 1273
1942 1276
1952 1276
1962 1275
1972 1275
1982 1276
1992 1279
2002 1280
2012 1281
2022 1282
2032 1281
2042 1280
2052 1279
2062 1279
2072 1280
2082 1282
2092 1284
2102 1288
2112 1288
2122 1287
2132 1289
2142 1290
2152 1290
2162 1293
2172 1293
2182 1291
2192 1290
2202 1292
2212 1294
2222 1291
2232 1289
2242 1288
2252 1289
2260 1295
2268 1301
2278 1301
2288 1302
2298 1303
2308 1302
2318 1303
2328 1305
2338 1307
2348 1305
2358 1305
2368 1306
2378 1307
2388 1309
2398 1311
2408 1310
2418 1309
2428 1309
2438 1310
2448 1312
2458 1316
2467 1321
2477 1322
2487 1320
2497 1317
2507 1315
2517 1317
2527 1319
2537 1319
2547 1322
2557 1326
2567 1328
2577 1329
2587 1333
2597 1332
2607 1328
2617 1327
2627 1328
2637 1332
2645 1338
2655 1342
2665 1341
2675 1342
2685 1345
2695 1348
2705 1346
2715 1344
2725 1345
2735 1345
2745 1345
2755 1345
2765 1347
2775 1350
2785 1350
2795 1352
2805 1352
2815 1349
2825 1347
2835 1349
2845 1352
2855 1351
2865 1353
2875 1356
2885 1355
2894 1360
2900 1368
2910 1372
2919 1366
2927 1358
2935 1352
2943 1358
2953 1360
2963 1358
2966 1368
2974 1375
2984 1372
2994 1374
3004 1377
3014 1376
3024 1378
3034 1379
3043 1384
3053 1388
3063 1387
3073 1387
3083 1389
3093 1389
3103 1387
3113 1386
3123 1387
3133 1387
3143 1387
3153 1391
3163 1393
3173 1391
3182 1386
3191 1381
3201 1378
3210 1373
3220 1376
3228 1382
3236 1389
3246 1391
3252 1383
3262 1381
3266 1391
3272 1399
3282 1400
3292 1403
3301 1408
3311 1411
3321 1414
3331 1414
3341 1413
3351 1414
3361 1416
3371 1414
3381 1412
3391 1411
3399 1405
3409 1408
3417 1415
3427 1418
3437 1420
3447 1423
3457 1424
3467 1424
3477 1423
3487 1421
3497 1418
3507 1420
3515 1426
3525 1426
3534 1420
3542 1413
3552 1409
3562 1411
3569 1419
3579 1422
3589 1417
3599 1416
3609 1418
3619 1420
3629 1422
3639 1424
3649 1425
3658 1430
3668 1433
3677 1438
3696 1436
3706 1433
3716 1431
3726 1428
3735 1423
3743 1417
3752 1422
3757 1431
3767 1433
3777 1430
3787 1429
3797 1429
3807 1433
3802 1445
3810 1452
3820 1456
3830 1459
3840 1457
3850 1454
3860 1452
3868 1444
3872 1434
3882 1436
3884 1448
3889 1457
3899 1459
3909 1455
3919 1451
3929 1447
3939 1447
3946 1455
3954 1462
3964 1465
3974 1466
3984 1466
3994 1464
4004 1465
4014 1468
4024 1468
4029 1455
4039 1456
4049 1456
4059 1457
4067 1463
4073 1471
4083 1475
4093 1475
4103 1473
4113 1470
4121 1462
4126 1451
4126 1441
4126 1431
4126 1421
4126 1411
4126 1401
4126 1391
4126 1381
4126 1371
4126 1361
4126 1351
4126 1341
4126 1331
4126 1321
4126 1311
4126 1301
4126 1291
4126 1281
4126 1271
4126 1261
4126 1251
4126 1241
4126 1231
4126 1221
4126 1211
4126 1201
4126 1191
4126 1181
4126 1171
4126 1161
4126 1151
4126 1141
4126 1131
4126 1121
4126 1111
4123 1101
4113 1101
4103 1105
4093 1106
4083 1104
4074 1099
4064 1098
4054 1102
4044 1102
4034 1101
4024 1102
4014 1106
4004 1107
3994 1104
3984 1103
3974 1107
3964 1110
3954 1108
3944 1104
3934 1101
3924 1102
3914 1103
3904 1103
3894 1104
3884 1107
3874 1106
3864 1102
3854 1102
3844 1106
3834 1108
3824 1109
3814 1109
3804 1111
3794 1111
3784 1110
3774 1108
3764 1110
3754 1112
3744 1112
3734 1115
3724 1118
3714 1116
3704 1113
3694 1114
3684 1115
3674 1115
3664 1113
3654 1111
3644 1112
3634 1113
3624 1113
3614 1112
3604 1115
3594 1115
3584 1114
3574 1115
3564 1118
3554 1122
3544 1127
3534 1124
3525 1119
3515 1121
3505 1121
3495 1121
3486 1116
3476 1115
3466 1119
3457 1128
3455 1118
3445 1116
3435 1119
3425 1121
3415 1122
3405 1121
3395 1118
3385 1114
3375 1113
3365 1115
3355 1114
3345 1111
3335 1110
3325 1113
3315 1116
3305 1119
3295 1120
3285 1121
3275 1124
3265 1122
3257 1116
3248 1111
3238 1113
3228 1117
3218 1119
3208 1118
3198 1122
3188 1123
3178 1123
3168 1124
3158 1123
3148 1119
3138 1119
3129 1124
3120 1130
3110 1130
3100 1132
3090 1131
3080 1128
3070 1126
3060 1124
3050 1120
3040 1117
3030 1118
3020 1121
3010 1123
3000 1124
2990 1125
2980 1127
2972 1133
2962 1137
2952 1133
2944 1127
2934 1124
2924 1125
2914 1124
2904 1122
2894 1123
2884 1127
2874 1131
2864 1136
2854 1139
2844 1136
2834 1135
2824 1138
2814 1134
2804 1134
2795 1140
2786 1135
2776 1133
2766 1137
2756 1135
2746 1131
2738 1125
2728 1124
2718 1127
2708 1128
2698 1128
2688 1125
2678 1125
2668 1126
2658 1129
2649 1134
2639 1136
2630 1131
2620 1128
2610 1128
2600 1129
2590 1133
2580 1135
2570 1131
2560 1130
2550 1131
2540 1129
2530 1127
2520 1127
2510 1128
2500 1130
2490 1132
2480 1133
2470 1135
2460 1136
2450 1136
2440 1133
2430 1129
2420 1130
2410 1131
2400 1131
2390 1131
2380 1129
2370 1127
2360 1129
2350 1133
2340 1135
2330 1134
2320 1133
2310 1132
2300 1133
2290 1133
2280 1131
2270 1131
2260 1134
2251 1139
2241 1141
2231 1143
2221 1143
2211 1140
2202 1135
2192 1132
2182 1132
2172 1132
2162 1131
2152 1131
2142 1130
2132 1129
2122 1131
2112 1133
2102 1133
2092 1132
2082 1131
2072 1131
2062 1128
2052 1128
2042 1130
2032 1132
2022 1133
2012 1133
2002 1131
1992 1133
1982 1135
1972 1135
1962 1134
1952 1133
1942 1133
1932 1132
1922 1132
1912 1135
1902 1138
1892 1140
1882 1140
1872 1140
1862 1141
1852 1142
1842 1140
1833 1135
1823 1134
1813 1134
1803 1133
1793 1134
1783 1134
1773 1133
1763 1131
1753 1127
1743 1126
1733 1128
1723 1131
1713 1133
1703 1133
1693 1132
1683 1134
1673 1138
1663 1134
1654 1129
1644 1125
1634 1127
1624 1129
1614 1127
1604 1126
1594 1123
1584 1122
1574 1122
1564 1123
1554 1123
1544 1119
1534 1116
1524 1112
1519 1103
1511 1097
1501 1093
1491 1089
1483 1083
1475 1076
1466 1071
1458 1065
1450 1059
1442 1052
1435 1044
1427 1037
1421 1029
1413 1022
1407 1014
1400 1006
1394 998
1387 990
1380 982
1374 974
1368 966
1361 958
1354 950
1346 943
1339 935
1332 927
1325 919
1318 911
1310 905
1303 897
1296 889
1290 881
1282 874
1276 866
1268 859
1261 851
1253 844
1246 836
1238 830
1231 822
1223 815
1215 808
1207 801
1199 795
1191 789
1183 783
1175 777
1167 771
1159 765
1151 759
1143 753
1135 747
1127 741
1117 737
1107 733
1097 729
1088 724
1078 721
1069 716
1059 712
1050 707
1040 704
1030 700
1020 696
1010 693
1000 690
990 686
981 681
971 680
961 679
951 677
941 674
931 671
921 668
911 667
901 667
891 667
881 667
871 667
861 667
851 668
841 669
831 668
821 668
811 667
801 666
791 667
781 667
771 667
761 669
751 673
741 675
731 678
721 679
711 681
701 684
691 685
681 687
671 690
661 695
652 700
642 705
632 709
624 715
615 721
606 726
596 730
586 730
578 736
573 745
565 752
555 755
545 759
537 766
530 774
523 782
515 788
507 795
499 802
492 810
486 819
480 827
472 835
464 842
455 848
449 857
445 867
439 876
433 884
428 893
422 902
415 910
408 918
403 927
401 945
394 953
388 961
389 971
387 981
382 992
383 1002
383 1018
381 1028
376 1037
371 1048
371 1058
370 1069
362 1078
355 1086
359 1096
361 1108
357 1122
355 1135
355 1152
355 1162
356 1172
