7 192
7 182
12 172
20 165
28 159
37 154
47 151
57 150
67 151
77 153
87 156
95 149
101 141
107 133
113 125
120 117
128 111
136 104
144 97
152 91
160 84
168 77
176 69
184 62
192 54
200 46
208 38
216 32
226 34
235 39
230 54
222 60
214 66
206 72
197 78
189 84
181 90
173 96
165 103
156 109
148 117
140 123
132 131
125 139
119 147
113 155
107 164
109 174
113 184
114 194
107 202
99 208
90 213
80 217
70 219
60 221
50 221
40 219
30 218
20 218
12 212
8 202
