9 671
8 661
10 651
15 642
20 632
25 622
32 614
40 606
48 597
56 589
65 583
74 577
83 571
92 566
102 563
111 558
121 554
131 549
141 546
151 543
161 541
171 539
181 537
191 536
201 534
211 533
221 532
231 532
241 532
251 532
261 531
271 532
281 531
291 531
301 534
311 535
321 537
331 539
341 540
351 544
361 546
371 548
381 551
390 556
400 558
409 563
419 567
427 573
436 578
444 584
453 589
462 594
471 599
481 603
489 609
498 614
508 618
518 620
527 625
537 628
547 631
557 633
567 635
577 637
587 639
597 641
607 642
617 643
627 643
637 643
647 644
657 645
667 644
677 646
687 646
697 647
707 647
717 647
727 648
737 648
747 648
757 648
767 649
777 650
787 650
797 650
807 650
817 651
827 651
837 651
847 652
857 653
867 653
877 653
887 654
897 654
907 654
917 655
927 655
937 656
947 656
957 656
967 657
977 657
987 658
997 659
1007 659
1017 659
1027 659
1037 660
1047 660
1057 661
1067 661
1077 661
1087 662
1097 662
1107 662
1117 663
1127 663
1137 663
1147 664
1157 664
1167 664
1173 656
1177 644
1177 634
1187 634
1197 634
1207 634
1217 634
1227 635
1237 635
1247 635
1257 634
1267 634
1277 631
1287 628
1297 630
1307 634
1317 635
1327 635
1337 635
1347 636
1357 637
1367 636
1377 637
1387 637
1397 637
1407 638
1417 638
1427 637
1437 638
1447 638
1457 638
1467 639
1477 639
1487 638
1497 638
1507 639
1517 639
1527 639
1537 638
1547 639
1557 639
1567 639
1577 639
1587 639
1597 640
1607 640
1617 640
1627 640
1637 640
1647 641
1657 640
1667 640
1677 641
1687 641
1697 641
1707 641
1717 642
1727 642
1737 642
1747 641
1757 641
1767 642
1777 642
1787 642
1797 642
1802 651
1804 661
1805 671
1811 679
1821 675
1830 668
1840 665
1847 675
1841 683
1849 690
1859 691
1869 694
1878 699
1886 705
1892 713
1896 723
1898 733
1896 748
1891 758
1884 767
1876 774
1866 778
1856 781
1846 781
1836 781
1826 781
1816 781
1806 783
1803 794
1794 799
1784 805
1774 805
1764 805
1754 805
1744 805
1734 805
1724 806
1714 806
1704 806
1694 806
1684 805
1674 803
1664 805
1654 806
1644 805
1634 805
1624 805
1614 805
1604 805
1594 805
1584 802
1574 802
1564 804
1554 804
1544 804
1534 804
1524 804
1514 804
1504 804
1494 803
1484 804
1474 801
1464 803
1454 801
1444 803
1434 803
1424 803
1414 803
1404 803
1394 802
1384 802
1374 802
1364 802
1354 802
1344 802
1334 802
1324 801
1314 801
1304 801
1294 801
1284 801
1274 798
1264 798
1254 800
1244 799
1234 800
1224 800
1214 800
1204 800
1194 800
1184 800
1174 797
1173 787
1172 776
1170 766
1161 760
1151 760
1141 759
1131 759
1121 759
1111 758
1101 758
1091 758
1081 758
1071 757
1061 757
1051 756
1041 756
1031 756
1021 756
1011 755
1001 755
991 754
981 754
971 754
961 753
951 753
941 753
933 760
927 752
917 753
907 752
897 752
887 752
877 751
867 751
857 751
847 751
837 751
827 750
817 750
807 749
797 750
787 748
777 748
767 747
757 747
747 747
737 747
727 747
717 746
707 746
697 745
687 745
677 744
667 744
657 743
647 744
637 743
627 744
617 744
607 745
597 745
587 746
577 747
567 751
557 751
547 752
537 755
527 757
517 760
507 765
497 767
489 773
479 777
469 780
460 785
450 789
440 793
430 798
421 803
411 808
401 813
391 817
381 820
371 822
361 826
351 828
341 831
331 832
321 833
311 835
301 835
291 837
281 837
271 837
261 837
251 836
241 836
231 835
221 834
211 835
201 832
191 830
181 829
172 824
162 823
152 819
142 817
133 812
123 808
113 805
104 800
94 798
86 792
78 786
70 780
62 774
54 768
46 762
40 754
34 746
28 738
22 730
17 721
15 711
11 701
9 691
9 681
