444 1016
443 1006
445 995
447 983
449 973
452 960
454 949
456 938
459 926
462 914
465 904
468 892
471 882
474 869
477 859
480 847
483 837
488 828
491 818
499 810
507 802
515 796
523 790
533 788
543 786
553 785
563 783
573 782
583 781
593 780
603 780
613 779
623 778
633 778
643 778
653 777
663 777
673 776
683 777
693 776
703 777
713 778
723 777
733 778
743 778
753 778
763 780
773 781
783 782
793 783
803 785
813 785
823 786
833 788
843 789
853 792
863 793
873 796
883 799
893 801
903 804
913 807
923 810
933 813
943 816
953 818
963 821
973 824
983 828
993 831
1003 834
1013 837
1023 840
1033 842
1043 844
1053 846
1063 848
1073 850
1083 851
1093 853
1103 854
1113 856
1123 857
1133 858
1143 859
1153 860
1163 861
1173 861
1183 861
1193 862
1203 862
1213 862
1223 862
1233 862
1243 862
1253 862
1263 861
1273 862
1283 861
1293 861
1303 860
1313 860
1323 859
1333 860
1343 860
1353 859
1363 859
1373 858
1383 858
1393 858
1403 858
1413 857
1423 857
1433 856
1443 855
1453 856
1463 855
1473 855
1483 854
1493 854
1503 854
1513 853
1523 853
1533 852
1543 851
1553 852
1563 852
1573 851
1583 851
1593 850
1603 850
1613 849
1623 849
1633 849
1643 848
1653 848
1663 848
1673 847
1683 847
1693 847
1703 845
1713 846
1723 846
1733 846
1743 846
1753 847
1762 852
1771 857
1778 865
1784 873
1785 883
1785 893
1782 909
1777 918
1769 926
1760 931
1750 936
1740 937
1730 938
1720 939
1710 939
1700 939
1690 940
1680 940
1670 940
1660 941
1650 941
1640 941
1630 942
1620 942
1610 943
1600 943
1590 944
1580 944
1570 944
1560 945
1550 945
1540 945
1530 946
1520 946
1510 947
1500 947
1490 947
1480 948
1470 948
1460 948
1450 949
1440 950
1430 950
1420 950
1410 950
1400 951
1390 952
1380 952
1370 953
1360 953
1350 953
1340 954
1330 954
1320 954
1310 954
1300 954
1290 955
1280 955
1270 956
1260 957
1250 956
1240 957
1230 957
1220 958
1210 958
1200 958
1190 959
1180 960
1170 960
1160 960
1150 961
1140 961
1130 963
1120 964
1110 966
1100 967
1090 969
1080 970
1070 972
1060 974
1050 976
1040 978
1030 981
1020 982
1010 985
1000 988
990 990
980 994
970 997
960 999
950 1002
940 1004
930 1007
920 1009
910 1012
900 1014
890 1017
880 1020
870 1023
860 1024
850 1027
840 1028
830 1031
820 1032
810 1034
800 1038
790 1039
780 1040
770 1041
760 1042
750 1043
740 1044
730 1044
720 1044
710 1045
700 1045
690 1045
680 1045
670 1045
660 1046
650 1046
640 1046
630 1046
620 1046
610 1047
600 1047
590 1047
580 1047
570 1048
560 1048
550 1048
540 1048
530 1048
520 1049
510 1049
500 1049
490 1050
480 1050
470 1050
460 1049
450 1045
445 1036
444 1026
