241 162
236 153
246 149
256 152
264 158
274 159
284 163
293 168
302 173
311 178
319 184
328 189
336 195
344 201
352 207
360 214
368 220
376 226
384 232
392 239
400 245
408 251
416 257
424 263
432 269
440 275
448 281
457 286
466 291
476 293
486 294
496 295
506 296
516 297
526 299
536 302
546 306
555 311
564 316
572 322
581 327
589 334
597 340
605 347
611 355
616 364
618 374
617 388
611 397
606 406
598 414
590 422
582 431
573 436
563 438
553 436
544 431
536 425
527 420
519 414
511 408
502 403
494 397
486 390
478 384
470 378
468 368
463 359
460 349
450 345
448 335
443 326
437 318
431 310
422 305
414 299
406 293
397 288
387 284
379 278
370 273
361 268
353 262
344 257
336 251
326 247
317 242
309 236
301 230
293 224
285 217
277 210
269 204
264 195
256 188
250 180
