21 434
21 424
29 416
37 410
47 406
57 405
67 404
77 403
87 402
97 401
107 401
117 400
127 399
137 398
147 398
157 397
167 396
177 396
187 395
197 394
207 394
217 393
227 393
237 392
247 392
257 392
267 391
277 391
287 391
297 390
307 390
317 390
327 390
337 389
347 388
357 387
367 386
377 385
387 384
397 383
407 381
417 379
427 377
437 375
447 372
457 368
467 364
477 359
486 354
495 349
504 343
513 337
522 331
531 326
539 320
548 315
557 310
566 305
576 301
586 299
596 300
606 302
616 302
626 301
636 301
646 301
656 301
666 300
676 302
684 308
692 315
698 323
703 332
707 342
708 352
707 368
704 380
700 390
695 399
689 408
682 416
674 424
666 431
658 437
649 442
639 446
629 450
619 452
609 454
599 455
589 455
579 455
569 454
559 453
549 451
539 449
529 447
519 444
509 442
499 439
489 437
479 434
469 432
459 430
449 428
439 426
429 425
419 424
409 423
399 422
389 422
379 422
369 421
359 422
349 422
339 422
329 423
319 424
309 425
299 426
289 427
279 428
269 429
259 430
249 432
239 433
229 434
219 435
209 437
199 438
189 439
179 440
169 442
159 443
149 444
139 446
129 447
119 449
109 450
99 452
89 453
79 454
69 456
59 457
49 458
39 457
31 451
23 444
