440 370
440 360
441 350
441 340
443 328
445 317
448 307
451 295
455 285
460 274
466 264
470 254
476 243
482 235
488 227
495 219
500 209
509 203
517 197
525 189
535 184
544 178
553 173
563 169
573 165
583 160
593 157
603 154
613 153
623 151
633 150
643 149
653 149
663 148
673 148
683 149
693 149
703 152
713 154
723 156
733 160
743 163
752 168
761 173
770 178
780 182
788 189
794 197
802 204
810 211
818 218
825 226
830 235
836 243
844 250
847 260
852 269
857 278
864 288
867 298
871 308
875 318
880 327
882 337
885 347
889 357
892 367
896 377
900 387
904 397
907 407
912 416
913 426
916 436
920 446
923 456
928 465
930 475
936 483
938 493
945 501
947 511
951 521
956 530
961 539
966 548
971 557
977 565
981 575
987 583
995 589
998 599
1004 607
1012 614
1017 623
1025 630
1031 638
1038 646
1046 652
1053 660
1061 667
1069 674
1077 681
1085 687
1092 695
1101 700
1108 708
1116 714
1124 720
1132 726
1140 732
1148 738
1156 744
1164 750
1172 757
1182 761
1190 768
1198 775
1207 780
1216 785
1222 793
1230 799
1238 805
1246 811
1256 815
1262 823
1271 828
1277 836
1286 841
1294 847
1302 854
1311 859
1317 867
1326 872
1334 878
1342 884
1349 892
1358 897
1363 906
1373 909
1381 916
1389 922
1394 931
1404 934
1411 942
1419 948
1427 954
1435 961
1441 969
1451 973
1460 978
1466 986
1474 992
1482 999
1490 1005
1500 1009
1506 1017
1514 1024
1522 1030
1530 1036
1538 1042
1544 1050
1552 1056
1561 1061
1569 1068
1577 1075
1583 1083
1592 1088
1600 1094
1608 1100
1616 1107
1623 1115
1631 1121
1641 1125
1646 1134
1654 1140
1663 1145
1671 1151
1680 1156
1685 1165
1693 1171
1703 1175
1711 1181
1716 1190
1724 1196
1729 1205
1737 1211
1747 1215
1753 1223
1760 1231
1769 1236
1774 1245
1784 1249
1789 1258
1792 1268
1802 1269
1807 1278
1811 1288
1817 1296
1827 1300
1834 1308
1844 1309
1848 1319
1854 1327
1860 1335
1866 1343
1872 1351
1877 1360
1883 1368
1889 1376
1894 1385
1897 1395
1901 1405
1903 1418
1903 1428
1902 1439
1896 1447
1889 1455
1879 1460
1869 1464
1859 1465
1849 1465
1840 1460
1830 1458
1820 1456
1810 1453
1800 1450
1792 1444
1782 1441
1773 1436
1765 1430
1756 1425
1747 1420
1738 1415
1728 1411
1720 1405
1713 1397
1704 1392
1696 1385
1688 1379
1679 1374
1671 1367
1663 1361
1657 1353
1648 1348
1639 1343
1631 1337
1624 1329
1616 1322
1607 1317
1601 1309
1592 1304
1586 1296
1577 1291
1570 1283
1561 1278
1553 1272
1545 1266
1539 1258
1530 1253
1522 1247
1517 1238
1509 1232
1503 1224
1497 1216
1487 1214
1485 1204
1476 1199
1467 1194
1465 1184
1457 1177
1449 1171
1441 1164
1436 1155
1430 1147
1421 1142
1415 1134
1407 1128
1403 1118
1394 1113
1390 1103
1381 1098
1374 1090
1368 1081
1358 1077
1351 1069
1343 1063
1337 1055
1331 1047
1322 1042
1315 1034
1307 1027
1299 1020
1291 1013
1283 1007
1277 999
1269 992
1261 985
1255 977
1247 971
1241 963
1234 955
1226 948
1221 939
1212 934
1205 926
1200 917
1192 910
1187 901
1179 895
1171 888
1163 882
1157 874
1150 866
1142 860
1136 852
1128 845
1121 837
1113 830
1106 822
1099 814
1093 806
1084 801
1078 793
1070 787
1064 779
1056 772
1049 764
1041 758
1033 751
1026 743
1018 737
1010 730
1002 723
994 717
986 711
978 705
970 699
962 693
953 688
945 682
937 676
927 672
918 667
910 661
900 657
891 652
882 647
872 643
863 638
854 633
844 630
834 628
824 625
814 622
804 619
794 617
784 614
774 612
764 610
754 607
744 605
734 604
724 602
714 600
704 598
694 595
684 593
674 591
664 588
654 585
644 583
634 581
624 577
614 573
604 571
594 568
585 563
575 561
566 556
556 552
548 546
539 541
531 535
522 530
515 522
507 516
499 509
492 501
485 493
479 485
473 477
468 468
463 459
458 450
454 440
450 430
447 420
445 410
443 400
441 390
440 380
