88 630
87 620
95 612
105 609
115 606
124 601
133 596
141 590
149 584
157 577
166 572
175 566
184 561
193 556
202 551
211 546
220 541
229 536
238 531
247 525
256 520
265 515
274 510
283 505
292 499
301 494
310 489
319 484
328 479
337 474
346 469
355 463
364 458
373 453
382 448
391 443
400 438
409 432
418 427
427 422
436 416
445 411
454 406
463 401
472 396
481 390
490 385
499 380
508 375
517 369
526 363
535 358
544 353
553 348
562 343
571 337
580 332
589 327
598 322
607 317
616 312
625 307
634 301
643 296
652 291
661 286
670 281
679 276
688 271
697 266
706 261
715 256
724 250
732 244
741 238
749 232
757 224
765 217
773 210
780 202
787 194
793 186
799 178
805 170
811 161
817 152
823 143
829 135
835 127
841 119
848 111
855 102
862 94
869 86
877 79
885 72
893 65
901 58
909 52
918 47
927 42
936 37
945 32
955 28
965 24
975 21
985 19
995 17
1005 16
1015 15
1025 15
1035 16
1045 18
1055 22
1065 26
1073 32
1081 38
1089 45
1095 53
1100 62
1103 72
1106 82
1106 98
1103 114
1099 126
1094 137
1088 147
1082 155
1076 163
1068 172
1060 180
1052 187
1044 193
1036 199
1028 205
1019 211
1010 216
1001 221
991 226
981 230
971 234
961 237
951 240
943 247
933 245
923 246
913 249
903 252
898 261
890 255
882 261
872 265
862 269
852 267
842 269
832 270
822 273
812 272
802 276
792 274
782 274
772 275
762 279
752 284
742 288
733 293
724 298
715 304
706 309
697 314
688 319
679 325
670 330
660 335
651 340
642 345
633 350
624 355
615 361
606 366
597 371
588 377
579 382
570 387
561 392
552 397
543 402
533 407
524 413
515 418
506 423
497 428
488 434
479 439
470 445
461 450
452 455
443 460
434 466
425 471
416 476
407 481
398 486
389 492
380 497
371 502
362 508
353 513
344 518
335 523
326 528
317 533
308 538
299 543
290 549
281 554
272 559
263 564
254 569
245 575
236 580
227 585
218 590
209 595
200 600
191 605
182 610
172 615
162 618
152 621
143 626
134 632
126 639
118 645
109 650
99 648
92 640
