128 883
126 873
131 864
137 856
145 848
155 844
165 843
175 840
185 839
195 839
205 838
215 837
225 836
235 835
245 834
255 833
265 833
275 832
285 830
295 830
305 829
315 828
325 827
335 826
345 826
355 824
365 824
375 823
385 822
395 821
405 820
415 820
425 819
435 818
445 817
455 817
465 816
475 815
485 814
495 814
505 813
515 812
525 812
535 811
545 810
555 810
565 809
575 808
585 807
595 807
605 806
615 805
625 805
635 805
645 803
655 803
665 802
675 802
685 801
695 800
705 800
715 799
725 798
735 798
745 798
755 797
765 796
775 796
785 795
795 794
805 794
815 794
825 794
835 793
845 792
855 792
865 791
875 791
885 791
895 791
905 790
915 790
925 790
935 789
945 789
955 788
965 788
975 788
985 788
995 787
1005 787
1015 786
1025 786
1035 786
1045 786
1055 785
1065 786
1075 786
1085 785
1095 784
1105 784
1115 784
1125 783
1135 783
1145 783
1155 782
1165 782
1175 782
1185 782
1195 782
1205 782
1215 781
1225 780
1235 778
1245 774
1255 771
1264 766
1273 761
1282 756
1290 750
1298 744
1306 738
1315 733
1323 727
1332 722
1341 717
1351 712
1361 707
1371 702
1381 698
1391 694
1401 689
1411 685
1421 681
1431 678
1441 675
1451 672
1461 670
1471 668
1481 665
1491 664
1501 663
1511 661
1521 660
1531 660
1541 659
1551 658
1561 658
1571 658
1581 658
1591 659
1601 660
1611 660
1621 662
1631 663
1641 665
1651 667
1661 669
1671 672
1681 676
1691 679
1700 684
1709 689
1719 692
1728 697
1736 703
1744 709
1752 715
1758 723
1764 731
1770 739
1775 748
1780 757
1784 767
1789 776
1791 786
1794 796
1794 806
1796 816
1794 829
1796 839
1794 858
1791 868
1788 878
1782 888
1777 897
1770 905
1762 912
1752 917
1744 925
1736 931
1726 936
1718 943
1709 948
1701 954
1691 958
1681 962
1671 967
1661 969
1651 970
1641 974
1631 976
1621 977
1611 978
1601 979
1591 979
1581 981
1571 981
1561 981
1551 980
1541 980
1531 979
1521 977
1511 976
1501 974
1491 972
1481 970
1471 967
1461 965
1451 962
1441 959
1431 956
1421 952
1411 949
1402 944
1392 940
1382 936
1373 931
1364 926
1354 922
1346 916
1337 911
1328 906
1319 901
1311 895
1303 889
1295 883
1287 877
1278 872
1268 868
1259 863
1249 861
1239 858
1229 856
1219 855
1209 855
1199 855
1189 854
1179 854
1169 855
1159 855
1149 856
1139 856
1129 857
1119 857
1109 857
1099 857
1089 857
1079 857
1069 858
1059 858
1049 858
1039 859
1029 858
1019 859
1009 859
999 859
989 860
979 860
969 861
959 861
949 861
939 861
929 861
919 862
909 862
899 862
889 863
879 864
869 864
859 864
849 864
839 865
829 865
819 865
809 866
799 867
789 867
779 868
769 868
759 868
749 869
739 870
729 871
719 872
709 872
699 872
689 873
679 874
669 874
659 874
649 874
639 874
629 875
619 876
609 877
599 878
589 879
579 879
569 880
559 881
549 882
539 882
529 882
519 883
509 884
499 885
489 886
479 887
469 888
459 890
449 891
439 891
429 891
419 892
409 893
399 894
389 894
379 895
369 896
359 897
349 898
339 899
329 899
319 900
309 901
299 903
289 904
279 905
269 906
259 906
249 907
239 907
229 908
219 910
209 911
199 911
189 911
179 911
169 911
159 909
150 904
142 898
134 891
