44.50 169.40
54.50 57.00
56.00 32.50
79.50 163.50
83.00 13.38
106.00 158.63
110.50 22.33
120.00 70.38
122.50 106.33
125.50 129.33
136.50 20.50
140.00 107.25
158.50 140.83
171.00 19.75
188.00 179.88
190.50 13.50
198.00 125.50
205.00 196.25
213.10 136.70
220.00 7.50
219.50 213.50
223.50 122.50
231.00 231.63
233.00 178.00
236.50 106.33
251.00 174.88
264.50 13.17
276.00 168.38
301.00 156.00
306.00 28.00
317.00 61.00
320.00 124.75
322.00 94.38
122.04 153.80
128.39 151.08
127.03 141.55
130.66 86.66
133.84 97.09
147.00 120.68
151.53 130.21
170.59 139.74
177.39 135.20
208.70 140.19
200.53 147.00
191.91 157.43
184.65 164.24