<?xml version="1.0" encoding="UTF-8" standalone="no"?>
<!-- Created with CurveBenchmark -->
<svg
	xmlns:dc="http://purl.org/dc/elements/1.1/"
	xmlns:cc="http://creativecommons.org/ns#"
	xmlns:rdf="http://www.w3.org/1999/02/22-rdf-syntax-ns#"
	xmlns:svg="http://www.w3.org/2000/svg"
	xmlns="http://www.w3.org/2000/svg"
	xmlns:sodipodi="http://sodipodi.sourceforge.net/DTD/sodipodi-0.dtd"
	xmlns:inkscape="http://www.inkscape.org/namespaces/inkscape"
	width="1000"
	height="1000"
	id="svg2"
	version="1.1"
	sodipodi:docname="noisy-0.01/crawl-mc21.txt">
<defs
	id="defs4" />
<metadata
	id="metadata7">
	<rdf:RDF>
		<cc:Work
			rdf:about="">
			<dc:format>image/svg+xml</dc:format>
			<dc:type
				rdf:resource="http://purl.org/dc/dcmitype/StillImage" />
			<dc:title></dc:title>
		</cc:Work>
	</rdf:RDF>
</metadata>
<g
	inkscape:label="Layer 1"
	inkscape:groupmode="layer"
	id="layer1">
	<path style="fill:none;stroke:red;stroke-width:1px;stroke-linecap:butt;stroke-linejoin:miter;stroke-opacity:1" d="M 6.0891,328.685 11.1607,329.209 z" id="boundary" inkscape:connector-curvature="0" />
	<path style="fill:none;stroke:red;stroke-width:1px;stroke-linecap:butt;stroke-linejoin:miter;stroke-opacity:1" d="M 11.1607,329.209 10.3831,341.953 z" id="boundary" inkscape:connector-curvature="0" />
	<path style="fill:none;stroke:red;stroke-width:1px;stroke-linecap:butt;stroke-linejoin:miter;stroke-opacity:1" d="M 10.3831,341.953 4,362.061 z" id="boundary" inkscape:connector-curvature="0" />
	<path style="fill:none;stroke:red;stroke-width:1px;stroke-linecap:butt;stroke-linejoin:miter;stroke-opacity:1" d="M 4,362.061 7.20208,368.776 z" id="boundary" inkscape:connector-curvature="0" />
	<path style="fill:none;stroke:red;stroke-width:1px;stroke-linecap:butt;stroke-linejoin:miter;stroke-opacity:1" d="M 7.20208,368.776 24.2868,388.543 z" id="boundary" inkscape:connector-curvature="0" />
	<path style="fill:none;stroke:red;stroke-width:1px;stroke-linecap:butt;stroke-linejoin:miter;stroke-opacity:1" d="M 6.0891,328.685 40.1765,300.501 z" id="boundary" inkscape:connector-curvature="0" />
	<path style="fill:none;stroke:red;stroke-width:1px;stroke-linecap:butt;stroke-linejoin:miter;stroke-opacity:1" d="M 40.1765,300.501 66.6727,289.13 z" id="boundary" inkscape:connector-curvature="0" />
	<path style="fill:none;stroke:red;stroke-width:1px;stroke-linecap:butt;stroke-linejoin:miter;stroke-opacity:1" d="M 24.2868,388.543 66.6088,365.928 z" id="boundary" inkscape:connector-curvature="0" />
	<path style="fill:none;stroke:red;stroke-width:1px;stroke-linecap:butt;stroke-linejoin:miter;stroke-opacity:1" d="M 66.6088,365.928 86.4346,359.354 z" id="boundary" inkscape:connector-curvature="0" />
	<path style="fill:none;stroke:red;stroke-width:1px;stroke-linecap:butt;stroke-linejoin:miter;stroke-opacity:1" d="M 86.4346,359.354 144.08,362.285 z" id="boundary" inkscape:connector-curvature="0" />
	<path style="fill:none;stroke:red;stroke-width:1px;stroke-linecap:butt;stroke-linejoin:miter;stroke-opacity:1" d="M 144.08,362.285 177.364,362.299 z" id="boundary" inkscape:connector-curvature="0" />
	<path style="fill:none;stroke:red;stroke-width:1px;stroke-linecap:butt;stroke-linejoin:miter;stroke-opacity:1" d="M 177.364,362.299 232.178,349.599 z" id="boundary" inkscape:connector-curvature="0" />
	<path style="fill:none;stroke:red;stroke-width:1px;stroke-linecap:butt;stroke-linejoin:miter;stroke-opacity:1" d="M 232.178,349.599 283.9,354.4 z" id="boundary" inkscape:connector-curvature="0" />
	<path style="fill:none;stroke:red;stroke-width:1px;stroke-linecap:butt;stroke-linejoin:miter;stroke-opacity:1" d="M 66.6727,289.13 127.878,286.673 z" id="boundary" inkscape:connector-curvature="0" />
	<path style="fill:none;stroke:red;stroke-width:1px;stroke-linecap:butt;stroke-linejoin:miter;stroke-opacity:1" d="M 127.878,286.673 162.454,289.98 z" id="boundary" inkscape:connector-curvature="0" />
	<path style="fill:none;stroke:red;stroke-width:1px;stroke-linecap:butt;stroke-linejoin:miter;stroke-opacity:1" d="M 162.454,289.98 189.285,248.194 z" id="boundary" inkscape:connector-curvature="0" />
	<path style="fill:none;stroke:red;stroke-width:1px;stroke-linecap:butt;stroke-linejoin:miter;stroke-opacity:1" d="M 189.285,248.194 254.866,198.591 z" id="boundary" inkscape:connector-curvature="0" />
	<path style="fill:none;stroke:red;stroke-width:1px;stroke-linecap:butt;stroke-linejoin:miter;stroke-opacity:1" d="M 254.866,198.591 322.443,140.611 z" id="boundary" inkscape:connector-curvature="0" />
	<path style="fill:none;stroke:red;stroke-width:1px;stroke-linecap:butt;stroke-linejoin:miter;stroke-opacity:1" d="M 322.443,140.611 340.793,76.9542 z" id="boundary" inkscape:connector-curvature="0" />
	<path style="fill:none;stroke:red;stroke-width:1px;stroke-linecap:butt;stroke-linejoin:miter;stroke-opacity:1" d="M 340.793,76.9542 393.806,67.1831 z" id="boundary" inkscape:connector-curvature="0" />
	<path style="fill:none;stroke:red;stroke-width:1px;stroke-linecap:butt;stroke-linejoin:miter;stroke-opacity:1" d="M 283.9,354.4 367.648,394.432 z" id="boundary" inkscape:connector-curvature="0" />
	<path style="fill:none;stroke:red;stroke-width:1px;stroke-linecap:butt;stroke-linejoin:miter;stroke-opacity:1" d="M 393.806,67.1831 481.29,19.1675 z" id="boundary" inkscape:connector-curvature="0" />
	<path style="fill:none;stroke:red;stroke-width:1px;stroke-linecap:butt;stroke-linejoin:miter;stroke-opacity:1" d="M 481.29,19.1675 554.233,6.00735 z" id="boundary" inkscape:connector-curvature="0" />
	<path style="fill:none;stroke:red;stroke-width:1px;stroke-linecap:butt;stroke-linejoin:miter;stroke-opacity:1" d="M 554.233,6.00735 676.113,4 z" id="boundary" inkscape:connector-curvature="0" />
	<path style="fill:none;stroke:red;stroke-width:1px;stroke-linecap:butt;stroke-linejoin:miter;stroke-opacity:1" d="M 676.113,4 809.092,35.9949 z" id="boundary" inkscape:connector-curvature="0" />
	<path style="fill:none;stroke:red;stroke-width:1px;stroke-linecap:butt;stroke-linejoin:miter;stroke-opacity:1" d="M 809.092,35.9949 924.228,143.725 z" id="boundary" inkscape:connector-curvature="0" />
	<path style="fill:none;stroke:red;stroke-width:1px;stroke-linecap:butt;stroke-linejoin:miter;stroke-opacity:1" d="M 924.228,143.725 990.673,234.181 z" id="boundary" inkscape:connector-curvature="0" />
	<path style="fill:none;stroke:red;stroke-width:1px;stroke-linecap:butt;stroke-linejoin:miter;stroke-opacity:1" d="M 990.673,234.181 995.938,360.665 z" id="boundary" inkscape:connector-curvature="0" />
	<path style="fill:none;stroke:red;stroke-width:1px;stroke-linecap:butt;stroke-linejoin:miter;stroke-opacity:1" d="M 367.648,394.432 444.386,533.66 z" id="boundary" inkscape:connector-curvature="0" />
	<path style="fill:none;stroke:red;stroke-width:1px;stroke-linecap:butt;stroke-linejoin:miter;stroke-opacity:1" d="M 444.386,533.66 455.843,623.602 z" id="boundary" inkscape:connector-curvature="0" />
	<path style="fill:none;stroke:red;stroke-width:1px;stroke-linecap:butt;stroke-linejoin:miter;stroke-opacity:1" d="M 455.843,623.602 563.115,723.787 z" id="boundary" inkscape:connector-curvature="0" />
	<path style="fill:none;stroke:red;stroke-width:1px;stroke-linecap:butt;stroke-linejoin:miter;stroke-opacity:1" d="M 563.115,723.787 764.871,760.287 z" id="boundary" inkscape:connector-curvature="0" />
	<path style="fill:none;stroke:red;stroke-width:1px;stroke-linecap:butt;stroke-linejoin:miter;stroke-opacity:1" d="M 995.938,360.665 969.667,596.966 z" id="boundary" inkscape:connector-curvature="0" />
	<path style="fill:none;stroke:red;stroke-width:1px;stroke-linecap:butt;stroke-linejoin:miter;stroke-opacity:1" d="M 969.667,596.966 764.871,760.287 z" id="boundary" inkscape:connector-curvature="0" />
	<path style="fill:none;stroke:red;stroke-width:1px;stroke-linecap:butt;stroke-linejoin:miter;stroke-opacity:1" d="M 137.739,875.805 131.441,863.952 z" id="boundary" inkscape:connector-curvature="0" />
	<path style="fill:none;stroke:red;stroke-width:1px;stroke-linecap:butt;stroke-linejoin:miter;stroke-opacity:1" d="M 137.739,875.805 172.203,921.334 z" id="boundary" inkscape:connector-curvature="0" />
	<path style="fill:none;stroke:red;stroke-width:1px;stroke-linecap:butt;stroke-linejoin:miter;stroke-opacity:1" d="M 172.203,921.334 167.212,950.697 z" id="boundary" inkscape:connector-curvature="0" />
	<path style="fill:none;stroke:red;stroke-width:1px;stroke-linecap:butt;stroke-linejoin:miter;stroke-opacity:1" d="M 167.212,950.697 136.807,987.888 z" id="boundary" inkscape:connector-curvature="0" />
	<path style="fill:none;stroke:red;stroke-width:1px;stroke-linecap:butt;stroke-linejoin:miter;stroke-opacity:1" d="M 136.807,987.888 80.4427,996 z" id="boundary" inkscape:connector-curvature="0" />
	<path style="fill:none;stroke:red;stroke-width:1px;stroke-linecap:butt;stroke-linejoin:miter;stroke-opacity:1" d="M 80.4427,996 68.2424,944.914 z" id="boundary" inkscape:connector-curvature="0" />
	<path style="fill:none;stroke:red;stroke-width:1px;stroke-linecap:butt;stroke-linejoin:miter;stroke-opacity:1" d="M 68.2424,944.914 45.3258,913.021 z" id="boundary" inkscape:connector-curvature="0" />
	<path style="fill:none;stroke:red;stroke-width:1px;stroke-linecap:butt;stroke-linejoin:miter;stroke-opacity:1" d="M 45.3258,913.021 66.479,864.52 z" id="boundary" inkscape:connector-curvature="0" />
	<path style="fill:none;stroke:red;stroke-width:1px;stroke-linecap:butt;stroke-linejoin:miter;stroke-opacity:1" d="M 66.479,864.52 131.441,863.952 z" id="boundary" inkscape:connector-curvature="0" />
	<path style="fill:none;stroke:red;stroke-width:1px;stroke-linecap:butt;stroke-linejoin:miter;stroke-opacity:1" d="M 669.915,239.115 634.851,228.889 z" id="boundary" inkscape:connector-curvature="0" />
	<path style="fill:none;stroke:red;stroke-width:1px;stroke-linecap:butt;stroke-linejoin:miter;stroke-opacity:1" d="M 634.851,228.889 602.711,257.964 z" id="boundary" inkscape:connector-curvature="0" />
	<path style="fill:none;stroke:red;stroke-width:1px;stroke-linecap:butt;stroke-linejoin:miter;stroke-opacity:1" d="M 669.915,239.115 703.621,276.941 z" id="boundary" inkscape:connector-curvature="0" />
	<path style="fill:none;stroke:red;stroke-width:1px;stroke-linecap:butt;stroke-linejoin:miter;stroke-opacity:1" d="M 703.621,276.941 709.823,313.553 z" id="boundary" inkscape:connector-curvature="0" />
	<path style="fill:none;stroke:red;stroke-width:1px;stroke-linecap:butt;stroke-linejoin:miter;stroke-opacity:1" d="M 602.711,257.964 578.082,313.018 z" id="boundary" inkscape:connector-curvature="0" />
	<path style="fill:none;stroke:red;stroke-width:1px;stroke-linecap:butt;stroke-linejoin:miter;stroke-opacity:1" d="M 578.082,313.018 619.19,358.133 z" id="boundary" inkscape:connector-curvature="0" />
	<path style="fill:none;stroke:red;stroke-width:1px;stroke-linecap:butt;stroke-linejoin:miter;stroke-opacity:1" d="M 619.19,358.133 655.831,378.439 z" id="boundary" inkscape:connector-curvature="0" />
	<path style="fill:none;stroke:red;stroke-width:1px;stroke-linecap:butt;stroke-linejoin:miter;stroke-opacity:1" d="M 709.823,313.553 655.831,378.439 z" id="boundary" inkscape:connector-curvature="0" />
	<circle cx="11.1607" cy="329.209" r="4" fill="#0" id="circle0"/>
	<circle cx="40.1765" cy="300.501" r="4" fill="#0" id="circle1"/>
	<circle cx="45.3258" cy="913.021" r="4" fill="#0" id="circle2"/>
	<circle cx="66.6088" cy="365.928" r="4" fill="#0" id="circle3"/>
	<circle cx="68.2424" cy="944.914" r="4" fill="#0" id="circle4"/>
	<circle cx="66.479" cy="864.52" r="4" fill="#0" id="circle5"/>
	<circle cx="80.4427" cy="996" r="4" fill="#0" id="circle6"/>
	<circle cx="66.6727" cy="289.13" r="4" fill="#0" id="circle7"/>
	<circle cx="86.4346" cy="359.354" r="4" fill="#0" id="circle8"/>
	<circle cx="127.878" cy="286.673" r="4" fill="#0" id="circle9"/>
	<circle cx="131.441" cy="863.952" r="4" fill="#0" id="circle10"/>
	<circle cx="136.807" cy="987.888" r="4" fill="#0" id="circle11"/>
	<circle cx="144.08" cy="362.285" r="4" fill="#0" id="circle12"/>
	<circle cx="162.454" cy="289.98" r="4" fill="#0" id="circle13"/>
	<circle cx="137.739" cy="875.805" r="4" fill="#0" id="circle14"/>
	<circle cx="167.212" cy="950.697" r="4" fill="#0" id="circle15"/>
	<circle cx="172.203" cy="921.334" r="4" fill="#0" id="circle16"/>
	<circle cx="177.364" cy="362.299" r="4" fill="#0" id="circle17"/>
	<circle cx="189.285" cy="248.194" r="4" fill="#0" id="circle18"/>
	<circle cx="232.178" cy="349.599" r="4" fill="#0" id="circle19"/>
	<circle cx="254.866" cy="198.591" r="4" fill="#0" id="circle20"/>
	<circle cx="283.9" cy="354.4" r="4" fill="#0" id="circle21"/>
	<circle cx="322.443" cy="140.611" r="4" fill="#0" id="circle22"/>
	<circle cx="340.793" cy="76.9542" r="4" fill="#0" id="circle23"/>
	<circle cx="367.648" cy="394.432" r="4" fill="#0" id="circle24"/>
	<circle cx="393.806" cy="67.1831" r="4" fill="#0" id="circle25"/>
	<circle cx="444.386" cy="533.66" r="4" fill="#0" id="circle26"/>
	<circle cx="455.843" cy="623.602" r="4" fill="#0" id="circle27"/>
	<circle cx="481.29" cy="19.1675" r="4" fill="#0" id="circle28"/>
	<circle cx="554.233" cy="6.00735" r="4" fill="#0" id="circle29"/>
	<circle cx="578.082" cy="313.018" r="4" fill="#0" id="circle30"/>
	<circle cx="563.115" cy="723.787" r="4" fill="#0" id="circle31"/>
	<circle cx="602.711" cy="257.964" r="4" fill="#0" id="circle32"/>
	<circle cx="619.19" cy="358.133" r="4" fill="#0" id="circle33"/>
	<circle cx="634.851" cy="228.889" r="4" fill="#0" id="circle34"/>
	<circle cx="655.831" cy="378.439" r="4" fill="#0" id="circle35"/>
	<circle cx="676.113" cy="4" r="4" fill="#0" id="circle36"/>
	<circle cx="669.915" cy="239.115" r="4" fill="#0" id="circle37"/>
	<circle cx="709.823" cy="313.553" r="4" fill="#0" id="circle38"/>
	<circle cx="703.621" cy="276.941" r="4" fill="#0" id="circle39"/>
	<circle cx="764.871" cy="760.287" r="4" fill="#0" id="circle40"/>
	<circle cx="809.092" cy="35.9949" r="4" fill="#0" id="circle41"/>
	<circle cx="924.228" cy="143.725" r="4" fill="#0" id="circle42"/>
	<circle cx="969.667" cy="596.966" r="4" fill="#0" id="circle43"/>
	<circle cx="990.673" cy="234.181" r="4" fill="#0" id="circle44"/>
	<circle cx="995.938" cy="360.665" r="4" fill="#0" id="circle45"/>
	<circle cx="6.0891" cy="328.685" r="4" fill="#0" id="circle46"/>
	<circle cx="10.3831" cy="341.953" r="4" fill="#0" id="circle47"/>
	<circle cx="4" cy="362.061" r="4" fill="#0" id="circle48"/>
	<circle cx="7.20208" cy="368.776" r="4" fill="#0" id="circle49"/>
	<circle cx="24.2868" cy="388.543" r="4" fill="#0" id="circle50"/>
	</g>
</svg>