<?xml version="1.0" encoding="UTF-8" standalone="no"?>
<!-- Created with CurveBenchmark -->
<svg
	xmlns:dc="http://purl.org/dc/elements/1.1/"
	xmlns:cc="http://creativecommons.org/ns#"
	xmlns:rdf="http://www.w3.org/1999/02/22-rdf-syntax-ns#"
	xmlns:svg="http://www.w3.org/2000/svg"
	xmlns="http://www.w3.org/2000/svg"
	xmlns:sodipodi="http://sodipodi.sourceforge.net/DTD/sodipodi-0.dtd"
	xmlns:inkscape="http://www.inkscape.org/namespaces/inkscape"
	width="1000"
	height="1000"
	id="svg2"
	version="1.1"
	sodipodi:docname="noisy-0.01/discur-mc3.txt">
<defs
	id="defs4" />
<metadata
	id="metadata7">
	<rdf:RDF>
		<cc:Work
			rdf:about="">
			<dc:format>image/svg+xml</dc:format>
			<dc:type
				rdf:resource="http://purl.org/dc/dcmitype/StillImage" />
			<dc:title></dc:title>
		</cc:Work>
	</rdf:RDF>
</metadata>
<g
	inkscape:label="Layer 1"
	inkscape:groupmode="layer"
	id="layer1">
	<path style="fill:none;stroke:red;stroke-width:1px;stroke-linecap:butt;stroke-linejoin:miter;stroke-opacity:1" d="M 419.887,427.371 428.465,360.195 z" id="boundary" inkscape:connector-curvature="0" />
	<path style="fill:none;stroke:red;stroke-width:1px;stroke-linecap:butt;stroke-linejoin:miter;stroke-opacity:1" d="M 419.887,427.371 416.921,447.796 z" id="boundary" inkscape:connector-curvature="0" />
	<path style="fill:none;stroke:red;stroke-width:1px;stroke-linecap:butt;stroke-linejoin:miter;stroke-opacity:1" d="M 428.465,360.195 417.917,318.97 z" id="boundary" inkscape:connector-curvature="0" />
	<path style="fill:none;stroke:red;stroke-width:1px;stroke-linecap:butt;stroke-linejoin:miter;stroke-opacity:1" d="M 417.917,318.97 421.548,268.215 z" id="boundary" inkscape:connector-curvature="0" />
	<path style="fill:none;stroke:red;stroke-width:1px;stroke-linecap:butt;stroke-linejoin:miter;stroke-opacity:1" d="M 421.548,268.215 398.615,235.595 z" id="boundary" inkscape:connector-curvature="0" />
	<path style="fill:none;stroke:red;stroke-width:1px;stroke-linecap:butt;stroke-linejoin:miter;stroke-opacity:1" d="M 398.615,235.595 359.84,212.516 z" id="boundary" inkscape:connector-curvature="0" />
	<path style="fill:none;stroke:red;stroke-width:1px;stroke-linecap:butt;stroke-linejoin:miter;stroke-opacity:1" d="M 359.84,212.516 327.921,201.69 z" id="boundary" inkscape:connector-curvature="0" />
	<path style="fill:none;stroke:red;stroke-width:1px;stroke-linecap:butt;stroke-linejoin:miter;stroke-opacity:1" d="M 327.921,201.69 278.454,194.089 z" id="boundary" inkscape:connector-curvature="0" />
	<path style="fill:none;stroke:red;stroke-width:1px;stroke-linecap:butt;stroke-linejoin:miter;stroke-opacity:1" d="M 278.454,194.089 255.658,210.079 z" id="boundary" inkscape:connector-curvature="0" />
	<path style="fill:none;stroke:red;stroke-width:1px;stroke-linecap:butt;stroke-linejoin:miter;stroke-opacity:1" d="M 255.658,210.079 234.256,227.129 z" id="boundary" inkscape:connector-curvature="0" />
	<path style="fill:none;stroke:red;stroke-width:1px;stroke-linecap:butt;stroke-linejoin:miter;stroke-opacity:1" d="M 234.256,227.129 204.437,256.429 z" id="boundary" inkscape:connector-curvature="0" />
	<path style="fill:none;stroke:red;stroke-width:1px;stroke-linecap:butt;stroke-linejoin:miter;stroke-opacity:1" d="M 204.437,256.429 169.582,268.975 z" id="boundary" inkscape:connector-curvature="0" />
	<path style="fill:none;stroke:red;stroke-width:1px;stroke-linecap:butt;stroke-linejoin:miter;stroke-opacity:1" d="M 169.582,268.975 135.774,311.612 z" id="boundary" inkscape:connector-curvature="0" />
	<path style="fill:none;stroke:red;stroke-width:1px;stroke-linecap:butt;stroke-linejoin:miter;stroke-opacity:1" d="M 135.774,311.612 104.994,352.938 z" id="boundary" inkscape:connector-curvature="0" />
	<path style="fill:none;stroke:red;stroke-width:1px;stroke-linecap:butt;stroke-linejoin:miter;stroke-opacity:1" d="M 104.994,352.938 54.7671,386.695 z" id="boundary" inkscape:connector-curvature="0" />
	<path style="fill:none;stroke:red;stroke-width:1px;stroke-linecap:butt;stroke-linejoin:miter;stroke-opacity:1" d="M 54.7671,386.695 48.9012,404.604 z" id="boundary" inkscape:connector-curvature="0" />
	<path style="fill:none;stroke:red;stroke-width:1px;stroke-linecap:butt;stroke-linejoin:miter;stroke-opacity:1" d="M 48.9012,404.604 32.1432,454.599 z" id="boundary" inkscape:connector-curvature="0" />
	<path style="fill:none;stroke:red;stroke-width:1px;stroke-linecap:butt;stroke-linejoin:miter;stroke-opacity:1" d="M 32.1432,454.599 19.1981,488.584 z" id="boundary" inkscape:connector-curvature="0" />
	<path style="fill:none;stroke:red;stroke-width:1px;stroke-linecap:butt;stroke-linejoin:miter;stroke-opacity:1" d="M 19.1981,488.584 17.9133,514.746 z" id="boundary" inkscape:connector-curvature="0" />
	<path style="fill:none;stroke:red;stroke-width:1px;stroke-linecap:butt;stroke-linejoin:miter;stroke-opacity:1" d="M 17.9133,514.746 16.4513,560.576 z" id="boundary" inkscape:connector-curvature="0" />
	<path style="fill:none;stroke:red;stroke-width:1px;stroke-linecap:butt;stroke-linejoin:miter;stroke-opacity:1" d="M 16.4513,560.576 6.49206,599.142 z" id="boundary" inkscape:connector-curvature="0" />
	<path style="fill:none;stroke:red;stroke-width:1px;stroke-linecap:butt;stroke-linejoin:miter;stroke-opacity:1" d="M 6.49206,599.142 9.97967,643.071 z" id="boundary" inkscape:connector-curvature="0" />
	<path style="fill:none;stroke:red;stroke-width:1px;stroke-linecap:butt;stroke-linejoin:miter;stroke-opacity:1" d="M 9.97967,643.071 14.9538,699.96 z" id="boundary" inkscape:connector-curvature="0" />
	<path style="fill:none;stroke:red;stroke-width:1px;stroke-linecap:butt;stroke-linejoin:miter;stroke-opacity:1" d="M 14.9538,699.96 4,722.868 z" id="boundary" inkscape:connector-curvature="0" />
	<path style="fill:none;stroke:red;stroke-width:1px;stroke-linecap:butt;stroke-linejoin:miter;stroke-opacity:1" d="M 4,722.868 29.5967,764.061 z" id="boundary" inkscape:connector-curvature="0" />
	<path style="fill:none;stroke:red;stroke-width:1px;stroke-linecap:butt;stroke-linejoin:miter;stroke-opacity:1" d="M 29.5967,764.061 24.0246,828.135 z" id="boundary" inkscape:connector-curvature="0" />
	<path style="fill:none;stroke:red;stroke-width:1px;stroke-linecap:butt;stroke-linejoin:miter;stroke-opacity:1" d="M 24.0246,828.135 43.7328,849 z" id="boundary" inkscape:connector-curvature="0" />
	<path style="fill:none;stroke:red;stroke-width:1px;stroke-linecap:butt;stroke-linejoin:miter;stroke-opacity:1" d="M 43.7328,849 40.2516,894.439 z" id="boundary" inkscape:connector-curvature="0" />
	<path style="fill:none;stroke:red;stroke-width:1px;stroke-linecap:butt;stroke-linejoin:miter;stroke-opacity:1" d="M 40.2516,894.439 85.7885,936.778 z" id="boundary" inkscape:connector-curvature="0" />
	<path style="fill:none;stroke:red;stroke-width:1px;stroke-linecap:butt;stroke-linejoin:miter;stroke-opacity:1" d="M 85.7885,936.778 104.71,974.116 z" id="boundary" inkscape:connector-curvature="0" />
	<path style="fill:none;stroke:red;stroke-width:1px;stroke-linecap:butt;stroke-linejoin:miter;stroke-opacity:1" d="M 104.71,974.116 142.28,970.113 z" id="boundary" inkscape:connector-curvature="0" />
	<path style="fill:none;stroke:red;stroke-width:1px;stroke-linecap:butt;stroke-linejoin:miter;stroke-opacity:1" d="M 142.28,970.113 157.251,987.422 z" id="boundary" inkscape:connector-curvature="0" />
	<path style="fill:none;stroke:red;stroke-width:1px;stroke-linecap:butt;stroke-linejoin:miter;stroke-opacity:1" d="M 157.251,987.422 208.043,996 z" id="boundary" inkscape:connector-curvature="0" />
	<path style="fill:none;stroke:red;stroke-width:1px;stroke-linecap:butt;stroke-linejoin:miter;stroke-opacity:1" d="M 208.043,996 236.572,982.917 z" id="boundary" inkscape:connector-curvature="0" />
	<path style="fill:none;stroke:red;stroke-width:1px;stroke-linecap:butt;stroke-linejoin:miter;stroke-opacity:1" d="M 236.572,982.917 264.308,957.449 z" id="boundary" inkscape:connector-curvature="0" />
	<path style="fill:none;stroke:red;stroke-width:1px;stroke-linecap:butt;stroke-linejoin:miter;stroke-opacity:1" d="M 264.308,957.449 284.796,937.998 z" id="boundary" inkscape:connector-curvature="0" />
	<path style="fill:none;stroke:red;stroke-width:1px;stroke-linecap:butt;stroke-linejoin:miter;stroke-opacity:1" d="M 284.796,937.998 294.391,873.116 z" id="boundary" inkscape:connector-curvature="0" />
	<path style="fill:none;stroke:red;stroke-width:1px;stroke-linecap:butt;stroke-linejoin:miter;stroke-opacity:1" d="M 294.391,873.116 282.547,833.399 z" id="boundary" inkscape:connector-curvature="0" />
	<path style="fill:none;stroke:red;stroke-width:1px;stroke-linecap:butt;stroke-linejoin:miter;stroke-opacity:1" d="M 282.547,833.399 302.121,794.388 z" id="boundary" inkscape:connector-curvature="0" />
	<path style="fill:none;stroke:red;stroke-width:1px;stroke-linecap:butt;stroke-linejoin:miter;stroke-opacity:1" d="M 302.121,794.388 299.32,759.456 z" id="boundary" inkscape:connector-curvature="0" />
	<path style="fill:none;stroke:red;stroke-width:1px;stroke-linecap:butt;stroke-linejoin:miter;stroke-opacity:1" d="M 299.32,759.456 303.254,722.612 z" id="boundary" inkscape:connector-curvature="0" />
	<path style="fill:none;stroke:red;stroke-width:1px;stroke-linecap:butt;stroke-linejoin:miter;stroke-opacity:1" d="M 303.254,722.612 317.089,669.655 z" id="boundary" inkscape:connector-curvature="0" />
	<path style="fill:none;stroke:red;stroke-width:1px;stroke-linecap:butt;stroke-linejoin:miter;stroke-opacity:1" d="M 317.089,669.655 315.118,642.781 z" id="boundary" inkscape:connector-curvature="0" />
	<path style="fill:none;stroke:red;stroke-width:1px;stroke-linecap:butt;stroke-linejoin:miter;stroke-opacity:1" d="M 315.118,642.781 345.674,592.236 z" id="boundary" inkscape:connector-curvature="0" />
	<path style="fill:none;stroke:red;stroke-width:1px;stroke-linecap:butt;stroke-linejoin:miter;stroke-opacity:1" d="M 345.674,592.236 356.337,564.662 z" id="boundary" inkscape:connector-curvature="0" />
	<path style="fill:none;stroke:red;stroke-width:1px;stroke-linecap:butt;stroke-linejoin:miter;stroke-opacity:1" d="M 356.337,564.662 360.643,528.838 z" id="boundary" inkscape:connector-curvature="0" />
	<path style="fill:none;stroke:red;stroke-width:1px;stroke-linecap:butt;stroke-linejoin:miter;stroke-opacity:1" d="M 360.643,528.838 391.655,486.37 z" id="boundary" inkscape:connector-curvature="0" />
	<path style="fill:none;stroke:red;stroke-width:1px;stroke-linecap:butt;stroke-linejoin:miter;stroke-opacity:1" d="M 391.655,486.37 416.921,447.796 z" id="boundary" inkscape:connector-curvature="0" />
	<path style="fill:none;stroke:red;stroke-width:1px;stroke-linecap:butt;stroke-linejoin:miter;stroke-opacity:1" d="M 640.455,445.553 637.83,383.36 z" id="boundary" inkscape:connector-curvature="0" />
	<path style="fill:none;stroke:red;stroke-width:1px;stroke-linecap:butt;stroke-linejoin:miter;stroke-opacity:1" d="M 640.455,445.553 626.777,489.351 z" id="boundary" inkscape:connector-curvature="0" />
	<path style="fill:none;stroke:red;stroke-width:1px;stroke-linecap:butt;stroke-linejoin:miter;stroke-opacity:1" d="M 637.83,383.36 639.889,348.236 z" id="boundary" inkscape:connector-curvature="0" />
	<path style="fill:none;stroke:red;stroke-width:1px;stroke-linecap:butt;stroke-linejoin:miter;stroke-opacity:1" d="M 639.889,348.236 623.492,283.29 z" id="boundary" inkscape:connector-curvature="0" />
	<path style="fill:none;stroke:red;stroke-width:1px;stroke-linecap:butt;stroke-linejoin:miter;stroke-opacity:1" d="M 623.492,283.29 640.363,245.841 z" id="boundary" inkscape:connector-curvature="0" />
	<path style="fill:none;stroke:red;stroke-width:1px;stroke-linecap:butt;stroke-linejoin:miter;stroke-opacity:1" d="M 640.363,245.841 619.756,216.193 z" id="boundary" inkscape:connector-curvature="0" />
	<path style="fill:none;stroke:red;stroke-width:1px;stroke-linecap:butt;stroke-linejoin:miter;stroke-opacity:1" d="M 619.756,216.193 613.344,187.08 z" id="boundary" inkscape:connector-curvature="0" />
	<path style="fill:none;stroke:red;stroke-width:1px;stroke-linecap:butt;stroke-linejoin:miter;stroke-opacity:1" d="M 613.344,187.08 601.752,153.08 z" id="boundary" inkscape:connector-curvature="0" />
	<path style="fill:none;stroke:red;stroke-width:1px;stroke-linecap:butt;stroke-linejoin:miter;stroke-opacity:1" d="M 601.752,153.08 609.345,115.046 z" id="boundary" inkscape:connector-curvature="0" />
	<path style="fill:none;stroke:red;stroke-width:1px;stroke-linecap:butt;stroke-linejoin:miter;stroke-opacity:1" d="M 609.345,115.046 627.006,73.3866 z" id="boundary" inkscape:connector-curvature="0" />
	<path style="fill:none;stroke:red;stroke-width:1px;stroke-linecap:butt;stroke-linejoin:miter;stroke-opacity:1" d="M 627.006,73.3866 641.353,34.4963 z" id="boundary" inkscape:connector-curvature="0" />
	<path style="fill:none;stroke:red;stroke-width:1px;stroke-linecap:butt;stroke-linejoin:miter;stroke-opacity:1" d="M 641.353,34.4963 685.289,5.21978 z" id="boundary" inkscape:connector-curvature="0" />
	<path style="fill:none;stroke:red;stroke-width:1px;stroke-linecap:butt;stroke-linejoin:miter;stroke-opacity:1" d="M 685.289,5.21978 718.641,19.737 z" id="boundary" inkscape:connector-curvature="0" />
	<path style="fill:none;stroke:red;stroke-width:1px;stroke-linecap:butt;stroke-linejoin:miter;stroke-opacity:1" d="M 718.641,19.737 741.1,4 z" id="boundary" inkscape:connector-curvature="0" />
	<path style="fill:none;stroke:red;stroke-width:1px;stroke-linecap:butt;stroke-linejoin:miter;stroke-opacity:1" d="M 741.1,4 760.884,13.1983 z" id="boundary" inkscape:connector-curvature="0" />
	<path style="fill:none;stroke:red;stroke-width:1px;stroke-linecap:butt;stroke-linejoin:miter;stroke-opacity:1" d="M 760.884,13.1983 798.933,47.6729 z" id="boundary" inkscape:connector-curvature="0" />
	<path style="fill:none;stroke:red;stroke-width:1px;stroke-linecap:butt;stroke-linejoin:miter;stroke-opacity:1" d="M 798.933,47.6729 828.653,77.8434 z" id="boundary" inkscape:connector-curvature="0" />
	<path style="fill:none;stroke:red;stroke-width:1px;stroke-linecap:butt;stroke-linejoin:miter;stroke-opacity:1" d="M 828.653,77.8434 872.734,118.378 z" id="boundary" inkscape:connector-curvature="0" />
	<path style="fill:none;stroke:red;stroke-width:1px;stroke-linecap:butt;stroke-linejoin:miter;stroke-opacity:1" d="M 872.734,118.378 883.994,153.067 z" id="boundary" inkscape:connector-curvature="0" />
	<path style="fill:none;stroke:red;stroke-width:1px;stroke-linecap:butt;stroke-linejoin:miter;stroke-opacity:1" d="M 883.994,153.067 911.666,179.899 z" id="boundary" inkscape:connector-curvature="0" />
	<path style="fill:none;stroke:red;stroke-width:1px;stroke-linecap:butt;stroke-linejoin:miter;stroke-opacity:1" d="M 911.666,179.899 926.417,213.232 z" id="boundary" inkscape:connector-curvature="0" />
	<path style="fill:none;stroke:red;stroke-width:1px;stroke-linecap:butt;stroke-linejoin:miter;stroke-opacity:1" d="M 926.417,213.232 937.611,249.59 z" id="boundary" inkscape:connector-curvature="0" />
	<path style="fill:none;stroke:red;stroke-width:1px;stroke-linecap:butt;stroke-linejoin:miter;stroke-opacity:1" d="M 937.611,249.59 950.587,285.967 z" id="boundary" inkscape:connector-curvature="0" />
	<path style="fill:none;stroke:red;stroke-width:1px;stroke-linecap:butt;stroke-linejoin:miter;stroke-opacity:1" d="M 950.587,285.967 963.452,331.052 z" id="boundary" inkscape:connector-curvature="0" />
	<path style="fill:none;stroke:red;stroke-width:1px;stroke-linecap:butt;stroke-linejoin:miter;stroke-opacity:1" d="M 963.452,331.052 965.296,379.09 z" id="boundary" inkscape:connector-curvature="0" />
	<path style="fill:none;stroke:red;stroke-width:1px;stroke-linecap:butt;stroke-linejoin:miter;stroke-opacity:1" d="M 965.296,379.09 956.917,398.783 z" id="boundary" inkscape:connector-curvature="0" />
	<path style="fill:none;stroke:red;stroke-width:1px;stroke-linecap:butt;stroke-linejoin:miter;stroke-opacity:1" d="M 956.917,398.783 964.313,451.852 z" id="boundary" inkscape:connector-curvature="0" />
	<path style="fill:none;stroke:red;stroke-width:1px;stroke-linecap:butt;stroke-linejoin:miter;stroke-opacity:1" d="M 964.313,451.852 957.779,517.117 z" id="boundary" inkscape:connector-curvature="0" />
	<path style="fill:none;stroke:red;stroke-width:1px;stroke-linecap:butt;stroke-linejoin:miter;stroke-opacity:1" d="M 957.779,517.117 967.576,569.365 z" id="boundary" inkscape:connector-curvature="0" />
	<path style="fill:none;stroke:red;stroke-width:1px;stroke-linecap:butt;stroke-linejoin:miter;stroke-opacity:1" d="M 967.576,569.365 940.052,609.453 z" id="boundary" inkscape:connector-curvature="0" />
	<path style="fill:none;stroke:red;stroke-width:1px;stroke-linecap:butt;stroke-linejoin:miter;stroke-opacity:1" d="M 940.052,609.453 938.456,642.743 z" id="boundary" inkscape:connector-curvature="0" />
	<path style="fill:none;stroke:red;stroke-width:1px;stroke-linecap:butt;stroke-linejoin:miter;stroke-opacity:1" d="M 938.456,642.743 906.649,660.813 z" id="boundary" inkscape:connector-curvature="0" />
	<path style="fill:none;stroke:red;stroke-width:1px;stroke-linecap:butt;stroke-linejoin:miter;stroke-opacity:1" d="M 906.649,660.813 880.799,699.354 z" id="boundary" inkscape:connector-curvature="0" />
	<path style="fill:none;stroke:red;stroke-width:1px;stroke-linecap:butt;stroke-linejoin:miter;stroke-opacity:1" d="M 880.799,699.354 867.153,747.354 z" id="boundary" inkscape:connector-curvature="0" />
	<path style="fill:none;stroke:red;stroke-width:1px;stroke-linecap:butt;stroke-linejoin:miter;stroke-opacity:1" d="M 867.153,747.354 811.248,781.095 z" id="boundary" inkscape:connector-curvature="0" />
	<path style="fill:none;stroke:red;stroke-width:1px;stroke-linecap:butt;stroke-linejoin:miter;stroke-opacity:1" d="M 811.248,781.095 781.009,811.288 z" id="boundary" inkscape:connector-curvature="0" />
	<path style="fill:none;stroke:red;stroke-width:1px;stroke-linecap:butt;stroke-linejoin:miter;stroke-opacity:1" d="M 781.009,811.288 748.266,827.266 z" id="boundary" inkscape:connector-curvature="0" />
	<path style="fill:none;stroke:red;stroke-width:1px;stroke-linecap:butt;stroke-linejoin:miter;stroke-opacity:1" d="M 748.266,827.266 715,830.265 z" id="boundary" inkscape:connector-curvature="0" />
	<path style="fill:none;stroke:red;stroke-width:1px;stroke-linecap:butt;stroke-linejoin:miter;stroke-opacity:1" d="M 715,830.265 709.113,801.559 z" id="boundary" inkscape:connector-curvature="0" />
	<path style="fill:none;stroke:red;stroke-width:1px;stroke-linecap:butt;stroke-linejoin:miter;stroke-opacity:1" d="M 709.113,801.559 661.334,804.521 z" id="boundary" inkscape:connector-curvature="0" />
	<path style="fill:none;stroke:red;stroke-width:1px;stroke-linecap:butt;stroke-linejoin:miter;stroke-opacity:1" d="M 661.334,804.521 639.937,761.921 z" id="boundary" inkscape:connector-curvature="0" />
	<path style="fill:none;stroke:red;stroke-width:1px;stroke-linecap:butt;stroke-linejoin:miter;stroke-opacity:1" d="M 639.937,761.921 603.504,716.85 z" id="boundary" inkscape:connector-curvature="0" />
	<path style="fill:none;stroke:red;stroke-width:1px;stroke-linecap:butt;stroke-linejoin:miter;stroke-opacity:1" d="M 603.504,716.85 604.764,689.192 z" id="boundary" inkscape:connector-curvature="0" />
	<path style="fill:none;stroke:red;stroke-width:1px;stroke-linecap:butt;stroke-linejoin:miter;stroke-opacity:1" d="M 604.764,689.192 593.437,651.669 z" id="boundary" inkscape:connector-curvature="0" />
	<path style="fill:none;stroke:red;stroke-width:1px;stroke-linecap:butt;stroke-linejoin:miter;stroke-opacity:1" d="M 593.437,651.669 593.963,617.619 z" id="boundary" inkscape:connector-curvature="0" />
	<path style="fill:none;stroke:red;stroke-width:1px;stroke-linecap:butt;stroke-linejoin:miter;stroke-opacity:1" d="M 593.963,617.619 605.284,564.466 z" id="boundary" inkscape:connector-curvature="0" />
	<path style="fill:none;stroke:red;stroke-width:1px;stroke-linecap:butt;stroke-linejoin:miter;stroke-opacity:1" d="M 605.284,564.466 620.284,519.464 z" id="boundary" inkscape:connector-curvature="0" />
	<path style="fill:none;stroke:red;stroke-width:1px;stroke-linecap:butt;stroke-linejoin:miter;stroke-opacity:1" d="M 620.284,519.464 626.777,489.351 z" id="boundary" inkscape:connector-curvature="0" />
	<circle cx="419.887" cy="427.371" r="4" fill="#0" id="circle0"/>
	<circle cx="428.465" cy="360.195" r="4" fill="#0" id="circle1"/>
	<circle cx="417.917" cy="318.97" r="4" fill="#0" id="circle2"/>
	<circle cx="421.548" cy="268.215" r="4" fill="#0" id="circle3"/>
	<circle cx="398.615" cy="235.595" r="4" fill="#0" id="circle4"/>
	<circle cx="359.84" cy="212.516" r="4" fill="#0" id="circle5"/>
	<circle cx="327.921" cy="201.69" r="4" fill="#0" id="circle6"/>
	<circle cx="278.454" cy="194.089" r="4" fill="#0" id="circle7"/>
	<circle cx="255.658" cy="210.079" r="4" fill="#0" id="circle8"/>
	<circle cx="234.256" cy="227.129" r="4" fill="#0" id="circle9"/>
	<circle cx="204.437" cy="256.429" r="4" fill="#0" id="circle10"/>
	<circle cx="169.582" cy="268.975" r="4" fill="#0" id="circle11"/>
	<circle cx="135.774" cy="311.612" r="4" fill="#0" id="circle12"/>
	<circle cx="104.994" cy="352.938" r="4" fill="#0" id="circle13"/>
	<circle cx="54.7671" cy="386.695" r="4" fill="#0" id="circle14"/>
	<circle cx="48.9012" cy="404.604" r="4" fill="#0" id="circle15"/>
	<circle cx="32.1432" cy="454.599" r="4" fill="#0" id="circle16"/>
	<circle cx="19.1981" cy="488.584" r="4" fill="#0" id="circle17"/>
	<circle cx="17.9133" cy="514.746" r="4" fill="#0" id="circle18"/>
	<circle cx="16.4513" cy="560.576" r="4" fill="#0" id="circle19"/>
	<circle cx="6.49206" cy="599.142" r="4" fill="#0" id="circle20"/>
	<circle cx="9.97967" cy="643.071" r="4" fill="#0" id="circle21"/>
	<circle cx="14.9538" cy="699.96" r="4" fill="#0" id="circle22"/>
	<circle cx="4" cy="722.868" r="4" fill="#0" id="circle23"/>
	<circle cx="29.5967" cy="764.061" r="4" fill="#0" id="circle24"/>
	<circle cx="24.0246" cy="828.135" r="4" fill="#0" id="circle25"/>
	<circle cx="43.7328" cy="849" r="4" fill="#0" id="circle26"/>
	<circle cx="40.2516" cy="894.439" r="4" fill="#0" id="circle27"/>
	<circle cx="85.7885" cy="936.778" r="4" fill="#0" id="circle28"/>
	<circle cx="104.71" cy="974.116" r="4" fill="#0" id="circle29"/>
	<circle cx="142.28" cy="970.113" r="4" fill="#0" id="circle30"/>
	<circle cx="157.251" cy="987.422" r="4" fill="#0" id="circle31"/>
	<circle cx="208.043" cy="996" r="4" fill="#0" id="circle32"/>
	<circle cx="236.572" cy="982.917" r="4" fill="#0" id="circle33"/>
	<circle cx="264.308" cy="957.449" r="4" fill="#0" id="circle34"/>
	<circle cx="284.796" cy="937.998" r="4" fill="#0" id="circle35"/>
	<circle cx="294.391" cy="873.116" r="4" fill="#0" id="circle36"/>
	<circle cx="282.547" cy="833.399" r="4" fill="#0" id="circle37"/>
	<circle cx="302.121" cy="794.388" r="4" fill="#0" id="circle38"/>
	<circle cx="299.32" cy="759.456" r="4" fill="#0" id="circle39"/>
	<circle cx="303.254" cy="722.612" r="4" fill="#0" id="circle40"/>
	<circle cx="317.089" cy="669.655" r="4" fill="#0" id="circle41"/>
	<circle cx="315.118" cy="642.781" r="4" fill="#0" id="circle42"/>
	<circle cx="345.674" cy="592.236" r="4" fill="#0" id="circle43"/>
	<circle cx="356.337" cy="564.662" r="4" fill="#0" id="circle44"/>
	<circle cx="360.643" cy="528.838" r="4" fill="#0" id="circle45"/>
	<circle cx="391.655" cy="486.37" r="4" fill="#0" id="circle46"/>
	<circle cx="416.921" cy="447.796" r="4" fill="#0" id="circle47"/>
	<circle cx="640.455" cy="445.553" r="4" fill="#0" id="circle48"/>
	<circle cx="637.83" cy="383.36" r="4" fill="#0" id="circle49"/>
	<circle cx="639.889" cy="348.236" r="4" fill="#0" id="circle50"/>
	<circle cx="623.492" cy="283.29" r="4" fill="#0" id="circle51"/>
	<circle cx="640.363" cy="245.841" r="4" fill="#0" id="circle52"/>
	<circle cx="619.756" cy="216.193" r="4" fill="#0" id="circle53"/>
	<circle cx="613.344" cy="187.08" r="4" fill="#0" id="circle54"/>
	<circle cx="601.752" cy="153.08" r="4" fill="#0" id="circle55"/>
	<circle cx="609.345" cy="115.046" r="4" fill="#0" id="circle56"/>
	<circle cx="627.006" cy="73.3866" r="4" fill="#0" id="circle57"/>
	<circle cx="641.353" cy="34.4963" r="4" fill="#0" id="circle58"/>
	<circle cx="685.289" cy="5.21978" r="4" fill="#0" id="circle59"/>
	<circle cx="718.641" cy="19.737" r="4" fill="#0" id="circle60"/>
	<circle cx="741.1" cy="4" r="4" fill="#0" id="circle61"/>
	<circle cx="760.884" cy="13.1983" r="4" fill="#0" id="circle62"/>
	<circle cx="798.933" cy="47.6729" r="4" fill="#0" id="circle63"/>
	<circle cx="828.653" cy="77.8434" r="4" fill="#0" id="circle64"/>
	<circle cx="872.734" cy="118.378" r="4" fill="#0" id="circle65"/>
	<circle cx="883.994" cy="153.067" r="4" fill="#0" id="circle66"/>
	<circle cx="911.666" cy="179.899" r="4" fill="#0" id="circle67"/>
	<circle cx="926.417" cy="213.232" r="4" fill="#0" id="circle68"/>
	<circle cx="937.611" cy="249.59" r="4" fill="#0" id="circle69"/>
	<circle cx="950.587" cy="285.967" r="4" fill="#0" id="circle70"/>
	<circle cx="963.452" cy="331.052" r="4" fill="#0" id="circle71"/>
	<circle cx="965.296" cy="379.09" r="4" fill="#0" id="circle72"/>
	<circle cx="956.917" cy="398.783" r="4" fill="#0" id="circle73"/>
	<circle cx="964.313" cy="451.852" r="4" fill="#0" id="circle74"/>
	<circle cx="957.779" cy="517.117" r="4" fill="#0" id="circle75"/>
	<circle cx="967.576" cy="569.365" r="4" fill="#0" id="circle76"/>
	<circle cx="940.052" cy="609.453" r="4" fill="#0" id="circle77"/>
	<circle cx="938.456" cy="642.743" r="4" fill="#0" id="circle78"/>
	<circle cx="906.649" cy="660.813" r="4" fill="#0" id="circle79"/>
	<circle cx="880.799" cy="699.354" r="4" fill="#0" id="circle80"/>
	<circle cx="867.153" cy="747.354" r="4" fill="#0" id="circle81"/>
	<circle cx="811.248" cy="781.095" r="4" fill="#0" id="circle82"/>
	<circle cx="781.009" cy="811.288" r="4" fill="#0" id="circle83"/>
	<circle cx="748.266" cy="827.266" r="4" fill="#0" id="circle84"/>
	<circle cx="715" cy="830.265" r="4" fill="#0" id="circle85"/>
	<circle cx="709.113" cy="801.559" r="4" fill="#0" id="circle86"/>
	<circle cx="661.334" cy="804.521" r="4" fill="#0" id="circle87"/>
	<circle cx="639.937" cy="761.921" r="4" fill="#0" id="circle88"/>
	<circle cx="603.504" cy="716.85" r="4" fill="#0" id="circle89"/>
	<circle cx="604.764" cy="689.192" r="4" fill="#0" id="circle90"/>
	<circle cx="593.437" cy="651.669" r="4" fill="#0" id="circle91"/>
	<circle cx="593.963" cy="617.619" r="4" fill="#0" id="circle92"/>
	<circle cx="605.284" cy="564.466" r="4" fill="#0" id="circle93"/>
	<circle cx="620.284" cy="519.464" r="4" fill="#0" id="circle94"/>
	<circle cx="626.777" cy="489.351" r="4" fill="#0" id="circle95"/>
	</g>
</svg>