<?xml version="1.0" encoding="UTF-8" standalone="no"?>
<!-- Created with CurveBenchmark -->
<svg
	xmlns:dc="http://purl.org/dc/elements/1.1/"
	xmlns:cc="http://creativecommons.org/ns#"
	xmlns:rdf="http://www.w3.org/1999/02/22-rdf-syntax-ns#"
	xmlns:svg="http://www.w3.org/2000/svg"
	xmlns="http://www.w3.org/2000/svg"
	xmlns:sodipodi="http://sodipodi.sourceforge.net/DTD/sodipodi-0.dtd"
	xmlns:inkscape="http://www.inkscape.org/namespaces/inkscape"
	width="1000"
	height="1000"
	id="svg2"
	version="1.1"
	sodipodi:docname="noisy-0.01/fitconnect-mc5.txt">
<defs
	id="defs4" />
<metadata
	id="metadata7">
	<rdf:RDF>
		<cc:Work
			rdf:about="">
			<dc:format>image/svg+xml</dc:format>
			<dc:type
				rdf:resource="http://purl.org/dc/dcmitype/StillImage" />
			<dc:title></dc:title>
		</cc:Work>
	</rdf:RDF>
</metadata>
<g
	inkscape:label="Layer 1"
	inkscape:groupmode="layer"
	id="layer1">
	<path style="fill:none;stroke:red;stroke-width:1px;stroke-linecap:butt;stroke-linejoin:miter;stroke-opacity:1" d="M 31.2618,304.557 63.0743,609.666 z" id="boundary" inkscape:connector-curvature="0" />
	<path style="fill:none;stroke:red;stroke-width:1px;stroke-linecap:butt;stroke-linejoin:miter;stroke-opacity:1" d="M 31.2618,304.557 233.707,185.728 z" id="boundary" inkscape:connector-curvature="0" />
	<path style="fill:none;stroke:red;stroke-width:1px;stroke-linecap:butt;stroke-linejoin:miter;stroke-opacity:1" d="M 63.0743,609.666 244.565,716.878 z" id="boundary" inkscape:connector-curvature="0" />
	<path style="fill:none;stroke:red;stroke-width:1px;stroke-linecap:butt;stroke-linejoin:miter;stroke-opacity:1" d="M 244.565,716.878 385.181,868.349 z" id="boundary" inkscape:connector-curvature="0" />
	<path style="fill:none;stroke:red;stroke-width:1px;stroke-linecap:butt;stroke-linejoin:miter;stroke-opacity:1" d="M 385.181,868.349 502.398,951.332 z" id="boundary" inkscape:connector-curvature="0" />
	<path style="fill:none;stroke:red;stroke-width:1px;stroke-linecap:butt;stroke-linejoin:miter;stroke-opacity:1" d="M 502.398,951.332 607.161,951.56 z" id="boundary" inkscape:connector-curvature="0" />
	<path style="fill:none;stroke:red;stroke-width:1px;stroke-linecap:butt;stroke-linejoin:miter;stroke-opacity:1" d="M 607.161,951.56 661.431,957.665 z" id="boundary" inkscape:connector-curvature="0" />
	<path style="fill:none;stroke:red;stroke-width:1px;stroke-linecap:butt;stroke-linejoin:miter;stroke-opacity:1" d="M 661.431,957.665 700.527,945.665 z" id="boundary" inkscape:connector-curvature="0" />
	<path style="fill:none;stroke:red;stroke-width:1px;stroke-linecap:butt;stroke-linejoin:miter;stroke-opacity:1" d="M 700.527,945.665 740.42,948.997 z" id="boundary" inkscape:connector-curvature="0" />
	<path style="fill:none;stroke:red;stroke-width:1px;stroke-linecap:butt;stroke-linejoin:miter;stroke-opacity:1" d="M 740.42,948.997 771.924,902.297 z" id="boundary" inkscape:connector-curvature="0" />
	<path style="fill:none;stroke:red;stroke-width:1px;stroke-linecap:butt;stroke-linejoin:miter;stroke-opacity:1" d="M 233.707,185.728 297.589,52.3836 z" id="boundary" inkscape:connector-curvature="0" />
	<path style="fill:none;stroke:red;stroke-width:1px;stroke-linecap:butt;stroke-linejoin:miter;stroke-opacity:1" d="M 297.589,52.3836 422.65,24.3978 z" id="boundary" inkscape:connector-curvature="0" />
	<path style="fill:none;stroke:red;stroke-width:1px;stroke-linecap:butt;stroke-linejoin:miter;stroke-opacity:1" d="M 422.65,24.3978 552.488,8.76126 z" id="boundary" inkscape:connector-curvature="0" />
	<path style="fill:none;stroke:red;stroke-width:1px;stroke-linecap:butt;stroke-linejoin:miter;stroke-opacity:1" d="M 552.488,8.76126 634.871,15.9275 z" id="boundary" inkscape:connector-curvature="0" />
	<path style="fill:none;stroke:red;stroke-width:1px;stroke-linecap:butt;stroke-linejoin:miter;stroke-opacity:1" d="M 634.871,15.9275 664.349,16.3238 z" id="boundary" inkscape:connector-curvature="0" />
	<path style="fill:none;stroke:red;stroke-width:1px;stroke-linecap:butt;stroke-linejoin:miter;stroke-opacity:1" d="M 664.349,16.3238 717.421,29.424 z" id="boundary" inkscape:connector-curvature="0" />
	<path style="fill:none;stroke:red;stroke-width:1px;stroke-linecap:butt;stroke-linejoin:miter;stroke-opacity:1" d="M 717.421,29.424 756.396,35.3453 z" id="boundary" inkscape:connector-curvature="0" />
	<path style="fill:none;stroke:red;stroke-width:1px;stroke-linecap:butt;stroke-linejoin:miter;stroke-opacity:1" d="M 756.396,35.3453 821.329,28.2922 z" id="boundary" inkscape:connector-curvature="0" />
	<path style="fill:none;stroke:red;stroke-width:1px;stroke-linecap:butt;stroke-linejoin:miter;stroke-opacity:1" d="M 821.329,28.2922 875.211,39.1248 z" id="boundary" inkscape:connector-curvature="0" />
	<path style="fill:none;stroke:red;stroke-width:1px;stroke-linecap:butt;stroke-linejoin:miter;stroke-opacity:1" d="M 875.211,39.1248 917.923,56.077 z" id="boundary" inkscape:connector-curvature="0" />
	<path style="fill:none;stroke:red;stroke-width:1px;stroke-linecap:butt;stroke-linejoin:miter;stroke-opacity:1" d="M 917.923,56.077 964.136,75.4911 z" id="boundary" inkscape:connector-curvature="0" />
	<path style="fill:none;stroke:red;stroke-width:1px;stroke-linecap:butt;stroke-linejoin:miter;stroke-opacity:1" d="M 964.136,75.4911 996,121.572 z" id="boundary" inkscape:connector-curvature="0" />
	<path style="fill:none;stroke:red;stroke-width:1px;stroke-linecap:butt;stroke-linejoin:miter;stroke-opacity:1" d="M 996,121.572 995.752,173.021 z" id="boundary" inkscape:connector-curvature="0" />
	<path style="fill:none;stroke:red;stroke-width:1px;stroke-linecap:butt;stroke-linejoin:miter;stroke-opacity:1" d="M 995.752,173.021 975.669,190.843 z" id="boundary" inkscape:connector-curvature="0" />
	<path style="fill:none;stroke:red;stroke-width:1px;stroke-linecap:butt;stroke-linejoin:miter;stroke-opacity:1" d="M 975.669,190.843 973.269,228.208 z" id="boundary" inkscape:connector-curvature="0" />
	<path style="fill:none;stroke:red;stroke-width:1px;stroke-linecap:butt;stroke-linejoin:miter;stroke-opacity:1" d="M 973.269,228.208 964.356,271.39 z" id="boundary" inkscape:connector-curvature="0" />
	<path style="fill:none;stroke:red;stroke-width:1px;stroke-linecap:butt;stroke-linejoin:miter;stroke-opacity:1" d="M 964.356,271.39 979.251,332.201 z" id="boundary" inkscape:connector-curvature="0" />
	<path style="fill:none;stroke:red;stroke-width:1px;stroke-linecap:butt;stroke-linejoin:miter;stroke-opacity:1" d="M 979.251,332.201 964.483,380.643 z" id="boundary" inkscape:connector-curvature="0" />
	<path style="fill:none;stroke:red;stroke-width:1px;stroke-linecap:butt;stroke-linejoin:miter;stroke-opacity:1" d="M 964.483,380.643 967.389,420.96 z" id="boundary" inkscape:connector-curvature="0" />
	<path style="fill:none;stroke:red;stroke-width:1px;stroke-linecap:butt;stroke-linejoin:miter;stroke-opacity:1" d="M 967.389,420.96 944.202,454.203 z" id="boundary" inkscape:connector-curvature="0" />
	<path style="fill:none;stroke:red;stroke-width:1px;stroke-linecap:butt;stroke-linejoin:miter;stroke-opacity:1" d="M 944.202,454.203 928.644,505.974 z" id="boundary" inkscape:connector-curvature="0" />
	<path style="fill:none;stroke:red;stroke-width:1px;stroke-linecap:butt;stroke-linejoin:miter;stroke-opacity:1" d="M 928.644,505.974 930.362,572.3 z" id="boundary" inkscape:connector-curvature="0" />
	<path style="fill:none;stroke:red;stroke-width:1px;stroke-linecap:butt;stroke-linejoin:miter;stroke-opacity:1" d="M 930.362,572.3 888.867,614.8 z" id="boundary" inkscape:connector-curvature="0" />
	<path style="fill:none;stroke:red;stroke-width:1px;stroke-linecap:butt;stroke-linejoin:miter;stroke-opacity:1" d="M 888.867,614.8 876.237,660.717 z" id="boundary" inkscape:connector-curvature="0" />
	<path style="fill:none;stroke:red;stroke-width:1px;stroke-linecap:butt;stroke-linejoin:miter;stroke-opacity:1" d="M 876.237,660.717 857.667,706.434 z" id="boundary" inkscape:connector-curvature="0" />
	<path style="fill:none;stroke:red;stroke-width:1px;stroke-linecap:butt;stroke-linejoin:miter;stroke-opacity:1" d="M 857.667,706.434 842.38,743.452 z" id="boundary" inkscape:connector-curvature="0" />
	<path style="fill:none;stroke:red;stroke-width:1px;stroke-linecap:butt;stroke-linejoin:miter;stroke-opacity:1" d="M 842.38,743.452 853.51,754.63 z" id="boundary" inkscape:connector-curvature="0" />
	<path style="fill:none;stroke:red;stroke-width:1px;stroke-linecap:butt;stroke-linejoin:miter;stroke-opacity:1" d="M 853.51,754.63 815.537,809.281 z" id="boundary" inkscape:connector-curvature="0" />
	<path style="fill:none;stroke:red;stroke-width:1px;stroke-linecap:butt;stroke-linejoin:miter;stroke-opacity:1" d="M 815.537,809.281 814.783,837.907 z" id="boundary" inkscape:connector-curvature="0" />
	<path style="fill:none;stroke:red;stroke-width:1px;stroke-linecap:butt;stroke-linejoin:miter;stroke-opacity:1" d="M 814.783,837.907 775.567,857.491 z" id="boundary" inkscape:connector-curvature="0" />
	<path style="fill:none;stroke:red;stroke-width:1px;stroke-linecap:butt;stroke-linejoin:miter;stroke-opacity:1" d="M 775.567,857.491 771.924,902.297 z" id="boundary" inkscape:connector-curvature="0" />
	<circle cx="242.962" cy="393.902" r="4" fill="#0" id="circle0"/>
	<circle cx="210.133" cy="364.121" r="4" fill="#0" id="circle1"/>
	<circle cx="169.11" cy="374.261" r="4" fill="#0" id="circle2"/>
	<circle cx="150.445" cy="374.325" r="4" fill="#0" id="circle3"/>
	<circle cx="139.507" cy="414.556" r="4" fill="#0" id="circle4"/>
	<circle cx="134.061" cy="450.029" r="4" fill="#0" id="circle5"/>
	<circle cx="152.765" cy="490.696" r="4" fill="#0" id="circle6"/>
	<circle cx="155.497" cy="504.718" r="4" fill="#0" id="circle7"/>
	<circle cx="186.017" cy="532.026" r="4" fill="#0" id="circle8"/>
	<circle cx="221.381" cy="563.173" r="4" fill="#0" id="circle9"/>
	<circle cx="256.06" cy="598.116" r="4" fill="#0" id="circle10"/>
	<circle cx="287.15" cy="595.309" r="4" fill="#0" id="circle11"/>
	<circle cx="295.999" cy="571.92" r="4" fill="#0" id="circle12"/>
	<circle cx="284.227" cy="539.247" r="4" fill="#0" id="circle13"/>
	<circle cx="251.137" cy="498.748" r="4" fill="#0" id="circle14"/>
	<circle cx="261.269" cy="441.168" r="4" fill="#0" id="circle15"/>
	<circle cx="252.296" cy="424.719" r="4" fill="#0" id="circle16"/>
	<circle cx="232.859" cy="227.791" r="4" fill="#0" id="circle17"/>
	<circle cx="205.526" cy="218.682" r="4" fill="#0" id="circle18"/>
	<circle cx="170.368" cy="233.556" r="4" fill="#0" id="circle19"/>
	<circle cx="126.462" cy="242.975" r="4" fill="#0" id="circle20"/>
	<circle cx="92.4005" cy="258.415" r="4" fill="#0" id="circle21"/>
	<circle cx="67.4527" cy="291.879" r="4" fill="#0" id="circle22"/>
	<circle cx="31.2618" cy="304.557" r="4" fill="#0" id="circle23"/>
	<circle cx="38.8886" cy="344.373" r="4" fill="#0" id="circle24"/>
	<circle cx="13.9366" cy="405.44" r="4" fill="#0" id="circle25"/>
	<circle cx="19.9161" cy="424.081" r="4" fill="#0" id="circle26"/>
	<circle cx="4" cy="476.426" r="4" fill="#0" id="circle27"/>
	<circle cx="35.9146" cy="522.914" r="4" fill="#0" id="circle28"/>
	<circle cx="40.8107" cy="556.125" r="4" fill="#0" id="circle29"/>
	<circle cx="62.4285" cy="572.01" r="4" fill="#0" id="circle30"/>
	<circle cx="63.0743" cy="609.666" r="4" fill="#0" id="circle31"/>
	<circle cx="108.55" cy="649.415" r="4" fill="#0" id="circle32"/>
	<circle cx="133.722" cy="668.411" r="4" fill="#0" id="circle33"/>
	<circle cx="167.492" cy="692.819" r="4" fill="#0" id="circle34"/>
	<circle cx="204.489" cy="728.722" r="4" fill="#0" id="circle35"/>
	<circle cx="244.565" cy="716.878" r="4" fill="#0" id="circle36"/>
	<circle cx="268.628" cy="741.386" r="4" fill="#0" id="circle37"/>
	<circle cx="326.908" cy="769.043" r="4" fill="#0" id="circle38"/>
	<circle cx="351.591" cy="810.796" r="4" fill="#0" id="circle39"/>
	<circle cx="369.043" cy="847.191" r="4" fill="#0" id="circle40"/>
	<circle cx="385.181" cy="868.349" r="4" fill="#0" id="circle41"/>
	<circle cx="393.324" cy="917.736" r="4" fill="#0" id="circle42"/>
	<circle cx="444.089" cy="921.134" r="4" fill="#0" id="circle43"/>
	<circle cx="478.291" cy="939.279" r="4" fill="#0" id="circle44"/>
	<circle cx="502.398" cy="951.332" r="4" fill="#0" id="circle45"/>
	<circle cx="560.578" cy="947.092" r="4" fill="#0" id="circle46"/>
	<circle cx="607.161" cy="951.56" r="4" fill="#0" id="circle47"/>
	<circle cx="661.431" cy="957.665" r="4" fill="#0" id="circle48"/>
	<circle cx="700.527" cy="945.665" r="4" fill="#0" id="circle49"/>
	<circle cx="740.42" cy="948.997" r="4" fill="#0" id="circle50"/>
	<circle cx="233.707" cy="185.728" r="4" fill="#0" id="circle51"/>
	<circle cx="258.729" cy="146.155" r="4" fill="#0" id="circle52"/>
	<circle cx="245.268" cy="111.511" r="4" fill="#0" id="circle53"/>
	<circle cx="264.612" cy="78.1147" r="4" fill="#0" id="circle54"/>
	<circle cx="297.589" cy="52.3836" r="4" fill="#0" id="circle55"/>
	<circle cx="341.223" cy="42.0974" r="4" fill="#0" id="circle56"/>
	<circle cx="395.198" cy="31.3508" r="4" fill="#0" id="circle57"/>
	<circle cx="422.65" cy="24.3978" r="4" fill="#0" id="circle58"/>
	<circle cx="480.095" cy="7.89569" r="4" fill="#0" id="circle59"/>
	<circle cx="519.424" cy="26.0681" r="4" fill="#0" id="circle60"/>
	<circle cx="552.488" cy="8.76126" r="4" fill="#0" id="circle61"/>
	<circle cx="582.909" cy="4" r="4" fill="#0" id="circle62"/>
	<circle cx="634.871" cy="15.9275" r="4" fill="#0" id="circle63"/>
	<circle cx="664.349" cy="16.3238" r="4" fill="#0" id="circle64"/>
	<circle cx="717.421" cy="29.424" r="4" fill="#0" id="circle65"/>
	<circle cx="756.396" cy="35.3453" r="4" fill="#0" id="circle66"/>
	<circle cx="821.329" cy="28.2922" r="4" fill="#0" id="circle67"/>
	<circle cx="875.211" cy="39.1248" r="4" fill="#0" id="circle68"/>
	<circle cx="917.923" cy="56.077" r="4" fill="#0" id="circle69"/>
	<circle cx="964.136" cy="75.4911" r="4" fill="#0" id="circle70"/>
	<circle cx="996" cy="121.572" r="4" fill="#0" id="circle71"/>
	<circle cx="995.752" cy="173.021" r="4" fill="#0" id="circle72"/>
	<circle cx="975.669" cy="190.843" r="4" fill="#0" id="circle73"/>
	<circle cx="973.269" cy="228.208" r="4" fill="#0" id="circle74"/>
	<circle cx="964.356" cy="271.39" r="4" fill="#0" id="circle75"/>
	<circle cx="979.251" cy="332.201" r="4" fill="#0" id="circle76"/>
	<circle cx="964.483" cy="380.643" r="4" fill="#0" id="circle77"/>
	<circle cx="967.389" cy="420.96" r="4" fill="#0" id="circle78"/>
	<circle cx="944.202" cy="454.203" r="4" fill="#0" id="circle79"/>
	<circle cx="928.644" cy="505.974" r="4" fill="#0" id="circle80"/>
	<circle cx="930.362" cy="572.3" r="4" fill="#0" id="circle81"/>
	<circle cx="888.867" cy="614.8" r="4" fill="#0" id="circle82"/>
	<circle cx="876.237" cy="660.717" r="4" fill="#0" id="circle83"/>
	<circle cx="857.667" cy="706.434" r="4" fill="#0" id="circle84"/>
	<circle cx="842.38" cy="743.452" r="4" fill="#0" id="circle85"/>
	<circle cx="853.51" cy="754.63" r="4" fill="#0" id="circle86"/>
	<circle cx="815.537" cy="809.281" r="4" fill="#0" id="circle87"/>
	<circle cx="814.783" cy="837.907" r="4" fill="#0" id="circle88"/>
	<circle cx="775.567" cy="857.491" r="4" fill="#0" id="circle89"/>
	<circle cx="771.924" cy="902.297" r="4" fill="#0" id="circle90"/>
	</g>
</svg>