<?xml version="1.0" encoding="UTF-8" standalone="no"?>
<!-- Created with CurveBenchmark -->
<svg
	xmlns:dc="http://purl.org/dc/elements/1.1/"
	xmlns:cc="http://creativecommons.org/ns#"
	xmlns:rdf="http://www.w3.org/1999/02/22-rdf-syntax-ns#"
	xmlns:svg="http://www.w3.org/2000/svg"
	xmlns="http://www.w3.org/2000/svg"
	xmlns:sodipodi="http://sodipodi.sourceforge.net/DTD/sodipodi-0.dtd"
	xmlns:inkscape="http://www.inkscape.org/namespaces/inkscape"
	width="1000"
	height="1000"
	id="svg2"
	version="1.1"
	sodipodi:docname="noisy-0.01/fitconnect-mc7.txt">
<defs
	id="defs4" />
<metadata
	id="metadata7">
	<rdf:RDF>
		<cc:Work
			rdf:about="">
			<dc:format>image/svg+xml</dc:format>
			<dc:type
				rdf:resource="http://purl.org/dc/dcmitype/StillImage" />
			<dc:title></dc:title>
		</cc:Work>
	</rdf:RDF>
</metadata>
<g
	inkscape:label="Layer 1"
	inkscape:groupmode="layer"
	id="layer1">
	<path style="fill:none;stroke:red;stroke-width:1px;stroke-linecap:butt;stroke-linejoin:miter;stroke-opacity:1" d="M 81.6455,321.861 75.9687,353.752 z" id="boundary" inkscape:connector-curvature="0" />
	<path style="fill:none;stroke:red;stroke-width:1px;stroke-linecap:butt;stroke-linejoin:miter;stroke-opacity:1" d="M 81.6455,321.861 153.613,312.067 z" id="boundary" inkscape:connector-curvature="0" />
	<path style="fill:none;stroke:red;stroke-width:1px;stroke-linecap:butt;stroke-linejoin:miter;stroke-opacity:1" d="M 85.1286,286.158 82.3409,272.248 z" id="boundary" inkscape:connector-curvature="0" />
	<path style="fill:none;stroke:red;stroke-width:1px;stroke-linecap:butt;stroke-linejoin:miter;stroke-opacity:1" d="M 85.1286,286.158 153.613,312.067 z" id="boundary" inkscape:connector-curvature="0" />
	<path style="fill:none;stroke:red;stroke-width:1px;stroke-linecap:butt;stroke-linejoin:miter;stroke-opacity:1" d="M 82.3409,272.248 91.7582,175.342 z" id="boundary" inkscape:connector-curvature="0" />
	<path style="fill:none;stroke:red;stroke-width:1px;stroke-linecap:butt;stroke-linejoin:miter;stroke-opacity:1" d="M 91.7582,175.342 94.9311,117.475 z" id="boundary" inkscape:connector-curvature="0" />
	<path style="fill:none;stroke:red;stroke-width:1px;stroke-linecap:butt;stroke-linejoin:miter;stroke-opacity:1" d="M 94.9311,117.475 117.508,106.073 z" id="boundary" inkscape:connector-curvature="0" />
	<path style="fill:none;stroke:red;stroke-width:1px;stroke-linecap:butt;stroke-linejoin:miter;stroke-opacity:1" d="M 117.508,106.073 148.429,101.73 z" id="boundary" inkscape:connector-curvature="0" />
	<path style="fill:none;stroke:red;stroke-width:1px;stroke-linecap:butt;stroke-linejoin:miter;stroke-opacity:1" d="M 148.429,101.73 166.484,79.4955 z" id="boundary" inkscape:connector-curvature="0" />
	<path style="fill:none;stroke:red;stroke-width:1px;stroke-linecap:butt;stroke-linejoin:miter;stroke-opacity:1" d="M 166.484,79.4955 162.156,49.6744 z" id="boundary" inkscape:connector-curvature="0" />
	<path style="fill:none;stroke:red;stroke-width:1px;stroke-linecap:butt;stroke-linejoin:miter;stroke-opacity:1" d="M 162.156,49.6744 163.513,31.5856 z" id="boundary" inkscape:connector-curvature="0" />
	<path style="fill:none;stroke:red;stroke-width:1px;stroke-linecap:butt;stroke-linejoin:miter;stroke-opacity:1" d="M 163.513,31.5856 196.5,11.3888 z" id="boundary" inkscape:connector-curvature="0" />
	<path style="fill:none;stroke:red;stroke-width:1px;stroke-linecap:butt;stroke-linejoin:miter;stroke-opacity:1" d="M 196.5,11.3888 216.788,18.6761 z" id="boundary" inkscape:connector-curvature="0" />
	<path style="fill:none;stroke:red;stroke-width:1px;stroke-linecap:butt;stroke-linejoin:miter;stroke-opacity:1" d="M 216.788,18.6761 236.454,15.9711 z" id="boundary" inkscape:connector-curvature="0" />
	<path style="fill:none;stroke:red;stroke-width:1px;stroke-linecap:butt;stroke-linejoin:miter;stroke-opacity:1" d="M 236.454,15.9711 266.516,4 z" id="boundary" inkscape:connector-curvature="0" />
	<path style="fill:none;stroke:red;stroke-width:1px;stroke-linecap:butt;stroke-linejoin:miter;stroke-opacity:1" d="M 266.516,4 293.325,15.1031 z" id="boundary" inkscape:connector-curvature="0" />
	<path style="fill:none;stroke:red;stroke-width:1px;stroke-linecap:butt;stroke-linejoin:miter;stroke-opacity:1" d="M 293.325,15.1031 312.941,26.3573 z" id="boundary" inkscape:connector-curvature="0" />
	<path style="fill:none;stroke:red;stroke-width:1px;stroke-linecap:butt;stroke-linejoin:miter;stroke-opacity:1" d="M 312.941,26.3573 331.4,43.9254 z" id="boundary" inkscape:connector-curvature="0" />
	<path style="fill:none;stroke:red;stroke-width:1px;stroke-linecap:butt;stroke-linejoin:miter;stroke-opacity:1" d="M 331.4,43.9254 333.935,80.3114 z" id="boundary" inkscape:connector-curvature="0" />
	<path style="fill:none;stroke:red;stroke-width:1px;stroke-linecap:butt;stroke-linejoin:miter;stroke-opacity:1" d="M 333.935,80.3114 315.828,83.74 z" id="boundary" inkscape:connector-curvature="0" />
	<path style="fill:none;stroke:red;stroke-width:1px;stroke-linecap:butt;stroke-linejoin:miter;stroke-opacity:1" d="M 315.828,83.74 318.361,98.7959 z" id="boundary" inkscape:connector-curvature="0" />
	<path style="fill:none;stroke:red;stroke-width:1px;stroke-linecap:butt;stroke-linejoin:miter;stroke-opacity:1" d="M 318.361,98.7959 299.487,135.477 z" id="boundary" inkscape:connector-curvature="0" />
	<path style="fill:none;stroke:red;stroke-width:1px;stroke-linecap:butt;stroke-linejoin:miter;stroke-opacity:1" d="M 299.487,135.477 293.255,149.901 z" id="boundary" inkscape:connector-curvature="0" />
	<path style="fill:none;stroke:red;stroke-width:1px;stroke-linecap:butt;stroke-linejoin:miter;stroke-opacity:1" d="M 293.255,149.901 273.628,181.414 z" id="boundary" inkscape:connector-curvature="0" />
	<path style="fill:none;stroke:red;stroke-width:1px;stroke-linecap:butt;stroke-linejoin:miter;stroke-opacity:1" d="M 273.628,181.414 289.297,208.749 z" id="boundary" inkscape:connector-curvature="0" />
	<path style="fill:none;stroke:red;stroke-width:1px;stroke-linecap:butt;stroke-linejoin:miter;stroke-opacity:1" d="M 289.297,208.749 280.762,225.775 z" id="boundary" inkscape:connector-curvature="0" />
	<path style="fill:none;stroke:red;stroke-width:1px;stroke-linecap:butt;stroke-linejoin:miter;stroke-opacity:1" d="M 280.762,225.775 290.011,235.28 z" id="boundary" inkscape:connector-curvature="0" />
	<path style="fill:none;stroke:red;stroke-width:1px;stroke-linecap:butt;stroke-linejoin:miter;stroke-opacity:1" d="M 290.011,235.28 305.111,291.767 z" id="boundary" inkscape:connector-curvature="0" />
	<path style="fill:none;stroke:red;stroke-width:1px;stroke-linecap:butt;stroke-linejoin:miter;stroke-opacity:1" d="M 305.111,291.767 320.717,298.211 z" id="boundary" inkscape:connector-curvature="0" />
	<path style="fill:none;stroke:red;stroke-width:1px;stroke-linecap:butt;stroke-linejoin:miter;stroke-opacity:1" d="M 320.717,298.211 340.19,306.953 z" id="boundary" inkscape:connector-curvature="0" />
	<path style="fill:none;stroke:red;stroke-width:1px;stroke-linecap:butt;stroke-linejoin:miter;stroke-opacity:1" d="M 340.19,306.953 362.224,322.826 z" id="boundary" inkscape:connector-curvature="0" />
	<path style="fill:none;stroke:red;stroke-width:1px;stroke-linecap:butt;stroke-linejoin:miter;stroke-opacity:1" d="M 362.224,322.826 384.468,310.205 z" id="boundary" inkscape:connector-curvature="0" />
	<path style="fill:none;stroke:red;stroke-width:1px;stroke-linecap:butt;stroke-linejoin:miter;stroke-opacity:1" d="M 384.468,310.205 398.468,321.514 z" id="boundary" inkscape:connector-curvature="0" />
	<path style="fill:none;stroke:red;stroke-width:1px;stroke-linecap:butt;stroke-linejoin:miter;stroke-opacity:1" d="M 398.468,321.514 421.469,343.581 z" id="boundary" inkscape:connector-curvature="0" />
	<path style="fill:none;stroke:red;stroke-width:1px;stroke-linecap:butt;stroke-linejoin:miter;stroke-opacity:1" d="M 421.469,343.581 413.755,374.369 z" id="boundary" inkscape:connector-curvature="0" />
	<path style="fill:none;stroke:red;stroke-width:1px;stroke-linecap:butt;stroke-linejoin:miter;stroke-opacity:1" d="M 413.755,374.369 416.228,399.529 z" id="boundary" inkscape:connector-curvature="0" />
	<path style="fill:none;stroke:red;stroke-width:1px;stroke-linecap:butt;stroke-linejoin:miter;stroke-opacity:1" d="M 75.9687,353.752 81.3416,362.962 z" id="boundary" inkscape:connector-curvature="0" />
	<path style="fill:none;stroke:red;stroke-width:1px;stroke-linecap:butt;stroke-linejoin:miter;stroke-opacity:1" d="M 81.3416,362.962 70.6585,399.579 z" id="boundary" inkscape:connector-curvature="0" />
	<path style="fill:none;stroke:red;stroke-width:1px;stroke-linecap:butt;stroke-linejoin:miter;stroke-opacity:1" d="M 70.6585,399.579 81.4303,407.574 z" id="boundary" inkscape:connector-curvature="0" />
	<path style="fill:none;stroke:red;stroke-width:1px;stroke-linecap:butt;stroke-linejoin:miter;stroke-opacity:1" d="M 81.4303,407.574 78.7978,434.505 z" id="boundary" inkscape:connector-curvature="0" />
	<path style="fill:none;stroke:red;stroke-width:1px;stroke-linecap:butt;stroke-linejoin:miter;stroke-opacity:1" d="M 78.7978,434.505 65.6535,456.836 z" id="boundary" inkscape:connector-curvature="0" />
	<path style="fill:none;stroke:red;stroke-width:1px;stroke-linecap:butt;stroke-linejoin:miter;stroke-opacity:1" d="M 65.6535,456.836 72.1413,475.676 z" id="boundary" inkscape:connector-curvature="0" />
	<path style="fill:none;stroke:red;stroke-width:1px;stroke-linecap:butt;stroke-linejoin:miter;stroke-opacity:1" d="M 72.1413,475.676 79.1084,496.708 z" id="boundary" inkscape:connector-curvature="0" />
	<path style="fill:none;stroke:red;stroke-width:1px;stroke-linecap:butt;stroke-linejoin:miter;stroke-opacity:1" d="M 79.1084,496.708 80.0002,523.772 z" id="boundary" inkscape:connector-curvature="0" />
	<path style="fill:none;stroke:red;stroke-width:1px;stroke-linecap:butt;stroke-linejoin:miter;stroke-opacity:1" d="M 80.0002,523.772 76.0477,541.891 z" id="boundary" inkscape:connector-curvature="0" />
	<path style="fill:none;stroke:red;stroke-width:1px;stroke-linecap:butt;stroke-linejoin:miter;stroke-opacity:1" d="M 76.0477,541.891 82.6675,581.659 z" id="boundary" inkscape:connector-curvature="0" />
	<path style="fill:none;stroke:red;stroke-width:1px;stroke-linecap:butt;stroke-linejoin:miter;stroke-opacity:1" d="M 82.6675,581.659 86.4293,607.185 z" id="boundary" inkscape:connector-curvature="0" />
	<path style="fill:none;stroke:red;stroke-width:1px;stroke-linecap:butt;stroke-linejoin:miter;stroke-opacity:1" d="M 65.7883,849.255 96.1709,850.438 z" id="boundary" inkscape:connector-curvature="0" />
	<path style="fill:none;stroke:red;stroke-width:1px;stroke-linecap:butt;stroke-linejoin:miter;stroke-opacity:1" d="M 65.7883,849.255 62.8856,866.802 z" id="boundary" inkscape:connector-curvature="0" />
	<path style="fill:none;stroke:red;stroke-width:1px;stroke-linecap:butt;stroke-linejoin:miter;stroke-opacity:1" d="M 107.889,641.319 90.4535,626.363 z" id="boundary" inkscape:connector-curvature="0" />
	<path style="fill:none;stroke:red;stroke-width:1px;stroke-linecap:butt;stroke-linejoin:miter;stroke-opacity:1" d="M 107.889,641.319 105.269,682.942 z" id="boundary" inkscape:connector-curvature="0" />
	<path style="fill:none;stroke:red;stroke-width:1px;stroke-linecap:butt;stroke-linejoin:miter;stroke-opacity:1" d="M 90.4535,626.363 86.4293,607.185 z" id="boundary" inkscape:connector-curvature="0" />
	<path style="fill:none;stroke:red;stroke-width:1px;stroke-linecap:butt;stroke-linejoin:miter;stroke-opacity:1" d="M 105.269,682.942 121.6,711.647 z" id="boundary" inkscape:connector-curvature="0" />
	<path style="fill:none;stroke:red;stroke-width:1px;stroke-linecap:butt;stroke-linejoin:miter;stroke-opacity:1" d="M 121.6,711.647 140.698,728.52 z" id="boundary" inkscape:connector-curvature="0" />
	<path style="fill:none;stroke:red;stroke-width:1px;stroke-linecap:butt;stroke-linejoin:miter;stroke-opacity:1" d="M 140.698,728.52 148.413,747.927 z" id="boundary" inkscape:connector-curvature="0" />
	<path style="fill:none;stroke:red;stroke-width:1px;stroke-linecap:butt;stroke-linejoin:miter;stroke-opacity:1" d="M 148.413,747.927 172.517,757.499 z" id="boundary" inkscape:connector-curvature="0" />
	<path style="fill:none;stroke:red;stroke-width:1px;stroke-linecap:butt;stroke-linejoin:miter;stroke-opacity:1" d="M 172.517,757.499 194.164,787.901 z" id="boundary" inkscape:connector-curvature="0" />
	<path style="fill:none;stroke:red;stroke-width:1px;stroke-linecap:butt;stroke-linejoin:miter;stroke-opacity:1" d="M 194.164,787.901 201.37,792.103 z" id="boundary" inkscape:connector-curvature="0" />
	<path style="fill:none;stroke:red;stroke-width:1px;stroke-linecap:butt;stroke-linejoin:miter;stroke-opacity:1" d="M 201.37,792.103 175.045,801.789 z" id="boundary" inkscape:connector-curvature="0" />
	<path style="fill:none;stroke:red;stroke-width:1px;stroke-linecap:butt;stroke-linejoin:miter;stroke-opacity:1" d="M 175.045,801.789 152.372,822.733 z" id="boundary" inkscape:connector-curvature="0" />
	<path style="fill:none;stroke:red;stroke-width:1px;stroke-linecap:butt;stroke-linejoin:miter;stroke-opacity:1" d="M 152.372,822.733 132.995,832.029 z" id="boundary" inkscape:connector-curvature="0" />
	<path style="fill:none;stroke:red;stroke-width:1px;stroke-linecap:butt;stroke-linejoin:miter;stroke-opacity:1" d="M 132.995,832.029 124.915,846.212 z" id="boundary" inkscape:connector-curvature="0" />
	<path style="fill:none;stroke:red;stroke-width:1px;stroke-linecap:butt;stroke-linejoin:miter;stroke-opacity:1" d="M 124.915,846.212 96.1709,850.438 z" id="boundary" inkscape:connector-curvature="0" />
	<path style="fill:none;stroke:red;stroke-width:1px;stroke-linecap:butt;stroke-linejoin:miter;stroke-opacity:1" d="M 62.8856,866.802 43.2638,876.697 z" id="boundary" inkscape:connector-curvature="0" />
	<path style="fill:none;stroke:red;stroke-width:1px;stroke-linecap:butt;stroke-linejoin:miter;stroke-opacity:1" d="M 43.2638,876.697 19.978,893.46 z" id="boundary" inkscape:connector-curvature="0" />
	<path style="fill:none;stroke:red;stroke-width:1px;stroke-linecap:butt;stroke-linejoin:miter;stroke-opacity:1" d="M 19.978,893.46 8.45015,911.464 z" id="boundary" inkscape:connector-curvature="0" />
	<path style="fill:none;stroke:red;stroke-width:1px;stroke-linecap:butt;stroke-linejoin:miter;stroke-opacity:1" d="M 8.45015,911.464 8.92726,949.943 z" id="boundary" inkscape:connector-curvature="0" />
	<path style="fill:none;stroke:red;stroke-width:1px;stroke-linecap:butt;stroke-linejoin:miter;stroke-opacity:1" d="M 8.92726,949.943 4,978.496 z" id="boundary" inkscape:connector-curvature="0" />
	<path style="fill:none;stroke:red;stroke-width:1px;stroke-linecap:butt;stroke-linejoin:miter;stroke-opacity:1" d="M 4,978.496 38.4815,969.458 z" id="boundary" inkscape:connector-curvature="0" />
	<path style="fill:none;stroke:red;stroke-width:1px;stroke-linecap:butt;stroke-linejoin:miter;stroke-opacity:1" d="M 38.4815,969.458 65.7931,973.961 z" id="boundary" inkscape:connector-curvature="0" />
	<path style="fill:none;stroke:red;stroke-width:1px;stroke-linecap:butt;stroke-linejoin:miter;stroke-opacity:1" d="M 65.7931,973.961 102.329,985.267 z" id="boundary" inkscape:connector-curvature="0" />
	<path style="fill:none;stroke:red;stroke-width:1px;stroke-linecap:butt;stroke-linejoin:miter;stroke-opacity:1" d="M 102.329,985.267 117.768,986.496 z" id="boundary" inkscape:connector-curvature="0" />
	<path style="fill:none;stroke:red;stroke-width:1px;stroke-linecap:butt;stroke-linejoin:miter;stroke-opacity:1" d="M 117.768,986.496 154.474,983.754 z" id="boundary" inkscape:connector-curvature="0" />
	<path style="fill:none;stroke:red;stroke-width:1px;stroke-linecap:butt;stroke-linejoin:miter;stroke-opacity:1" d="M 154.474,983.754 168.434,970.416 z" id="boundary" inkscape:connector-curvature="0" />
	<path style="fill:none;stroke:red;stroke-width:1px;stroke-linecap:butt;stroke-linejoin:miter;stroke-opacity:1" d="M 168.434,970.416 190.701,969.561 z" id="boundary" inkscape:connector-curvature="0" />
	<path style="fill:none;stroke:red;stroke-width:1px;stroke-linecap:butt;stroke-linejoin:miter;stroke-opacity:1" d="M 190.701,969.561 224.458,982.525 z" id="boundary" inkscape:connector-curvature="0" />
	<path style="fill:none;stroke:red;stroke-width:1px;stroke-linecap:butt;stroke-linejoin:miter;stroke-opacity:1" d="M 224.458,982.525 226.349,981.516 z" id="boundary" inkscape:connector-curvature="0" />
	<path style="fill:none;stroke:red;stroke-width:1px;stroke-linecap:butt;stroke-linejoin:miter;stroke-opacity:1" d="M 226.349,981.516 255.676,987.716 z" id="boundary" inkscape:connector-curvature="0" />
	<path style="fill:none;stroke:red;stroke-width:1px;stroke-linecap:butt;stroke-linejoin:miter;stroke-opacity:1" d="M 255.676,987.716 282.52,996 z" id="boundary" inkscape:connector-curvature="0" />
	<path style="fill:none;stroke:red;stroke-width:1px;stroke-linecap:butt;stroke-linejoin:miter;stroke-opacity:1" d="M 282.52,996 309.975,988.869 z" id="boundary" inkscape:connector-curvature="0" />
	<path style="fill:none;stroke:red;stroke-width:1px;stroke-linecap:butt;stroke-linejoin:miter;stroke-opacity:1" d="M 309.975,988.869 353.46,968.174 z" id="boundary" inkscape:connector-curvature="0" />
	<path style="fill:none;stroke:red;stroke-width:1px;stroke-linecap:butt;stroke-linejoin:miter;stroke-opacity:1" d="M 353.46,968.174 367.609,988.771 z" id="boundary" inkscape:connector-curvature="0" />
	<path style="fill:none;stroke:red;stroke-width:1px;stroke-linecap:butt;stroke-linejoin:miter;stroke-opacity:1" d="M 367.609,988.771 403.891,986.433 z" id="boundary" inkscape:connector-curvature="0" />
	<path style="fill:none;stroke:red;stroke-width:1px;stroke-linecap:butt;stroke-linejoin:miter;stroke-opacity:1" d="M 403.891,986.433 419.057,974.906 z" id="boundary" inkscape:connector-curvature="0" />
	<path style="fill:none;stroke:red;stroke-width:1px;stroke-linecap:butt;stroke-linejoin:miter;stroke-opacity:1" d="M 419.057,974.906 464.745,980.701 z" id="boundary" inkscape:connector-curvature="0" />
	<path style="fill:none;stroke:red;stroke-width:1px;stroke-linecap:butt;stroke-linejoin:miter;stroke-opacity:1" d="M 464.745,980.701 475.682,976.132 z" id="boundary" inkscape:connector-curvature="0" />
	<path style="fill:none;stroke:red;stroke-width:1px;stroke-linecap:butt;stroke-linejoin:miter;stroke-opacity:1" d="M 475.682,976.132 466.606,950.113 z" id="boundary" inkscape:connector-curvature="0" />
	<path style="fill:none;stroke:red;stroke-width:1px;stroke-linecap:butt;stroke-linejoin:miter;stroke-opacity:1" d="M 466.606,950.113 470.002,908.91 z" id="boundary" inkscape:connector-curvature="0" />
	<path style="fill:none;stroke:red;stroke-width:1px;stroke-linecap:butt;stroke-linejoin:miter;stroke-opacity:1" d="M 470.002,908.91 472.669,872.387 z" id="boundary" inkscape:connector-curvature="0" />
	<path style="fill:none;stroke:red;stroke-width:1px;stroke-linecap:butt;stroke-linejoin:miter;stroke-opacity:1" d="M 472.669,872.387 464.511,852.422 z" id="boundary" inkscape:connector-curvature="0" />
	<path style="fill:none;stroke:red;stroke-width:1px;stroke-linecap:butt;stroke-linejoin:miter;stroke-opacity:1" d="M 464.511,852.422 438.355,844.345 z" id="boundary" inkscape:connector-curvature="0" />
	<path style="fill:none;stroke:red;stroke-width:1px;stroke-linecap:butt;stroke-linejoin:miter;stroke-opacity:1" d="M 438.355,844.345 424.621,830.542 z" id="boundary" inkscape:connector-curvature="0" />
	<path style="fill:none;stroke:red;stroke-width:1px;stroke-linecap:butt;stroke-linejoin:miter;stroke-opacity:1" d="M 424.621,830.542 380.379,817.71 z" id="boundary" inkscape:connector-curvature="0" />
	<path style="fill:none;stroke:red;stroke-width:1px;stroke-linecap:butt;stroke-linejoin:miter;stroke-opacity:1" d="M 380.379,817.71 354.815,806.286 z" id="boundary" inkscape:connector-curvature="0" />
	<path style="fill:none;stroke:red;stroke-width:1px;stroke-linecap:butt;stroke-linejoin:miter;stroke-opacity:1" d="M 354.815,806.286 309.264,789.51 z" id="boundary" inkscape:connector-curvature="0" />
	<path style="fill:none;stroke:red;stroke-width:1px;stroke-linecap:butt;stroke-linejoin:miter;stroke-opacity:1" d="M 309.264,789.51 349.994,754.674 z" id="boundary" inkscape:connector-curvature="0" />
	<path style="fill:none;stroke:red;stroke-width:1px;stroke-linecap:butt;stroke-linejoin:miter;stroke-opacity:1" d="M 349.994,754.674 366.398,724.642 z" id="boundary" inkscape:connector-curvature="0" />
	<path style="fill:none;stroke:red;stroke-width:1px;stroke-linecap:butt;stroke-linejoin:miter;stroke-opacity:1" d="M 366.398,724.642 369.153,700.253 z" id="boundary" inkscape:connector-curvature="0" />
	<path style="fill:none;stroke:red;stroke-width:1px;stroke-linecap:butt;stroke-linejoin:miter;stroke-opacity:1" d="M 416.228,399.529 414.685,424.564 z" id="boundary" inkscape:connector-curvature="0" />
	<path style="fill:none;stroke:red;stroke-width:1px;stroke-linecap:butt;stroke-linejoin:miter;stroke-opacity:1" d="M 414.685,424.564 416.014,451.113 z" id="boundary" inkscape:connector-curvature="0" />
	<path style="fill:none;stroke:red;stroke-width:1px;stroke-linecap:butt;stroke-linejoin:miter;stroke-opacity:1" d="M 416.014,451.113 417.046,467.098 z" id="boundary" inkscape:connector-curvature="0" />
	<path style="fill:none;stroke:red;stroke-width:1px;stroke-linecap:butt;stroke-linejoin:miter;stroke-opacity:1" d="M 417.046,467.098 411.559,489.157 z" id="boundary" inkscape:connector-curvature="0" />
	<path style="fill:none;stroke:red;stroke-width:1px;stroke-linecap:butt;stroke-linejoin:miter;stroke-opacity:1" d="M 411.559,489.157 403.089,513.638 z" id="boundary" inkscape:connector-curvature="0" />
	<path style="fill:none;stroke:red;stroke-width:1px;stroke-linecap:butt;stroke-linejoin:miter;stroke-opacity:1" d="M 403.089,513.638 403.601,549.804 z" id="boundary" inkscape:connector-curvature="0" />
	<path style="fill:none;stroke:red;stroke-width:1px;stroke-linecap:butt;stroke-linejoin:miter;stroke-opacity:1" d="M 403.601,549.804 392.714,580.225 z" id="boundary" inkscape:connector-curvature="0" />
	<path style="fill:none;stroke:red;stroke-width:1px;stroke-linecap:butt;stroke-linejoin:miter;stroke-opacity:1" d="M 392.714,580.225 377.97,610.237 z" id="boundary" inkscape:connector-curvature="0" />
	<path style="fill:none;stroke:red;stroke-width:1px;stroke-linecap:butt;stroke-linejoin:miter;stroke-opacity:1" d="M 377.97,610.237 388.909,621.838 z" id="boundary" inkscape:connector-curvature="0" />
	<path style="fill:none;stroke:red;stroke-width:1px;stroke-linecap:butt;stroke-linejoin:miter;stroke-opacity:1" d="M 388.909,621.838 382.29,660.356 z" id="boundary" inkscape:connector-curvature="0" />
	<path style="fill:none;stroke:red;stroke-width:1px;stroke-linecap:butt;stroke-linejoin:miter;stroke-opacity:1" d="M 382.29,660.356 384.233,669.896 z" id="boundary" inkscape:connector-curvature="0" />
	<path style="fill:none;stroke:red;stroke-width:1px;stroke-linecap:butt;stroke-linejoin:miter;stroke-opacity:1" d="M 384.233,669.896 369.153,700.253 z" id="boundary" inkscape:connector-curvature="0" />
	<circle cx="81.6455" cy="321.861" r="4" fill="#0" id="circle0"/>
	<circle cx="85.1286" cy="286.158" r="4" fill="#0" id="circle1"/>
	<circle cx="82.3409" cy="272.248" r="4" fill="#0" id="circle2"/>
	<circle cx="97.0865" cy="228.444" r="4" fill="#0" id="circle3"/>
	<circle cx="96.0873" cy="206.15" r="4" fill="#0" id="circle4"/>
	<circle cx="91.7582" cy="175.342" r="4" fill="#0" id="circle5"/>
	<circle cx="96.4454" cy="150.906" r="4" fill="#0" id="circle6"/>
	<circle cx="94.9311" cy="117.475" r="4" fill="#0" id="circle7"/>
	<circle cx="117.508" cy="106.073" r="4" fill="#0" id="circle8"/>
	<circle cx="148.429" cy="101.73" r="4" fill="#0" id="circle9"/>
	<circle cx="171.352" cy="109.626" r="4" fill="#0" id="circle10"/>
	<circle cx="166.484" cy="79.4955" r="4" fill="#0" id="circle11"/>
	<circle cx="154.837" cy="68.0347" r="4" fill="#0" id="circle12"/>
	<circle cx="162.156" cy="49.6744" r="4" fill="#0" id="circle13"/>
	<circle cx="163.513" cy="31.5856" r="4" fill="#0" id="circle14"/>
	<circle cx="196.5" cy="11.3888" r="4" fill="#0" id="circle15"/>
	<circle cx="216.788" cy="18.6761" r="4" fill="#0" id="circle16"/>
	<circle cx="236.454" cy="15.9711" r="4" fill="#0" id="circle17"/>
	<circle cx="266.516" cy="4" r="4" fill="#0" id="circle18"/>
	<circle cx="293.325" cy="15.1031" r="4" fill="#0" id="circle19"/>
	<circle cx="312.941" cy="26.3573" r="4" fill="#0" id="circle20"/>
	<circle cx="331.4" cy="43.9254" r="4" fill="#0" id="circle21"/>
	<circle cx="333.935" cy="80.3114" r="4" fill="#0" id="circle22"/>
	<circle cx="315.828" cy="83.74" r="4" fill="#0" id="circle23"/>
	<circle cx="318.361" cy="98.7959" r="4" fill="#0" id="circle24"/>
	<circle cx="299.487" cy="135.477" r="4" fill="#0" id="circle25"/>
	<circle cx="293.255" cy="149.901" r="4" fill="#0" id="circle26"/>
	<circle cx="273.628" cy="181.414" r="4" fill="#0" id="circle27"/>
	<circle cx="289.297" cy="208.749" r="4" fill="#0" id="circle28"/>
	<circle cx="280.762" cy="225.775" r="4" fill="#0" id="circle29"/>
	<circle cx="290.011" cy="235.28" r="4" fill="#0" id="circle30"/>
	<circle cx="282.348" cy="262.569" r="4" fill="#0" id="circle31"/>
	<circle cx="305.111" cy="291.767" r="4" fill="#0" id="circle32"/>
	<circle cx="320.717" cy="298.211" r="4" fill="#0" id="circle33"/>
	<circle cx="340.19" cy="306.953" r="4" fill="#0" id="circle34"/>
	<circle cx="362.224" cy="322.826" r="4" fill="#0" id="circle35"/>
	<circle cx="384.468" cy="310.205" r="4" fill="#0" id="circle36"/>
	<circle cx="398.468" cy="321.514" r="4" fill="#0" id="circle37"/>
	<circle cx="421.469" cy="343.581" r="4" fill="#0" id="circle38"/>
	<circle cx="413.755" cy="374.369" r="4" fill="#0" id="circle39"/>
	<circle cx="75.9687" cy="353.752" r="4" fill="#0" id="circle40"/>
	<circle cx="81.3416" cy="362.962" r="4" fill="#0" id="circle41"/>
	<circle cx="70.6585" cy="399.579" r="4" fill="#0" id="circle42"/>
	<circle cx="81.4303" cy="407.574" r="4" fill="#0" id="circle43"/>
	<circle cx="78.7978" cy="434.505" r="4" fill="#0" id="circle44"/>
	<circle cx="65.6535" cy="456.836" r="4" fill="#0" id="circle45"/>
	<circle cx="72.1413" cy="475.676" r="4" fill="#0" id="circle46"/>
	<circle cx="79.1084" cy="496.708" r="4" fill="#0" id="circle47"/>
	<circle cx="80.0002" cy="523.772" r="4" fill="#0" id="circle48"/>
	<circle cx="76.0477" cy="541.891" r="4" fill="#0" id="circle49"/>
	<circle cx="82.6675" cy="581.659" r="4" fill="#0" id="circle50"/>
	<circle cx="65.7883" cy="849.255" r="4" fill="#0" id="circle51"/>
	<circle cx="107.889" cy="641.319" r="4" fill="#0" id="circle52"/>
	<circle cx="90.4535" cy="626.363" r="4" fill="#0" id="circle53"/>
	<circle cx="86.4293" cy="607.185" r="4" fill="#0" id="circle54"/>
	<circle cx="105.269" cy="682.942" r="4" fill="#0" id="circle55"/>
	<circle cx="121.6" cy="711.647" r="4" fill="#0" id="circle56"/>
	<circle cx="140.698" cy="728.52" r="4" fill="#0" id="circle57"/>
	<circle cx="148.413" cy="747.927" r="4" fill="#0" id="circle58"/>
	<circle cx="172.517" cy="757.499" r="4" fill="#0" id="circle59"/>
	<circle cx="194.164" cy="787.901" r="4" fill="#0" id="circle60"/>
	<circle cx="201.37" cy="792.103" r="4" fill="#0" id="circle61"/>
	<circle cx="175.045" cy="801.789" r="4" fill="#0" id="circle62"/>
	<circle cx="152.372" cy="822.733" r="4" fill="#0" id="circle63"/>
	<circle cx="132.995" cy="832.029" r="4" fill="#0" id="circle64"/>
	<circle cx="124.915" cy="846.212" r="4" fill="#0" id="circle65"/>
	<circle cx="96.1709" cy="850.438" r="4" fill="#0" id="circle66"/>
	<circle cx="62.8856" cy="866.802" r="4" fill="#0" id="circle67"/>
	<circle cx="43.2638" cy="876.697" r="4" fill="#0" id="circle68"/>
	<circle cx="19.978" cy="893.46" r="4" fill="#0" id="circle69"/>
	<circle cx="8.45015" cy="911.464" r="4" fill="#0" id="circle70"/>
	<circle cx="8.92726" cy="949.943" r="4" fill="#0" id="circle71"/>
	<circle cx="4" cy="978.496" r="4" fill="#0" id="circle72"/>
	<circle cx="10.7255" cy="974.549" r="4" fill="#0" id="circle73"/>
	<circle cx="38.4815" cy="969.458" r="4" fill="#0" id="circle74"/>
	<circle cx="65.7931" cy="973.961" r="4" fill="#0" id="circle75"/>
	<circle cx="102.329" cy="985.267" r="4" fill="#0" id="circle76"/>
	<circle cx="117.768" cy="986.496" r="4" fill="#0" id="circle77"/>
	<circle cx="154.474" cy="983.754" r="4" fill="#0" id="circle78"/>
	<circle cx="168.434" cy="970.416" r="4" fill="#0" id="circle79"/>
	<circle cx="190.701" cy="969.561" r="4" fill="#0" id="circle80"/>
	<circle cx="224.458" cy="982.525" r="4" fill="#0" id="circle81"/>
	<circle cx="226.349" cy="981.516" r="4" fill="#0" id="circle82"/>
	<circle cx="255.676" cy="987.716" r="4" fill="#0" id="circle83"/>
	<circle cx="282.52" cy="996" r="4" fill="#0" id="circle84"/>
	<circle cx="309.975" cy="988.869" r="4" fill="#0" id="circle85"/>
	<circle cx="353.46" cy="968.174" r="4" fill="#0" id="circle86"/>
	<circle cx="367.609" cy="988.771" r="4" fill="#0" id="circle87"/>
	<circle cx="403.891" cy="986.433" r="4" fill="#0" id="circle88"/>
	<circle cx="419.057" cy="974.906" r="4" fill="#0" id="circle89"/>
	<circle cx="464.745" cy="980.701" r="4" fill="#0" id="circle90"/>
	<circle cx="475.682" cy="976.132" r="4" fill="#0" id="circle91"/>
	<circle cx="466.606" cy="950.113" r="4" fill="#0" id="circle92"/>
	<circle cx="470.002" cy="908.91" r="4" fill="#0" id="circle93"/>
	<circle cx="472.669" cy="872.387" r="4" fill="#0" id="circle94"/>
	<circle cx="464.511" cy="852.422" r="4" fill="#0" id="circle95"/>
	<circle cx="438.355" cy="844.345" r="4" fill="#0" id="circle96"/>
	<circle cx="424.621" cy="830.542" r="4" fill="#0" id="circle97"/>
	<circle cx="380.379" cy="817.71" r="4" fill="#0" id="circle98"/>
	<circle cx="354.815" cy="806.286" r="4" fill="#0" id="circle99"/>
	<circle cx="332.309" cy="799.2" r="4" fill="#0" id="circle100"/>
	<circle cx="309.264" cy="789.51" r="4" fill="#0" id="circle101"/>
	<circle cx="316.637" cy="775.361" r="4" fill="#0" id="circle102"/>
	<circle cx="349.994" cy="754.674" r="4" fill="#0" id="circle103"/>
	<circle cx="347.74" cy="753.044" r="4" fill="#0" id="circle104"/>
	<circle cx="366.398" cy="724.642" r="4" fill="#0" id="circle105"/>
	<circle cx="416.228" cy="399.529" r="4" fill="#0" id="circle106"/>
	<circle cx="414.685" cy="424.564" r="4" fill="#0" id="circle107"/>
	<circle cx="416.014" cy="451.113" r="4" fill="#0" id="circle108"/>
	<circle cx="417.046" cy="467.098" r="4" fill="#0" id="circle109"/>
	<circle cx="411.559" cy="489.157" r="4" fill="#0" id="circle110"/>
	<circle cx="403.089" cy="513.638" r="4" fill="#0" id="circle111"/>
	<circle cx="403.601" cy="549.804" r="4" fill="#0" id="circle112"/>
	<circle cx="129.166" cy="186.523" r="4" fill="#0" id="circle113"/>
	<circle cx="392.714" cy="580.225" r="4" fill="#0" id="circle114"/>
	<circle cx="377.97" cy="610.237" r="4" fill="#0" id="circle115"/>
	<circle cx="388.909" cy="621.838" r="4" fill="#0" id="circle116"/>
	<circle cx="382.29" cy="660.356" r="4" fill="#0" id="circle117"/>
	<circle cx="384.233" cy="669.896" r="4" fill="#0" id="circle118"/>
	<circle cx="369.153" cy="700.253" r="4" fill="#0" id="circle119"/>
	<circle cx="143.586" cy="160.546" r="4" fill="#0" id="circle120"/>
	<circle cx="170.234" cy="166.651" r="4" fill="#0" id="circle121"/>
	<circle cx="171.978" cy="193.999" r="4" fill="#0" id="circle122"/>
	<circle cx="176.181" cy="219.522" r="4" fill="#0" id="circle123"/>
	<circle cx="185.178" cy="225.52" r="4" fill="#0" id="circle124"/>
	<circle cx="179.541" cy="249.236" r="4" fill="#0" id="circle125"/>
	<circle cx="193.361" cy="288.244" r="4" fill="#0" id="circle126"/>
	<circle cx="178.702" cy="296.607" r="4" fill="#0" id="circle127"/>
	<circle cx="153.613" cy="312.067" r="4" fill="#0" id="circle128"/>
	<circle cx="126.462" cy="319.293" r="4" fill="#0" id="circle129"/>
	<circle cx="120.303" cy="198.823" r="4" fill="#0" id="circle130"/>
	<circle cx="121.621" cy="235.035" r="4" fill="#0" id="circle131"/>
	<circle cx="126.483" cy="267.899" r="4" fill="#0" id="circle132"/>
	<circle cx="134.625" cy="275.465" r="4" fill="#0" id="circle133"/>
	</g>
</svg>