<?xml version="1.0" encoding="UTF-8" standalone="no"?>
<!-- Created with CurveBenchmark -->
<svg
	xmlns:dc="http://purl.org/dc/elements/1.1/"
	xmlns:cc="http://creativecommons.org/ns#"
	xmlns:rdf="http://www.w3.org/1999/02/22-rdf-syntax-ns#"
	xmlns:svg="http://www.w3.org/2000/svg"
	xmlns="http://www.w3.org/2000/svg"
	xmlns:sodipodi="http://sodipodi.sourceforge.net/DTD/sodipodi-0.dtd"
	xmlns:inkscape="http://www.inkscape.org/namespaces/inkscape"
	width="1000"
	height="1000"
	id="svg2"
	version="1.1"
	sodipodi:docname="noisy-0.01/fitconnect-mc4.txt">
<defs
	id="defs4" />
<metadata
	id="metadata7">
	<rdf:RDF>
		<cc:Work
			rdf:about="">
			<dc:format>image/svg+xml</dc:format>
			<dc:type
				rdf:resource="http://purl.org/dc/dcmitype/StillImage" />
			<dc:title></dc:title>
		</cc:Work>
	</rdf:RDF>
</metadata>
<g
	inkscape:label="Layer 1"
	inkscape:groupmode="layer"
	id="layer1">
	<path style="fill:none;stroke:red;stroke-width:1px;stroke-linecap:butt;stroke-linejoin:miter;stroke-opacity:1" d="M 4,719.419 9.39175,729.707 z" id="boundary" inkscape:connector-curvature="0" />
	<path style="fill:none;stroke:red;stroke-width:1px;stroke-linecap:butt;stroke-linejoin:miter;stroke-opacity:1" d="M 4,719.419 7.02609,703.017 z" id="boundary" inkscape:connector-curvature="0" />
	<path style="fill:none;stroke:red;stroke-width:1px;stroke-linecap:butt;stroke-linejoin:miter;stroke-opacity:1" d="M 9.39175,729.707 32.4427,752.158 z" id="boundary" inkscape:connector-curvature="0" />
	<path style="fill:none;stroke:red;stroke-width:1px;stroke-linecap:butt;stroke-linejoin:miter;stroke-opacity:1" d="M 7.02609,703.017 29.9222,673.778 z" id="boundary" inkscape:connector-curvature="0" />
	<path style="fill:none;stroke:red;stroke-width:1px;stroke-linecap:butt;stroke-linejoin:miter;stroke-opacity:1" d="M 29.9222,673.778 36.9746,663.294 z" id="boundary" inkscape:connector-curvature="0" />
	<path style="fill:none;stroke:red;stroke-width:1px;stroke-linecap:butt;stroke-linejoin:miter;stroke-opacity:1" d="M 32.4427,752.158 42.9669,764.131 z" id="boundary" inkscape:connector-curvature="0" />
	<path style="fill:none;stroke:red;stroke-width:1px;stroke-linecap:butt;stroke-linejoin:miter;stroke-opacity:1" d="M 36.9746,663.294 45.9628,647.113 z" id="boundary" inkscape:connector-curvature="0" />
	<path style="fill:none;stroke:red;stroke-width:1px;stroke-linecap:butt;stroke-linejoin:miter;stroke-opacity:1" d="M 42.9669,764.131 64.7725,777.45 z" id="boundary" inkscape:connector-curvature="0" />
	<path style="fill:none;stroke:red;stroke-width:1px;stroke-linecap:butt;stroke-linejoin:miter;stroke-opacity:1" d="M 32.7445,250.072 62.5719,245.914 z" id="boundary" inkscape:connector-curvature="0" />
	<path style="fill:none;stroke:red;stroke-width:1px;stroke-linecap:butt;stroke-linejoin:miter;stroke-opacity:1" d="M 32.7445,250.072 63.3466,303.212 z" id="boundary" inkscape:connector-curvature="0" />
	<path style="fill:none;stroke:red;stroke-width:1px;stroke-linecap:butt;stroke-linejoin:miter;stroke-opacity:1" d="M 45.9628,647.113 50.5795,646.867 z" id="boundary" inkscape:connector-curvature="0" />
	<path style="fill:none;stroke:red;stroke-width:1px;stroke-linecap:butt;stroke-linejoin:miter;stroke-opacity:1" d="M 62.5719,245.914 69.3665,235.117 z" id="boundary" inkscape:connector-curvature="0" />
	<path style="fill:none;stroke:red;stroke-width:1px;stroke-linecap:butt;stroke-linejoin:miter;stroke-opacity:1" d="M 69.3665,235.117 69.5118,214.075 z" id="boundary" inkscape:connector-curvature="0" />
	<path style="fill:none;stroke:red;stroke-width:1px;stroke-linecap:butt;stroke-linejoin:miter;stroke-opacity:1" d="M 50.5795,646.867 83.2953,620.008 z" id="boundary" inkscape:connector-curvature="0" />
	<path style="fill:none;stroke:red;stroke-width:1px;stroke-linecap:butt;stroke-linejoin:miter;stroke-opacity:1" d="M 63.3466,303.212 88.2192,329.759 z" id="boundary" inkscape:connector-curvature="0" />
	<path style="fill:none;stroke:red;stroke-width:1px;stroke-linecap:butt;stroke-linejoin:miter;stroke-opacity:1" d="M 64.7725,777.45 81.1874,764.744 z" id="boundary" inkscape:connector-curvature="0" />
	<path style="fill:none;stroke:red;stroke-width:1px;stroke-linecap:butt;stroke-linejoin:miter;stroke-opacity:1" d="M 69.5118,214.075 92.976,214.383 z" id="boundary" inkscape:connector-curvature="0" />
	<path style="fill:none;stroke:red;stroke-width:1px;stroke-linecap:butt;stroke-linejoin:miter;stroke-opacity:1" d="M 83.2953,620.008 83.9192,604.138 z" id="boundary" inkscape:connector-curvature="0" />
	<path style="fill:none;stroke:red;stroke-width:1px;stroke-linecap:butt;stroke-linejoin:miter;stroke-opacity:1" d="M 81.1874,764.744 107.351,758.153 z" id="boundary" inkscape:connector-curvature="0" />
	<path style="fill:none;stroke:red;stroke-width:1px;stroke-linecap:butt;stroke-linejoin:miter;stroke-opacity:1" d="M 88.2192,329.759 97.3881,364.985 z" id="boundary" inkscape:connector-curvature="0" />
	<path style="fill:none;stroke:red;stroke-width:1px;stroke-linecap:butt;stroke-linejoin:miter;stroke-opacity:1" d="M 92.976,214.383 109.528,205.802 z" id="boundary" inkscape:connector-curvature="0" />
	<path style="fill:none;stroke:red;stroke-width:1px;stroke-linecap:butt;stroke-linejoin:miter;stroke-opacity:1" d="M 83.9192,604.138 95.9101,607.108 z" id="boundary" inkscape:connector-curvature="0" />
	<path style="fill:none;stroke:red;stroke-width:1px;stroke-linecap:butt;stroke-linejoin:miter;stroke-opacity:1" d="M 107.351,758.153 127.644,756.442 z" id="boundary" inkscape:connector-curvature="0" />
	<path style="fill:none;stroke:red;stroke-width:1px;stroke-linecap:butt;stroke-linejoin:miter;stroke-opacity:1" d="M 97.3881,364.985 129.821,381.241 z" id="boundary" inkscape:connector-curvature="0" />
	<path style="fill:none;stroke:red;stroke-width:1px;stroke-linecap:butt;stroke-linejoin:miter;stroke-opacity:1" d="M 109.528,205.802 129.43,211.302 z" id="boundary" inkscape:connector-curvature="0" />
	<path style="fill:none;stroke:red;stroke-width:1px;stroke-linecap:butt;stroke-linejoin:miter;stroke-opacity:1" d="M 95.9101,607.108 109.754,581.591 z" id="boundary" inkscape:connector-curvature="0" />
	<path style="fill:none;stroke:red;stroke-width:1px;stroke-linecap:butt;stroke-linejoin:miter;stroke-opacity:1" d="M 109.754,581.591 133.648,589.702 z" id="boundary" inkscape:connector-curvature="0" />
	<path style="fill:none;stroke:red;stroke-width:1px;stroke-linecap:butt;stroke-linejoin:miter;stroke-opacity:1" d="M 129.821,381.241 153.943,415.246 z" id="boundary" inkscape:connector-curvature="0" />
	<path style="fill:none;stroke:red;stroke-width:1px;stroke-linecap:butt;stroke-linejoin:miter;stroke-opacity:1" d="M 127.644,756.442 144.034,759.148 z" id="boundary" inkscape:connector-curvature="0" />
	<path style="fill:none;stroke:red;stroke-width:1px;stroke-linecap:butt;stroke-linejoin:miter;stroke-opacity:1" d="M 129.43,211.302 149.584,214.146 z" id="boundary" inkscape:connector-curvature="0" />
	<path style="fill:none;stroke:red;stroke-width:1px;stroke-linecap:butt;stroke-linejoin:miter;stroke-opacity:1" d="M 133.648,589.702 144.285,567.66 z" id="boundary" inkscape:connector-curvature="0" />
	<path style="fill:none;stroke:red;stroke-width:1px;stroke-linecap:butt;stroke-linejoin:miter;stroke-opacity:1" d="M 144.285,567.66 161.349,538.614 z" id="boundary" inkscape:connector-curvature="0" />
	<path style="fill:none;stroke:red;stroke-width:1px;stroke-linecap:butt;stroke-linejoin:miter;stroke-opacity:1" d="M 141.318,690.021 158.791,646.982 z" id="boundary" inkscape:connector-curvature="0" />
	<path style="fill:none;stroke:red;stroke-width:1px;stroke-linecap:butt;stroke-linejoin:miter;stroke-opacity:1" d="M 141.318,690.021 146.758,692.63 z" id="boundary" inkscape:connector-curvature="0" />
	<path style="fill:none;stroke:red;stroke-width:1px;stroke-linecap:butt;stroke-linejoin:miter;stroke-opacity:1" d="M 144.034,759.148 162.001,739.303 z" id="boundary" inkscape:connector-curvature="0" />
	<path style="fill:none;stroke:red;stroke-width:1px;stroke-linecap:butt;stroke-linejoin:miter;stroke-opacity:1" d="M 158.791,646.982 164.115,634.558 z" id="boundary" inkscape:connector-curvature="0" />
	<path style="fill:none;stroke:red;stroke-width:1px;stroke-linecap:butt;stroke-linejoin:miter;stroke-opacity:1" d="M 146.758,692.63 169.202,697.517 z" id="boundary" inkscape:connector-curvature="0" />
	<path style="fill:none;stroke:red;stroke-width:1px;stroke-linecap:butt;stroke-linejoin:miter;stroke-opacity:1" d="M 153.943,415.246 167.637,446.506 z" id="boundary" inkscape:connector-curvature="0" />
	<path style="fill:none;stroke:red;stroke-width:1px;stroke-linecap:butt;stroke-linejoin:miter;stroke-opacity:1" d="M 161.349,538.614 178.456,525.947 z" id="boundary" inkscape:connector-curvature="0" />
	<path style="fill:none;stroke:red;stroke-width:1px;stroke-linecap:butt;stroke-linejoin:miter;stroke-opacity:1" d="M 164.115,634.558 171.115,634.333 z" id="boundary" inkscape:connector-curvature="0" />
	<path style="fill:none;stroke:red;stroke-width:1px;stroke-linecap:butt;stroke-linejoin:miter;stroke-opacity:1" d="M 162.001,739.303 189.207,751.451 z" id="boundary" inkscape:connector-curvature="0" />
	<path style="fill:none;stroke:red;stroke-width:1px;stroke-linecap:butt;stroke-linejoin:miter;stroke-opacity:1" d="M 167.637,446.506 176.075,488.249 z" id="boundary" inkscape:connector-curvature="0" />
	<path style="fill:none;stroke:red;stroke-width:1px;stroke-linecap:butt;stroke-linejoin:miter;stroke-opacity:1" d="M 178.456,525.947 181.476,503.456 z" id="boundary" inkscape:connector-curvature="0" />
	<path style="fill:none;stroke:red;stroke-width:1px;stroke-linecap:butt;stroke-linejoin:miter;stroke-opacity:1" d="M 169.202,697.517 182.221,696.278 z" id="boundary" inkscape:connector-curvature="0" />
	<path style="fill:none;stroke:red;stroke-width:1px;stroke-linecap:butt;stroke-linejoin:miter;stroke-opacity:1" d="M 171.115,634.333 193.823,622.532 z" id="boundary" inkscape:connector-curvature="0" />
	<path style="fill:none;stroke:red;stroke-width:1px;stroke-linecap:butt;stroke-linejoin:miter;stroke-opacity:1" d="M 189.207,751.451 205.652,730.402 z" id="boundary" inkscape:connector-curvature="0" />
	<path style="fill:none;stroke:red;stroke-width:1px;stroke-linecap:butt;stroke-linejoin:miter;stroke-opacity:1" d="M 168.601,496.649 176.075,488.249 z" id="boundary" inkscape:connector-curvature="0" />
	<path style="fill:none;stroke:red;stroke-width:1px;stroke-linecap:butt;stroke-linejoin:miter;stroke-opacity:1" d="M 168.601,496.649 181.476,503.456 z" id="boundary" inkscape:connector-curvature="0" />
	<path style="fill:none;stroke:red;stroke-width:1px;stroke-linecap:butt;stroke-linejoin:miter;stroke-opacity:1" d="M 182.221,696.278 214.853,693.678 z" id="boundary" inkscape:connector-curvature="0" />
	<path style="fill:none;stroke:red;stroke-width:1px;stroke-linecap:butt;stroke-linejoin:miter;stroke-opacity:1" d="M 193.823,622.532 211.079,611.235 z" id="boundary" inkscape:connector-curvature="0" />
	<path style="fill:none;stroke:red;stroke-width:1px;stroke-linecap:butt;stroke-linejoin:miter;stroke-opacity:1" d="M 211.079,611.235 217.813,598.174 z" id="boundary" inkscape:connector-curvature="0" />
	<path style="fill:none;stroke:red;stroke-width:1px;stroke-linecap:butt;stroke-linejoin:miter;stroke-opacity:1" d="M 205.652,730.402 235.245,742.667 z" id="boundary" inkscape:connector-curvature="0" />
	<path style="fill:none;stroke:red;stroke-width:1px;stroke-linecap:butt;stroke-linejoin:miter;stroke-opacity:1" d="M 214.853,693.678 219.298,685.118 z" id="boundary" inkscape:connector-curvature="0" />
	<path style="fill:none;stroke:red;stroke-width:1px;stroke-linecap:butt;stroke-linejoin:miter;stroke-opacity:1" d="M 228.03,602.55 217.813,598.174 z" id="boundary" inkscape:connector-curvature="0" />
	<path style="fill:none;stroke:red;stroke-width:1px;stroke-linecap:butt;stroke-linejoin:miter;stroke-opacity:1" d="M 228.03,602.55 248.75,578.034 z" id="boundary" inkscape:connector-curvature="0" />
	<path style="fill:none;stroke:red;stroke-width:1px;stroke-linecap:butt;stroke-linejoin:miter;stroke-opacity:1" d="M 235.245,742.667 235.166,739.201 z" id="boundary" inkscape:connector-curvature="0" />
	<path style="fill:none;stroke:red;stroke-width:1px;stroke-linecap:butt;stroke-linejoin:miter;stroke-opacity:1" d="M 219.298,685.118 232.85,658.26 z" id="boundary" inkscape:connector-curvature="0" />
	<path style="fill:none;stroke:red;stroke-width:1px;stroke-linecap:butt;stroke-linejoin:miter;stroke-opacity:1" d="M 235.166,739.201 250.981,722.103 z" id="boundary" inkscape:connector-curvature="0" />
	<path style="fill:none;stroke:red;stroke-width:1px;stroke-linecap:butt;stroke-linejoin:miter;stroke-opacity:1" d="M 232.85,658.26 255.837,646.77 z" id="boundary" inkscape:connector-curvature="0" />
	<path style="fill:none;stroke:red;stroke-width:1px;stroke-linecap:butt;stroke-linejoin:miter;stroke-opacity:1" d="M 248.75,578.034 307.523,581.398 z" id="boundary" inkscape:connector-curvature="0" />
	<path style="fill:none;stroke:red;stroke-width:1px;stroke-linecap:butt;stroke-linejoin:miter;stroke-opacity:1" d="M 250.981,722.103 256.143,719.572 z" id="boundary" inkscape:connector-curvature="0" />
	<path style="fill:none;stroke:red;stroke-width:1px;stroke-linecap:butt;stroke-linejoin:miter;stroke-opacity:1" d="M 255.837,646.77 280.568,636.799 z" id="boundary" inkscape:connector-curvature="0" />
	<path style="fill:none;stroke:red;stroke-width:1px;stroke-linecap:butt;stroke-linejoin:miter;stroke-opacity:1" d="M 256.143,719.572 276.175,735.497 z" id="boundary" inkscape:connector-curvature="0" />
	<path style="fill:none;stroke:red;stroke-width:1px;stroke-linecap:butt;stroke-linejoin:miter;stroke-opacity:1" d="M 276.175,735.497 293.985,719.35 z" id="boundary" inkscape:connector-curvature="0" />
	<path style="fill:none;stroke:red;stroke-width:1px;stroke-linecap:butt;stroke-linejoin:miter;stroke-opacity:1" d="M 282.1,271.865 305.438,261.355 z" id="boundary" inkscape:connector-curvature="0" />
	<path style="fill:none;stroke:red;stroke-width:1px;stroke-linecap:butt;stroke-linejoin:miter;stroke-opacity:1" d="M 280.568,636.799 291.877,628.236 z" id="boundary" inkscape:connector-curvature="0" />
	<path style="fill:none;stroke:red;stroke-width:1px;stroke-linecap:butt;stroke-linejoin:miter;stroke-opacity:1" d="M 293.985,719.35 310.145,750.484 z" id="boundary" inkscape:connector-curvature="0" />
	<path style="fill:none;stroke:red;stroke-width:1px;stroke-linecap:butt;stroke-linejoin:miter;stroke-opacity:1" d="M 305.438,261.355 323.407,243.54 z" id="boundary" inkscape:connector-curvature="0" />
	<path style="fill:none;stroke:red;stroke-width:1px;stroke-linecap:butt;stroke-linejoin:miter;stroke-opacity:1" d="M 291.877,628.236 311.246,602.076 z" id="boundary" inkscape:connector-curvature="0" />
	<path style="fill:none;stroke:red;stroke-width:1px;stroke-linecap:butt;stroke-linejoin:miter;stroke-opacity:1" d="M 310.145,750.484 328.402,768.967 z" id="boundary" inkscape:connector-curvature="0" />
	<path style="fill:none;stroke:red;stroke-width:1px;stroke-linecap:butt;stroke-linejoin:miter;stroke-opacity:1" d="M 311.246,602.076 307.523,581.398 z" id="boundary" inkscape:connector-curvature="0" />
	<path style="fill:none;stroke:red;stroke-width:1px;stroke-linecap:butt;stroke-linejoin:miter;stroke-opacity:1" d="M 323.407,243.54 336.089,239.817 z" id="boundary" inkscape:connector-curvature="0" />
	<path style="fill:none;stroke:red;stroke-width:1px;stroke-linecap:butt;stroke-linejoin:miter;stroke-opacity:1" d="M 328.402,768.967 349.775,765.889 z" id="boundary" inkscape:connector-curvature="0" />
	<path style="fill:none;stroke:red;stroke-width:1px;stroke-linecap:butt;stroke-linejoin:miter;stroke-opacity:1" d="M 336.089,239.817 343.987,229.395 z" id="boundary" inkscape:connector-curvature="0" />
	<path style="fill:none;stroke:red;stroke-width:1px;stroke-linecap:butt;stroke-linejoin:miter;stroke-opacity:1" d="M 349.775,765.889 360.1,793.827 z" id="boundary" inkscape:connector-curvature="0" />
	<path style="fill:none;stroke:red;stroke-width:1px;stroke-linecap:butt;stroke-linejoin:miter;stroke-opacity:1" d="M 343.987,229.395 353.267,202.149 z" id="boundary" inkscape:connector-curvature="0" />
	<path style="fill:none;stroke:red;stroke-width:1px;stroke-linecap:butt;stroke-linejoin:miter;stroke-opacity:1" d="M 360.1,793.827 350.569,810.26 z" id="boundary" inkscape:connector-curvature="0" />
	<path style="fill:none;stroke:red;stroke-width:1px;stroke-linecap:butt;stroke-linejoin:miter;stroke-opacity:1" d="M 353.267,202.149 364.814,198.271 z" id="boundary" inkscape:connector-curvature="0" />
	<path style="fill:none;stroke:red;stroke-width:1px;stroke-linecap:butt;stroke-linejoin:miter;stroke-opacity:1" d="M 350.569,810.26 352.083,825.809 z" id="boundary" inkscape:connector-curvature="0" />
	<path style="fill:none;stroke:red;stroke-width:1px;stroke-linecap:butt;stroke-linejoin:miter;stroke-opacity:1" d="M 352.083,825.809 350.423,851.719 z" id="boundary" inkscape:connector-curvature="0" />
	<path style="fill:none;stroke:red;stroke-width:1px;stroke-linecap:butt;stroke-linejoin:miter;stroke-opacity:1" d="M 364.814,198.271 356.907,178.484 z" id="boundary" inkscape:connector-curvature="0" />
	<path style="fill:none;stroke:red;stroke-width:1px;stroke-linecap:butt;stroke-linejoin:miter;stroke-opacity:1" d="M 350.423,851.719 362.819,865.698 z" id="boundary" inkscape:connector-curvature="0" />
	<path style="fill:none;stroke:red;stroke-width:1px;stroke-linecap:butt;stroke-linejoin:miter;stroke-opacity:1" d="M 356.907,178.484 357.055,148.867 z" id="boundary" inkscape:connector-curvature="0" />
	<path style="fill:none;stroke:red;stroke-width:1px;stroke-linecap:butt;stroke-linejoin:miter;stroke-opacity:1" d="M 374.672,856.715 362.819,865.698 z" id="boundary" inkscape:connector-curvature="0" />
	<path style="fill:none;stroke:red;stroke-width:1px;stroke-linecap:butt;stroke-linejoin:miter;stroke-opacity:1" d="M 374.672,856.715 376.2,880.51 z" id="boundary" inkscape:connector-curvature="0" />
	<path style="fill:none;stroke:red;stroke-width:1px;stroke-linecap:butt;stroke-linejoin:miter;stroke-opacity:1" d="M 357.055,148.867 382.427,138.845 z" id="boundary" inkscape:connector-curvature="0" />
	<path style="fill:none;stroke:red;stroke-width:1px;stroke-linecap:butt;stroke-linejoin:miter;stroke-opacity:1" d="M 382.427,138.845 364.206,115.732 z" id="boundary" inkscape:connector-curvature="0" />
	<path style="fill:none;stroke:red;stroke-width:1px;stroke-linecap:butt;stroke-linejoin:miter;stroke-opacity:1" d="M 376.2,880.51 386.901,909.901 z" id="boundary" inkscape:connector-curvature="0" />
	<path style="fill:none;stroke:red;stroke-width:1px;stroke-linecap:butt;stroke-linejoin:miter;stroke-opacity:1" d="M 364.206,115.732 371.502,108.652 z" id="boundary" inkscape:connector-curvature="0" />
	<path style="fill:none;stroke:red;stroke-width:1px;stroke-linecap:butt;stroke-linejoin:miter;stroke-opacity:1" d="M 371.502,108.652 371.826,84.5152 z" id="boundary" inkscape:connector-curvature="0" />
	<path style="fill:none;stroke:red;stroke-width:1px;stroke-linecap:butt;stroke-linejoin:miter;stroke-opacity:1" d="M 386.901,909.901 393.318,940.745 z" id="boundary" inkscape:connector-curvature="0" />
	<path style="fill:none;stroke:red;stroke-width:1px;stroke-linecap:butt;stroke-linejoin:miter;stroke-opacity:1" d="M 371.826,84.5152 385.67,76.5052 z" id="boundary" inkscape:connector-curvature="0" />
	<path style="fill:none;stroke:red;stroke-width:1px;stroke-linecap:butt;stroke-linejoin:miter;stroke-opacity:1" d="M 385.67,76.5052 380.426,62.8948 z" id="boundary" inkscape:connector-curvature="0" />
	<path style="fill:none;stroke:red;stroke-width:1px;stroke-linecap:butt;stroke-linejoin:miter;stroke-opacity:1" d="M 395.155,941.423 393.318,940.745 z" id="boundary" inkscape:connector-curvature="0" />
	<path style="fill:none;stroke:red;stroke-width:1px;stroke-linecap:butt;stroke-linejoin:miter;stroke-opacity:1" d="M 395.155,941.423 403.539,973.044 z" id="boundary" inkscape:connector-curvature="0" />
	<path style="fill:none;stroke:red;stroke-width:1px;stroke-linecap:butt;stroke-linejoin:miter;stroke-opacity:1" d="M 380.426,62.8948 389.42,56.8255 z" id="boundary" inkscape:connector-curvature="0" />
	<path style="fill:none;stroke:red;stroke-width:1px;stroke-linecap:butt;stroke-linejoin:miter;stroke-opacity:1" d="M 389.42,56.8255 391.746,29.4252 z" id="boundary" inkscape:connector-curvature="0" />
	<path style="fill:none;stroke:red;stroke-width:1px;stroke-linecap:butt;stroke-linejoin:miter;stroke-opacity:1" d="M 406.405,234.084 413.136,222.338 z" id="boundary" inkscape:connector-curvature="0" />
	<path style="fill:none;stroke:red;stroke-width:1px;stroke-linecap:butt;stroke-linejoin:miter;stroke-opacity:1" d="M 391.746,29.4252 409.094,11.4962 z" id="boundary" inkscape:connector-curvature="0" />
	<path style="fill:none;stroke:red;stroke-width:1px;stroke-linecap:butt;stroke-linejoin:miter;stroke-opacity:1" d="M 393.468,723.169 403.254,757.243 z" id="boundary" inkscape:connector-curvature="0" />
	<path style="fill:none;stroke:red;stroke-width:1px;stroke-linecap:butt;stroke-linejoin:miter;stroke-opacity:1" d="M 393.468,723.169 406.938,703.211 z" id="boundary" inkscape:connector-curvature="0" />
	<path style="fill:none;stroke:red;stroke-width:1px;stroke-linecap:butt;stroke-linejoin:miter;stroke-opacity:1" d="M 403.254,757.243 413.661,778.632 z" id="boundary" inkscape:connector-curvature="0" />
	<path style="fill:none;stroke:red;stroke-width:1px;stroke-linecap:butt;stroke-linejoin:miter;stroke-opacity:1" d="M 406.938,703.211 409.431,696.712 z" id="boundary" inkscape:connector-curvature="0" />
	<path style="fill:none;stroke:red;stroke-width:1px;stroke-linecap:butt;stroke-linejoin:miter;stroke-opacity:1" d="M 413.661,778.632 411.176,792.588 z" id="boundary" inkscape:connector-curvature="0" />
	<path style="fill:none;stroke:red;stroke-width:1px;stroke-linecap:butt;stroke-linejoin:miter;stroke-opacity:1" d="M 409.431,696.712 407.697,681.713 z" id="boundary" inkscape:connector-curvature="0" />
	<path style="fill:none;stroke:red;stroke-width:1px;stroke-linecap:butt;stroke-linejoin:miter;stroke-opacity:1" d="M 411.176,792.588 410.994,805.816 z" id="boundary" inkscape:connector-curvature="0" />
	<path style="fill:none;stroke:red;stroke-width:1px;stroke-linecap:butt;stroke-linejoin:miter;stroke-opacity:1" d="M 407.697,681.713 412.811,663.693 z" id="boundary" inkscape:connector-curvature="0" />
	<path style="fill:none;stroke:red;stroke-width:1px;stroke-linecap:butt;stroke-linejoin:miter;stroke-opacity:1" d="M 409.094,11.4962 414.348,12.4138 z" id="boundary" inkscape:connector-curvature="0" />
	<path style="fill:none;stroke:red;stroke-width:1px;stroke-linecap:butt;stroke-linejoin:miter;stroke-opacity:1" d="M 410.994,805.816 408.106,814.451 z" id="boundary" inkscape:connector-curvature="0" />
	<path style="fill:none;stroke:red;stroke-width:1px;stroke-linecap:butt;stroke-linejoin:miter;stroke-opacity:1" d="M 403.539,973.044 430.103,996 z" id="boundary" inkscape:connector-curvature="0" />
	<path style="fill:none;stroke:red;stroke-width:1px;stroke-linecap:butt;stroke-linejoin:miter;stroke-opacity:1" d="M 413.136,222.338 419.037,198.389 z" id="boundary" inkscape:connector-curvature="0" />
	<path style="fill:none;stroke:red;stroke-width:1px;stroke-linecap:butt;stroke-linejoin:miter;stroke-opacity:1" d="M 412.811,663.693 428.745,650.048 z" id="boundary" inkscape:connector-curvature="0" />
	<path style="fill:none;stroke:red;stroke-width:1px;stroke-linecap:butt;stroke-linejoin:miter;stroke-opacity:1" d="M 408.106,814.451 421.666,818.339 z" id="boundary" inkscape:connector-curvature="0" />
	<path style="fill:none;stroke:red;stroke-width:1px;stroke-linecap:butt;stroke-linejoin:miter;stroke-opacity:1" d="M 428.745,650.048 439.247,644.307 z" id="boundary" inkscape:connector-curvature="0" />
	<path style="fill:none;stroke:red;stroke-width:1px;stroke-linecap:butt;stroke-linejoin:miter;stroke-opacity:1" d="M 419.037,198.389 429.618,194.219 z" id="boundary" inkscape:connector-curvature="0" />
	<path style="fill:none;stroke:red;stroke-width:1px;stroke-linecap:butt;stroke-linejoin:miter;stroke-opacity:1" d="M 414.348,12.4138 447.282,13.1042 z" id="boundary" inkscape:connector-curvature="0" />
	<path style="fill:none;stroke:red;stroke-width:1px;stroke-linecap:butt;stroke-linejoin:miter;stroke-opacity:1" d="M 430.103,996 449.513,985.571 z" id="boundary" inkscape:connector-curvature="0" />
	<path style="fill:none;stroke:red;stroke-width:1px;stroke-linecap:butt;stroke-linejoin:miter;stroke-opacity:1" d="M 421.666,818.339 433.673,839.104 z" id="boundary" inkscape:connector-curvature="0" />
	<path style="fill:none;stroke:red;stroke-width:1px;stroke-linecap:butt;stroke-linejoin:miter;stroke-opacity:1" d="M 439.247,644.307 458.505,637.597 z" id="boundary" inkscape:connector-curvature="0" />
	<path style="fill:none;stroke:red;stroke-width:1px;stroke-linecap:butt;stroke-linejoin:miter;stroke-opacity:1" d="M 429.618,194.219 456.227,206.075 z" id="boundary" inkscape:connector-curvature="0" />
	<path style="fill:none;stroke:red;stroke-width:1px;stroke-linecap:butt;stroke-linejoin:miter;stroke-opacity:1" d="M 453.087,5.13515 447.282,13.1042 z" id="boundary" inkscape:connector-curvature="0" />
	<path style="fill:none;stroke:red;stroke-width:1px;stroke-linecap:butt;stroke-linejoin:miter;stroke-opacity:1" d="M 453.087,5.13515 466.436,4 z" id="boundary" inkscape:connector-curvature="0" />
	<path style="fill:none;stroke:red;stroke-width:1px;stroke-linecap:butt;stroke-linejoin:miter;stroke-opacity:1" d="M 449.513,985.571 457.187,975.516 z" id="boundary" inkscape:connector-curvature="0" />
	<path style="fill:none;stroke:red;stroke-width:1px;stroke-linecap:butt;stroke-linejoin:miter;stroke-opacity:1" d="M 433.673,839.104 451.917,819.174 z" id="boundary" inkscape:connector-curvature="0" />
	<path style="fill:none;stroke:red;stroke-width:1px;stroke-linecap:butt;stroke-linejoin:miter;stroke-opacity:1" d="M 458.505,637.597 469.453,643.88 z" id="boundary" inkscape:connector-curvature="0" />
	<path style="fill:none;stroke:red;stroke-width:1px;stroke-linecap:butt;stroke-linejoin:miter;stroke-opacity:1" d="M 456.227,206.075 467.649,228.489 z" id="boundary" inkscape:connector-curvature="0" />
	<path style="fill:none;stroke:red;stroke-width:1px;stroke-linecap:butt;stroke-linejoin:miter;stroke-opacity:1" d="M 457.187,975.516 481.17,971.546 z" id="boundary" inkscape:connector-curvature="0" />
	<path style="fill:none;stroke:red;stroke-width:1px;stroke-linecap:butt;stroke-linejoin:miter;stroke-opacity:1" d="M 451.917,819.174 462.363,802.988 z" id="boundary" inkscape:connector-curvature="0" />
	<path style="fill:none;stroke:red;stroke-width:1px;stroke-linecap:butt;stroke-linejoin:miter;stroke-opacity:1" d="M 469.453,643.88 466.825,668.59 z" id="boundary" inkscape:connector-curvature="0" />
	<path style="fill:none;stroke:red;stroke-width:1px;stroke-linecap:butt;stroke-linejoin:miter;stroke-opacity:1" d="M 467.649,228.489 473.355,246.401 z" id="boundary" inkscape:connector-curvature="0" />
	<path style="fill:none;stroke:red;stroke-width:1px;stroke-linecap:butt;stroke-linejoin:miter;stroke-opacity:1" d="M 462.363,802.988 466.757,779.648 z" id="boundary" inkscape:connector-curvature="0" />
	<path style="fill:none;stroke:red;stroke-width:1px;stroke-linecap:butt;stroke-linejoin:miter;stroke-opacity:1" d="M 466.436,4 490.786,17.4906 z" id="boundary" inkscape:connector-curvature="0" />
	<path style="fill:none;stroke:red;stroke-width:1px;stroke-linecap:butt;stroke-linejoin:miter;stroke-opacity:1" d="M 473.355,246.401 459.291,275.196 z" id="boundary" inkscape:connector-curvature="0" />
	<path style="fill:none;stroke:red;stroke-width:1px;stroke-linecap:butt;stroke-linejoin:miter;stroke-opacity:1" d="M 477.973,340.689 472.301,302.649 z" id="boundary" inkscape:connector-curvature="0" />
	<path style="fill:none;stroke:red;stroke-width:1px;stroke-linecap:butt;stroke-linejoin:miter;stroke-opacity:1" d="M 466.825,668.59 476.917,667.241 z" id="boundary" inkscape:connector-curvature="0" />
	<path style="fill:none;stroke:red;stroke-width:1px;stroke-linecap:butt;stroke-linejoin:miter;stroke-opacity:1" d="M 459.291,275.196 472.301,302.649 z" id="boundary" inkscape:connector-curvature="0" />
	<path style="fill:none;stroke:red;stroke-width:1px;stroke-linecap:butt;stroke-linejoin:miter;stroke-opacity:1" d="M 476.917,667.241 481.723,687.47 z" id="boundary" inkscape:connector-curvature="0" />
	<path style="fill:none;stroke:red;stroke-width:1px;stroke-linecap:butt;stroke-linejoin:miter;stroke-opacity:1" d="M 466.757,779.648 478.542,780.548 z" id="boundary" inkscape:connector-curvature="0" />
	<path style="fill:none;stroke:red;stroke-width:1px;stroke-linecap:butt;stroke-linejoin:miter;stroke-opacity:1" d="M 478.542,780.548 468.936,750.041 z" id="boundary" inkscape:connector-curvature="0" />
	<path style="fill:none;stroke:red;stroke-width:1px;stroke-linecap:butt;stroke-linejoin:miter;stroke-opacity:1" d="M 481.723,687.47 486.274,701.609 z" id="boundary" inkscape:connector-curvature="0" />
	<path style="fill:none;stroke:red;stroke-width:1px;stroke-linecap:butt;stroke-linejoin:miter;stroke-opacity:1" d="M 486.274,701.609 484.993,728.857 z" id="boundary" inkscape:connector-curvature="0" />
	<path style="fill:none;stroke:red;stroke-width:1px;stroke-linecap:butt;stroke-linejoin:miter;stroke-opacity:1" d="M 468.936,750.041 481.707,742.988 z" id="boundary" inkscape:connector-curvature="0" />
	<path style="fill:none;stroke:red;stroke-width:1px;stroke-linecap:butt;stroke-linejoin:miter;stroke-opacity:1" d="M 484.993,728.857 481.707,742.988 z" id="boundary" inkscape:connector-curvature="0" />
	<path style="fill:none;stroke:red;stroke-width:1px;stroke-linecap:butt;stroke-linejoin:miter;stroke-opacity:1" d="M 490.786,17.4906 499.001,30.3176 z" id="boundary" inkscape:connector-curvature="0" />
	<path style="fill:none;stroke:red;stroke-width:1px;stroke-linecap:butt;stroke-linejoin:miter;stroke-opacity:1" d="M 481.17,971.546 488.331,960.502 z" id="boundary" inkscape:connector-curvature="0" />
	<path style="fill:none;stroke:red;stroke-width:1px;stroke-linecap:butt;stroke-linejoin:miter;stroke-opacity:1" d="M 488.331,960.502 500.292,926.333 z" id="boundary" inkscape:connector-curvature="0" />
	<path style="fill:none;stroke:red;stroke-width:1px;stroke-linecap:butt;stroke-linejoin:miter;stroke-opacity:1" d="M 499.001,30.3176 502.908,30.5264 z" id="boundary" inkscape:connector-curvature="0" />
	<path style="fill:none;stroke:red;stroke-width:1px;stroke-linecap:butt;stroke-linejoin:miter;stroke-opacity:1" d="M 500.292,926.333 506.193,913.786 z" id="boundary" inkscape:connector-curvature="0" />
	<path style="fill:none;stroke:red;stroke-width:1px;stroke-linecap:butt;stroke-linejoin:miter;stroke-opacity:1" d="M 506.193,913.786 498.31,893.878 z" id="boundary" inkscape:connector-curvature="0" />
	<path style="fill:none;stroke:red;stroke-width:1px;stroke-linecap:butt;stroke-linejoin:miter;stroke-opacity:1" d="M 502.908,30.5264 509.484,47.364 z" id="boundary" inkscape:connector-curvature="0" />
	<path style="fill:none;stroke:red;stroke-width:1px;stroke-linecap:butt;stroke-linejoin:miter;stroke-opacity:1" d="M 498.31,893.878 500.77,891.333 z" id="boundary" inkscape:connector-curvature="0" />
	<path style="fill:none;stroke:red;stroke-width:1px;stroke-linecap:butt;stroke-linejoin:miter;stroke-opacity:1" d="M 500.77,891.333 504.832,884.411 z" id="boundary" inkscape:connector-curvature="0" />
	<path style="fill:none;stroke:red;stroke-width:1px;stroke-linecap:butt;stroke-linejoin:miter;stroke-opacity:1" d="M 504.832,884.411 508.325,852.609 z" id="boundary" inkscape:connector-curvature="0" />
	<path style="fill:none;stroke:red;stroke-width:1px;stroke-linecap:butt;stroke-linejoin:miter;stroke-opacity:1" d="M 509.484,47.364 518.691,65.8467 z" id="boundary" inkscape:connector-curvature="0" />
	<path style="fill:none;stroke:red;stroke-width:1px;stroke-linecap:butt;stroke-linejoin:miter;stroke-opacity:1" d="M 508.325,852.609 514.021,844.47 z" id="boundary" inkscape:connector-curvature="0" />
	<path style="fill:none;stroke:red;stroke-width:1px;stroke-linecap:butt;stroke-linejoin:miter;stroke-opacity:1" d="M 514.021,844.47 509.836,820.916 z" id="boundary" inkscape:connector-curvature="0" />
	<path style="fill:none;stroke:red;stroke-width:1px;stroke-linecap:butt;stroke-linejoin:miter;stroke-opacity:1" d="M 518.691,65.8467 533.689,101.42 z" id="boundary" inkscape:connector-curvature="0" />
	<path style="fill:none;stroke:red;stroke-width:1px;stroke-linecap:butt;stroke-linejoin:miter;stroke-opacity:1" d="M 509.836,820.916 530.355,807.365 z" id="boundary" inkscape:connector-curvature="0" />
	<path style="fill:none;stroke:red;stroke-width:1px;stroke-linecap:butt;stroke-linejoin:miter;stroke-opacity:1" d="M 533.689,101.42 520.183,120.698 z" id="boundary" inkscape:connector-curvature="0" />
	<path style="fill:none;stroke:red;stroke-width:1px;stroke-linecap:butt;stroke-linejoin:miter;stroke-opacity:1" d="M 530.355,807.365 540.648,808.888 z" id="boundary" inkscape:connector-curvature="0" />
	<path style="fill:none;stroke:red;stroke-width:1px;stroke-linecap:butt;stroke-linejoin:miter;stroke-opacity:1" d="M 520.183,120.698 526.832,145.44 z" id="boundary" inkscape:connector-curvature="0" />
	<path style="fill:none;stroke:red;stroke-width:1px;stroke-linecap:butt;stroke-linejoin:miter;stroke-opacity:1" d="M 540.648,808.888 543.335,785.322 z" id="boundary" inkscape:connector-curvature="0" />
	<path style="fill:none;stroke:red;stroke-width:1px;stroke-linecap:butt;stroke-linejoin:miter;stroke-opacity:1" d="M 533.333,145.253 526.832,145.44 z" id="boundary" inkscape:connector-curvature="0" />
	<path style="fill:none;stroke:red;stroke-width:1px;stroke-linecap:butt;stroke-linejoin:miter;stroke-opacity:1" d="M 533.333,145.253 529.214,159.962 z" id="boundary" inkscape:connector-curvature="0" />
	<path style="fill:none;stroke:red;stroke-width:1px;stroke-linecap:butt;stroke-linejoin:miter;stroke-opacity:1" d="M 543.335,785.322 535.128,774.895 z" id="boundary" inkscape:connector-curvature="0" />
	<path style="fill:none;stroke:red;stroke-width:1px;stroke-linecap:butt;stroke-linejoin:miter;stroke-opacity:1" d="M 529.214,159.962 526.268,192.824 z" id="boundary" inkscape:connector-curvature="0" />
	<path style="fill:none;stroke:red;stroke-width:1px;stroke-linecap:butt;stroke-linejoin:miter;stroke-opacity:1" d="M 532.665,452.368 535.756,418.211 z" id="boundary" inkscape:connector-curvature="0" />
	<path style="fill:none;stroke:red;stroke-width:1px;stroke-linecap:butt;stroke-linejoin:miter;stroke-opacity:1" d="M 532.665,452.368 551.888,455.852 z" id="boundary" inkscape:connector-curvature="0" />
	<path style="fill:none;stroke:red;stroke-width:1px;stroke-linecap:butt;stroke-linejoin:miter;stroke-opacity:1" d="M 526.268,192.824 548.91,198.5 z" id="boundary" inkscape:connector-curvature="0" />
	<path style="fill:none;stroke:red;stroke-width:1px;stroke-linecap:butt;stroke-linejoin:miter;stroke-opacity:1" d="M 548.91,198.5 557.139,217.874 z" id="boundary" inkscape:connector-curvature="0" />
	<path style="fill:none;stroke:red;stroke-width:1px;stroke-linecap:butt;stroke-linejoin:miter;stroke-opacity:1" d="M 535.756,418.211 556.68,407.649 z" id="boundary" inkscape:connector-curvature="0" />
	<path style="fill:none;stroke:red;stroke-width:1px;stroke-linecap:butt;stroke-linejoin:miter;stroke-opacity:1" d="M 535.128,774.895 547.694,747.847 z" id="boundary" inkscape:connector-curvature="0" />
	<path style="fill:none;stroke:red;stroke-width:1px;stroke-linecap:butt;stroke-linejoin:miter;stroke-opacity:1" d="M 551.888,455.852 567.635,457.845 z" id="boundary" inkscape:connector-curvature="0" />
	<path style="fill:none;stroke:red;stroke-width:1px;stroke-linecap:butt;stroke-linejoin:miter;stroke-opacity:1" d="M 542.138,601.047 554.07,623.299 z" id="boundary" inkscape:connector-curvature="0" />
	<path style="fill:none;stroke:red;stroke-width:1px;stroke-linecap:butt;stroke-linejoin:miter;stroke-opacity:1" d="M 542.138,601.047 557.123,584.075 z" id="boundary" inkscape:connector-curvature="0" />
	<path style="fill:none;stroke:red;stroke-width:1px;stroke-linecap:butt;stroke-linejoin:miter;stroke-opacity:1" d="M 557.139,217.874 548.281,240.848 z" id="boundary" inkscape:connector-curvature="0" />
	<path style="fill:none;stroke:red;stroke-width:1px;stroke-linecap:butt;stroke-linejoin:miter;stroke-opacity:1" d="M 554.07,623.299 565.724,642.06 z" id="boundary" inkscape:connector-curvature="0" />
	<path style="fill:none;stroke:red;stroke-width:1px;stroke-linecap:butt;stroke-linejoin:miter;stroke-opacity:1" d="M 556.68,407.649 563.456,389.147 z" id="boundary" inkscape:connector-curvature="0" />
	<path style="fill:none;stroke:red;stroke-width:1px;stroke-linecap:butt;stroke-linejoin:miter;stroke-opacity:1" d="M 547.694,747.847 579.62,746.266 z" id="boundary" inkscape:connector-curvature="0" />
	<path style="fill:none;stroke:red;stroke-width:1px;stroke-linecap:butt;stroke-linejoin:miter;stroke-opacity:1" d="M 548.281,240.848 555.465,255.46 z" id="boundary" inkscape:connector-curvature="0" />
	<path style="fill:none;stroke:red;stroke-width:1px;stroke-linecap:butt;stroke-linejoin:miter;stroke-opacity:1" d="M 557.123,584.075 576.185,603.636 z" id="boundary" inkscape:connector-curvature="0" />
	<path style="fill:none;stroke:red;stroke-width:1px;stroke-linecap:butt;stroke-linejoin:miter;stroke-opacity:1" d="M 555.465,255.46 569.671,262.173 z" id="boundary" inkscape:connector-curvature="0" />
	<path style="fill:none;stroke:red;stroke-width:1px;stroke-linecap:butt;stroke-linejoin:miter;stroke-opacity:1" d="M 565.724,642.06 585.801,657.023 z" id="boundary" inkscape:connector-curvature="0" />
	<path style="fill:none;stroke:red;stroke-width:1px;stroke-linecap:butt;stroke-linejoin:miter;stroke-opacity:1" d="M 563.456,389.147 582.305,383.02 z" id="boundary" inkscape:connector-curvature="0" />
	<path style="fill:none;stroke:red;stroke-width:1px;stroke-linecap:butt;stroke-linejoin:miter;stroke-opacity:1" d="M 579.62,746.266 586.534,754.731 z" id="boundary" inkscape:connector-curvature="0" />
	<path style="fill:none;stroke:red;stroke-width:1px;stroke-linecap:butt;stroke-linejoin:miter;stroke-opacity:1" d="M 576.185,603.636 587.494,607.606 z" id="boundary" inkscape:connector-curvature="0" />
	<path style="fill:none;stroke:red;stroke-width:1px;stroke-linecap:butt;stroke-linejoin:miter;stroke-opacity:1" d="M 569.671,262.173 586.314,281.818 z" id="boundary" inkscape:connector-curvature="0" />
	<path style="fill:none;stroke:red;stroke-width:1px;stroke-linecap:butt;stroke-linejoin:miter;stroke-opacity:1" d="M 567.635,457.845 582.855,459.056 z" id="boundary" inkscape:connector-curvature="0" />
	<path style="fill:none;stroke:red;stroke-width:1px;stroke-linecap:butt;stroke-linejoin:miter;stroke-opacity:1" d="M 585.801,657.023 607.836,669.398 z" id="boundary" inkscape:connector-curvature="0" />
	<path style="fill:none;stroke:red;stroke-width:1px;stroke-linecap:butt;stroke-linejoin:miter;stroke-opacity:1" d="M 582.305,383.02 598.737,390.166 z" id="boundary" inkscape:connector-curvature="0" />
	<path style="fill:none;stroke:red;stroke-width:1px;stroke-linecap:butt;stroke-linejoin:miter;stroke-opacity:1" d="M 586.534,754.731 593.447,747.367 z" id="boundary" inkscape:connector-curvature="0" />
	<path style="fill:none;stroke:red;stroke-width:1px;stroke-linecap:butt;stroke-linejoin:miter;stroke-opacity:1" d="M 587.494,607.606 600.112,598.745 z" id="boundary" inkscape:connector-curvature="0" />
	<path style="fill:none;stroke:red;stroke-width:1px;stroke-linecap:butt;stroke-linejoin:miter;stroke-opacity:1" d="M 586.314,281.818 615.103,290.726 z" id="boundary" inkscape:connector-curvature="0" />
	<path style="fill:none;stroke:red;stroke-width:1px;stroke-linecap:butt;stroke-linejoin:miter;stroke-opacity:1" d="M 582.855,459.056 612.396,457.823 z" id="boundary" inkscape:connector-curvature="0" />
	<path style="fill:none;stroke:red;stroke-width:1px;stroke-linecap:butt;stroke-linejoin:miter;stroke-opacity:1" d="M 607.836,669.398 624.495,671.184 z" id="boundary" inkscape:connector-curvature="0" />
	<path style="fill:none;stroke:red;stroke-width:1px;stroke-linecap:butt;stroke-linejoin:miter;stroke-opacity:1" d="M 598.737,390.166 611.23,362.652 z" id="boundary" inkscape:connector-curvature="0" />
	<path style="fill:none;stroke:red;stroke-width:1px;stroke-linecap:butt;stroke-linejoin:miter;stroke-opacity:1" d="M 593.447,747.367 613.692,746.153 z" id="boundary" inkscape:connector-curvature="0" />
	<path style="fill:none;stroke:red;stroke-width:1px;stroke-linecap:butt;stroke-linejoin:miter;stroke-opacity:1" d="M 600.112,598.745 618.481,587.867 z" id="boundary" inkscape:connector-curvature="0" />
	<path style="fill:none;stroke:red;stroke-width:1px;stroke-linecap:butt;stroke-linejoin:miter;stroke-opacity:1" d="M 615.103,290.726 631.501,302.725 z" id="boundary" inkscape:connector-curvature="0" />
	<path style="fill:none;stroke:red;stroke-width:1px;stroke-linecap:butt;stroke-linejoin:miter;stroke-opacity:1" d="M 612.396,457.823 616.211,447.649 z" id="boundary" inkscape:connector-curvature="0" />
	<path style="fill:none;stroke:red;stroke-width:1px;stroke-linecap:butt;stroke-linejoin:miter;stroke-opacity:1" d="M 624.495,671.184 633.264,690.987 z" id="boundary" inkscape:connector-curvature="0" />
	<path style="fill:none;stroke:red;stroke-width:1px;stroke-linecap:butt;stroke-linejoin:miter;stroke-opacity:1" d="M 611.23,362.652 623.904,353.423 z" id="boundary" inkscape:connector-curvature="0" />
	<path style="fill:none;stroke:red;stroke-width:1px;stroke-linecap:butt;stroke-linejoin:miter;stroke-opacity:1" d="M 613.692,746.153 623.772,747.448 z" id="boundary" inkscape:connector-curvature="0" />
	<path style="fill:none;stroke:red;stroke-width:1px;stroke-linecap:butt;stroke-linejoin:miter;stroke-opacity:1" d="M 618.481,587.867 633.659,596.144 z" id="boundary" inkscape:connector-curvature="0" />
	<path style="fill:none;stroke:red;stroke-width:1px;stroke-linecap:butt;stroke-linejoin:miter;stroke-opacity:1" d="M 631.501,302.725 656.533,293.029 z" id="boundary" inkscape:connector-curvature="0" />
	<path style="fill:none;stroke:red;stroke-width:1px;stroke-linecap:butt;stroke-linejoin:miter;stroke-opacity:1" d="M 616.211,447.649 623.583,436.93 z" id="boundary" inkscape:connector-curvature="0" />
	<path style="fill:none;stroke:red;stroke-width:1px;stroke-linecap:butt;stroke-linejoin:miter;stroke-opacity:1" d="M 633.264,690.987 644.508,688.263 z" id="boundary" inkscape:connector-curvature="0" />
	<path style="fill:none;stroke:red;stroke-width:1px;stroke-linecap:butt;stroke-linejoin:miter;stroke-opacity:1" d="M 623.904,353.423 648.862,359.873 z" id="boundary" inkscape:connector-curvature="0" />
	<path style="fill:none;stroke:red;stroke-width:1px;stroke-linecap:butt;stroke-linejoin:miter;stroke-opacity:1" d="M 623.772,747.448 632.364,750.138 z" id="boundary" inkscape:connector-curvature="0" />
	<path style="fill:none;stroke:red;stroke-width:1px;stroke-linecap:butt;stroke-linejoin:miter;stroke-opacity:1" d="M 633.659,596.144 636.107,598.536 z" id="boundary" inkscape:connector-curvature="0" />
	<path style="fill:none;stroke:red;stroke-width:1px;stroke-linecap:butt;stroke-linejoin:miter;stroke-opacity:1" d="M 623.583,436.93 640.864,429.705 z" id="boundary" inkscape:connector-curvature="0" />
	<path style="fill:none;stroke:red;stroke-width:1px;stroke-linecap:butt;stroke-linejoin:miter;stroke-opacity:1" d="M 644.508,688.263 643.66,700.3 z" id="boundary" inkscape:connector-curvature="0" />
	<path style="fill:none;stroke:red;stroke-width:1px;stroke-linecap:butt;stroke-linejoin:miter;stroke-opacity:1" d="M 648.862,359.873 682.288,357.617 z" id="boundary" inkscape:connector-curvature="0" />
	<path style="fill:none;stroke:red;stroke-width:1px;stroke-linecap:butt;stroke-linejoin:miter;stroke-opacity:1" d="M 632.364,750.138 662.756,755.377 z" id="boundary" inkscape:connector-curvature="0" />
	<path style="fill:none;stroke:red;stroke-width:1px;stroke-linecap:butt;stroke-linejoin:miter;stroke-opacity:1" d="M 636.107,598.536 658.765,615.834 z" id="boundary" inkscape:connector-curvature="0" />
	<path style="fill:none;stroke:red;stroke-width:1px;stroke-linecap:butt;stroke-linejoin:miter;stroke-opacity:1" d="M 656.533,293.029 672.694,285.061 z" id="boundary" inkscape:connector-curvature="0" />
	<path style="fill:none;stroke:red;stroke-width:1px;stroke-linecap:butt;stroke-linejoin:miter;stroke-opacity:1" d="M 640.864,429.705 662.963,431.92 z" id="boundary" inkscape:connector-curvature="0" />
	<path style="fill:none;stroke:red;stroke-width:1px;stroke-linecap:butt;stroke-linejoin:miter;stroke-opacity:1" d="M 643.66,700.3 664.41,686.618 z" id="boundary" inkscape:connector-curvature="0" />
	<path style="fill:none;stroke:red;stroke-width:1px;stroke-linecap:butt;stroke-linejoin:miter;stroke-opacity:1" d="M 662.756,755.377 690.321,759.888 z" id="boundary" inkscape:connector-curvature="0" />
	<path style="fill:none;stroke:red;stroke-width:1px;stroke-linecap:butt;stroke-linejoin:miter;stroke-opacity:1" d="M 658.765,615.834 677.842,632.636 z" id="boundary" inkscape:connector-curvature="0" />
	<path style="fill:none;stroke:red;stroke-width:1px;stroke-linecap:butt;stroke-linejoin:miter;stroke-opacity:1" d="M 662.963,431.92 671.905,415.858 z" id="boundary" inkscape:connector-curvature="0" />
	<path style="fill:none;stroke:red;stroke-width:1px;stroke-linecap:butt;stroke-linejoin:miter;stroke-opacity:1" d="M 677.842,632.636 701.575,622.46 z" id="boundary" inkscape:connector-curvature="0" />
	<path style="fill:none;stroke:red;stroke-width:1px;stroke-linecap:butt;stroke-linejoin:miter;stroke-opacity:1" d="M 672.694,285.061 688.037,277.03 z" id="boundary" inkscape:connector-curvature="0" />
	<path style="fill:none;stroke:red;stroke-width:1px;stroke-linecap:butt;stroke-linejoin:miter;stroke-opacity:1" d="M 671.905,415.858 680.529,395.112 z" id="boundary" inkscape:connector-curvature="0" />
	<path style="fill:none;stroke:red;stroke-width:1px;stroke-linecap:butt;stroke-linejoin:miter;stroke-opacity:1" d="M 682.288,357.617 694.466,340.291 z" id="boundary" inkscape:connector-curvature="0" />
	<path style="fill:none;stroke:red;stroke-width:1px;stroke-linecap:butt;stroke-linejoin:miter;stroke-opacity:1" d="M 699.294,765.583 690.321,759.888 z" id="boundary" inkscape:connector-curvature="0" />
	<path style="fill:none;stroke:red;stroke-width:1px;stroke-linecap:butt;stroke-linejoin:miter;stroke-opacity:1" d="M 699.294,765.583 720.885,769.754 z" id="boundary" inkscape:connector-curvature="0" />
	<path style="fill:none;stroke:red;stroke-width:1px;stroke-linecap:butt;stroke-linejoin:miter;stroke-opacity:1" d="M 701.575,622.46 703.472,650.132 z" id="boundary" inkscape:connector-curvature="0" />
	<path style="fill:none;stroke:red;stroke-width:1px;stroke-linecap:butt;stroke-linejoin:miter;stroke-opacity:1" d="M 688.037,277.03 699.115,269.103 z" id="boundary" inkscape:connector-curvature="0" />
	<path style="fill:none;stroke:red;stroke-width:1px;stroke-linecap:butt;stroke-linejoin:miter;stroke-opacity:1" d="M 699.627,503.569 702.655,528.645 z" id="boundary" inkscape:connector-curvature="0" />
	<path style="fill:none;stroke:red;stroke-width:1px;stroke-linecap:butt;stroke-linejoin:miter;stroke-opacity:1" d="M 699.627,503.569 684.706,485.765 z" id="boundary" inkscape:connector-curvature="0" />
	<path style="fill:none;stroke:red;stroke-width:1px;stroke-linecap:butt;stroke-linejoin:miter;stroke-opacity:1" d="M 697.092,693.271 707.614,708.087 z" id="boundary" inkscape:connector-curvature="0" />
	<path style="fill:none;stroke:red;stroke-width:1px;stroke-linecap:butt;stroke-linejoin:miter;stroke-opacity:1" d="M 697.092,693.271 705.076,667.333 z" id="boundary" inkscape:connector-curvature="0" />
	<path style="fill:none;stroke:red;stroke-width:1px;stroke-linecap:butt;stroke-linejoin:miter;stroke-opacity:1" d="M 694.466,340.291 720.061,367.664 z" id="boundary" inkscape:connector-curvature="0" />
	<path style="fill:none;stroke:red;stroke-width:1px;stroke-linecap:butt;stroke-linejoin:miter;stroke-opacity:1" d="M 702.655,528.645 688.07,548.464 z" id="boundary" inkscape:connector-curvature="0" />
	<path style="fill:none;stroke:red;stroke-width:1px;stroke-linecap:butt;stroke-linejoin:miter;stroke-opacity:1" d="M 684.706,485.765 691.545,464.711 z" id="boundary" inkscape:connector-curvature="0" />
	<path style="fill:none;stroke:red;stroke-width:1px;stroke-linecap:butt;stroke-linejoin:miter;stroke-opacity:1" d="M 703.472,650.132 705.076,667.333 z" id="boundary" inkscape:connector-curvature="0" />
	<path style="fill:none;stroke:red;stroke-width:1px;stroke-linecap:butt;stroke-linejoin:miter;stroke-opacity:1" d="M 688.07,548.464 716.637,560.624 z" id="boundary" inkscape:connector-curvature="0" />
	<path style="fill:none;stroke:red;stroke-width:1px;stroke-linecap:butt;stroke-linejoin:miter;stroke-opacity:1" d="M 699.115,269.103 716.017,287.3 z" id="boundary" inkscape:connector-curvature="0" />
	<path style="fill:none;stroke:red;stroke-width:1px;stroke-linecap:butt;stroke-linejoin:miter;stroke-opacity:1" d="M 716.637,560.624 721.135,567.132 z" id="boundary" inkscape:connector-curvature="0" />
	<path style="fill:none;stroke:red;stroke-width:1px;stroke-linecap:butt;stroke-linejoin:miter;stroke-opacity:1" d="M 707.614,708.087 722.949,700.62 z" id="boundary" inkscape:connector-curvature="0" />
	<path style="fill:none;stroke:red;stroke-width:1px;stroke-linecap:butt;stroke-linejoin:miter;stroke-opacity:1" d="M 723.883,781.368 720.885,769.754 z" id="boundary" inkscape:connector-curvature="0" />
	<path style="fill:none;stroke:red;stroke-width:1px;stroke-linecap:butt;stroke-linejoin:miter;stroke-opacity:1" d="M 723.883,781.368 733.061,777.404 z" id="boundary" inkscape:connector-curvature="0" />
	<path style="fill:none;stroke:red;stroke-width:1px;stroke-linecap:butt;stroke-linejoin:miter;stroke-opacity:1" d="M 716.017,287.3 745.374,271.017 z" id="boundary" inkscape:connector-curvature="0" />
	<path style="fill:none;stroke:red;stroke-width:1px;stroke-linecap:butt;stroke-linejoin:miter;stroke-opacity:1" d="M 721.135,567.132 734.589,568.037 z" id="boundary" inkscape:connector-curvature="0" />
	<path style="fill:none;stroke:red;stroke-width:1px;stroke-linecap:butt;stroke-linejoin:miter;stroke-opacity:1" d="M 731.135,429.194 747.508,412.935 z" id="boundary" inkscape:connector-curvature="0" />
	<path style="fill:none;stroke:red;stroke-width:1px;stroke-linecap:butt;stroke-linejoin:miter;stroke-opacity:1" d="M 722.949,700.62 738.673,676.55 z" id="boundary" inkscape:connector-curvature="0" />
	<path style="fill:none;stroke:red;stroke-width:1px;stroke-linecap:butt;stroke-linejoin:miter;stroke-opacity:1" d="M 737.983,672.601 738.673,676.55 z" id="boundary" inkscape:connector-curvature="0" />
	<path style="fill:none;stroke:red;stroke-width:1px;stroke-linecap:butt;stroke-linejoin:miter;stroke-opacity:1" d="M 734.589,568.037 748.802,606.544 z" id="boundary" inkscape:connector-curvature="0" />
	<path style="fill:none;stroke:red;stroke-width:1px;stroke-linecap:butt;stroke-linejoin:miter;stroke-opacity:1" d="M 745.374,271.017 753.366,270.911 z" id="boundary" inkscape:connector-curvature="0" />
	<path style="fill:none;stroke:red;stroke-width:1px;stroke-linecap:butt;stroke-linejoin:miter;stroke-opacity:1" d="M 733.061,777.404 746.83,790.715 z" id="boundary" inkscape:connector-curvature="0" />
	<path style="fill:none;stroke:red;stroke-width:1px;stroke-linecap:butt;stroke-linejoin:miter;stroke-opacity:1" d="M 748.802,606.544 752.164,612.925 z" id="boundary" inkscape:connector-curvature="0" />
	<path style="fill:none;stroke:red;stroke-width:1px;stroke-linecap:butt;stroke-linejoin:miter;stroke-opacity:1" d="M 747.508,412.935 764.493,419.91 z" id="boundary" inkscape:connector-curvature="0" />
	<path style="fill:none;stroke:red;stroke-width:1px;stroke-linecap:butt;stroke-linejoin:miter;stroke-opacity:1" d="M 746.83,790.715 782.076,798.849 z" id="boundary" inkscape:connector-curvature="0" />
	<path style="fill:none;stroke:red;stroke-width:1px;stroke-linecap:butt;stroke-linejoin:miter;stroke-opacity:1" d="M 752.164,612.925 779.676,629.294 z" id="boundary" inkscape:connector-curvature="0" />
	<path style="fill:none;stroke:red;stroke-width:1px;stroke-linecap:butt;stroke-linejoin:miter;stroke-opacity:1" d="M 753.366,270.911 773.31,270.195 z" id="boundary" inkscape:connector-curvature="0" />
	<path style="fill:none;stroke:red;stroke-width:1px;stroke-linecap:butt;stroke-linejoin:miter;stroke-opacity:1" d="M 764.493,419.91 770.812,387.535 z" id="boundary" inkscape:connector-curvature="0" />
	<path style="fill:none;stroke:red;stroke-width:1px;stroke-linecap:butt;stroke-linejoin:miter;stroke-opacity:1" d="M 782.076,798.849 791.633,784.256 z" id="boundary" inkscape:connector-curvature="0" />
	<path style="fill:none;stroke:red;stroke-width:1px;stroke-linecap:butt;stroke-linejoin:miter;stroke-opacity:1" d="M 779.676,629.294 787.926,637.968 z" id="boundary" inkscape:connector-curvature="0" />
	<path style="fill:none;stroke:red;stroke-width:1px;stroke-linecap:butt;stroke-linejoin:miter;stroke-opacity:1" d="M 773.31,270.195 787.524,263.561 z" id="boundary" inkscape:connector-curvature="0" />
	<path style="fill:none;stroke:red;stroke-width:1px;stroke-linecap:butt;stroke-linejoin:miter;stroke-opacity:1" d="M 770.812,387.535 792.981,391.127 z" id="boundary" inkscape:connector-curvature="0" />
	<path style="fill:none;stroke:red;stroke-width:1px;stroke-linecap:butt;stroke-linejoin:miter;stroke-opacity:1" d="M 797.428,782.03 791.633,784.256 z" id="boundary" inkscape:connector-curvature="0" />
	<path style="fill:none;stroke:red;stroke-width:1px;stroke-linecap:butt;stroke-linejoin:miter;stroke-opacity:1" d="M 797.428,782.03 823.514,791.01 z" id="boundary" inkscape:connector-curvature="0" />
	<path style="fill:none;stroke:red;stroke-width:1px;stroke-linecap:butt;stroke-linejoin:miter;stroke-opacity:1" d="M 787.926,637.968 800.575,641.286 z" id="boundary" inkscape:connector-curvature="0" />
	<path style="fill:none;stroke:red;stroke-width:1px;stroke-linecap:butt;stroke-linejoin:miter;stroke-opacity:1" d="M 787.524,263.561 797.942,259.029 z" id="boundary" inkscape:connector-curvature="0" />
	<path style="fill:none;stroke:red;stroke-width:1px;stroke-linecap:butt;stroke-linejoin:miter;stroke-opacity:1" d="M 792.981,391.127 815.557,378.247 z" id="boundary" inkscape:connector-curvature="0" />
	<path style="fill:none;stroke:red;stroke-width:1px;stroke-linecap:butt;stroke-linejoin:miter;stroke-opacity:1" d="M 800.575,641.286 804.094,659.539 z" id="boundary" inkscape:connector-curvature="0" />
	<path style="fill:none;stroke:red;stroke-width:1px;stroke-linecap:butt;stroke-linejoin:miter;stroke-opacity:1" d="M 797.942,259.029 826.947,253.424 z" id="boundary" inkscape:connector-curvature="0" />
	<path style="fill:none;stroke:red;stroke-width:1px;stroke-linecap:butt;stroke-linejoin:miter;stroke-opacity:1" d="M 815.557,378.247 826.121,377.817 z" id="boundary" inkscape:connector-curvature="0" />
	<path style="fill:none;stroke:red;stroke-width:1px;stroke-linecap:butt;stroke-linejoin:miter;stroke-opacity:1" d="M 804.094,659.539 831.077,674.524 z" id="boundary" inkscape:connector-curvature="0" />
	<path style="fill:none;stroke:red;stroke-width:1px;stroke-linecap:butt;stroke-linejoin:miter;stroke-opacity:1" d="M 825.858,249.114 826.947,253.424 z" id="boundary" inkscape:connector-curvature="0" />
	<path style="fill:none;stroke:red;stroke-width:1px;stroke-linecap:butt;stroke-linejoin:miter;stroke-opacity:1" d="M 825.858,249.114 837.186,248.056 z" id="boundary" inkscape:connector-curvature="0" />
	<path style="fill:none;stroke:red;stroke-width:1px;stroke-linecap:butt;stroke-linejoin:miter;stroke-opacity:1" d="M 826.121,377.817 845.178,356.455 z" id="boundary" inkscape:connector-curvature="0" />
	<path style="fill:none;stroke:red;stroke-width:1px;stroke-linecap:butt;stroke-linejoin:miter;stroke-opacity:1" d="M 823.514,791.01 848.753,785.184 z" id="boundary" inkscape:connector-curvature="0" />
	<path style="fill:none;stroke:red;stroke-width:1px;stroke-linecap:butt;stroke-linejoin:miter;stroke-opacity:1" d="M 831.077,674.524 855.782,672.923 z" id="boundary" inkscape:connector-curvature="0" />
	<path style="fill:none;stroke:red;stroke-width:1px;stroke-linecap:butt;stroke-linejoin:miter;stroke-opacity:1" d="M 845.178,356.455 855.418,337.331 z" id="boundary" inkscape:connector-curvature="0" />
	<path style="fill:none;stroke:red;stroke-width:1px;stroke-linecap:butt;stroke-linejoin:miter;stroke-opacity:1" d="M 848.753,785.184 862.782,786.061 z" id="boundary" inkscape:connector-curvature="0" />
	<path style="fill:none;stroke:red;stroke-width:1px;stroke-linecap:butt;stroke-linejoin:miter;stroke-opacity:1" d="M 855.782,672.923 854.166,686.744 z" id="boundary" inkscape:connector-curvature="0" />
	<path style="fill:none;stroke:red;stroke-width:1px;stroke-linecap:butt;stroke-linejoin:miter;stroke-opacity:1" d="M 837.186,248.056 871.813,255.655 z" id="boundary" inkscape:connector-curvature="0" />
	<path style="fill:none;stroke:red;stroke-width:1px;stroke-linecap:butt;stroke-linejoin:miter;stroke-opacity:1" d="M 854.166,686.744 863.158,701.32 z" id="boundary" inkscape:connector-curvature="0" />
	<path style="fill:none;stroke:red;stroke-width:1px;stroke-linecap:butt;stroke-linejoin:miter;stroke-opacity:1" d="M 862.782,786.061 854.276,759.161 z" id="boundary" inkscape:connector-curvature="0" />
	<path style="fill:none;stroke:red;stroke-width:1px;stroke-linecap:butt;stroke-linejoin:miter;stroke-opacity:1" d="M 871.813,255.655 877.511,270.535 z" id="boundary" inkscape:connector-curvature="0" />
	<path style="fill:none;stroke:red;stroke-width:1px;stroke-linecap:butt;stroke-linejoin:miter;stroke-opacity:1" d="M 855.418,337.331 874.762,311.167 z" id="boundary" inkscape:connector-curvature="0" />
	<path style="fill:none;stroke:red;stroke-width:1px;stroke-linecap:butt;stroke-linejoin:miter;stroke-opacity:1" d="M 863.158,701.32 882.022,736.747 z" id="boundary" inkscape:connector-curvature="0" />
	<path style="fill:none;stroke:red;stroke-width:1px;stroke-linecap:butt;stroke-linejoin:miter;stroke-opacity:1" d="M 854.276,759.161 865.002,736.004 z" id="boundary" inkscape:connector-curvature="0" />
	<path style="fill:none;stroke:red;stroke-width:1px;stroke-linecap:butt;stroke-linejoin:miter;stroke-opacity:1" d="M 877.511,270.535 882.694,292.369 z" id="boundary" inkscape:connector-curvature="0" />
	<path style="fill:none;stroke:red;stroke-width:1px;stroke-linecap:butt;stroke-linejoin:miter;stroke-opacity:1" d="M 882.022,736.747 865.002,736.004 z" id="boundary" inkscape:connector-curvature="0" />
	<path style="fill:none;stroke:red;stroke-width:1px;stroke-linecap:butt;stroke-linejoin:miter;stroke-opacity:1" d="M 882.694,292.369 874.762,311.167 z" id="boundary" inkscape:connector-curvature="0" />
	<circle cx="4" cy="719.419" r="4" fill="#0" id="circle0"/>
	<circle cx="9.39175" cy="729.707" r="4" fill="#0" id="circle1"/>
	<circle cx="7.02609" cy="703.017" r="4" fill="#0" id="circle2"/>
	<circle cx="29.9222" cy="673.778" r="4" fill="#0" id="circle3"/>
	<circle cx="32.4427" cy="752.158" r="4" fill="#0" id="circle4"/>
	<circle cx="36.9746" cy="663.294" r="4" fill="#0" id="circle5"/>
	<circle cx="42.9669" cy="764.131" r="4" fill="#0" id="circle6"/>
	<circle cx="32.7445" cy="250.072" r="4" fill="#0" id="circle7"/>
	<circle cx="45.9628" cy="647.113" r="4" fill="#0" id="circle8"/>
	<circle cx="57.2576" cy="279.196" r="4" fill="#0" id="circle9"/>
	<circle cx="62.5719" cy="245.914" r="4" fill="#0" id="circle10"/>
	<circle cx="63.1032" cy="762.191" r="4" fill="#0" id="circle11"/>
	<circle cx="63.9407" cy="300.421" r="4" fill="#0" id="circle12"/>
	<circle cx="69.3665" cy="235.117" r="4" fill="#0" id="circle13"/>
	<circle cx="50.5795" cy="646.867" r="4" fill="#0" id="circle14"/>
	<circle cx="63.3466" cy="303.212" r="4" fill="#0" id="circle15"/>
	<circle cx="64.7725" cy="777.45" r="4" fill="#0" id="circle16"/>
	<circle cx="69.5118" cy="214.075" r="4" fill="#0" id="circle17"/>
	<circle cx="74.3052" cy="313.747" r="4" fill="#0" id="circle18"/>
	<circle cx="83.2953" cy="620.008" r="4" fill="#0" id="circle19"/>
	<circle cx="81.1874" cy="764.744" r="4" fill="#0" id="circle20"/>
	<circle cx="88.2192" cy="329.759" r="4" fill="#0" id="circle21"/>
	<circle cx="92.976" cy="214.383" r="4" fill="#0" id="circle22"/>
	<circle cx="83.9192" cy="604.138" r="4" fill="#0" id="circle23"/>
	<circle cx="107.351" cy="758.153" r="4" fill="#0" id="circle24"/>
	<circle cx="97.3881" cy="364.985" r="4" fill="#0" id="circle25"/>
	<circle cx="109.528" cy="205.802" r="4" fill="#0" id="circle26"/>
	<circle cx="95.9101" cy="607.108" r="4" fill="#0" id="circle27"/>
	<circle cx="121.656" cy="779.564" r="4" fill="#0" id="circle28"/>
	<circle cx="111.992" cy="379.676" r="4" fill="#0" id="circle29"/>
	<circle cx="122.476" cy="199.717" r="4" fill="#0" id="circle30"/>
	<circle cx="109.754" cy="581.591" r="4" fill="#0" id="circle31"/>
	<circle cx="129.821" cy="381.241" r="4" fill="#0" id="circle32"/>
	<circle cx="127.644" cy="756.442" r="4" fill="#0" id="circle33"/>
	<circle cx="129.43" cy="211.302" r="4" fill="#0" id="circle34"/>
	<circle cx="133.648" cy="589.702" r="4" fill="#0" id="circle35"/>
	<circle cx="137.802" cy="385.221" r="4" fill="#0" id="circle36"/>
	<circle cx="127.206" cy="753.333" r="4" fill="#0" id="circle37"/>
	<circle cx="149.584" cy="214.146" r="4" fill="#0" id="circle38"/>
	<circle cx="144.285" cy="567.66" r="4" fill="#0" id="circle39"/>
	<circle cx="141.318" cy="690.021" r="4" fill="#0" id="circle40"/>
	<circle cx="149.199" cy="400.542" r="4" fill="#0" id="circle41"/>
	<circle cx="144.034" cy="759.148" r="4" fill="#0" id="circle42"/>
	<circle cx="158.791" cy="646.982" r="4" fill="#0" id="circle43"/>
	<circle cx="162.007" cy="220.902" r="4" fill="#0" id="circle44"/>
	<circle cx="146.758" cy="692.63" r="4" fill="#0" id="circle45"/>
	<circle cx="153.943" cy="415.246" r="4" fill="#0" id="circle46"/>
	<circle cx="161.349" cy="538.614" r="4" fill="#0" id="circle47"/>
	<circle cx="164.115" cy="634.558" r="4" fill="#0" id="circle48"/>
	<circle cx="162.001" cy="739.303" r="4" fill="#0" id="circle49"/>
	<circle cx="167.637" cy="446.506" r="4" fill="#0" id="circle50"/>
	<circle cx="160.406" cy="220.564" r="4" fill="#0" id="circle51"/>
	<circle cx="178.456" cy="525.947" r="4" fill="#0" id="circle52"/>
	<circle cx="169.202" cy="697.517" r="4" fill="#0" id="circle53"/>
	<circle cx="171.115" cy="634.333" r="4" fill="#0" id="circle54"/>
	<circle cx="166.743" cy="457.976" r="4" fill="#0" id="circle55"/>
	<circle cx="177.671" cy="529.032" r="4" fill="#0" id="circle56"/>
	<circle cx="189.207" cy="751.451" r="4" fill="#0" id="circle57"/>
	<circle cx="178.168" cy="327.655" r="4" fill="#0" id="circle58"/>
	<circle cx="188.33" cy="457.353" r="4" fill="#0" id="circle59"/>
	<circle cx="196.817" cy="247.411" r="4" fill="#0" id="circle60"/>
	<circle cx="184.377" cy="341.517" r="4" fill="#0" id="circle61"/>
	<circle cx="168.601" cy="496.649" r="4" fill="#0" id="circle62"/>
	<circle cx="182.221" cy="696.278" r="4" fill="#0" id="circle63"/>
	<circle cx="176.075" cy="488.249" r="4" fill="#0" id="circle64"/>
	<circle cx="193.823" cy="622.532" r="4" fill="#0" id="circle65"/>
	<circle cx="181.476" cy="503.456" r="4" fill="#0" id="circle66"/>
	<circle cx="200.244" cy="302.876" r="4" fill="#0" id="circle67"/>
	<circle cx="204.996" cy="733.513" r="4" fill="#0" id="circle68"/>
	<circle cx="202.97" cy="356.834" r="4" fill="#0" id="circle69"/>
	<circle cx="211.728" cy="231.655" r="4" fill="#0" id="circle70"/>
	<circle cx="212.98" cy="688.116" r="4" fill="#0" id="circle71"/>
	<circle cx="211.079" cy="611.235" r="4" fill="#0" id="circle72"/>
	<circle cx="197.447" cy="302.092" r="4" fill="#0" id="circle73"/>
	<circle cx="200.483" cy="364.751" r="4" fill="#0" id="circle74"/>
	<circle cx="205.652" cy="730.402" r="4" fill="#0" id="circle75"/>
	<circle cx="225.389" cy="258.769" r="4" fill="#0" id="circle76"/>
	<circle cx="214.853" cy="693.678" r="4" fill="#0" id="circle77"/>
	<circle cx="228.03" cy="602.55" r="4" fill="#0" id="circle78"/>
	<circle cx="218.42" cy="382.717" r="4" fill="#0" id="circle79"/>
	<circle cx="217.503" cy="304.893" r="4" fill="#0" id="circle80"/>
	<circle cx="235.245" cy="742.667" r="4" fill="#0" id="circle81"/>
	<circle cx="215.733" cy="262.131" r="4" fill="#0" id="circle82"/>
	<circle cx="219.298" cy="685.118" r="4" fill="#0" id="circle83"/>
	<circle cx="217.813" cy="598.174" r="4" fill="#0" id="circle84"/>
	<circle cx="221.83" cy="415.53" r="4" fill="#0" id="circle85"/>
	<circle cx="246.613" cy="306.191" r="4" fill="#0" id="circle86"/>
	<circle cx="235.166" cy="739.201" r="4" fill="#0" id="circle87"/>
	<circle cx="251.876" cy="261.639" r="4" fill="#0" id="circle88"/>
	<circle cx="232.85" cy="658.26" r="4" fill="#0" id="circle89"/>
	<circle cx="248.75" cy="578.034" r="4" fill="#0" id="circle90"/>
	<circle cx="243.636" cy="416.97" r="4" fill="#0" id="circle91"/>
	<circle cx="242.823" cy="335.255" r="4" fill="#0" id="circle92"/>
	<circle cx="250.981" cy="722.103" r="4" fill="#0" id="circle93"/>
	<circle cx="262.326" cy="249.282" r="4" fill="#0" id="circle94"/>
	<circle cx="255.837" cy="646.77" r="4" fill="#0" id="circle95"/>
	<circle cx="252.697" cy="570.343" r="4" fill="#0" id="circle96"/>
	<circle cx="272.086" cy="419.054" r="4" fill="#0" id="circle97"/>
	<circle cx="253.15" cy="322.537" r="4" fill="#0" id="circle98"/>
	<circle cx="256.143" cy="719.572" r="4" fill="#0" id="circle99"/>
	<circle cx="258.748" cy="257.911" r="4" fill="#0" id="circle100"/>
	<circle cx="261.421" cy="632.476" r="4" fill="#0" id="circle101"/>
	<circle cx="268.981" cy="569.741" r="4" fill="#0" id="circle102"/>
	<circle cx="282.867" cy="425.258" r="4" fill="#0" id="circle103"/>
	<circle cx="265.845" cy="355.338" r="4" fill="#0" id="circle104"/>
	<circle cx="276.175" cy="735.497" r="4" fill="#0" id="circle105"/>
	<circle cx="282.1" cy="271.865" r="4" fill="#0" id="circle106"/>
	<circle cx="280.568" cy="636.799" r="4" fill="#0" id="circle107"/>
	<circle cx="292.022" cy="574.782" r="4" fill="#0" id="circle108"/>
	<circle cx="299.385" cy="437.19" r="4" fill="#0" id="circle109"/>
	<circle cx="297.48" cy="352.455" r="4" fill="#0" id="circle110"/>
	<circle cx="293.985" cy="719.35" r="4" fill="#0" id="circle111"/>
	<circle cx="305.438" cy="261.355" r="4" fill="#0" id="circle112"/>
	<circle cx="291.877" cy="628.236" r="4" fill="#0" id="circle113"/>
	<circle cx="302.431" cy="567.559" r="4" fill="#0" id="circle114"/>
	<circle cx="290.684" cy="446.759" r="4" fill="#0" id="circle115"/>
	<circle cx="308.004" cy="360.697" r="4" fill="#0" id="circle116"/>
	<circle cx="310.145" cy="750.484" r="4" fill="#0" id="circle117"/>
	<circle cx="311.246" cy="602.076" r="4" fill="#0" id="circle118"/>
	<circle cx="305.064" cy="264.147" r="4" fill="#0" id="circle119"/>
	<circle cx="307.523" cy="581.398" r="4" fill="#0" id="circle120"/>
	<circle cx="312.27" cy="598.577" r="4" fill="#0" id="circle121"/>
	<circle cx="310.943" cy="455.88" r="4" fill="#0" id="circle122"/>
	<circle cx="312.303" cy="395.683" r="4" fill="#0" id="circle123"/>
	<circle cx="324.842" cy="742.287" r="4" fill="#0" id="circle124"/>
	<circle cx="323.407" cy="243.54" r="4" fill="#0" id="circle125"/>
	<circle cx="329.296" cy="405.97" r="4" fill="#0" id="circle126"/>
	<circle cx="328.083" cy="439.709" r="4" fill="#0" id="circle127"/>
	<circle cx="326.88" cy="417.158" r="4" fill="#0" id="circle128"/>
	<circle cx="328.402" cy="768.967" r="4" fill="#0" id="circle129"/>
	<circle cx="325.347" cy="421.29" r="4" fill="#0" id="circle130"/>
	<circle cx="336.089" cy="239.817" r="4" fill="#0" id="circle131"/>
	<circle cx="337.574" cy="446.727" r="4" fill="#0" id="circle132"/>
	<circle cx="349.775" cy="765.889" r="4" fill="#0" id="circle133"/>
	<circle cx="343.987" cy="229.395" r="4" fill="#0" id="circle134"/>
	<circle cx="360.1" cy="793.827" r="4" fill="#0" id="circle135"/>
	<circle cx="353.267" cy="202.149" r="4" fill="#0" id="circle136"/>
	<circle cx="350.569" cy="810.26" r="4" fill="#0" id="circle137"/>
	<circle cx="352.083" cy="825.809" r="4" fill="#0" id="circle138"/>
	<circle cx="364.814" cy="198.271" r="4" fill="#0" id="circle139"/>
	<circle cx="350.423" cy="851.719" r="4" fill="#0" id="circle140"/>
	<circle cx="356.907" cy="178.484" r="4" fill="#0" id="circle141"/>
	<circle cx="374.672" cy="856.715" r="4" fill="#0" id="circle142"/>
	<circle cx="357.055" cy="148.867" r="4" fill="#0" id="circle143"/>
	<circle cx="362.819" cy="865.698" r="4" fill="#0" id="circle144"/>
	<circle cx="382.427" cy="138.845" r="4" fill="#0" id="circle145"/>
	<circle cx="376.2" cy="880.51" r="4" fill="#0" id="circle146"/>
	<circle cx="364.206" cy="115.732" r="4" fill="#0" id="circle147"/>
	<circle cx="367.257" cy="912.303" r="4" fill="#0" id="circle148"/>
	<circle cx="371.502" cy="108.652" r="4" fill="#0" id="circle149"/>
	<circle cx="386.901" cy="909.901" r="4" fill="#0" id="circle150"/>
	<circle cx="371.826" cy="84.5152" r="4" fill="#0" id="circle151"/>
	<circle cx="385.67" cy="76.5052" r="4" fill="#0" id="circle152"/>
	<circle cx="395.155" cy="941.423" r="4" fill="#0" id="circle153"/>
	<circle cx="380.426" cy="62.8948" r="4" fill="#0" id="circle154"/>
	<circle cx="393.318" cy="940.745" r="4" fill="#0" id="circle155"/>
	<circle cx="394.332" cy="307.384" r="4" fill="#0" id="circle156"/>
	<circle cx="403.456" cy="318.564" r="4" fill="#0" id="circle157"/>
	<circle cx="389.42" cy="56.8255" r="4" fill="#0" id="circle158"/>
	<circle cx="393.363" cy="277.847" r="4" fill="#0" id="circle159"/>
	<circle cx="387.414" cy="333.254" r="4" fill="#0" id="circle160"/>
	<circle cx="406.211" cy="268.578" r="4" fill="#0" id="circle161"/>
	<circle cx="401.167" cy="974.15" r="4" fill="#0" id="circle162"/>
	<circle cx="409.396" cy="359.88" r="4" fill="#0" id="circle163"/>
	<circle cx="406.405" cy="234.084" r="4" fill="#0" id="circle164"/>
	<circle cx="391.746" cy="29.4252" r="4" fill="#0" id="circle165"/>
	<circle cx="393.468" cy="723.169" r="4" fill="#0" id="circle166"/>
	<circle cx="403.254" cy="757.243" r="4" fill="#0" id="circle167"/>
	<circle cx="406.938" cy="703.211" r="4" fill="#0" id="circle168"/>
	<circle cx="402.246" cy="379.29" r="4" fill="#0" id="circle169"/>
	<circle cx="413.661" cy="778.632" r="4" fill="#0" id="circle170"/>
	<circle cx="416.711" cy="227.213" r="4" fill="#0" id="circle171"/>
	<circle cx="409.431" cy="696.712" r="4" fill="#0" id="circle172"/>
	<circle cx="411.176" cy="792.588" r="4" fill="#0" id="circle173"/>
	<circle cx="415.622" cy="375.263" r="4" fill="#0" id="circle174"/>
	<circle cx="407.697" cy="681.713" r="4" fill="#0" id="circle175"/>
	<circle cx="409.094" cy="11.4962" r="4" fill="#0" id="circle176"/>
	<circle cx="410.994" cy="805.816" r="4" fill="#0" id="circle177"/>
	<circle cx="403.539" cy="973.044" r="4" fill="#0" id="circle178"/>
	<circle cx="413.136" cy="222.338" r="4" fill="#0" id="circle179"/>
	<circle cx="412.811" cy="663.693" r="4" fill="#0" id="circle180"/>
	<circle cx="408.106" cy="814.451" r="4" fill="#0" id="circle181"/>
	<circle cx="428.745" cy="650.048" r="4" fill="#0" id="circle182"/>
	<circle cx="419.037" cy="198.389" r="4" fill="#0" id="circle183"/>
	<circle cx="414.348" cy="12.4138" r="4" fill="#0" id="circle184"/>
	<circle cx="416.641" cy="405.09" r="4" fill="#0" id="circle185"/>
	<circle cx="430.103" cy="996" r="4" fill="#0" id="circle186"/>
	<circle cx="421.666" cy="818.339" r="4" fill="#0" id="circle187"/>
	<circle cx="439.247" cy="644.307" r="4" fill="#0" id="circle188"/>
	<circle cx="429.618" cy="194.219" r="4" fill="#0" id="circle189"/>
	<circle cx="453.087" cy="5.13515" r="4" fill="#0" id="circle190"/>
	<circle cx="428.464" cy="385.011" r="4" fill="#0" id="circle191"/>
	<circle cx="449.513" cy="985.571" r="4" fill="#0" id="circle192"/>
	<circle cx="433.673" cy="839.104" r="4" fill="#0" id="circle193"/>
	<circle cx="458.505" cy="637.597" r="4" fill="#0" id="circle194"/>
	<circle cx="456.227" cy="206.075" r="4" fill="#0" id="circle195"/>
	<circle cx="447.282" cy="13.1042" r="4" fill="#0" id="circle196"/>
	<circle cx="465.36" cy="387.234" r="4" fill="#0" id="circle197"/>
	<circle cx="457.187" cy="975.516" r="4" fill="#0" id="circle198"/>
	<circle cx="451.917" cy="819.174" r="4" fill="#0" id="circle199"/>
	<circle cx="469.453" cy="643.88" r="4" fill="#0" id="circle200"/>
	<circle cx="456.655" cy="225.028" r="4" fill="#0" id="circle201"/>
	<circle cx="456.613" cy="365.246" r="4" fill="#0" id="circle202"/>
	<circle cx="467.649" cy="228.489" r="4" fill="#0" id="circle203"/>
	<circle cx="464.204" cy="354.922" r="4" fill="#0" id="circle204"/>
	<circle cx="462.363" cy="802.988" r="4" fill="#0" id="circle205"/>
	<circle cx="466.436" cy="4" r="4" fill="#0" id="circle206"/>
	<circle cx="473.355" cy="246.401" r="4" fill="#0" id="circle207"/>
	<circle cx="477.973" cy="340.689" r="4" fill="#0" id="circle208"/>
	<circle cx="459.103" cy="984.173" r="4" fill="#0" id="circle209"/>
	<circle cx="466.825" cy="668.59" r="4" fill="#0" id="circle210"/>
	<circle cx="459.291" cy="275.196" r="4" fill="#0" id="circle211"/>
	<circle cx="472.301" cy="302.649" r="4" fill="#0" id="circle212"/>
	<circle cx="473.363" cy="279.006" r="4" fill="#0" id="circle213"/>
	<circle cx="464.481" cy="312.615" r="4" fill="#0" id="circle214"/>
	<circle cx="476.917" cy="667.241" r="4" fill="#0" id="circle215"/>
	<circle cx="466.757" cy="779.648" r="4" fill="#0" id="circle216"/>
	<circle cx="478.542" cy="780.548" r="4" fill="#0" id="circle217"/>
	<circle cx="481.723" cy="687.47" r="4" fill="#0" id="circle218"/>
	<circle cx="486.274" cy="701.609" r="4" fill="#0" id="circle219"/>
	<circle cx="468.936" cy="750.041" r="4" fill="#0" id="circle220"/>
	<circle cx="484.993" cy="728.857" r="4" fill="#0" id="circle221"/>
	<circle cx="481.707" cy="742.988" r="4" fill="#0" id="circle222"/>
	<circle cx="490.786" cy="17.4906" r="4" fill="#0" id="circle223"/>
	<circle cx="481.17" cy="971.546" r="4" fill="#0" id="circle224"/>
	<circle cx="488.331" cy="960.502" r="4" fill="#0" id="circle225"/>
	<circle cx="499.001" cy="30.3176" r="4" fill="#0" id="circle226"/>
	<circle cx="500.292" cy="926.333" r="4" fill="#0" id="circle227"/>
	<circle cx="506.193" cy="913.786" r="4" fill="#0" id="circle228"/>
	<circle cx="502.908" cy="30.5264" r="4" fill="#0" id="circle229"/>
	<circle cx="498.31" cy="893.878" r="4" fill="#0" id="circle230"/>
	<circle cx="500.77" cy="891.333" r="4" fill="#0" id="circle231"/>
	<circle cx="504.832" cy="884.411" r="4" fill="#0" id="circle232"/>
	<circle cx="509.484" cy="47.364" r="4" fill="#0" id="circle233"/>
	<circle cx="508.325" cy="852.609" r="4" fill="#0" id="circle234"/>
	<circle cx="514.021" cy="844.47" r="4" fill="#0" id="circle235"/>
	<circle cx="518.691" cy="65.8467" r="4" fill="#0" id="circle236"/>
	<circle cx="509.836" cy="820.916" r="4" fill="#0" id="circle237"/>
	<circle cx="528.009" cy="101.987" r="4" fill="#0" id="circle238"/>
	<circle cx="533.689" cy="101.42" r="4" fill="#0" id="circle239"/>
	<circle cx="530.355" cy="807.365" r="4" fill="#0" id="circle240"/>
	<circle cx="520.183" cy="120.698" r="4" fill="#0" id="circle241"/>
	<circle cx="540.648" cy="808.888" r="4" fill="#0" id="circle242"/>
	<circle cx="533.333" cy="145.253" r="4" fill="#0" id="circle243"/>
	<circle cx="526.832" cy="145.44" r="4" fill="#0" id="circle244"/>
	<circle cx="543.335" cy="785.322" r="4" fill="#0" id="circle245"/>
	<circle cx="529.214" cy="159.962" r="4" fill="#0" id="circle246"/>
	<circle cx="532.665" cy="452.368" r="4" fill="#0" id="circle247"/>
	<circle cx="526.268" cy="192.824" r="4" fill="#0" id="circle248"/>
	<circle cx="548.91" cy="198.5" r="4" fill="#0" id="circle249"/>
	<circle cx="535.756" cy="418.211" r="4" fill="#0" id="circle250"/>
	<circle cx="535.128" cy="774.895" r="4" fill="#0" id="circle251"/>
	<circle cx="551.888" cy="455.852" r="4" fill="#0" id="circle252"/>
	<circle cx="535.38" cy="213.484" r="4" fill="#0" id="circle253"/>
	<circle cx="542.138" cy="601.047" r="4" fill="#0" id="circle254"/>
	<circle cx="557.139" cy="217.874" r="4" fill="#0" id="circle255"/>
	<circle cx="554.07" cy="623.299" r="4" fill="#0" id="circle256"/>
	<circle cx="556.68" cy="407.649" r="4" fill="#0" id="circle257"/>
	<circle cx="547.694" cy="747.847" r="4" fill="#0" id="circle258"/>
	<circle cx="548.281" cy="240.848" r="4" fill="#0" id="circle259"/>
	<circle cx="557.123" cy="584.075" r="4" fill="#0" id="circle260"/>
	<circle cx="551.826" cy="467.929" r="4" fill="#0" id="circle261"/>
	<circle cx="555.465" cy="255.46" r="4" fill="#0" id="circle262"/>
	<circle cx="565.724" cy="642.06" r="4" fill="#0" id="circle263"/>
	<circle cx="563.456" cy="389.147" r="4" fill="#0" id="circle264"/>
	<circle cx="579.62" cy="746.266" r="4" fill="#0" id="circle265"/>
	<circle cx="576.185" cy="603.636" r="4" fill="#0" id="circle266"/>
	<circle cx="569.671" cy="262.173" r="4" fill="#0" id="circle267"/>
	<circle cx="567.635" cy="457.845" r="4" fill="#0" id="circle268"/>
	<circle cx="585.801" cy="657.023" r="4" fill="#0" id="circle269"/>
	<circle cx="582.305" cy="383.02" r="4" fill="#0" id="circle270"/>
	<circle cx="586.534" cy="754.731" r="4" fill="#0" id="circle271"/>
	<circle cx="587.494" cy="607.606" r="4" fill="#0" id="circle272"/>
	<circle cx="586.314" cy="281.818" r="4" fill="#0" id="circle273"/>
	<circle cx="582.855" cy="459.056" r="4" fill="#0" id="circle274"/>
	<circle cx="607.836" cy="669.398" r="4" fill="#0" id="circle275"/>
	<circle cx="598.737" cy="390.166" r="4" fill="#0" id="circle276"/>
	<circle cx="593.447" cy="747.367" r="4" fill="#0" id="circle277"/>
	<circle cx="600.112" cy="598.745" r="4" fill="#0" id="circle278"/>
	<circle cx="615.103" cy="290.726" r="4" fill="#0" id="circle279"/>
	<circle cx="612.396" cy="457.823" r="4" fill="#0" id="circle280"/>
	<circle cx="624.495" cy="671.184" r="4" fill="#0" id="circle281"/>
	<circle cx="611.23" cy="362.652" r="4" fill="#0" id="circle282"/>
	<circle cx="613.692" cy="746.153" r="4" fill="#0" id="circle283"/>
	<circle cx="618.481" cy="587.867" r="4" fill="#0" id="circle284"/>
	<circle cx="631.501" cy="302.725" r="4" fill="#0" id="circle285"/>
	<circle cx="616.211" cy="447.649" r="4" fill="#0" id="circle286"/>
	<circle cx="633.264" cy="690.987" r="4" fill="#0" id="circle287"/>
	<circle cx="623.904" cy="353.423" r="4" fill="#0" id="circle288"/>
	<circle cx="623.772" cy="747.448" r="4" fill="#0" id="circle289"/>
	<circle cx="633.659" cy="596.144" r="4" fill="#0" id="circle290"/>
	<circle cx="622.176" cy="280.92" r="4" fill="#0" id="circle291"/>
	<circle cx="623.583" cy="436.93" r="4" fill="#0" id="circle292"/>
	<circle cx="644.508" cy="688.263" r="4" fill="#0" id="circle293"/>
	<circle cx="648.862" cy="359.873" r="4" fill="#0" id="circle294"/>
	<circle cx="632.364" cy="750.138" r="4" fill="#0" id="circle295"/>
	<circle cx="636.107" cy="598.536" r="4" fill="#0" id="circle296"/>
	<circle cx="656.533" cy="293.029" r="4" fill="#0" id="circle297"/>
	<circle cx="640.864" cy="429.705" r="4" fill="#0" id="circle298"/>
	<circle cx="643.66" cy="700.3" r="4" fill="#0" id="circle299"/>
	<circle cx="648.77" cy="342.949" r="4" fill="#0" id="circle300"/>
	<circle cx="662.756" cy="755.377" r="4" fill="#0" id="circle301"/>
	<circle cx="658.765" cy="615.834" r="4" fill="#0" id="circle302"/>
	<circle cx="659.175" cy="298.309" r="4" fill="#0" id="circle303"/>
	<circle cx="662.963" cy="431.92" r="4" fill="#0" id="circle304"/>
	<circle cx="664.41" cy="686.618" r="4" fill="#0" id="circle305"/>
	<circle cx="677.401" cy="349.405" r="4" fill="#0" id="circle306"/>
	<circle cx="662.897" cy="767.205" r="4" fill="#0" id="circle307"/>
	<circle cx="677.842" cy="632.636" r="4" fill="#0" id="circle308"/>
	<circle cx="672.694" cy="285.061" r="4" fill="#0" id="circle309"/>
	<circle cx="671.905" cy="415.858" r="4" fill="#0" id="circle310"/>
	<circle cx="694.199" cy="698.481" r="4" fill="#0" id="circle311"/>
	<circle cx="682.288" cy="357.617" r="4" fill="#0" id="circle312"/>
	<circle cx="699.294" cy="765.583" r="4" fill="#0" id="circle313"/>
	<circle cx="701.575" cy="622.46" r="4" fill="#0" id="circle314"/>
	<circle cx="688.037" cy="277.03" r="4" fill="#0" id="circle315"/>
	<circle cx="680.529" cy="395.112" r="4" fill="#0" id="circle316"/>
	<circle cx="699.627" cy="503.569" r="4" fill="#0" id="circle317"/>
	<circle cx="697.092" cy="693.271" r="4" fill="#0" id="circle318"/>
	<circle cx="694.466" cy="340.291" r="4" fill="#0" id="circle319"/>
	<circle cx="702.655" cy="528.645" r="4" fill="#0" id="circle320"/>
	<circle cx="684.706" cy="485.765" r="4" fill="#0" id="circle321"/>
	<circle cx="690.321" cy="759.888" r="4" fill="#0" id="circle322"/>
	<circle cx="703.472" cy="650.132" r="4" fill="#0" id="circle323"/>
	<circle cx="688.07" cy="548.464" r="4" fill="#0" id="circle324"/>
	<circle cx="691.545" cy="464.711" r="4" fill="#0" id="circle325"/>
	<circle cx="699.115" cy="269.103" r="4" fill="#0" id="circle326"/>
	<circle cx="711.93" cy="398.137" r="4" fill="#0" id="circle327"/>
	<circle cx="716.637" cy="560.624" r="4" fill="#0" id="circle328"/>
	<circle cx="707.614" cy="708.087" r="4" fill="#0" id="circle329"/>
	<circle cx="720.061" cy="367.664" r="4" fill="#0" id="circle330"/>
	<circle cx="699.524" cy="466.457" r="4" fill="#0" id="circle331"/>
	<circle cx="723.883" cy="781.368" r="4" fill="#0" id="circle332"/>
	<circle cx="713.222" cy="375.33" r="4" fill="#0" id="circle333"/>
	<circle cx="705.076" cy="667.333" r="4" fill="#0" id="circle334"/>
	<circle cx="716.017" cy="287.3" r="4" fill="#0" id="circle335"/>
	<circle cx="721.135" cy="567.132" r="4" fill="#0" id="circle336"/>
	<circle cx="717.987" cy="374.637" r="4" fill="#0" id="circle337"/>
	<circle cx="731.135" cy="429.194" r="4" fill="#0" id="circle338"/>
	<circle cx="722.949" cy="700.62" r="4" fill="#0" id="circle339"/>
	<circle cx="737.983" cy="672.601" r="4" fill="#0" id="circle340"/>
	<circle cx="720.885" cy="769.754" r="4" fill="#0" id="circle341"/>
	<circle cx="734.589" cy="568.037" r="4" fill="#0" id="circle342"/>
	<circle cx="745.374" cy="271.017" r="4" fill="#0" id="circle343"/>
	<circle cx="738.673" cy="676.55" r="4" fill="#0" id="circle344"/>
	<circle cx="733.322" cy="432.677" r="4" fill="#0" id="circle345"/>
	<circle cx="733.061" cy="777.404" r="4" fill="#0" id="circle346"/>
	<circle cx="748.802" cy="606.544" r="4" fill="#0" id="circle347"/>
	<circle cx="740.328" cy="259.173" r="4" fill="#0" id="circle348"/>
	<circle cx="747.508" cy="412.935" r="4" fill="#0" id="circle349"/>
	<circle cx="746.83" cy="790.715" r="4" fill="#0" id="circle350"/>
	<circle cx="752.164" cy="612.925" r="4" fill="#0" id="circle351"/>
	<circle cx="753.366" cy="270.911" r="4" fill="#0" id="circle352"/>
	<circle cx="764.493" cy="419.91" r="4" fill="#0" id="circle353"/>
	<circle cx="782.076" cy="798.849" r="4" fill="#0" id="circle354"/>
	<circle cx="779.676" cy="629.294" r="4" fill="#0" id="circle355"/>
	<circle cx="773.31" cy="270.195" r="4" fill="#0" id="circle356"/>
	<circle cx="770.812" cy="387.535" r="4" fill="#0" id="circle357"/>
	<circle cx="797.428" cy="782.03" r="4" fill="#0" id="circle358"/>
	<circle cx="787.926" cy="637.968" r="4" fill="#0" id="circle359"/>
	<circle cx="787.524" cy="263.561" r="4" fill="#0" id="circle360"/>
	<circle cx="792.981" cy="391.127" r="4" fill="#0" id="circle361"/>
	<circle cx="791.633" cy="784.256" r="4" fill="#0" id="circle362"/>
	<circle cx="800.575" cy="641.286" r="4" fill="#0" id="circle363"/>
	<circle cx="797.942" cy="259.029" r="4" fill="#0" id="circle364"/>
	<circle cx="815.557" cy="378.247" r="4" fill="#0" id="circle365"/>
	<circle cx="813.079" cy="809.061" r="4" fill="#0" id="circle366"/>
	<circle cx="804.094" cy="659.539" r="4" fill="#0" id="circle367"/>
	<circle cx="825.858" cy="249.114" r="4" fill="#0" id="circle368"/>
	<circle cx="826.121" cy="377.817" r="4" fill="#0" id="circle369"/>
	<circle cx="823.514" cy="791.01" r="4" fill="#0" id="circle370"/>
	<circle cx="831.077" cy="674.524" r="4" fill="#0" id="circle371"/>
	<circle cx="826.947" cy="253.424" r="4" fill="#0" id="circle372"/>
	<circle cx="845.178" cy="356.455" r="4" fill="#0" id="circle373"/>
	<circle cx="848.753" cy="785.184" r="4" fill="#0" id="circle374"/>
	<circle cx="855.782" cy="672.923" r="4" fill="#0" id="circle375"/>
	<circle cx="837.186" cy="248.056" r="4" fill="#0" id="circle376"/>
	<circle cx="856.527" cy="348.289" r="4" fill="#0" id="circle377"/>
	<circle cx="854.166" cy="686.744" r="4" fill="#0" id="circle378"/>
	<circle cx="862.782" cy="786.061" r="4" fill="#0" id="circle379"/>
	<circle cx="871.813" cy="255.655" r="4" fill="#0" id="circle380"/>
	<circle cx="855.418" cy="337.331" r="4" fill="#0" id="circle381"/>
	<circle cx="863.158" cy="701.32" r="4" fill="#0" id="circle382"/>
	<circle cx="854.276" cy="759.161" r="4" fill="#0" id="circle383"/>
	<circle cx="877.511" cy="270.535" r="4" fill="#0" id="circle384"/>
	<circle cx="882.022" cy="736.747" r="4" fill="#0" id="circle385"/>
	<circle cx="884.99" cy="750.354" r="4" fill="#0" id="circle386"/>
	<circle cx="882.224" cy="321.292" r="4" fill="#0" id="circle387"/>
	<circle cx="865.002" cy="736.004" r="4" fill="#0" id="circle388"/>
	<circle cx="882.694" cy="292.369" r="4" fill="#0" id="circle389"/>
	<circle cx="892.317" cy="312.737" r="4" fill="#0" id="circle390"/>
	<circle cx="874.762" cy="311.167" r="4" fill="#0" id="circle391"/>
	<circle cx="895.791" cy="297.473" r="4" fill="#0" id="circle392"/>
	</g>
</svg>