<?xml version="1.0" encoding="UTF-8" standalone="no"?>
<!-- Created with CurveBenchmark -->
<svg
	xmlns:dc="http://purl.org/dc/elements/1.1/"
	xmlns:cc="http://creativecommons.org/ns#"
	xmlns:rdf="http://www.w3.org/1999/02/22-rdf-syntax-ns#"
	xmlns:svg="http://www.w3.org/2000/svg"
	xmlns="http://www.w3.org/2000/svg"
	xmlns:sodipodi="http://sodipodi.sourceforge.net/DTD/sodipodi-0.dtd"
	xmlns:inkscape="http://www.inkscape.org/namespaces/inkscape"
	width="1000"
	height="1000"
	id="svg2"
	version="1.1"
	sodipodi:docname="noisy-0.01/fitconnect-mc32.txt">
<defs
	id="defs4" />
<metadata
	id="metadata7">
	<rdf:RDF>
		<cc:Work
			rdf:about="">
			<dc:format>image/svg+xml</dc:format>
			<dc:type
				rdf:resource="http://purl.org/dc/dcmitype/StillImage" />
			<dc:title></dc:title>
		</cc:Work>
	</rdf:RDF>
</metadata>
<g
	inkscape:label="Layer 1"
	inkscape:groupmode="layer"
	id="layer1">
	<path style="fill:none;stroke:red;stroke-width:1px;stroke-linecap:butt;stroke-linejoin:miter;stroke-opacity:1" d="M 4,139.552 26.8953,169.575 z" id="boundary" inkscape:connector-curvature="0" />
	<path style="fill:none;stroke:red;stroke-width:1px;stroke-linecap:butt;stroke-linejoin:miter;stroke-opacity:1" d="M 4,139.552 11.9778,97.3508 z" id="boundary" inkscape:connector-curvature="0" />
	<path style="fill:none;stroke:red;stroke-width:1px;stroke-linecap:butt;stroke-linejoin:miter;stroke-opacity:1" d="M 343.567,224.854 326.233,249.506 z" id="boundary" inkscape:connector-curvature="0" />
	<path style="fill:none;stroke:red;stroke-width:1px;stroke-linecap:butt;stroke-linejoin:miter;stroke-opacity:1" d="M 343.567,224.854 760.637,545.872 z" id="boundary" inkscape:connector-curvature="0" />
	<path style="fill:none;stroke:red;stroke-width:1px;stroke-linecap:butt;stroke-linejoin:miter;stroke-opacity:1" d="M 326.233,249.506 282.98,243.034 z" id="boundary" inkscape:connector-curvature="0" />
	<path style="fill:none;stroke:red;stroke-width:1px;stroke-linecap:butt;stroke-linejoin:miter;stroke-opacity:1" d="M 282.98,243.034 262.212,267.897 z" id="boundary" inkscape:connector-curvature="0" />
	<path style="fill:none;stroke:red;stroke-width:1px;stroke-linecap:butt;stroke-linejoin:miter;stroke-opacity:1" d="M 262.212,267.897 181.446,89.9616 z" id="boundary" inkscape:connector-curvature="0" />
	<path style="fill:none;stroke:red;stroke-width:1px;stroke-linecap:butt;stroke-linejoin:miter;stroke-opacity:1" d="M 84.9893,257.096 42.1715,278.71 z" id="boundary" inkscape:connector-curvature="0" />
	<path style="fill:none;stroke:red;stroke-width:1px;stroke-linecap:butt;stroke-linejoin:miter;stroke-opacity:1" d="M 42.1715,278.71 20.1974,294.186 z" id="boundary" inkscape:connector-curvature="0" />
	<path style="fill:none;stroke:red;stroke-width:1px;stroke-linecap:butt;stroke-linejoin:miter;stroke-opacity:1" d="M 20.1974,294.186 32.9626,332.461 z" id="boundary" inkscape:connector-curvature="0" />
	<path style="fill:none;stroke:red;stroke-width:1px;stroke-linecap:butt;stroke-linejoin:miter;stroke-opacity:1" d="M 11.9778,97.3508 44.74,54.2082 z" id="boundary" inkscape:connector-curvature="0" />
	<path style="fill:none;stroke:red;stroke-width:1px;stroke-linecap:butt;stroke-linejoin:miter;stroke-opacity:1" d="M 44.74,54.2082 72.0665,80.1068 z" id="boundary" inkscape:connector-curvature="0" />
	<path style="fill:none;stroke:red;stroke-width:1px;stroke-linecap:butt;stroke-linejoin:miter;stroke-opacity:1" d="M 72.0665,80.1068 139.099,80.0288 z" id="boundary" inkscape:connector-curvature="0" />
	<path style="fill:none;stroke:red;stroke-width:1px;stroke-linecap:butt;stroke-linejoin:miter;stroke-opacity:1" d="M 181.446,89.9616 277.34,45.7118 z" id="boundary" inkscape:connector-curvature="0" />
	<path style="fill:none;stroke:red;stroke-width:1px;stroke-linecap:butt;stroke-linejoin:miter;stroke-opacity:1" d="M 277.34,45.7118 329.35,17.2075 z" id="boundary" inkscape:connector-curvature="0" />
	<path style="fill:none;stroke:red;stroke-width:1px;stroke-linecap:butt;stroke-linejoin:miter;stroke-opacity:1" d="M 329.35,17.2075 372.121,4 z" id="boundary" inkscape:connector-curvature="0" />
	<path style="fill:none;stroke:red;stroke-width:1px;stroke-linecap:butt;stroke-linejoin:miter;stroke-opacity:1" d="M 372.121,4 427.712,42.4065 z" id="boundary" inkscape:connector-curvature="0" />
	<path style="fill:none;stroke:red;stroke-width:1px;stroke-linecap:butt;stroke-linejoin:miter;stroke-opacity:1" d="M 427.712,42.4065 456.233,84.8893 z" id="boundary" inkscape:connector-curvature="0" />
	<path style="fill:none;stroke:red;stroke-width:1px;stroke-linecap:butt;stroke-linejoin:miter;stroke-opacity:1" d="M 456.233,84.8893 528.007,35.4575 z" id="boundary" inkscape:connector-curvature="0" />
	<path style="fill:none;stroke:red;stroke-width:1px;stroke-linecap:butt;stroke-linejoin:miter;stroke-opacity:1" d="M 528.007,35.4575 609.919,37.9492 z" id="boundary" inkscape:connector-curvature="0" />
	<path style="fill:none;stroke:red;stroke-width:1px;stroke-linecap:butt;stroke-linejoin:miter;stroke-opacity:1" d="M 334.182,547.568 324.644,584.683 z" id="boundary" inkscape:connector-curvature="0" />
	<path style="fill:none;stroke:red;stroke-width:1px;stroke-linecap:butt;stroke-linejoin:miter;stroke-opacity:1" d="M 334.182,547.568 124.739,691.119 z" id="boundary" inkscape:connector-curvature="0" />
	<path style="fill:none;stroke:red;stroke-width:1px;stroke-linecap:butt;stroke-linejoin:miter;stroke-opacity:1" d="M 324.644,584.683 385.833,582.053 z" id="boundary" inkscape:connector-curvature="0" />
	<path style="fill:none;stroke:red;stroke-width:1px;stroke-linecap:butt;stroke-linejoin:miter;stroke-opacity:1" d="M 385.833,582.053 427.575,581.188 z" id="boundary" inkscape:connector-curvature="0" />
	<path style="fill:none;stroke:red;stroke-width:1px;stroke-linecap:butt;stroke-linejoin:miter;stroke-opacity:1" d="M 427.575,581.188 465.359,448.887 z" id="boundary" inkscape:connector-curvature="0" />
	<path style="fill:none;stroke:red;stroke-width:1px;stroke-linecap:butt;stroke-linejoin:miter;stroke-opacity:1" d="M 465.359,448.887 657.915,507.842 z" id="boundary" inkscape:connector-curvature="0" />
	<path style="fill:none;stroke:red;stroke-width:1px;stroke-linecap:butt;stroke-linejoin:miter;stroke-opacity:1" d="M 657.915,507.842 812.221,745.534 z" id="boundary" inkscape:connector-curvature="0" />
	<path style="fill:none;stroke:red;stroke-width:1px;stroke-linecap:butt;stroke-linejoin:miter;stroke-opacity:1" d="M 760.637,545.872 981.969,614.007 z" id="boundary" inkscape:connector-curvature="0" />
	<path style="fill:none;stroke:red;stroke-width:1px;stroke-linecap:butt;stroke-linejoin:miter;stroke-opacity:1" d="M 609.919,37.9492 649.503,99.3912 z" id="boundary" inkscape:connector-curvature="0" />
	<path style="fill:none;stroke:red;stroke-width:1px;stroke-linecap:butt;stroke-linejoin:miter;stroke-opacity:1" d="M 649.503,99.3912 733.083,116.037 z" id="boundary" inkscape:connector-curvature="0" />
	<path style="fill:none;stroke:red;stroke-width:1px;stroke-linecap:butt;stroke-linejoin:miter;stroke-opacity:1" d="M 733.083,116.037 790.124,82.1897 z" id="boundary" inkscape:connector-curvature="0" />
	<path style="fill:none;stroke:red;stroke-width:1px;stroke-linecap:butt;stroke-linejoin:miter;stroke-opacity:1" d="M 790.124,82.1897 858.741,124.13 z" id="boundary" inkscape:connector-curvature="0" />
	<path style="fill:none;stroke:red;stroke-width:1px;stroke-linecap:butt;stroke-linejoin:miter;stroke-opacity:1" d="M 858.741,124.13 838.993,200.206 z" id="boundary" inkscape:connector-curvature="0" />
	<path style="fill:none;stroke:red;stroke-width:1px;stroke-linecap:butt;stroke-linejoin:miter;stroke-opacity:1" d="M 838.993,200.206 934.721,216.83 z" id="boundary" inkscape:connector-curvature="0" />
	<path style="fill:none;stroke:red;stroke-width:1px;stroke-linecap:butt;stroke-linejoin:miter;stroke-opacity:1" d="M 934.721,216.83 996,315.92 z" id="boundary" inkscape:connector-curvature="0" />
	<path style="fill:none;stroke:red;stroke-width:1px;stroke-linecap:butt;stroke-linejoin:miter;stroke-opacity:1" d="M 996,315.92 945.278,360.917 z" id="boundary" inkscape:connector-curvature="0" />
	<path style="fill:none;stroke:red;stroke-width:1px;stroke-linecap:butt;stroke-linejoin:miter;stroke-opacity:1" d="M 945.278,360.917 992.691,423.88 z" id="boundary" inkscape:connector-curvature="0" />
	<path style="fill:none;stroke:red;stroke-width:1px;stroke-linecap:butt;stroke-linejoin:miter;stroke-opacity:1" d="M 992.691,423.88 955.589,479.65 z" id="boundary" inkscape:connector-curvature="0" />
	<path style="fill:none;stroke:red;stroke-width:1px;stroke-linecap:butt;stroke-linejoin:miter;stroke-opacity:1" d="M 955.589,479.65 982.08,528.841 z" id="boundary" inkscape:connector-curvature="0" />
	<path style="fill:none;stroke:red;stroke-width:1px;stroke-linecap:butt;stroke-linejoin:miter;stroke-opacity:1" d="M 982.08,528.841 981.969,614.007 z" id="boundary" inkscape:connector-curvature="0" />
	<path style="fill:none;stroke:red;stroke-width:1px;stroke-linecap:butt;stroke-linejoin:miter;stroke-opacity:1" d="M 812.221,745.534 625.301,730.923 z" id="boundary" inkscape:connector-curvature="0" />
	<path style="fill:none;stroke:red;stroke-width:1px;stroke-linecap:butt;stroke-linejoin:miter;stroke-opacity:1" d="M 392.786,845.22 260.316,809.411 z" id="boundary" inkscape:connector-curvature="0" />
	<path style="fill:none;stroke:red;stroke-width:1px;stroke-linecap:butt;stroke-linejoin:miter;stroke-opacity:1" d="M 392.786,845.22 407.841,758.817 z" id="boundary" inkscape:connector-curvature="0" />
	<path style="fill:none;stroke:red;stroke-width:1px;stroke-linecap:butt;stroke-linejoin:miter;stroke-opacity:1" d="M 260.316,809.411 239.754,822.424 z" id="boundary" inkscape:connector-curvature="0" />
	<path style="fill:none;stroke:red;stroke-width:1px;stroke-linecap:butt;stroke-linejoin:miter;stroke-opacity:1" d="M 239.754,822.424 181.544,780.73 z" id="boundary" inkscape:connector-curvature="0" />
	<path style="fill:none;stroke:red;stroke-width:1px;stroke-linecap:butt;stroke-linejoin:miter;stroke-opacity:1" d="M 181.544,780.73 124.739,691.119 z" id="boundary" inkscape:connector-curvature="0" />
	<path style="fill:none;stroke:red;stroke-width:1px;stroke-linecap:butt;stroke-linejoin:miter;stroke-opacity:1" d="M 407.841,758.817 452.096,757.714 z" id="boundary" inkscape:connector-curvature="0" />
	<path style="fill:none;stroke:red;stroke-width:1px;stroke-linecap:butt;stroke-linejoin:miter;stroke-opacity:1" d="M 452.096,757.714 572.016,738.723 z" id="boundary" inkscape:connector-curvature="0" />
	<path style="fill:none;stroke:red;stroke-width:1px;stroke-linecap:butt;stroke-linejoin:miter;stroke-opacity:1" d="M 572.016,738.723 625.301,730.923 z" id="boundary" inkscape:connector-curvature="0" />
	<circle cx="4" cy="139.552" r="4" fill="#0" id="circle0"/>
	<circle cx="26.8953" cy="169.575" r="4" fill="#0" id="circle1"/>
	<circle cx="52.5932" cy="144.202" r="4" fill="#0" id="circle2"/>
	<circle cx="89.8668" cy="169.808" r="4" fill="#0" id="circle3"/>
	<circle cx="119.127" cy="134.785" r="4" fill="#0" id="circle4"/>
	<circle cx="139.483" cy="173.604" r="4" fill="#0" id="circle5"/>
	<circle cx="167.401" cy="136.006" r="4" fill="#0" id="circle6"/>
	<circle cx="183.533" cy="165.893" r="4" fill="#0" id="circle7"/>
	<circle cx="222.02" cy="130.651" r="4" fill="#0" id="circle8"/>
	<circle cx="264.777" cy="174.082" r="4" fill="#0" id="circle9"/>
	<circle cx="298.104" cy="153.443" r="4" fill="#0" id="circle10"/>
	<circle cx="315.823" cy="178.981" r="4" fill="#0" id="circle11"/>
	<circle cx="335.413" cy="169.172" r="4" fill="#0" id="circle12"/>
	<circle cx="376.557" cy="197.341" r="4" fill="#0" id="circle13"/>
	<circle cx="343.567" cy="224.854" r="4" fill="#0" id="circle14"/>
	<circle cx="326.233" cy="249.506" r="4" fill="#0" id="circle15"/>
	<circle cx="282.98" cy="243.034" r="4" fill="#0" id="circle16"/>
	<circle cx="262.212" cy="267.897" r="4" fill="#0" id="circle17"/>
	<circle cx="235.255" cy="215.852" r="4" fill="#0" id="circle18"/>
	<circle cx="210.553" cy="261.252" r="4" fill="#0" id="circle19"/>
	<circle cx="173.874" cy="220.506" r="4" fill="#0" id="circle20"/>
	<circle cx="156.288" cy="257.901" r="4" fill="#0" id="circle21"/>
	<circle cx="129.817" cy="231.12" r="4" fill="#0" id="circle22"/>
	<circle cx="84.9893" cy="257.096" r="4" fill="#0" id="circle23"/>
	<circle cx="79.1969" cy="215.874" r="4" fill="#0" id="circle24"/>
	<circle cx="42.1715" cy="278.71" r="4" fill="#0" id="circle25"/>
	<circle cx="20.1974" cy="294.186" r="4" fill="#0" id="circle26"/>
	<circle cx="32.9626" cy="332.461" r="4" fill="#0" id="circle27"/>
	<circle cx="114.92" cy="340.882" r="4" fill="#0" id="circle28"/>
	<circle cx="144.749" cy="339.728" r="4" fill="#0" id="circle29"/>
	<circle cx="201.745" cy="316.268" r="4" fill="#0" id="circle30"/>
	<circle cx="234.476" cy="319.898" r="4" fill="#0" id="circle31"/>
	<circle cx="301.553" cy="348.388" r="4" fill="#0" id="circle32"/>
	<circle cx="360.473" cy="332.102" r="4" fill="#0" id="circle33"/>
	<circle cx="406.824" cy="304.548" r="4" fill="#0" id="circle34"/>
	<circle cx="11.9778" cy="97.3508" r="4" fill="#0" id="circle35"/>
	<circle cx="44.74" cy="54.2082" r="4" fill="#0" id="circle36"/>
	<circle cx="72.0665" cy="80.1068" r="4" fill="#0" id="circle37"/>
	<circle cx="139.099" cy="80.0288" r="4" fill="#0" id="circle38"/>
	<circle cx="181.446" cy="89.9616" r="4" fill="#0" id="circle39"/>
	<circle cx="230.426" cy="94.2358" r="4" fill="#0" id="circle40"/>
	<circle cx="277.34" cy="45.7118" r="4" fill="#0" id="circle41"/>
	<circle cx="287.227" cy="59.5531" r="4" fill="#0" id="circle42"/>
	<circle cx="328.684" cy="65.7977" r="4" fill="#0" id="circle43"/>
	<circle cx="320.207" cy="90.8661" r="4" fill="#0" id="circle44"/>
	<circle cx="324.81" cy="94.0124" r="4" fill="#0" id="circle45"/>
	<circle cx="342.709" cy="66.445" r="4" fill="#0" id="circle46"/>
	<circle cx="318.003" cy="34.6754" r="4" fill="#0" id="circle47"/>
	<circle cx="329.35" cy="17.2075" r="4" fill="#0" id="circle48"/>
	<circle cx="372.121" cy="4" r="4" fill="#0" id="circle49"/>
	<circle cx="427.712" cy="42.4065" r="4" fill="#0" id="circle50"/>
	<circle cx="456.233" cy="84.8893" r="4" fill="#0" id="circle51"/>
	<circle cx="528.007" cy="35.4575" r="4" fill="#0" id="circle52"/>
	<circle cx="545.867" cy="97.8404" r="4" fill="#0" id="circle53"/>
	<circle cx="414.205" cy="384.795" r="4" fill="#0" id="circle54"/>
	<circle cx="389.754" cy="445.113" r="4" fill="#0" id="circle55"/>
	<circle cx="378.164" cy="508.001" r="4" fill="#0" id="circle56"/>
	<circle cx="334.182" cy="547.568" r="4" fill="#0" id="circle57"/>
	<circle cx="324.644" cy="584.683" r="4" fill="#0" id="circle58"/>
	<circle cx="385.833" cy="582.053" r="4" fill="#0" id="circle59"/>
	<circle cx="427.575" cy="581.188" r="4" fill="#0" id="circle60"/>
	<circle cx="448.279" cy="514.777" r="4" fill="#0" id="circle61"/>
	<circle cx="465.359" cy="448.887" r="4" fill="#0" id="circle62"/>
	<circle cx="504.364" cy="393.037" r="4" fill="#0" id="circle63"/>
	<circle cx="532.352" cy="352.441" r="4" fill="#0" id="circle64"/>
	<circle cx="605.073" cy="427.374" r="4" fill="#0" id="circle65"/>
	<circle cx="657.915" cy="507.842" r="4" fill="#0" id="circle66"/>
	<circle cx="760.637" cy="545.872" r="4" fill="#0" id="circle67"/>
	<circle cx="609.919" cy="37.9492" r="4" fill="#0" id="circle68"/>
	<circle cx="649.503" cy="99.3912" r="4" fill="#0" id="circle69"/>
	<circle cx="701.533" cy="33.3667" r="4" fill="#0" id="circle70"/>
	<circle cx="733.083" cy="116.037" r="4" fill="#0" id="circle71"/>
	<circle cx="790.124" cy="82.1897" r="4" fill="#0" id="circle72"/>
	<circle cx="784.82" cy="140.832" r="4" fill="#0" id="circle73"/>
	<circle cx="858.741" cy="124.13" r="4" fill="#0" id="circle74"/>
	<circle cx="838.993" cy="200.206" r="4" fill="#0" id="circle75"/>
	<circle cx="934.721" cy="216.83" r="4" fill="#0" id="circle76"/>
	<circle cx="902.883" cy="288.841" r="4" fill="#0" id="circle77"/>
	<circle cx="996" cy="315.92" r="4" fill="#0" id="circle78"/>
	<circle cx="945.278" cy="360.917" r="4" fill="#0" id="circle79"/>
	<circle cx="992.691" cy="423.88" r="4" fill="#0" id="circle80"/>
	<circle cx="955.589" cy="479.65" r="4" fill="#0" id="circle81"/>
	<circle cx="982.08" cy="528.841" r="4" fill="#0" id="circle82"/>
	<circle cx="934.165" cy="561.173" r="4" fill="#0" id="circle83"/>
	<circle cx="981.969" cy="614.007" r="4" fill="#0" id="circle84"/>
	<circle cx="924.522" cy="643.885" r="4" fill="#0" id="circle85"/>
	<circle cx="967.547" cy="692.313" r="4" fill="#0" id="circle86"/>
	<circle cx="881.427" cy="701.909" r="4" fill="#0" id="circle87"/>
	<circle cx="902.708" cy="767.332" r="4" fill="#0" id="circle88"/>
	<circle cx="812.221" cy="745.534" r="4" fill="#0" id="circle89"/>
	<circle cx="806.157" cy="813.289" r="4" fill="#0" id="circle90"/>
	<circle cx="739.416" cy="785.878" r="4" fill="#0" id="circle91"/>
	<circle cx="716.722" cy="856.106" r="4" fill="#0" id="circle92"/>
	<circle cx="659.463" cy="797.743" r="4" fill="#0" id="circle93"/>
	<circle cx="635.648" cy="842.575" r="4" fill="#0" id="circle94"/>
	<circle cx="588.15" cy="800.104" r="4" fill="#0" id="circle95"/>
	<circle cx="552.789" cy="846.796" r="4" fill="#0" id="circle96"/>
	<circle cx="541.034" cy="803.372" r="4" fill="#0" id="circle97"/>
	<circle cx="490.087" cy="833.944" r="4" fill="#0" id="circle98"/>
	<circle cx="458.734" cy="795.954" r="4" fill="#0" id="circle99"/>
	<circle cx="435.344" cy="838.842" r="4" fill="#0" id="circle100"/>
	<circle cx="407.536" cy="792.536" r="4" fill="#0" id="circle101"/>
	<circle cx="392.786" cy="845.22" r="4" fill="#0" id="circle102"/>
	<circle cx="375.418" cy="796.72" r="4" fill="#0" id="circle103"/>
	<circle cx="336.091" cy="845.774" r="4" fill="#0" id="circle104"/>
	<circle cx="312.491" cy="811.85" r="4" fill="#0" id="circle105"/>
	<circle cx="292.962" cy="842.129" r="4" fill="#0" id="circle106"/>
	<circle cx="260.316" cy="809.411" r="4" fill="#0" id="circle107"/>
	<circle cx="239.754" cy="822.424" r="4" fill="#0" id="circle108"/>
	<circle cx="225.887" cy="791.054" r="4" fill="#0" id="circle109"/>
	<circle cx="181.544" cy="780.73" r="4" fill="#0" id="circle110"/>
	<circle cx="154.298" cy="752.444" r="4" fill="#0" id="circle111"/>
	<circle cx="119.725" cy="727.224" r="4" fill="#0" id="circle112"/>
	<circle cx="127.926" cy="754.116" r="4" fill="#0" id="circle113"/>
	<circle cx="124.739" cy="691.119" r="4" fill="#0" id="circle114"/>
	<circle cx="142.475" cy="715.228" r="4" fill="#0" id="circle115"/>
	<circle cx="188.929" cy="720.32" r="4" fill="#0" id="circle116"/>
	<circle cx="217.156" cy="757.028" r="4" fill="#0" id="circle117"/>
	<circle cx="259.871" cy="751.531" r="4" fill="#0" id="circle118"/>
	<circle cx="297.313" cy="760.984" r="4" fill="#0" id="circle119"/>
	<circle cx="352.342" cy="754.632" r="4" fill="#0" id="circle120"/>
	<circle cx="407.841" cy="758.817" r="4" fill="#0" id="circle121"/>
	<circle cx="452.096" cy="757.714" r="4" fill="#0" id="circle122"/>
	<circle cx="510.422" cy="760.843" r="4" fill="#0" id="circle123"/>
	<circle cx="572.016" cy="738.723" r="4" fill="#0" id="circle124"/>
	<circle cx="625.301" cy="730.923" r="4" fill="#0" id="circle125"/>
	<circle cx="695.436" cy="722.021" r="4" fill="#0" id="circle126"/>
	<circle cx="748.791" cy="680.207" r="4" fill="#0" id="circle127"/>
	<circle cx="806.115" cy="616.758" r="4" fill="#0" id="circle128"/>
	</g>
</svg>