<?xml version="1.0" encoding="UTF-8" standalone="no"?>
<!-- Created with CurveBenchmark -->
<svg
	xmlns:dc="http://purl.org/dc/elements/1.1/"
	xmlns:cc="http://creativecommons.org/ns#"
	xmlns:rdf="http://www.w3.org/1999/02/22-rdf-syntax-ns#"
	xmlns:svg="http://www.w3.org/2000/svg"
	xmlns="http://www.w3.org/2000/svg"
	xmlns:sodipodi="http://sodipodi.sourceforge.net/DTD/sodipodi-0.dtd"
	xmlns:inkscape="http://www.inkscape.org/namespaces/inkscape"
	width="1000"
	height="1000"
	id="svg2"
	version="1.1"
	sodipodi:docname="noisy-0.01/gathang-mc44.txt">
<defs
	id="defs4" />
<metadata
	id="metadata7">
	<rdf:RDF>
		<cc:Work
			rdf:about="">
			<dc:format>image/svg+xml</dc:format>
			<dc:type
				rdf:resource="http://purl.org/dc/dcmitype/StillImage" />
			<dc:title></dc:title>
		</cc:Work>
	</rdf:RDF>
</metadata>
<g
	inkscape:label="Layer 1"
	inkscape:groupmode="layer"
	id="layer1">
	<path style="fill:none;stroke:red;stroke-width:1px;stroke-linecap:butt;stroke-linejoin:miter;stroke-opacity:1" d="M 65.2963,78.763 56.1072,92.1911 z" id="boundary" inkscape:connector-curvature="0" />
	<path style="fill:none;stroke:red;stroke-width:1px;stroke-linecap:butt;stroke-linejoin:miter;stroke-opacity:1" d="M 56.1072,92.1911 49.6375,92.6464 z" id="boundary" inkscape:connector-curvature="0" />
	<path style="fill:none;stroke:red;stroke-width:1px;stroke-linecap:butt;stroke-linejoin:miter;stroke-opacity:1" d="M 64.4279,66.0287 72.2033,60.7101 z" id="boundary" inkscape:connector-curvature="0" />
	<path style="fill:none;stroke:red;stroke-width:1px;stroke-linecap:butt;stroke-linejoin:miter;stroke-opacity:1" d="M 105.567,32.4632 104.395,42.1437 z" id="boundary" inkscape:connector-curvature="0" />
	<path style="fill:none;stroke:red;stroke-width:1px;stroke-linecap:butt;stroke-linejoin:miter;stroke-opacity:1" d="M 19.5017,151.679 8.75186,159.696 z" id="boundary" inkscape:connector-curvature="0" />
	<path style="fill:none;stroke:red;stroke-width:1px;stroke-linecap:butt;stroke-linejoin:miter;stroke-opacity:1" d="M 36.3977,114.882 21.993,128.049 z" id="boundary" inkscape:connector-curvature="0" />
	<path style="fill:none;stroke:red;stroke-width:1px;stroke-linecap:butt;stroke-linejoin:miter;stroke-opacity:1" d="M 49.6375,92.6464 36.3977,114.882 z" id="boundary" inkscape:connector-curvature="0" />
	<path style="fill:none;stroke:red;stroke-width:1px;stroke-linecap:butt;stroke-linejoin:miter;stroke-opacity:1" d="M 38.6127,134.981 38.2623,150.912 z" id="boundary" inkscape:connector-curvature="0" />
	<path style="fill:none;stroke:red;stroke-width:1px;stroke-linecap:butt;stroke-linejoin:miter;stroke-opacity:1" d="M 104.395,42.1437 119.247,39.3202 z" id="boundary" inkscape:connector-curvature="0" />
	<path style="fill:none;stroke:red;stroke-width:1px;stroke-linecap:butt;stroke-linejoin:miter;stroke-opacity:1" d="M 190.61,10.2884 153.966,24.6034 z" id="boundary" inkscape:connector-curvature="0" />
	<path style="fill:none;stroke:red;stroke-width:1px;stroke-linecap:butt;stroke-linejoin:miter;stroke-opacity:1" d="M 153.966,24.6034 137.562,12.7049 z" id="boundary" inkscape:connector-curvature="0" />
	<path style="fill:none;stroke:red;stroke-width:1px;stroke-linecap:butt;stroke-linejoin:miter;stroke-opacity:1" d="M 202.439,5.04114 190.61,10.2884 z" id="boundary" inkscape:connector-curvature="0" />
	<path style="fill:none;stroke:red;stroke-width:1px;stroke-linecap:butt;stroke-linejoin:miter;stroke-opacity:1" d="M 202.439,5.04114 209.091,4 z" id="boundary" inkscape:connector-curvature="0" />
	<path style="fill:none;stroke:red;stroke-width:1px;stroke-linecap:butt;stroke-linejoin:miter;stroke-opacity:1" d="M 233.652,24.7854 210.472,22.0835 z" id="boundary" inkscape:connector-curvature="0" />
	<path style="fill:none;stroke:red;stroke-width:1px;stroke-linecap:butt;stroke-linejoin:miter;stroke-opacity:1" d="M 210.472,22.0835 168.637,25.7287 z" id="boundary" inkscape:connector-curvature="0" />
	<path style="fill:none;stroke:red;stroke-width:1px;stroke-linecap:butt;stroke-linejoin:miter;stroke-opacity:1" d="M 137.562,12.7049 127.088,31.0515 z" id="boundary" inkscape:connector-curvature="0" />
	<path style="fill:none;stroke:red;stroke-width:1px;stroke-linecap:butt;stroke-linejoin:miter;stroke-opacity:1" d="M 148.919,35.3045 119.247,39.3202 z" id="boundary" inkscape:connector-curvature="0" />
	<path style="fill:none;stroke:red;stroke-width:1px;stroke-linecap:butt;stroke-linejoin:miter;stroke-opacity:1" d="M 148.919,35.3045 168.637,25.7287 z" id="boundary" inkscape:connector-curvature="0" />
	<path style="fill:none;stroke:red;stroke-width:1px;stroke-linecap:butt;stroke-linejoin:miter;stroke-opacity:1" d="M 244.8,24.1422 233.652,24.7854 z" id="boundary" inkscape:connector-curvature="0" />
	<path style="fill:none;stroke:red;stroke-width:1px;stroke-linecap:butt;stroke-linejoin:miter;stroke-opacity:1" d="M 6.25673,215.795 7.19603,218.471 z" id="boundary" inkscape:connector-curvature="0" />
	<path style="fill:none;stroke:red;stroke-width:1px;stroke-linecap:butt;stroke-linejoin:miter;stroke-opacity:1" d="M 7.19603,218.471 4,248.773 z" id="boundary" inkscape:connector-curvature="0" />
	<path style="fill:none;stroke:red;stroke-width:1px;stroke-linecap:butt;stroke-linejoin:miter;stroke-opacity:1" d="M 6.25673,215.795 19.7716,192.819 z" id="boundary" inkscape:connector-curvature="0" />
	<path style="fill:none;stroke:red;stroke-width:1px;stroke-linecap:butt;stroke-linejoin:miter;stroke-opacity:1" d="M 18.157,180.921 19.7716,192.819 z" id="boundary" inkscape:connector-curvature="0" />
	<path style="fill:none;stroke:red;stroke-width:1px;stroke-linecap:butt;stroke-linejoin:miter;stroke-opacity:1" d="M 18.157,180.921 8.75186,159.696 z" id="boundary" inkscape:connector-curvature="0" />
	<path style="fill:none;stroke:red;stroke-width:1px;stroke-linecap:butt;stroke-linejoin:miter;stroke-opacity:1" d="M 32.2666,278.08 22.8771,269.485 z" id="boundary" inkscape:connector-curvature="0" />
	<path style="fill:none;stroke:red;stroke-width:1px;stroke-linecap:butt;stroke-linejoin:miter;stroke-opacity:1" d="M 36.6959,284.194 32.2666,278.08 z" id="boundary" inkscape:connector-curvature="0" />
	<path style="fill:none;stroke:red;stroke-width:1px;stroke-linecap:butt;stroke-linejoin:miter;stroke-opacity:1" d="M 36.9564,304.257 41.6816,312.333 z" id="boundary" inkscape:connector-curvature="0" />
	<path style="fill:none;stroke:red;stroke-width:1px;stroke-linecap:butt;stroke-linejoin:miter;stroke-opacity:1" d="M 36.9564,304.257 36.6959,284.194 z" id="boundary" inkscape:connector-curvature="0" />
	<path style="fill:none;stroke:red;stroke-width:1px;stroke-linecap:butt;stroke-linejoin:miter;stroke-opacity:1" d="M 49.1134,361.961 44.8583,384.764 z" id="boundary" inkscape:connector-curvature="0" />
	<path style="fill:none;stroke:red;stroke-width:1px;stroke-linecap:butt;stroke-linejoin:miter;stroke-opacity:1" d="M 49.1134,361.961 57.4121,362.734 z" id="boundary" inkscape:connector-curvature="0" />
	<path style="fill:none;stroke:red;stroke-width:1px;stroke-linecap:butt;stroke-linejoin:miter;stroke-opacity:1" d="M 60.4567,329.937 49.84,322.973 z" id="boundary" inkscape:connector-curvature="0" />
	<path style="fill:none;stroke:red;stroke-width:1px;stroke-linecap:butt;stroke-linejoin:miter;stroke-opacity:1" d="M 69.003,391.434 44.8583,384.764 z" id="boundary" inkscape:connector-curvature="0" />
	<path style="fill:none;stroke:red;stroke-width:1px;stroke-linecap:butt;stroke-linejoin:miter;stroke-opacity:1" d="M 82.145,426.904 76.0108,443.719 z" id="boundary" inkscape:connector-curvature="0" />
	<path style="fill:none;stroke:red;stroke-width:1px;stroke-linecap:butt;stroke-linejoin:miter;stroke-opacity:1" d="M 76.7259,397.167 69.003,391.434 z" id="boundary" inkscape:connector-curvature="0" />
	<path style="fill:none;stroke:red;stroke-width:1px;stroke-linecap:butt;stroke-linejoin:miter;stroke-opacity:1" d="M 87.81,414.894 82.145,426.904 z" id="boundary" inkscape:connector-curvature="0" />
	<path style="fill:none;stroke:red;stroke-width:1px;stroke-linecap:butt;stroke-linejoin:miter;stroke-opacity:1" d="M 87.81,414.894 86.2626,403.925 z" id="boundary" inkscape:connector-curvature="0" />
	<path style="fill:none;stroke:red;stroke-width:1px;stroke-linecap:butt;stroke-linejoin:miter;stroke-opacity:1" d="M 87.6405,474.912 79.9337,470.691 z" id="boundary" inkscape:connector-curvature="0" />
	<path style="fill:none;stroke:red;stroke-width:1px;stroke-linecap:butt;stroke-linejoin:miter;stroke-opacity:1" d="M 79.9337,470.691 76.0108,443.719 z" id="boundary" inkscape:connector-curvature="0" />
	<path style="fill:none;stroke:red;stroke-width:1px;stroke-linecap:butt;stroke-linejoin:miter;stroke-opacity:1" d="M 76.7259,397.167 86.2626,403.925 z" id="boundary" inkscape:connector-curvature="0" />
	<path style="fill:none;stroke:red;stroke-width:1px;stroke-linecap:butt;stroke-linejoin:miter;stroke-opacity:1" d="M 244.8,24.1422 255.808,26.5726 z" id="boundary" inkscape:connector-curvature="0" />
	<path style="fill:none;stroke:red;stroke-width:1px;stroke-linecap:butt;stroke-linejoin:miter;stroke-opacity:1" d="M 281.218,13.4643 289.191,23.5931 z" id="boundary" inkscape:connector-curvature="0" />
	<path style="fill:none;stroke:red;stroke-width:1px;stroke-linecap:butt;stroke-linejoin:miter;stroke-opacity:1" d="M 289.191,23.5931 296.117,33.0825 z" id="boundary" inkscape:connector-curvature="0" />
	<path style="fill:none;stroke:red;stroke-width:1px;stroke-linecap:butt;stroke-linejoin:miter;stroke-opacity:1" d="M 314.45,44.3623 296.117,33.0825 z" id="boundary" inkscape:connector-curvature="0" />
	<path style="fill:none;stroke:red;stroke-width:1px;stroke-linecap:butt;stroke-linejoin:miter;stroke-opacity:1" d="M 314.45,44.3623 319.49,60.2664 z" id="boundary" inkscape:connector-curvature="0" />
	<path style="fill:none;stroke:red;stroke-width:1px;stroke-linecap:butt;stroke-linejoin:miter;stroke-opacity:1" d="M 319.49,60.2664 336.503,62.201 z" id="boundary" inkscape:connector-curvature="0" />
	<path style="fill:none;stroke:red;stroke-width:1px;stroke-linecap:butt;stroke-linejoin:miter;stroke-opacity:1" d="M 367.716,63.5799 354.54,68.0358 z" id="boundary" inkscape:connector-curvature="0" />
	<path style="fill:none;stroke:red;stroke-width:1px;stroke-linecap:butt;stroke-linejoin:miter;stroke-opacity:1" d="M 354.54,68.0358 336.503,62.201 z" id="boundary" inkscape:connector-curvature="0" />
	<path style="fill:none;stroke:red;stroke-width:1px;stroke-linecap:butt;stroke-linejoin:miter;stroke-opacity:1" d="M 376.875,72.5193 379.316,80.6499 z" id="boundary" inkscape:connector-curvature="0" />
	<path style="fill:none;stroke:red;stroke-width:1px;stroke-linecap:butt;stroke-linejoin:miter;stroke-opacity:1" d="M 376.875,72.5193 367.716,63.5799 z" id="boundary" inkscape:connector-curvature="0" />
	<path style="fill:none;stroke:red;stroke-width:1px;stroke-linecap:butt;stroke-linejoin:miter;stroke-opacity:1" d="M 386.517,84.6278 379.316,80.6499 z" id="boundary" inkscape:connector-curvature="0" />
	<path style="fill:none;stroke:red;stroke-width:1px;stroke-linecap:butt;stroke-linejoin:miter;stroke-opacity:1" d="M 386.517,84.6278 393.984,111.227 z" id="boundary" inkscape:connector-curvature="0" />
	<path style="fill:none;stroke:red;stroke-width:1px;stroke-linecap:butt;stroke-linejoin:miter;stroke-opacity:1" d="M 393.984,111.227 387.917,115.825 z" id="boundary" inkscape:connector-curvature="0" />
	<path style="fill:none;stroke:red;stroke-width:1px;stroke-linecap:butt;stroke-linejoin:miter;stroke-opacity:1" d="M 389.607,124.42 387.917,115.825 z" id="boundary" inkscape:connector-curvature="0" />
	<path style="fill:none;stroke:red;stroke-width:1px;stroke-linecap:butt;stroke-linejoin:miter;stroke-opacity:1" d="M 389.607,124.42 398.259,139.047 z" id="boundary" inkscape:connector-curvature="0" />
	<path style="fill:none;stroke:red;stroke-width:1px;stroke-linecap:butt;stroke-linejoin:miter;stroke-opacity:1" d="M 398.259,139.047 396.378,152.412 z" id="boundary" inkscape:connector-curvature="0" />
	<path style="fill:none;stroke:red;stroke-width:1px;stroke-linecap:butt;stroke-linejoin:miter;stroke-opacity:1" d="M 409.365,181.519 403.354,172.686 z" id="boundary" inkscape:connector-curvature="0" />
	<path style="fill:none;stroke:red;stroke-width:1px;stroke-linecap:butt;stroke-linejoin:miter;stroke-opacity:1" d="M 403.354,172.686 396.378,152.412 z" id="boundary" inkscape:connector-curvature="0" />
	<path style="fill:none;stroke:red;stroke-width:1px;stroke-linecap:butt;stroke-linejoin:miter;stroke-opacity:1" d="M 411.905,194.546 409.365,181.519 z" id="boundary" inkscape:connector-curvature="0" />
	<path style="fill:none;stroke:red;stroke-width:1px;stroke-linecap:butt;stroke-linejoin:miter;stroke-opacity:1" d="M 411.754,215.199 410.411,223.637 z" id="boundary" inkscape:connector-curvature="0" />
	<path style="fill:none;stroke:red;stroke-width:1px;stroke-linecap:butt;stroke-linejoin:miter;stroke-opacity:1" d="M 411.905,194.546 412.077,202.829 z" id="boundary" inkscape:connector-curvature="0" />
	<path style="fill:none;stroke:red;stroke-width:1px;stroke-linecap:butt;stroke-linejoin:miter;stroke-opacity:1" d="M 412.077,202.829 411.754,215.199 z" id="boundary" inkscape:connector-curvature="0" />
	<path style="fill:none;stroke:red;stroke-width:1px;stroke-linecap:butt;stroke-linejoin:miter;stroke-opacity:1" d="M 416.189,240.625 410.411,223.637 z" id="boundary" inkscape:connector-curvature="0" />
	<path style="fill:none;stroke:red;stroke-width:1px;stroke-linecap:butt;stroke-linejoin:miter;stroke-opacity:1" d="M 433.153,252.477 427.582,261.798 z" id="boundary" inkscape:connector-curvature="0" />
	<path style="fill:none;stroke:red;stroke-width:1px;stroke-linecap:butt;stroke-linejoin:miter;stroke-opacity:1" d="M 416.189,240.625 414.639,269.79 z" id="boundary" inkscape:connector-curvature="0" />
	<path style="fill:none;stroke:red;stroke-width:1px;stroke-linecap:butt;stroke-linejoin:miter;stroke-opacity:1" d="M 420.274,301.988 418.35,305.406 z" id="boundary" inkscape:connector-curvature="0" />
	<path style="fill:none;stroke:red;stroke-width:1px;stroke-linecap:butt;stroke-linejoin:miter;stroke-opacity:1" d="M 418.35,305.406 417.616,299.031 z" id="boundary" inkscape:connector-curvature="0" />
	<path style="fill:none;stroke:red;stroke-width:1px;stroke-linecap:butt;stroke-linejoin:miter;stroke-opacity:1" d="M 417.616,299.031 414.639,269.79 z" id="boundary" inkscape:connector-curvature="0" />
	<path style="fill:none;stroke:red;stroke-width:1px;stroke-linecap:butt;stroke-linejoin:miter;stroke-opacity:1" d="M 427.582,261.798 420.274,301.988 z" id="boundary" inkscape:connector-curvature="0" />
	<path style="fill:none;stroke:red;stroke-width:1px;stroke-linecap:butt;stroke-linejoin:miter;stroke-opacity:1" d="M 428.606,224.11 433.153,252.477 z" id="boundary" inkscape:connector-curvature="0" />
	<path style="fill:none;stroke:red;stroke-width:1px;stroke-linecap:butt;stroke-linejoin:miter;stroke-opacity:1" d="M 438.84,343.369 433.759,353.716 z" id="boundary" inkscape:connector-curvature="0" />
	<path style="fill:none;stroke:red;stroke-width:1px;stroke-linecap:butt;stroke-linejoin:miter;stroke-opacity:1" d="M 433.759,353.716 422.351,349.458 z" id="boundary" inkscape:connector-curvature="0" />
	<path style="fill:none;stroke:red;stroke-width:1px;stroke-linecap:butt;stroke-linejoin:miter;stroke-opacity:1" d="M 438.84,343.369 429.541,324.331 z" id="boundary" inkscape:connector-curvature="0" />
	<path style="fill:none;stroke:red;stroke-width:1px;stroke-linecap:butt;stroke-linejoin:miter;stroke-opacity:1" d="M 443.734,398.713 435.839,395.113 z" id="boundary" inkscape:connector-curvature="0" />
	<path style="fill:none;stroke:red;stroke-width:1px;stroke-linecap:butt;stroke-linejoin:miter;stroke-opacity:1" d="M 454.495,428.656 452.944,438.047 z" id="boundary" inkscape:connector-curvature="0" />
	<path style="fill:none;stroke:red;stroke-width:1px;stroke-linecap:butt;stroke-linejoin:miter;stroke-opacity:1" d="M 443.734,398.713 458.619,416.191 z" id="boundary" inkscape:connector-curvature="0" />
	<path style="fill:none;stroke:red;stroke-width:1px;stroke-linecap:butt;stroke-linejoin:miter;stroke-opacity:1" d="M 458.619,416.191 454.495,428.656 z" id="boundary" inkscape:connector-curvature="0" />
	<path style="fill:none;stroke:red;stroke-width:1px;stroke-linecap:butt;stroke-linejoin:miter;stroke-opacity:1" d="M 459.046,444.383 452.944,438.047 z" id="boundary" inkscape:connector-curvature="0" />
	<path style="fill:none;stroke:red;stroke-width:1px;stroke-linecap:butt;stroke-linejoin:miter;stroke-opacity:1" d="M 473.888,458.905 459.046,444.383 z" id="boundary" inkscape:connector-curvature="0" />
	<path style="fill:none;stroke:red;stroke-width:1px;stroke-linecap:butt;stroke-linejoin:miter;stroke-opacity:1" d="M 46.9609,558.736 57.7715,524.282 z" id="boundary" inkscape:connector-curvature="0" />
	<path style="fill:none;stroke:red;stroke-width:1px;stroke-linecap:butt;stroke-linejoin:miter;stroke-opacity:1" d="M 66.1924,531.641 63.904,548.509 z" id="boundary" inkscape:connector-curvature="0" />
	<path style="fill:none;stroke:red;stroke-width:1px;stroke-linecap:butt;stroke-linejoin:miter;stroke-opacity:1" d="M 63.904,548.509 54.1719,590.925 z" id="boundary" inkscape:connector-curvature="0" />
	<path style="fill:none;stroke:red;stroke-width:1px;stroke-linecap:butt;stroke-linejoin:miter;stroke-opacity:1" d="M 67.6523,525.598 66.1924,531.641 z" id="boundary" inkscape:connector-curvature="0" />
	<path style="fill:none;stroke:red;stroke-width:1px;stroke-linecap:butt;stroke-linejoin:miter;stroke-opacity:1" d="M 57.7715,524.282 67.9788,509.03 z" id="boundary" inkscape:connector-curvature="0" />
	<path style="fill:none;stroke:red;stroke-width:1px;stroke-linecap:butt;stroke-linejoin:miter;stroke-opacity:1" d="M 41.6289,582.247 44.7742,598.436 z" id="boundary" inkscape:connector-curvature="0" />
	<path style="fill:none;stroke:red;stroke-width:1px;stroke-linecap:butt;stroke-linejoin:miter;stroke-opacity:1" d="M 44.7742,598.436 44.7493,613.71 z" id="boundary" inkscape:connector-curvature="0" />
	<path style="fill:none;stroke:red;stroke-width:1px;stroke-linecap:butt;stroke-linejoin:miter;stroke-opacity:1" d="M 65.7704,642.088 66.3564,649.07 z" id="boundary" inkscape:connector-curvature="0" />
	<path style="fill:none;stroke:red;stroke-width:1px;stroke-linecap:butt;stroke-linejoin:miter;stroke-opacity:1" d="M 44.7493,613.71 65.7704,642.088 z" id="boundary" inkscape:connector-curvature="0" />
	<path style="fill:none;stroke:red;stroke-width:1px;stroke-linecap:butt;stroke-linejoin:miter;stroke-opacity:1" d="M 54.1719,590.925 78.1328,646.061 z" id="boundary" inkscape:connector-curvature="0" />
	<path style="fill:none;stroke:red;stroke-width:1px;stroke-linecap:butt;stroke-linejoin:miter;stroke-opacity:1" d="M 41.6289,582.247 46.9609,558.736 z" id="boundary" inkscape:connector-curvature="0" />
	<path style="fill:none;stroke:red;stroke-width:1px;stroke-linecap:butt;stroke-linejoin:miter;stroke-opacity:1" d="M 67.9788,509.03 83.7245,487.449 z" id="boundary" inkscape:connector-curvature="0" />
	<path style="fill:none;stroke:red;stroke-width:1px;stroke-linecap:butt;stroke-linejoin:miter;stroke-opacity:1" d="M 83.7245,487.449 87.6405,474.912 z" id="boundary" inkscape:connector-curvature="0" />
	<path style="fill:none;stroke:red;stroke-width:1px;stroke-linecap:butt;stroke-linejoin:miter;stroke-opacity:1" d="M 276.359,635.997 266.945,636.413 z" id="boundary" inkscape:connector-curvature="0" />
	<path style="fill:none;stroke:red;stroke-width:1px;stroke-linecap:butt;stroke-linejoin:miter;stroke-opacity:1" d="M 300.385,643.021 299.929,644.709 z" id="boundary" inkscape:connector-curvature="0" />
	<path style="fill:none;stroke:red;stroke-width:1px;stroke-linecap:butt;stroke-linejoin:miter;stroke-opacity:1" d="M 299.929,644.709 290.116,644.705 z" id="boundary" inkscape:connector-curvature="0" />
	<path style="fill:none;stroke:red;stroke-width:1px;stroke-linecap:butt;stroke-linejoin:miter;stroke-opacity:1" d="M 290.116,644.705 276.359,635.997 z" id="boundary" inkscape:connector-curvature="0" />
	<path style="fill:none;stroke:red;stroke-width:1px;stroke-linecap:butt;stroke-linejoin:miter;stroke-opacity:1" d="M 94.2591,675.576 66.3564,649.07 z" id="boundary" inkscape:connector-curvature="0" />
	<path style="fill:none;stroke:red;stroke-width:1px;stroke-linecap:butt;stroke-linejoin:miter;stroke-opacity:1" d="M 88.7079,654.178 78.1328,646.061 z" id="boundary" inkscape:connector-curvature="0" />
	<path style="fill:none;stroke:red;stroke-width:1px;stroke-linecap:butt;stroke-linejoin:miter;stroke-opacity:1" d="M 101.218,687.879 94.2591,675.576 z" id="boundary" inkscape:connector-curvature="0" />
	<path style="fill:none;stroke:red;stroke-width:1px;stroke-linecap:butt;stroke-linejoin:miter;stroke-opacity:1" d="M 137.666,691.352 88.7079,654.178 z" id="boundary" inkscape:connector-curvature="0" />
	<path style="fill:none;stroke:red;stroke-width:1px;stroke-linecap:butt;stroke-linejoin:miter;stroke-opacity:1" d="M 245.637,662.368 266.945,636.413 z" id="boundary" inkscape:connector-curvature="0" />
	<path style="fill:none;stroke:red;stroke-width:1px;stroke-linecap:butt;stroke-linejoin:miter;stroke-opacity:1" d="M 246.977,689.47 245.637,662.368 z" id="boundary" inkscape:connector-curvature="0" />
	<path style="fill:none;stroke:red;stroke-width:1px;stroke-linecap:butt;stroke-linejoin:miter;stroke-opacity:1" d="M 140.126,704.242 126.658,697.908 z" id="boundary" inkscape:connector-curvature="0" />
	<path style="fill:none;stroke:red;stroke-width:1px;stroke-linecap:butt;stroke-linejoin:miter;stroke-opacity:1" d="M 126.658,697.908 101.218,687.879 z" id="boundary" inkscape:connector-curvature="0" />
	<path style="fill:none;stroke:red;stroke-width:1px;stroke-linecap:butt;stroke-linejoin:miter;stroke-opacity:1" d="M 140.126,704.242 145.989,722.831 z" id="boundary" inkscape:connector-curvature="0" />
	<path style="fill:none;stroke:red;stroke-width:1px;stroke-linecap:butt;stroke-linejoin:miter;stroke-opacity:1" d="M 180.34,732.529 166.254,735.705 z" id="boundary" inkscape:connector-curvature="0" />
	<path style="fill:none;stroke:red;stroke-width:1px;stroke-linecap:butt;stroke-linejoin:miter;stroke-opacity:1" d="M 166.254,735.705 145.989,722.831 z" id="boundary" inkscape:connector-curvature="0" />
	<path style="fill:none;stroke:red;stroke-width:1px;stroke-linecap:butt;stroke-linejoin:miter;stroke-opacity:1" d="M 180.34,732.529 190.61,741.416 z" id="boundary" inkscape:connector-curvature="0" />
	<path style="fill:none;stroke:red;stroke-width:1px;stroke-linecap:butt;stroke-linejoin:miter;stroke-opacity:1" d="M 190.61,741.416 203.946,756.138 z" id="boundary" inkscape:connector-curvature="0" />
	<path style="fill:none;stroke:red;stroke-width:1px;stroke-linecap:butt;stroke-linejoin:miter;stroke-opacity:1" d="M 203.946,756.138 210.476,768.634 z" id="boundary" inkscape:connector-curvature="0" />
	<path style="fill:none;stroke:red;stroke-width:1px;stroke-linecap:butt;stroke-linejoin:miter;stroke-opacity:1" d="M 235.066,766.93 224.003,792.735 z" id="boundary" inkscape:connector-curvature="0" />
	<path style="fill:none;stroke:red;stroke-width:1px;stroke-linecap:butt;stroke-linejoin:miter;stroke-opacity:1" d="M 224.003,792.735 210.476,768.634 z" id="boundary" inkscape:connector-curvature="0" />
	<path style="fill:none;stroke:red;stroke-width:1px;stroke-linecap:butt;stroke-linejoin:miter;stroke-opacity:1" d="M 254.815,708.147 247.841,699.933 z" id="boundary" inkscape:connector-curvature="0" />
	<path style="fill:none;stroke:red;stroke-width:1px;stroke-linecap:butt;stroke-linejoin:miter;stroke-opacity:1" d="M 247.841,699.933 246.977,689.47 z" id="boundary" inkscape:connector-curvature="0" />
	<path style="fill:none;stroke:red;stroke-width:1px;stroke-linecap:butt;stroke-linejoin:miter;stroke-opacity:1" d="M 257.095,730.184 261.613,720.739 z" id="boundary" inkscape:connector-curvature="0" />
	<path style="fill:none;stroke:red;stroke-width:1px;stroke-linecap:butt;stroke-linejoin:miter;stroke-opacity:1" d="M 254.815,708.147 261.613,720.739 z" id="boundary" inkscape:connector-curvature="0" />
	<path style="fill:none;stroke:red;stroke-width:1px;stroke-linecap:butt;stroke-linejoin:miter;stroke-opacity:1" d="M 257.095,730.184 241.405,758.223 z" id="boundary" inkscape:connector-curvature="0" />
	<path style="fill:none;stroke:red;stroke-width:1px;stroke-linecap:butt;stroke-linejoin:miter;stroke-opacity:1" d="M 239.918,761.693 241.405,758.223 z" id="boundary" inkscape:connector-curvature="0" />
	<path style="fill:none;stroke:red;stroke-width:1px;stroke-linecap:butt;stroke-linejoin:miter;stroke-opacity:1" d="M 239.918,761.693 235.066,766.93 z" id="boundary" inkscape:connector-curvature="0" />
	<path style="fill:none;stroke:red;stroke-width:1px;stroke-linecap:butt;stroke-linejoin:miter;stroke-opacity:1" d="M 266.725,748.26 274.202,751.235 z" id="boundary" inkscape:connector-curvature="0" />
	<path style="fill:none;stroke:red;stroke-width:1px;stroke-linecap:butt;stroke-linejoin:miter;stroke-opacity:1" d="M 274.202,751.235 288.459,749.868 z" id="boundary" inkscape:connector-curvature="0" />
	<path style="fill:none;stroke:red;stroke-width:1px;stroke-linecap:butt;stroke-linejoin:miter;stroke-opacity:1" d="M 288.459,749.868 311.257,734.965 z" id="boundary" inkscape:connector-curvature="0" />
	<path style="fill:none;stroke:red;stroke-width:1px;stroke-linecap:butt;stroke-linejoin:miter;stroke-opacity:1" d="M 291.879,716.296 300.388,723.657 z" id="boundary" inkscape:connector-curvature="0" />
	<path style="fill:none;stroke:red;stroke-width:1px;stroke-linecap:butt;stroke-linejoin:miter;stroke-opacity:1" d="M 399.347,575.749 401.195,598.372 z" id="boundary" inkscape:connector-curvature="0" />
	<path style="fill:none;stroke:red;stroke-width:1px;stroke-linecap:butt;stroke-linejoin:miter;stroke-opacity:1" d="M 399.347,575.749 411.886,576.513 z" id="boundary" inkscape:connector-curvature="0" />
	<path style="fill:none;stroke:red;stroke-width:1px;stroke-linecap:butt;stroke-linejoin:miter;stroke-opacity:1" d="M 401.195,598.372 401.979,608.066 z" id="boundary" inkscape:connector-curvature="0" />
	<path style="fill:none;stroke:red;stroke-width:1px;stroke-linecap:butt;stroke-linejoin:miter;stroke-opacity:1" d="M 401.979,608.066 399.247,620.687 z" id="boundary" inkscape:connector-curvature="0" />
	<path style="fill:none;stroke:red;stroke-width:1px;stroke-linecap:butt;stroke-linejoin:miter;stroke-opacity:1" d="M 404.75,630.518 399.247,620.687 z" id="boundary" inkscape:connector-curvature="0" />
	<path style="fill:none;stroke:red;stroke-width:1px;stroke-linecap:butt;stroke-linejoin:miter;stroke-opacity:1" d="M 386.165,664.09 398.142,659.128 z" id="boundary" inkscape:connector-curvature="0" />
	<path style="fill:none;stroke:red;stroke-width:1px;stroke-linecap:butt;stroke-linejoin:miter;stroke-opacity:1" d="M 386.165,664.09 372.841,669.256 z" id="boundary" inkscape:connector-curvature="0" />
	<path style="fill:none;stroke:red;stroke-width:1px;stroke-linecap:butt;stroke-linejoin:miter;stroke-opacity:1" d="M 404.75,630.518 398.142,659.128 z" id="boundary" inkscape:connector-curvature="0" />
	<path style="fill:none;stroke:red;stroke-width:1px;stroke-linecap:butt;stroke-linejoin:miter;stroke-opacity:1" d="M 430.998,498.411 436.935,482.132 z" id="boundary" inkscape:connector-curvature="0" />
	<path style="fill:none;stroke:red;stroke-width:1px;stroke-linecap:butt;stroke-linejoin:miter;stroke-opacity:1" d="M 406.411,545.158 414.312,544.148 z" id="boundary" inkscape:connector-curvature="0" />
	<path style="fill:none;stroke:red;stroke-width:1px;stroke-linecap:butt;stroke-linejoin:miter;stroke-opacity:1" d="M 415.586,511.376 422.689,530.288 z" id="boundary" inkscape:connector-curvature="0" />
	<path style="fill:none;stroke:red;stroke-width:1px;stroke-linecap:butt;stroke-linejoin:miter;stroke-opacity:1" d="M 414.312,544.148 421.528,542.476 z" id="boundary" inkscape:connector-curvature="0" />
	<path style="fill:none;stroke:red;stroke-width:1px;stroke-linecap:butt;stroke-linejoin:miter;stroke-opacity:1" d="M 422.689,530.288 421.528,542.476 z" id="boundary" inkscape:connector-curvature="0" />
	<path style="fill:none;stroke:red;stroke-width:1px;stroke-linecap:butt;stroke-linejoin:miter;stroke-opacity:1" d="M 415.586,511.376 430.998,498.411 z" id="boundary" inkscape:connector-curvature="0" />
	<path style="fill:none;stroke:red;stroke-width:1px;stroke-linecap:butt;stroke-linejoin:miter;stroke-opacity:1" d="M 326.679,727.572 311.257,734.965 z" id="boundary" inkscape:connector-curvature="0" />
	<path style="fill:none;stroke:red;stroke-width:1px;stroke-linecap:butt;stroke-linejoin:miter;stroke-opacity:1" d="M 324.713,789.643 301.564,773.896 z" id="boundary" inkscape:connector-curvature="0" />
	<path style="fill:none;stroke:red;stroke-width:1px;stroke-linecap:butt;stroke-linejoin:miter;stroke-opacity:1" d="M 336.92,740.583 355.401,744.154 z" id="boundary" inkscape:connector-curvature="0" />
	<path style="fill:none;stroke:red;stroke-width:1px;stroke-linecap:butt;stroke-linejoin:miter;stroke-opacity:1" d="M 355.401,744.154 373.174,750.059 z" id="boundary" inkscape:connector-curvature="0" />
	<path style="fill:none;stroke:red;stroke-width:1px;stroke-linecap:butt;stroke-linejoin:miter;stroke-opacity:1" d="M 342.557,792.532 324.713,789.643 z" id="boundary" inkscape:connector-curvature="0" />
	<path style="fill:none;stroke:red;stroke-width:1px;stroke-linecap:butt;stroke-linejoin:miter;stroke-opacity:1" d="M 397.148,753.431 373.174,750.059 z" id="boundary" inkscape:connector-curvature="0" />
	<path style="fill:none;stroke:red;stroke-width:1px;stroke-linecap:butt;stroke-linejoin:miter;stroke-opacity:1" d="M 431.067,751.489 397.148,753.431 z" id="boundary" inkscape:connector-curvature="0" />
	<path style="fill:none;stroke:red;stroke-width:1px;stroke-linecap:butt;stroke-linejoin:miter;stroke-opacity:1" d="M 367.875,681.753 372.841,669.256 z" id="boundary" inkscape:connector-curvature="0" />
	<path style="fill:none;stroke:red;stroke-width:1px;stroke-linecap:butt;stroke-linejoin:miter;stroke-opacity:1" d="M 502.931,725.496 484.179,748.839 z" id="boundary" inkscape:connector-curvature="0" />
	<path style="fill:none;stroke:red;stroke-width:1px;stroke-linecap:butt;stroke-linejoin:miter;stroke-opacity:1" d="M 484.179,748.839 457.579,749.455 z" id="boundary" inkscape:connector-curvature="0" />
	<path style="fill:none;stroke:red;stroke-width:1px;stroke-linecap:butt;stroke-linejoin:miter;stroke-opacity:1" d="M 457.579,749.455 431.067,751.489 z" id="boundary" inkscape:connector-curvature="0" />
	<path style="fill:none;stroke:red;stroke-width:1px;stroke-linecap:butt;stroke-linejoin:miter;stroke-opacity:1" d="M 404.148,786.371 379.649,783.851 z" id="boundary" inkscape:connector-curvature="0" />
	<path style="fill:none;stroke:red;stroke-width:1px;stroke-linecap:butt;stroke-linejoin:miter;stroke-opacity:1" d="M 342.557,792.532 379.649,783.851 z" id="boundary" inkscape:connector-curvature="0" />
	<path style="fill:none;stroke:red;stroke-width:1px;stroke-linecap:butt;stroke-linejoin:miter;stroke-opacity:1" d="M 437.025,782.994 404.148,786.371 z" id="boundary" inkscape:connector-curvature="0" />
	<path style="fill:none;stroke:red;stroke-width:1px;stroke-linecap:butt;stroke-linejoin:miter;stroke-opacity:1" d="M 480.6,787.399 445.654,789.069 z" id="boundary" inkscape:connector-curvature="0" />
	<path style="fill:none;stroke:red;stroke-width:1px;stroke-linecap:butt;stroke-linejoin:miter;stroke-opacity:1" d="M 445.654,789.069 437.025,782.994 z" id="boundary" inkscape:connector-curvature="0" />
	<path style="fill:none;stroke:red;stroke-width:1px;stroke-linecap:butt;stroke-linejoin:miter;stroke-opacity:1" d="M 498.518,783.562 536.735,796.996 z" id="boundary" inkscape:connector-curvature="0" />
	<path style="fill:none;stroke:red;stroke-width:1px;stroke-linecap:butt;stroke-linejoin:miter;stroke-opacity:1" d="M 480.6,787.399 498.518,783.562 z" id="boundary" inkscape:connector-curvature="0" />
	<path style="fill:none;stroke:red;stroke-width:1px;stroke-linecap:butt;stroke-linejoin:miter;stroke-opacity:1" d="M 502.931,725.496 545.4,726 z" id="boundary" inkscape:connector-curvature="0" />
	<path style="fill:none;stroke:red;stroke-width:1px;stroke-linecap:butt;stroke-linejoin:miter;stroke-opacity:1" d="M 576.745,99.1876 566.443,108.881 z" id="boundary" inkscape:connector-curvature="0" />
	<path style="fill:none;stroke:red;stroke-width:1px;stroke-linecap:butt;stroke-linejoin:miter;stroke-opacity:1" d="M 614.149,62.7525 599.951,64.527 z" id="boundary" inkscape:connector-curvature="0" />
	<path style="fill:none;stroke:red;stroke-width:1px;stroke-linecap:butt;stroke-linejoin:miter;stroke-opacity:1" d="M 632.347,56.4527 614.149,62.7525 z" id="boundary" inkscape:connector-curvature="0" />
	<path style="fill:none;stroke:red;stroke-width:1px;stroke-linecap:butt;stroke-linejoin:miter;stroke-opacity:1" d="M 549.554,196.302 548.71,167.542 z" id="boundary" inkscape:connector-curvature="0" />
	<path style="fill:none;stroke:red;stroke-width:1px;stroke-linecap:butt;stroke-linejoin:miter;stroke-opacity:1" d="M 548.71,167.542 548.771,154.114 z" id="boundary" inkscape:connector-curvature="0" />
	<path style="fill:none;stroke:red;stroke-width:1px;stroke-linecap:butt;stroke-linejoin:miter;stroke-opacity:1" d="M 548.771,154.114 557.491,150.815 z" id="boundary" inkscape:connector-curvature="0" />
	<path style="fill:none;stroke:red;stroke-width:1px;stroke-linecap:butt;stroke-linejoin:miter;stroke-opacity:1" d="M 564.862,125.246 557.491,150.815 z" id="boundary" inkscape:connector-curvature="0" />
	<path style="fill:none;stroke:red;stroke-width:1px;stroke-linecap:butt;stroke-linejoin:miter;stroke-opacity:1" d="M 566.443,108.881 564.862,125.246 z" id="boundary" inkscape:connector-curvature="0" />
	<path style="fill:none;stroke:red;stroke-width:1px;stroke-linecap:butt;stroke-linejoin:miter;stroke-opacity:1" d="M 694.189,38.0839 688.188,38.7389 z" id="boundary" inkscape:connector-curvature="0" />
	<path style="fill:none;stroke:red;stroke-width:1px;stroke-linecap:butt;stroke-linejoin:miter;stroke-opacity:1" d="M 694.189,38.0839 740.014,29.0622 z" id="boundary" inkscape:connector-curvature="0" />
	<path style="fill:none;stroke:red;stroke-width:1px;stroke-linecap:butt;stroke-linejoin:miter;stroke-opacity:1" d="M 740.014,29.0622 746.692,27.6735 z" id="boundary" inkscape:connector-curvature="0" />
	<path style="fill:none;stroke:red;stroke-width:1px;stroke-linecap:butt;stroke-linejoin:miter;stroke-opacity:1" d="M 744.08,34.1713 713.645,40.5844 z" id="boundary" inkscape:connector-curvature="0" />
	<path style="fill:none;stroke:red;stroke-width:1px;stroke-linecap:butt;stroke-linejoin:miter;stroke-opacity:1" d="M 651.865,49.5368 676.944,54.3066 z" id="boundary" inkscape:connector-curvature="0" />
	<path style="fill:none;stroke:red;stroke-width:1px;stroke-linecap:butt;stroke-linejoin:miter;stroke-opacity:1" d="M 702.207,50.1845 676.944,54.3066 z" id="boundary" inkscape:connector-curvature="0" />
	<path style="fill:none;stroke:red;stroke-width:1px;stroke-linecap:butt;stroke-linejoin:miter;stroke-opacity:1" d="M 702.207,50.1845 713.645,40.5844 z" id="boundary" inkscape:connector-curvature="0" />
	<path style="fill:none;stroke:red;stroke-width:1px;stroke-linecap:butt;stroke-linejoin:miter;stroke-opacity:1" d="M 543.658,295.613 545.705,317.371 z" id="boundary" inkscape:connector-curvature="0" />
	<path style="fill:none;stroke:red;stroke-width:1px;stroke-linecap:butt;stroke-linejoin:miter;stroke-opacity:1" d="M 545.705,317.371 542.259,336.008 z" id="boundary" inkscape:connector-curvature="0" />
	<path style="fill:none;stroke:red;stroke-width:1px;stroke-linecap:butt;stroke-linejoin:miter;stroke-opacity:1" d="M 545.15,356.216 543.949,353.037 z" id="boundary" inkscape:connector-curvature="0" />
	<path style="fill:none;stroke:red;stroke-width:1px;stroke-linecap:butt;stroke-linejoin:miter;stroke-opacity:1" d="M 543.949,353.037 542.259,336.008 z" id="boundary" inkscape:connector-curvature="0" />
	<path style="fill:none;stroke:red;stroke-width:1px;stroke-linecap:butt;stroke-linejoin:miter;stroke-opacity:1" d="M 542.87,372.069 545.15,356.216 z" id="boundary" inkscape:connector-curvature="0" />
	<path style="fill:none;stroke:red;stroke-width:1px;stroke-linecap:butt;stroke-linejoin:miter;stroke-opacity:1" d="M 542.87,372.069 551.472,398.299 z" id="boundary" inkscape:connector-curvature="0" />
	<path style="fill:none;stroke:red;stroke-width:1px;stroke-linecap:butt;stroke-linejoin:miter;stroke-opacity:1" d="M 539.941,473.553 538.502,455.828 z" id="boundary" inkscape:connector-curvature="0" />
	<path style="fill:none;stroke:red;stroke-width:1px;stroke-linecap:butt;stroke-linejoin:miter;stroke-opacity:1" d="M 538.502,455.828 543.143,448.727 z" id="boundary" inkscape:connector-curvature="0" />
	<path style="fill:none;stroke:red;stroke-width:1px;stroke-linecap:butt;stroke-linejoin:miter;stroke-opacity:1" d="M 539.941,473.553 545.34,492.38 z" id="boundary" inkscape:connector-curvature="0" />
	<path style="fill:none;stroke:red;stroke-width:1px;stroke-linecap:butt;stroke-linejoin:miter;stroke-opacity:1" d="M 544.598,415.758 550.305,411.398 z" id="boundary" inkscape:connector-curvature="0" />
	<path style="fill:none;stroke:red;stroke-width:1px;stroke-linecap:butt;stroke-linejoin:miter;stroke-opacity:1" d="M 545.34,492.38 544.074,505.624 z" id="boundary" inkscape:connector-curvature="0" />
	<path style="fill:none;stroke:red;stroke-width:1px;stroke-linecap:butt;stroke-linejoin:miter;stroke-opacity:1" d="M 563.88,207.025 573.145,208.19 z" id="boundary" inkscape:connector-curvature="0" />
	<path style="fill:none;stroke:red;stroke-width:1px;stroke-linecap:butt;stroke-linejoin:miter;stroke-opacity:1" d="M 563.88,207.025 549.554,196.302 z" id="boundary" inkscape:connector-curvature="0" />
	<path style="fill:none;stroke:red;stroke-width:1px;stroke-linecap:butt;stroke-linejoin:miter;stroke-opacity:1" d="M 568.337,257.384 564.966,254.433 z" id="boundary" inkscape:connector-curvature="0" />
	<path style="fill:none;stroke:red;stroke-width:1px;stroke-linecap:butt;stroke-linejoin:miter;stroke-opacity:1" d="M 550.305,411.398 551.472,398.299 z" id="boundary" inkscape:connector-curvature="0" />
	<path style="fill:none;stroke:red;stroke-width:1px;stroke-linecap:butt;stroke-linejoin:miter;stroke-opacity:1" d="M 570.03,275.85 567.922,286.845 z" id="boundary" inkscape:connector-curvature="0" />
	<path style="fill:none;stroke:red;stroke-width:1px;stroke-linecap:butt;stroke-linejoin:miter;stroke-opacity:1" d="M 570.03,275.85 568.337,257.384 z" id="boundary" inkscape:connector-curvature="0" />
	<path style="fill:none;stroke:red;stroke-width:1px;stroke-linecap:butt;stroke-linejoin:miter;stroke-opacity:1" d="M 746.692,27.6735 772.2,14.4542 z" id="boundary" inkscape:connector-curvature="0" />
	<path style="fill:none;stroke:red;stroke-width:1px;stroke-linecap:butt;stroke-linejoin:miter;stroke-opacity:1" d="M 744.08,34.1713 754.227,28.9736 z" id="boundary" inkscape:connector-curvature="0" />
	<path style="fill:none;stroke:red;stroke-width:1px;stroke-linecap:butt;stroke-linejoin:miter;stroke-opacity:1" d="M 809.486,24.7948 792.084,17.3464 z" id="boundary" inkscape:connector-curvature="0" />
	<path style="fill:none;stroke:red;stroke-width:1px;stroke-linecap:butt;stroke-linejoin:miter;stroke-opacity:1" d="M 792.084,17.3464 789.402,13.3522 z" id="boundary" inkscape:connector-curvature="0" />
	<path style="fill:none;stroke:red;stroke-width:1px;stroke-linecap:butt;stroke-linejoin:miter;stroke-opacity:1" d="M 772.2,14.4542 789.402,13.3522 z" id="boundary" inkscape:connector-curvature="0" />
	<path style="fill:none;stroke:red;stroke-width:1px;stroke-linecap:butt;stroke-linejoin:miter;stroke-opacity:1" d="M 823.438,42.1844 848.625,51.5739 z" id="boundary" inkscape:connector-curvature="0" />
	<path style="fill:none;stroke:red;stroke-width:1px;stroke-linecap:butt;stroke-linejoin:miter;stroke-opacity:1" d="M 809.486,24.7948 823.438,42.1844 z" id="boundary" inkscape:connector-curvature="0" />
	<path style="fill:none;stroke:red;stroke-width:1px;stroke-linecap:butt;stroke-linejoin:miter;stroke-opacity:1" d="M 848.625,51.5739 858.407,63.3886 z" id="boundary" inkscape:connector-curvature="0" />
	<path style="fill:none;stroke:red;stroke-width:1px;stroke-linecap:butt;stroke-linejoin:miter;stroke-opacity:1" d="M 870.609,82.3259 867.657,93.8972 z" id="boundary" inkscape:connector-curvature="0" />
	<path style="fill:none;stroke:red;stroke-width:1px;stroke-linecap:butt;stroke-linejoin:miter;stroke-opacity:1" d="M 858.407,63.3886 870.766,73.5861 z" id="boundary" inkscape:connector-curvature="0" />
	<path style="fill:none;stroke:red;stroke-width:1px;stroke-linecap:butt;stroke-linejoin:miter;stroke-opacity:1" d="M 870.766,73.5861 870.609,82.3259 z" id="boundary" inkscape:connector-curvature="0" />
	<path style="fill:none;stroke:red;stroke-width:1px;stroke-linecap:butt;stroke-linejoin:miter;stroke-opacity:1" d="M 878.378,109.837 867.657,93.8972 z" id="boundary" inkscape:connector-curvature="0" />
	<path style="fill:none;stroke:red;stroke-width:1px;stroke-linecap:butt;stroke-linejoin:miter;stroke-opacity:1" d="M 895.006,122.005 878.378,109.837 z" id="boundary" inkscape:connector-curvature="0" />
	<path style="fill:none;stroke:red;stroke-width:1px;stroke-linecap:butt;stroke-linejoin:miter;stroke-opacity:1" d="M 914.296,130.93 915.317,121.73 z" id="boundary" inkscape:connector-curvature="0" />
	<path style="fill:none;stroke:red;stroke-width:1px;stroke-linecap:butt;stroke-linejoin:miter;stroke-opacity:1" d="M 915.317,121.73 941.453,130.516 z" id="boundary" inkscape:connector-curvature="0" />
	<path style="fill:none;stroke:red;stroke-width:1px;stroke-linecap:butt;stroke-linejoin:miter;stroke-opacity:1" d="M 914.296,130.93 895.006,122.005 z" id="boundary" inkscape:connector-curvature="0" />
	<path style="fill:none;stroke:red;stroke-width:1px;stroke-linecap:butt;stroke-linejoin:miter;stroke-opacity:1" d="M 940.868,161.14 947.937,150.199 z" id="boundary" inkscape:connector-curvature="0" />
	<path style="fill:none;stroke:red;stroke-width:1px;stroke-linecap:butt;stroke-linejoin:miter;stroke-opacity:1" d="M 948.387,177.553 940.868,161.14 z" id="boundary" inkscape:connector-curvature="0" />
	<path style="fill:none;stroke:red;stroke-width:1px;stroke-linecap:butt;stroke-linejoin:miter;stroke-opacity:1" d="M 941.453,130.516 947.937,150.199 z" id="boundary" inkscape:connector-curvature="0" />
	<path style="fill:none;stroke:red;stroke-width:1px;stroke-linecap:butt;stroke-linejoin:miter;stroke-opacity:1" d="M 973.07,195.22 974.169,208.497 z" id="boundary" inkscape:connector-curvature="0" />
	<path style="fill:none;stroke:red;stroke-width:1px;stroke-linecap:butt;stroke-linejoin:miter;stroke-opacity:1" d="M 955.101,191.331 948.387,177.553 z" id="boundary" inkscape:connector-curvature="0" />
	<path style="fill:none;stroke:red;stroke-width:1px;stroke-linecap:butt;stroke-linejoin:miter;stroke-opacity:1" d="M 985.626,210.47 974.169,208.497 z" id="boundary" inkscape:connector-curvature="0" />
	<path style="fill:none;stroke:red;stroke-width:1px;stroke-linecap:butt;stroke-linejoin:miter;stroke-opacity:1" d="M 948.96,312.441 952.135,324.552 z" id="boundary" inkscape:connector-curvature="0" />
	<path style="fill:none;stroke:red;stroke-width:1px;stroke-linecap:butt;stroke-linejoin:miter;stroke-opacity:1" d="M 958.77,303.745 982.657,273.384 z" id="boundary" inkscape:connector-curvature="0" />
	<path style="fill:none;stroke:red;stroke-width:1px;stroke-linecap:butt;stroke-linejoin:miter;stroke-opacity:1" d="M 967.827,354.042 967.161,367.899 z" id="boundary" inkscape:connector-curvature="0" />
	<path style="fill:none;stroke:red;stroke-width:1px;stroke-linecap:butt;stroke-linejoin:miter;stroke-opacity:1" d="M 973.771,267.719 958.77,303.745 z" id="boundary" inkscape:connector-curvature="0" />
	<path style="fill:none;stroke:red;stroke-width:1px;stroke-linecap:butt;stroke-linejoin:miter;stroke-opacity:1" d="M 941.4,430.965 967.213,394.391 z" id="boundary" inkscape:connector-curvature="0" />
	<path style="fill:none;stroke:red;stroke-width:1px;stroke-linecap:butt;stroke-linejoin:miter;stroke-opacity:1" d="M 922.501,473.589 937.234,465.115 z" id="boundary" inkscape:connector-curvature="0" />
	<path style="fill:none;stroke:red;stroke-width:1px;stroke-linecap:butt;stroke-linejoin:miter;stroke-opacity:1" d="M 924.325,489.681 922.501,473.589 z" id="boundary" inkscape:connector-curvature="0" />
	<path style="fill:none;stroke:red;stroke-width:1px;stroke-linecap:butt;stroke-linejoin:miter;stroke-opacity:1" d="M 929.654,501.902 924.325,489.681 z" id="boundary" inkscape:connector-curvature="0" />
	<path style="fill:none;stroke:red;stroke-width:1px;stroke-linecap:butt;stroke-linejoin:miter;stroke-opacity:1" d="M 956.733,431.052 955.099,453.985 z" id="boundary" inkscape:connector-curvature="0" />
	<path style="fill:none;stroke:red;stroke-width:1px;stroke-linecap:butt;stroke-linejoin:miter;stroke-opacity:1" d="M 938.273,449.26 941.4,430.965 z" id="boundary" inkscape:connector-curvature="0" />
	<path style="fill:none;stroke:red;stroke-width:1px;stroke-linecap:butt;stroke-linejoin:miter;stroke-opacity:1" d="M 956.733,431.052 969.207,420.887 z" id="boundary" inkscape:connector-curvature="0" />
	<path style="fill:none;stroke:red;stroke-width:1px;stroke-linecap:butt;stroke-linejoin:miter;stroke-opacity:1" d="M 955.099,453.985 937.234,465.115 z" id="boundary" inkscape:connector-curvature="0" />
	<path style="fill:none;stroke:red;stroke-width:1px;stroke-linecap:butt;stroke-linejoin:miter;stroke-opacity:1" d="M 967.161,367.899 967.213,394.391 z" id="boundary" inkscape:connector-curvature="0" />
	<path style="fill:none;stroke:red;stroke-width:1px;stroke-linecap:butt;stroke-linejoin:miter;stroke-opacity:1" d="M 979.968,257.061 973.771,267.719 z" id="boundary" inkscape:connector-curvature="0" />
	<path style="fill:none;stroke:red;stroke-width:1px;stroke-linecap:butt;stroke-linejoin:miter;stroke-opacity:1" d="M 996,237.308 991.891,259.794 z" id="boundary" inkscape:connector-curvature="0" />
	<path style="fill:none;stroke:red;stroke-width:1px;stroke-linecap:butt;stroke-linejoin:miter;stroke-opacity:1" d="M 985.626,210.47 990.743,212.864 z" id="boundary" inkscape:connector-curvature="0" />
	<path style="fill:none;stroke:red;stroke-width:1px;stroke-linecap:butt;stroke-linejoin:miter;stroke-opacity:1" d="M 990.743,212.864 996,237.308 z" id="boundary" inkscape:connector-curvature="0" />
	<path style="fill:none;stroke:red;stroke-width:1px;stroke-linecap:butt;stroke-linejoin:miter;stroke-opacity:1" d="M 991.891,259.794 982.657,273.384 z" id="boundary" inkscape:connector-curvature="0" />
	<path style="fill:none;stroke:red;stroke-width:1px;stroke-linecap:butt;stroke-linejoin:miter;stroke-opacity:1" d="M 974.166,411.237 969.207,420.887 z" id="boundary" inkscape:connector-curvature="0" />
	<path style="fill:none;stroke:red;stroke-width:1px;stroke-linecap:butt;stroke-linejoin:miter;stroke-opacity:1" d="M 967.827,354.042 972.134,366.925 z" id="boundary" inkscape:connector-curvature="0" />
	<path style="fill:none;stroke:red;stroke-width:1px;stroke-linecap:butt;stroke-linejoin:miter;stroke-opacity:1" d="M 972.134,366.925 971.735,393.524 z" id="boundary" inkscape:connector-curvature="0" />
	<path style="fill:none;stroke:red;stroke-width:1px;stroke-linecap:butt;stroke-linejoin:miter;stroke-opacity:1" d="M 971.735,393.524 974.166,411.237 z" id="boundary" inkscape:connector-curvature="0" />
	<path style="fill:none;stroke:red;stroke-width:1px;stroke-linecap:butt;stroke-linejoin:miter;stroke-opacity:1" d="M 572.141,535.953 562.992,521.047 z" id="boundary" inkscape:connector-curvature="0" />
	<path style="fill:none;stroke:red;stroke-width:1px;stroke-linecap:butt;stroke-linejoin:miter;stroke-opacity:1" d="M 562.992,521.047 562.019,507.363 z" id="boundary" inkscape:connector-curvature="0" />
	<path style="fill:none;stroke:red;stroke-width:1px;stroke-linecap:butt;stroke-linejoin:miter;stroke-opacity:1" d="M 555.282,503.985 562.019,507.363 z" id="boundary" inkscape:connector-curvature="0" />
	<path style="fill:none;stroke:red;stroke-width:1px;stroke-linecap:butt;stroke-linejoin:miter;stroke-opacity:1" d="M 572.141,535.953 578.218,550.38 z" id="boundary" inkscape:connector-curvature="0" />
	<path style="fill:none;stroke:red;stroke-width:1px;stroke-linecap:butt;stroke-linejoin:miter;stroke-opacity:1" d="M 579.251,577.799 598.749,596.308 z" id="boundary" inkscape:connector-curvature="0" />
	<path style="fill:none;stroke:red;stroke-width:1px;stroke-linecap:butt;stroke-linejoin:miter;stroke-opacity:1" d="M 587.802,602.753 579.251,577.799 z" id="boundary" inkscape:connector-curvature="0" />
	<path style="fill:none;stroke:red;stroke-width:1px;stroke-linecap:butt;stroke-linejoin:miter;stroke-opacity:1" d="M 578.218,550.38 590.988,563.92 z" id="boundary" inkscape:connector-curvature="0" />
	<path style="fill:none;stroke:red;stroke-width:1px;stroke-linecap:butt;stroke-linejoin:miter;stroke-opacity:1" d="M 591.347,610.552 587.802,602.753 z" id="boundary" inkscape:connector-curvature="0" />
	<path style="fill:none;stroke:red;stroke-width:1px;stroke-linecap:butt;stroke-linejoin:miter;stroke-opacity:1" d="M 598.749,596.308 620.184,635.807 z" id="boundary" inkscape:connector-curvature="0" />
	<path style="fill:none;stroke:red;stroke-width:1px;stroke-linecap:butt;stroke-linejoin:miter;stroke-opacity:1" d="M 604.689,639.927 591.347,610.552 z" id="boundary" inkscape:connector-curvature="0" />
	<path style="fill:none;stroke:red;stroke-width:1px;stroke-linecap:butt;stroke-linejoin:miter;stroke-opacity:1" d="M 657.565,624.426 661.988,619.634 z" id="boundary" inkscape:connector-curvature="0" />
	<path style="fill:none;stroke:red;stroke-width:1px;stroke-linecap:butt;stroke-linejoin:miter;stroke-opacity:1" d="M 683.592,620.6 691.633,634.211 z" id="boundary" inkscape:connector-curvature="0" />
	<path style="fill:none;stroke:red;stroke-width:1px;stroke-linecap:butt;stroke-linejoin:miter;stroke-opacity:1" d="M 661.988,619.634 683.592,620.6 z" id="boundary" inkscape:connector-curvature="0" />
	<path style="fill:none;stroke:red;stroke-width:1px;stroke-linecap:butt;stroke-linejoin:miter;stroke-opacity:1" d="M 699.361,640.351 691.633,634.211 z" id="boundary" inkscape:connector-curvature="0" />
	<path style="fill:none;stroke:red;stroke-width:1px;stroke-linecap:butt;stroke-linejoin:miter;stroke-opacity:1" d="M 620.184,635.807 628.493,644.525 z" id="boundary" inkscape:connector-curvature="0" />
	<path style="fill:none;stroke:red;stroke-width:1px;stroke-linecap:butt;stroke-linejoin:miter;stroke-opacity:1" d="M 707.444,669.568 701.723,694.282 z" id="boundary" inkscape:connector-curvature="0" />
	<path style="fill:none;stroke:red;stroke-width:1px;stroke-linecap:butt;stroke-linejoin:miter;stroke-opacity:1" d="M 584.003,738.41 562.633,741.335 z" id="boundary" inkscape:connector-curvature="0" />
	<path style="fill:none;stroke:red;stroke-width:1px;stroke-linecap:butt;stroke-linejoin:miter;stroke-opacity:1" d="M 562.633,741.335 545.4,726 z" id="boundary" inkscape:connector-curvature="0" />
	<path style="fill:none;stroke:red;stroke-width:1px;stroke-linecap:butt;stroke-linejoin:miter;stroke-opacity:1" d="M 601.971,728.206 584.003,738.41 z" id="boundary" inkscape:connector-curvature="0" />
	<path style="fill:none;stroke:red;stroke-width:1px;stroke-linecap:butt;stroke-linejoin:miter;stroke-opacity:1" d="M 617.974,708.711 601.971,728.206 z" id="boundary" inkscape:connector-curvature="0" />
	<path style="fill:none;stroke:red;stroke-width:1px;stroke-linecap:butt;stroke-linejoin:miter;stroke-opacity:1" d="M 645.108,758.827 636.7,780.469 z" id="boundary" inkscape:connector-curvature="0" />
	<path style="fill:none;stroke:red;stroke-width:1px;stroke-linecap:butt;stroke-linejoin:miter;stroke-opacity:1" d="M 636.7,780.469 632.562,783.74 z" id="boundary" inkscape:connector-curvature="0" />
	<path style="fill:none;stroke:red;stroke-width:1px;stroke-linecap:butt;stroke-linejoin:miter;stroke-opacity:1" d="M 632.562,783.74 612.558,796.304 z" id="boundary" inkscape:connector-curvature="0" />
	<path style="fill:none;stroke:red;stroke-width:1px;stroke-linecap:butt;stroke-linejoin:miter;stroke-opacity:1" d="M 612.558,796.304 591.151,781.027 z" id="boundary" inkscape:connector-curvature="0" />
	<path style="fill:none;stroke:red;stroke-width:1px;stroke-linecap:butt;stroke-linejoin:miter;stroke-opacity:1" d="M 660.071,706.968 654.653,709.506 z" id="boundary" inkscape:connector-curvature="0" />
	<path style="fill:none;stroke:red;stroke-width:1px;stroke-linecap:butt;stroke-linejoin:miter;stroke-opacity:1" d="M 654.653,709.506 647.545,708.944 z" id="boundary" inkscape:connector-curvature="0" />
	<path style="fill:none;stroke:red;stroke-width:1px;stroke-linecap:butt;stroke-linejoin:miter;stroke-opacity:1" d="M 647.545,708.944 617.974,708.711 z" id="boundary" inkscape:connector-curvature="0" />
	<path style="fill:none;stroke:red;stroke-width:1px;stroke-linecap:butt;stroke-linejoin:miter;stroke-opacity:1" d="M 660.071,706.968 679.576,710.928 z" id="boundary" inkscape:connector-curvature="0" />
	<path style="fill:none;stroke:red;stroke-width:1px;stroke-linecap:butt;stroke-linejoin:miter;stroke-opacity:1" d="M 679.576,710.928 695.963,708.001 z" id="boundary" inkscape:connector-curvature="0" />
	<path style="fill:none;stroke:red;stroke-width:1px;stroke-linecap:butt;stroke-linejoin:miter;stroke-opacity:1" d="M 700.712,733.557 694.407,731.133 z" id="boundary" inkscape:connector-curvature="0" />
	<path style="fill:none;stroke:red;stroke-width:1px;stroke-linecap:butt;stroke-linejoin:miter;stroke-opacity:1" d="M 701.723,694.282 695.963,708.001 z" id="boundary" inkscape:connector-curvature="0" />
	<path style="fill:none;stroke:red;stroke-width:1px;stroke-linecap:butt;stroke-linejoin:miter;stroke-opacity:1" d="M 693.441,759.282 700.414,754.146 z" id="boundary" inkscape:connector-curvature="0" />
	<path style="fill:none;stroke:red;stroke-width:1px;stroke-linecap:butt;stroke-linejoin:miter;stroke-opacity:1" d="M 700.712,733.557 709.417,737.813 z" id="boundary" inkscape:connector-curvature="0" />
	<path style="fill:none;stroke:red;stroke-width:1px;stroke-linecap:butt;stroke-linejoin:miter;stroke-opacity:1" d="M 844.258,546.042 835.98,551.686 z" id="boundary" inkscape:connector-curvature="0" />
	<path style="fill:none;stroke:red;stroke-width:1px;stroke-linecap:butt;stroke-linejoin:miter;stroke-opacity:1" d="M 853.484,523.304 844.258,546.042 z" id="boundary" inkscape:connector-curvature="0" />
	<path style="fill:none;stroke:red;stroke-width:1px;stroke-linecap:butt;stroke-linejoin:miter;stroke-opacity:1" d="M 851.821,584.867 854.217,594.447 z" id="boundary" inkscape:connector-curvature="0" />
	<path style="fill:none;stroke:red;stroke-width:1px;stroke-linecap:butt;stroke-linejoin:miter;stroke-opacity:1" d="M 707.444,669.568 712.545,665.818 z" id="boundary" inkscape:connector-curvature="0" />
	<path style="fill:none;stroke:red;stroke-width:1px;stroke-linecap:butt;stroke-linejoin:miter;stroke-opacity:1" d="M 712.545,665.818 711.861,677.8 z" id="boundary" inkscape:connector-curvature="0" />
	<path style="fill:none;stroke:red;stroke-width:1px;stroke-linecap:butt;stroke-linejoin:miter;stroke-opacity:1" d="M 711.861,677.8 714.059,710.676 z" id="boundary" inkscape:connector-curvature="0" />
	<path style="fill:none;stroke:red;stroke-width:1px;stroke-linecap:butt;stroke-linejoin:miter;stroke-opacity:1" d="M 858.522,620.952 857.876,624.752 z" id="boundary" inkscape:connector-curvature="0" />
	<path style="fill:none;stroke:red;stroke-width:1px;stroke-linecap:butt;stroke-linejoin:miter;stroke-opacity:1" d="M 867.974,615.314 858.522,620.952 z" id="boundary" inkscape:connector-curvature="0" />
	<path style="fill:none;stroke:red;stroke-width:1px;stroke-linecap:butt;stroke-linejoin:miter;stroke-opacity:1" d="M 862.64,518.46 880.034,515.601 z" id="boundary" inkscape:connector-curvature="0" />
	<path style="fill:none;stroke:red;stroke-width:1px;stroke-linecap:butt;stroke-linejoin:miter;stroke-opacity:1" d="M 880.034,515.601 896.052,514.631 z" id="boundary" inkscape:connector-curvature="0" />
	<path style="fill:none;stroke:red;stroke-width:1px;stroke-linecap:butt;stroke-linejoin:miter;stroke-opacity:1" d="M 862.64,518.46 853.484,523.304 z" id="boundary" inkscape:connector-curvature="0" />
	<path style="fill:none;stroke:red;stroke-width:1px;stroke-linecap:butt;stroke-linejoin:miter;stroke-opacity:1" d="M 892.943,652.669 878.657,642.464 z" id="boundary" inkscape:connector-curvature="0" />
	<path style="fill:none;stroke:red;stroke-width:1px;stroke-linecap:butt;stroke-linejoin:miter;stroke-opacity:1" d="M 902.378,658.029 892.943,652.669 z" id="boundary" inkscape:connector-curvature="0" />
	<path style="fill:none;stroke:red;stroke-width:1px;stroke-linecap:butt;stroke-linejoin:miter;stroke-opacity:1" d="M 878.657,642.464 857.876,624.752 z" id="boundary" inkscape:connector-curvature="0" />
	<path style="fill:none;stroke:red;stroke-width:1px;stroke-linecap:butt;stroke-linejoin:miter;stroke-opacity:1" d="M 902.378,658.029 912.643,675.092 z" id="boundary" inkscape:connector-curvature="0" />
	<path style="fill:none;stroke:red;stroke-width:1px;stroke-linecap:butt;stroke-linejoin:miter;stroke-opacity:1" d="M 935.448,690.593 912.643,675.092 z" id="boundary" inkscape:connector-curvature="0" />
	<path style="fill:none;stroke:red;stroke-width:1px;stroke-linecap:butt;stroke-linejoin:miter;stroke-opacity:1" d="M 709.417,737.813 717.458,733.613 z" id="boundary" inkscape:connector-curvature="0" />
	<path style="fill:none;stroke:red;stroke-width:1px;stroke-linecap:butt;stroke-linejoin:miter;stroke-opacity:1" d="M 714.059,710.676 717.458,733.613 z" id="boundary" inkscape:connector-curvature="0" />
	<path style="fill:none;stroke:red;stroke-width:1px;stroke-linecap:butt;stroke-linejoin:miter;stroke-opacity:1" d="M 778.379,756.848 765.359,767.114 z" id="boundary" inkscape:connector-curvature="0" />
	<path style="fill:none;stroke:red;stroke-width:1px;stroke-linecap:butt;stroke-linejoin:miter;stroke-opacity:1" d="M 778.379,756.848 797.075,749.88 z" id="boundary" inkscape:connector-curvature="0" />
	<path style="fill:none;stroke:red;stroke-width:1px;stroke-linecap:butt;stroke-linejoin:miter;stroke-opacity:1" d="M 765.359,767.114 742.624,771.962 z" id="boundary" inkscape:connector-curvature="0" />
	<path style="fill:none;stroke:red;stroke-width:1px;stroke-linecap:butt;stroke-linejoin:miter;stroke-opacity:1" d="M 870.725,706.738 884.338,701.682 z" id="boundary" inkscape:connector-curvature="0" />
	<path style="fill:none;stroke:red;stroke-width:1px;stroke-linecap:butt;stroke-linejoin:miter;stroke-opacity:1" d="M 884.338,701.682 901.951,711.621 z" id="boundary" inkscape:connector-curvature="0" />
	<path style="fill:none;stroke:red;stroke-width:1px;stroke-linecap:butt;stroke-linejoin:miter;stroke-opacity:1" d="M 870.725,706.738 858.465,712.301 z" id="boundary" inkscape:connector-curvature="0" />
	<path style="fill:none;stroke:red;stroke-width:1px;stroke-linecap:butt;stroke-linejoin:miter;stroke-opacity:1" d="M 915.109,710.564 918.064,701.991 z" id="boundary" inkscape:connector-curvature="0" />
	<path style="fill:none;stroke:red;stroke-width:1px;stroke-linecap:butt;stroke-linejoin:miter;stroke-opacity:1" d="M 918.064,701.991 935.448,690.593 z" id="boundary" inkscape:connector-curvature="0" />
	<path style="fill:none;stroke:red;stroke-width:1px;stroke-linecap:butt;stroke-linejoin:miter;stroke-opacity:1" d="M 915.109,710.564 901.951,711.621 z" id="boundary" inkscape:connector-curvature="0" />
	<path style="fill:none;stroke:red;stroke-width:1px;stroke-linecap:butt;stroke-linejoin:miter;stroke-opacity:1" d="M 814.502,745.286 829.765,738.319 z" id="boundary" inkscape:connector-curvature="0" />
	<path style="fill:none;stroke:red;stroke-width:1px;stroke-linecap:butt;stroke-linejoin:miter;stroke-opacity:1" d="M 797.075,749.88 814.502,745.286 z" id="boundary" inkscape:connector-curvature="0" />
	<path style="fill:none;stroke:red;stroke-width:1px;stroke-linecap:butt;stroke-linejoin:miter;stroke-opacity:1" d="M 858.465,712.301 859.72,716.213 z" id="boundary" inkscape:connector-curvature="0" />
	<path style="fill:none;stroke:red;stroke-width:1px;stroke-linecap:butt;stroke-linejoin:miter;stroke-opacity:1" d="M 859.72,716.213 845.173,734.821 z" id="boundary" inkscape:connector-curvature="0" />
	<path style="fill:none;stroke:red;stroke-width:1px;stroke-linecap:butt;stroke-linejoin:miter;stroke-opacity:1" d="M 829.765,738.319 845.173,734.821 z" id="boundary" inkscape:connector-curvature="0" />
	<circle cx="6.25673" cy="215.795" r="4" fill="#0" id="circle0"/>
	<circle cx="7.19603" cy="218.471" r="4" fill="#0" id="circle1"/>
	<circle cx="4" cy="248.773" r="4" fill="#0" id="circle2"/>
	<circle cx="19.7716" cy="192.819" r="4" fill="#0" id="circle3"/>
	<circle cx="21.6799" cy="255.914" r="4" fill="#0" id="circle4"/>
	<circle cx="18.157" cy="180.921" r="4" fill="#0" id="circle5"/>
	<circle cx="22.8771" cy="269.485" r="4" fill="#0" id="circle6"/>
	<circle cx="8.75186" cy="159.696" r="4" fill="#0" id="circle7"/>
	<circle cx="19.5017" cy="151.679" r="4" fill="#0" id="circle8"/>
	<circle cx="32.2666" cy="278.08" r="4" fill="#0" id="circle9"/>
	<circle cx="38.2623" cy="150.912" r="4" fill="#0" id="circle10"/>
	<circle cx="36.6959" cy="284.194" r="4" fill="#0" id="circle11"/>
	<circle cx="38.6127" cy="134.981" r="4" fill="#0" id="circle12"/>
	<circle cx="41.6816" cy="312.333" r="4" fill="#0" id="circle13"/>
	<circle cx="21.993" cy="128.049" r="4" fill="#0" id="circle14"/>
	<circle cx="36.9564" cy="304.257" r="4" fill="#0" id="circle15"/>
	<circle cx="36.3977" cy="114.882" r="4" fill="#0" id="circle16"/>
	<circle cx="39.1388" cy="322.662" r="4" fill="#0" id="circle17"/>
	<circle cx="44.7493" cy="613.71" r="4" fill="#0" id="circle18"/>
	<circle cx="49.6375" cy="92.6464" r="4" fill="#0" id="circle19"/>
	<circle cx="44.7742" cy="598.436" r="4" fill="#0" id="circle20"/>
	<circle cx="49.84" cy="322.973" r="4" fill="#0" id="circle21"/>
	<circle cx="56.1072" cy="92.1911" r="4" fill="#0" id="circle22"/>
	<circle cx="41.6289" cy="582.247" r="4" fill="#0" id="circle23"/>
	<circle cx="60.4567" cy="329.937" r="4" fill="#0" id="circle24"/>
	<circle cx="49.1134" cy="361.961" r="4" fill="#0" id="circle25"/>
	<circle cx="57.4121" cy="362.734" r="4" fill="#0" id="circle26"/>
	<circle cx="44.8583" cy="384.764" r="4" fill="#0" id="circle27"/>
	<circle cx="66.3564" cy="649.07" r="4" fill="#0" id="circle28"/>
	<circle cx="54.1719" cy="590.925" r="4" fill="#0" id="circle29"/>
	<circle cx="64.4279" cy="66.0287" r="4" fill="#0" id="circle30"/>
	<circle cx="46.9609" cy="558.736" r="4" fill="#0" id="circle31"/>
	<circle cx="69.003" cy="391.434" r="4" fill="#0" id="circle32"/>
	<circle cx="63.904" cy="548.509" r="4" fill="#0" id="circle33"/>
	<circle cx="65.7704" cy="642.088" r="4" fill="#0" id="circle34"/>
	<circle cx="65.2963" cy="78.763" r="4" fill="#0" id="circle35"/>
	<circle cx="66.1924" cy="531.641" r="4" fill="#0" id="circle36"/>
	<circle cx="57.7715" cy="524.282" r="4" fill="#0" id="circle37"/>
	<circle cx="76.7259" cy="397.167" r="4" fill="#0" id="circle38"/>
	<circle cx="72.2033" cy="60.7101" r="4" fill="#0" id="circle39"/>
	<circle cx="67.6523" cy="525.598" r="4" fill="#0" id="circle40"/>
	<circle cx="78.1328" cy="646.061" r="4" fill="#0" id="circle41"/>
	<circle cx="67.9788" cy="509.03" r="4" fill="#0" id="circle42"/>
	<circle cx="86.2626" cy="403.925" r="4" fill="#0" id="circle43"/>
	<circle cx="83.7245" cy="487.449" r="4" fill="#0" id="circle44"/>
	<circle cx="74.8961" cy="46.3236" r="4" fill="#0" id="circle45"/>
	<circle cx="79.9337" cy="470.691" r="4" fill="#0" id="circle46"/>
	<circle cx="88.7079" cy="654.178" r="4" fill="#0" id="circle47"/>
	<circle cx="87.81" cy="414.894" r="4" fill="#0" id="circle48"/>
	<circle cx="82.145" cy="426.904" r="4" fill="#0" id="circle49"/>
	<circle cx="87.6405" cy="474.912" r="4" fill="#0" id="circle50"/>
	<circle cx="76.0108" cy="443.719" r="4" fill="#0" id="circle51"/>
	<circle cx="105.567" cy="32.4632" r="4" fill="#0" id="circle52"/>
	<circle cx="94.2591" cy="675.576" r="4" fill="#0" id="circle53"/>
	<circle cx="104.395" cy="42.1437" r="4" fill="#0" id="circle54"/>
	<circle cx="101.218" cy="687.879" r="4" fill="#0" id="circle55"/>
	<circle cx="119.247" cy="39.3202" r="4" fill="#0" id="circle56"/>
	<circle cx="126.658" cy="697.908" r="4" fill="#0" id="circle57"/>
	<circle cx="127.088" cy="31.0515" r="4" fill="#0" id="circle58"/>
	<circle cx="137.666" cy="691.352" r="4" fill="#0" id="circle59"/>
	<circle cx="148.919" cy="35.3045" r="4" fill="#0" id="circle60"/>
	<circle cx="140.126" cy="704.242" r="4" fill="#0" id="circle61"/>
	<circle cx="137.562" cy="12.7049" r="4" fill="#0" id="circle62"/>
	<circle cx="145.989" cy="722.831" r="4" fill="#0" id="circle63"/>
	<circle cx="153.966" cy="24.6034" r="4" fill="#0" id="circle64"/>
	<circle cx="166.254" cy="735.705" r="4" fill="#0" id="circle65"/>
	<circle cx="168.637" cy="25.7287" r="4" fill="#0" id="circle66"/>
	<circle cx="180.34" cy="732.529" r="4" fill="#0" id="circle67"/>
	<circle cx="190.61" cy="10.2884" r="4" fill="#0" id="circle68"/>
	<circle cx="190.61" cy="741.416" r="4" fill="#0" id="circle69"/>
	<circle cx="202.439" cy="5.04114" r="4" fill="#0" id="circle70"/>
	<circle cx="203.946" cy="756.138" r="4" fill="#0" id="circle71"/>
	<circle cx="210.472" cy="22.0835" r="4" fill="#0" id="circle72"/>
	<circle cx="195.978" cy="760.142" r="4" fill="#0" id="circle73"/>
	<circle cx="209.091" cy="4" r="4" fill="#0" id="circle74"/>
	<circle cx="210.476" cy="768.634" r="4" fill="#0" id="circle75"/>
	<circle cx="233.652" cy="24.7854" r="4" fill="#0" id="circle76"/>
	<circle cx="224.003" cy="792.735" r="4" fill="#0" id="circle77"/>
	<circle cx="244.8" cy="24.1422" r="4" fill="#0" id="circle78"/>
	<circle cx="235.066" cy="766.93" r="4" fill="#0" id="circle79"/>
	<circle cx="241.405" cy="758.223" r="4" fill="#0" id="circle80"/>
	<circle cx="255.808" cy="26.5726" r="4" fill="#0" id="circle81"/>
	<circle cx="239.918" cy="761.693" r="4" fill="#0" id="circle82"/>
	<circle cx="245.534" cy="29.3842" r="4" fill="#0" id="circle83"/>
	<circle cx="245.637" cy="662.368" r="4" fill="#0" id="circle84"/>
	<circle cx="246.977" cy="689.47" r="4" fill="#0" id="circle85"/>
	<circle cx="269.478" cy="675.28" r="4" fill="#0" id="circle86"/>
	<circle cx="254.815" cy="708.147" r="4" fill="#0" id="circle87"/>
	<circle cx="266.725" cy="748.26" r="4" fill="#0" id="circle88"/>
	<circle cx="247.841" cy="699.933" r="4" fill="#0" id="circle89"/>
	<circle cx="261.613" cy="720.739" r="4" fill="#0" id="circle90"/>
	<circle cx="257.095" cy="730.184" r="4" fill="#0" id="circle91"/>
	<circle cx="261.132" cy="32.514" r="4" fill="#0" id="circle92"/>
	<circle cx="266.945" cy="636.413" r="4" fill="#0" id="circle93"/>
	<circle cx="281.218" cy="13.4643" r="4" fill="#0" id="circle94"/>
	<circle cx="276.359" cy="635.997" r="4" fill="#0" id="circle95"/>
	<circle cx="280.753" cy="26.5561" r="4" fill="#0" id="circle96"/>
	<circle cx="300.385" cy="643.021" r="4" fill="#0" id="circle97"/>
	<circle cx="289.191" cy="23.5931" r="4" fill="#0" id="circle98"/>
	<circle cx="290.116" cy="644.705" r="4" fill="#0" id="circle99"/>
	<circle cx="296.117" cy="33.0825" r="4" fill="#0" id="circle100"/>
	<circle cx="299.929" cy="644.709" r="4" fill="#0" id="circle101"/>
	<circle cx="314.45" cy="44.3623" r="4" fill="#0" id="circle102"/>
	<circle cx="328.874" cy="652.281" r="4" fill="#0" id="circle103"/>
	<circle cx="319.49" cy="60.2664" r="4" fill="#0" id="circle104"/>
	<circle cx="327.359" cy="669.936" r="4" fill="#0" id="circle105"/>
	<circle cx="336.503" cy="62.201" r="4" fill="#0" id="circle106"/>
	<circle cx="336.654" cy="670.276" r="4" fill="#0" id="circle107"/>
	<circle cx="354.54" cy="68.0358" r="4" fill="#0" id="circle108"/>
	<circle cx="362.791" cy="664.509" r="4" fill="#0" id="circle109"/>
	<circle cx="367.716" cy="63.5799" r="4" fill="#0" id="circle110"/>
	<circle cx="362.5" cy="658.234" r="4" fill="#0" id="circle111"/>
	<circle cx="376.875" cy="72.5193" r="4" fill="#0" id="circle112"/>
	<circle cx="367.875" cy="681.753" r="4" fill="#0" id="circle113"/>
	<circle cx="379.316" cy="80.6499" r="4" fill="#0" id="circle114"/>
	<circle cx="372.841" cy="669.256" r="4" fill="#0" id="circle115"/>
	<circle cx="386.517" cy="84.6278" r="4" fill="#0" id="circle116"/>
	<circle cx="387.917" cy="115.825" r="4" fill="#0" id="circle117"/>
	<circle cx="393.984" cy="111.227" r="4" fill="#0" id="circle118"/>
	<circle cx="386.165" cy="664.09" r="4" fill="#0" id="circle119"/>
	<circle cx="389.607" cy="124.42" r="4" fill="#0" id="circle120"/>
	<circle cx="398.259" cy="139.047" r="4" fill="#0" id="circle121"/>
	<circle cx="396.378" cy="152.412" r="4" fill="#0" id="circle122"/>
	<circle cx="398.142" cy="659.128" r="4" fill="#0" id="circle123"/>
	<circle cx="404.75" cy="630.518" r="4" fill="#0" id="circle124"/>
	<circle cx="399.247" cy="620.687" r="4" fill="#0" id="circle125"/>
	<circle cx="409.292" cy="162.802" r="4" fill="#0" id="circle126"/>
	<circle cx="401.979" cy="608.066" r="4" fill="#0" id="circle127"/>
	<circle cx="401.195" cy="598.372" r="4" fill="#0" id="circle128"/>
	<circle cx="403.354" cy="172.686" r="4" fill="#0" id="circle129"/>
	<circle cx="399.347" cy="575.749" r="4" fill="#0" id="circle130"/>
	<circle cx="409.365" cy="181.519" r="4" fill="#0" id="circle131"/>
	<circle cx="411.886" cy="576.513" r="4" fill="#0" id="circle132"/>
	<circle cx="421.528" cy="542.476" r="4" fill="#0" id="circle133"/>
	<circle cx="411.905" cy="194.546" r="4" fill="#0" id="circle134"/>
	<circle cx="430.998" cy="498.411" r="4" fill="#0" id="circle135"/>
	<circle cx="415.586" cy="511.376" r="4" fill="#0" id="circle136"/>
	<circle cx="414.312" cy="544.148" r="4" fill="#0" id="circle137"/>
	<circle cx="412.077" cy="202.829" r="4" fill="#0" id="circle138"/>
	<circle cx="422.689" cy="530.288" r="4" fill="#0" id="circle139"/>
	<circle cx="406.411" cy="545.158" r="4" fill="#0" id="circle140"/>
	<circle cx="411.754" cy="215.199" r="4" fill="#0" id="circle141"/>
	<circle cx="428.606" cy="224.11" r="4" fill="#0" id="circle142"/>
	<circle cx="410.411" cy="223.637" r="4" fill="#0" id="circle143"/>
	<circle cx="416.189" cy="240.625" r="4" fill="#0" id="circle144"/>
	<circle cx="433.153" cy="252.477" r="4" fill="#0" id="circle145"/>
	<circle cx="427.582" cy="261.798" r="4" fill="#0" id="circle146"/>
	<circle cx="414.639" cy="269.79" r="4" fill="#0" id="circle147"/>
	<circle cx="417.616" cy="299.031" r="4" fill="#0" id="circle148"/>
	<circle cx="420.274" cy="301.988" r="4" fill="#0" id="circle149"/>
	<circle cx="436.935" cy="482.132" r="4" fill="#0" id="circle150"/>
	<circle cx="418.35" cy="305.406" r="4" fill="#0" id="circle151"/>
	<circle cx="429.541" cy="324.331" r="4" fill="#0" id="circle152"/>
	<circle cx="438.84" cy="343.369" r="4" fill="#0" id="circle153"/>
	<circle cx="422.351" cy="349.458" r="4" fill="#0" id="circle154"/>
	<circle cx="433.759" cy="353.716" r="4" fill="#0" id="circle155"/>
	<circle cx="436.796" cy="379.14" r="4" fill="#0" id="circle156"/>
	<circle cx="450.402" cy="485.831" r="4" fill="#0" id="circle157"/>
	<circle cx="435.839" cy="395.113" r="4" fill="#0" id="circle158"/>
	<circle cx="443.734" cy="398.713" r="4" fill="#0" id="circle159"/>
	<circle cx="444.611" cy="483.089" r="4" fill="#0" id="circle160"/>
	<circle cx="458.619" cy="416.191" r="4" fill="#0" id="circle161"/>
	<circle cx="454.495" cy="428.656" r="4" fill="#0" id="circle162"/>
	<circle cx="467.773" cy="433.679" r="4" fill="#0" id="circle163"/>
	<circle cx="467.936" cy="474.173" r="4" fill="#0" id="circle164"/>
	<circle cx="452.944" cy="438.047" r="4" fill="#0" id="circle165"/>
	<circle cx="459.046" cy="444.383" r="4" fill="#0" id="circle166"/>
	<circle cx="471.743" cy="476.539" r="4" fill="#0" id="circle167"/>
	<circle cx="473.888" cy="458.905" r="4" fill="#0" id="circle168"/>
	<circle cx="525.339" cy="485.253" r="4" fill="#0" id="circle169"/>
	<circle cx="539.941" cy="473.553" r="4" fill="#0" id="circle170"/>
	<circle cx="545.34" cy="492.38" r="4" fill="#0" id="circle171"/>
	<circle cx="538.502" cy="455.828" r="4" fill="#0" id="circle172"/>
	<circle cx="543.143" cy="448.727" r="4" fill="#0" id="circle173"/>
	<circle cx="544.598" cy="415.758" r="4" fill="#0" id="circle174"/>
	<circle cx="544.074" cy="505.624" r="4" fill="#0" id="circle175"/>
	<circle cx="542.685" cy="407.69" r="4" fill="#0" id="circle176"/>
	<circle cx="550.305" cy="411.398" r="4" fill="#0" id="circle177"/>
	<circle cx="542.87" cy="372.069" r="4" fill="#0" id="circle178"/>
	<circle cx="551.472" cy="398.299" r="4" fill="#0" id="circle179"/>
	<circle cx="555.282" cy="503.985" r="4" fill="#0" id="circle180"/>
	<circle cx="545.15" cy="356.216" r="4" fill="#0" id="circle181"/>
	<circle cx="559.229" cy="370.397" r="4" fill="#0" id="circle182"/>
	<circle cx="548.771" cy="154.114" r="4" fill="#0" id="circle183"/>
	<circle cx="542.259" cy="336.008" r="4" fill="#0" id="circle184"/>
	<circle cx="543.949" cy="353.037" r="4" fill="#0" id="circle185"/>
	<circle cx="557.491" cy="150.815" r="4" fill="#0" id="circle186"/>
	<circle cx="548.71" cy="167.542" r="4" fill="#0" id="circle187"/>
	<circle cx="560.403" cy="319.964" r="4" fill="#0" id="circle188"/>
	<circle cx="545.705" cy="317.371" r="4" fill="#0" id="circle189"/>
	<circle cx="567.922" cy="286.845" r="4" fill="#0" id="circle190"/>
	<circle cx="543.658" cy="295.613" r="4" fill="#0" id="circle191"/>
	<circle cx="564.862" cy="125.246" r="4" fill="#0" id="circle192"/>
	<circle cx="549.554" cy="196.302" r="4" fill="#0" id="circle193"/>
	<circle cx="570.03" cy="275.85" r="4" fill="#0" id="circle194"/>
	<circle cx="566.443" cy="108.881" r="4" fill="#0" id="circle195"/>
	<circle cx="554.549" cy="539.964" r="4" fill="#0" id="circle196"/>
	<circle cx="573.145" cy="208.19" r="4" fill="#0" id="circle197"/>
	<circle cx="564.966" cy="254.433" r="4" fill="#0" id="circle198"/>
	<circle cx="562.019" cy="507.363" r="4" fill="#0" id="circle199"/>
	<circle cx="576.745" cy="99.1876" r="4" fill="#0" id="circle200"/>
	<circle cx="563.88" cy="207.025" r="4" fill="#0" id="circle201"/>
	<circle cx="562.992" cy="521.047" r="4" fill="#0" id="circle202"/>
	<circle cx="572.141" cy="535.953" r="4" fill="#0" id="circle203"/>
	<circle cx="568.337" cy="257.384" r="4" fill="#0" id="circle204"/>
	<circle cx="567.427" cy="218.146" r="4" fill="#0" id="circle205"/>
	<circle cx="568.159" cy="236.462" r="4" fill="#0" id="circle206"/>
	<circle cx="578.218" cy="550.38" r="4" fill="#0" id="circle207"/>
	<circle cx="586.125" cy="100.726" r="4" fill="#0" id="circle208"/>
	<circle cx="562.981" cy="237.842" r="4" fill="#0" id="circle209"/>
	<circle cx="579.251" cy="577.799" r="4" fill="#0" id="circle210"/>
	<circle cx="577.393" cy="85.8926" r="4" fill="#0" id="circle211"/>
	<circle cx="590.988" cy="563.92" r="4" fill="#0" id="circle212"/>
	<circle cx="599.951" cy="64.527" r="4" fill="#0" id="circle213"/>
	<circle cx="587.802" cy="602.753" r="4" fill="#0" id="circle214"/>
	<circle cx="598.749" cy="596.308" r="4" fill="#0" id="circle215"/>
	<circle cx="591.347" cy="610.552" r="4" fill="#0" id="circle216"/>
	<circle cx="604.689" cy="639.927" r="4" fill="#0" id="circle217"/>
	<circle cx="614.149" cy="62.7525" r="4" fill="#0" id="circle218"/>
	<circle cx="620.184" cy="635.807" r="4" fill="#0" id="circle219"/>
	<circle cx="610.184" cy="54.3309" r="4" fill="#0" id="circle220"/>
	<circle cx="628.493" cy="644.525" r="4" fill="#0" id="circle221"/>
	<circle cx="632.347" cy="56.4527" r="4" fill="#0" id="circle222"/>
	<circle cx="638.292" cy="640.719" r="4" fill="#0" id="circle223"/>
	<circle cx="637.509" cy="59.0758" r="4" fill="#0" id="circle224"/>
	<circle cx="640.788" cy="645.714" r="4" fill="#0" id="circle225"/>
	<circle cx="651.865" cy="49.5368" r="4" fill="#0" id="circle226"/>
	<circle cx="657.565" cy="624.426" r="4" fill="#0" id="circle227"/>
	<circle cx="665.404" cy="40.0059" r="4" fill="#0" id="circle228"/>
	<circle cx="661.988" cy="619.634" r="4" fill="#0" id="circle229"/>
	<circle cx="665.386" cy="34.6718" r="4" fill="#0" id="circle230"/>
	<circle cx="668.931" cy="634" r="4" fill="#0" id="circle231"/>
	<circle cx="676.944" cy="54.3066" r="4" fill="#0" id="circle232"/>
	<circle cx="683.592" cy="620.6" r="4" fill="#0" id="circle233"/>
	<circle cx="688.188" cy="38.7389" r="4" fill="#0" id="circle234"/>
	<circle cx="691.633" cy="634.211" r="4" fill="#0" id="circle235"/>
	<circle cx="699.361" cy="640.351" r="4" fill="#0" id="circle236"/>
	<circle cx="694.189" cy="38.0839" r="4" fill="#0" id="circle237"/>
	<circle cx="707.444" cy="669.568" r="4" fill="#0" id="circle238"/>
	<circle cx="712.545" cy="665.818" r="4" fill="#0" id="circle239"/>
	<circle cx="711.861" cy="677.8" r="4" fill="#0" id="circle240"/>
	<circle cx="699.403" cy="779.262" r="4" fill="#0" id="circle241"/>
	<circle cx="717.458" cy="733.613" r="4" fill="#0" id="circle242"/>
	<circle cx="709.417" cy="737.813" r="4" fill="#0" id="circle243"/>
	<circle cx="700.712" cy="733.557" r="4" fill="#0" id="circle244"/>
	<circle cx="712.502" cy="756.952" r="4" fill="#0" id="circle245"/>
	<circle cx="700.414" cy="754.146" r="4" fill="#0" id="circle246"/>
	<circle cx="701.723" cy="694.282" r="4" fill="#0" id="circle247"/>
	<circle cx="695.963" cy="708.001" r="4" fill="#0" id="circle248"/>
	<circle cx="714.059" cy="710.676" r="4" fill="#0" id="circle249"/>
	<circle cx="703.117" cy="784.035" r="4" fill="#0" id="circle250"/>
	<circle cx="702.207" cy="50.1845" r="4" fill="#0" id="circle251"/>
	<circle cx="724.48" cy="786.247" r="4" fill="#0" id="circle252"/>
	<circle cx="713.645" cy="40.5844" r="4" fill="#0" id="circle253"/>
	<circle cx="726.478" cy="778.915" r="4" fill="#0" id="circle254"/>
	<circle cx="740.014" cy="29.0622" r="4" fill="#0" id="circle255"/>
	<circle cx="741.701" cy="773.786" r="4" fill="#0" id="circle256"/>
	<circle cx="744.08" cy="34.1713" r="4" fill="#0" id="circle257"/>
	<circle cx="742.624" cy="771.962" r="4" fill="#0" id="circle258"/>
	<circle cx="746.692" cy="27.6735" r="4" fill="#0" id="circle259"/>
	<circle cx="760.195" cy="762.079" r="4" fill="#0" id="circle260"/>
	<circle cx="754.227" cy="28.9736" r="4" fill="#0" id="circle261"/>
	<circle cx="765.359" cy="767.114" r="4" fill="#0" id="circle262"/>
	<circle cx="772.2" cy="14.4542" r="4" fill="#0" id="circle263"/>
	<circle cx="778.379" cy="756.848" r="4" fill="#0" id="circle264"/>
	<circle cx="792.084" cy="17.3464" r="4" fill="#0" id="circle265"/>
	<circle cx="796.52" cy="767.398" r="4" fill="#0" id="circle266"/>
	<circle cx="789.402" cy="13.3522" r="4" fill="#0" id="circle267"/>
	<circle cx="797.075" cy="749.88" r="4" fill="#0" id="circle268"/>
	<circle cx="809.486" cy="24.7948" r="4" fill="#0" id="circle269"/>
	<circle cx="814.502" cy="745.286" r="4" fill="#0" id="circle270"/>
	<circle cx="816.913" cy="43.4794" r="4" fill="#0" id="circle271"/>
	<circle cx="825.508" cy="755.455" r="4" fill="#0" id="circle272"/>
	<circle cx="823.438" cy="42.1844" r="4" fill="#0" id="circle273"/>
	<circle cx="829.765" cy="738.319" r="4" fill="#0" id="circle274"/>
	<circle cx="848.625" cy="51.5739" r="4" fill="#0" id="circle275"/>
	<circle cx="844.258" cy="546.042" r="4" fill="#0" id="circle276"/>
	<circle cx="835.98" cy="551.686" r="4" fill="#0" id="circle277"/>
	<circle cx="845.173" cy="734.821" r="4" fill="#0" id="circle278"/>
	<circle cx="858.407" cy="63.3886" r="4" fill="#0" id="circle279"/>
	<circle cx="853.445" cy="562.818" r="4" fill="#0" id="circle280"/>
	<circle cx="862.513" cy="566.612" r="4" fill="#0" id="circle281"/>
	<circle cx="853.484" cy="523.304" r="4" fill="#0" id="circle282"/>
	<circle cx="851.821" cy="584.867" r="4" fill="#0" id="circle283"/>
	<circle cx="859.72" cy="716.213" r="4" fill="#0" id="circle284"/>
	<circle cx="870.609" cy="82.3259" r="4" fill="#0" id="circle285"/>
	<circle cx="854.217" cy="594.447" r="4" fill="#0" id="circle286"/>
	<circle cx="867.974" cy="615.314" r="4" fill="#0" id="circle287"/>
	<circle cx="862.64" cy="518.46" r="4" fill="#0" id="circle288"/>
	<circle cx="858.522" cy="620.952" r="4" fill="#0" id="circle289"/>
	<circle cx="870.766" cy="73.5861" r="4" fill="#0" id="circle290"/>
	<circle cx="858.465" cy="712.301" r="4" fill="#0" id="circle291"/>
	<circle cx="857.876" cy="624.752" r="4" fill="#0" id="circle292"/>
	<circle cx="878.657" cy="642.464" r="4" fill="#0" id="circle293"/>
	<circle cx="883.423" cy="527.41" r="4" fill="#0" id="circle294"/>
	<circle cx="867.657" cy="93.8972" r="4" fill="#0" id="circle295"/>
	<circle cx="870.725" cy="706.738" r="4" fill="#0" id="circle296"/>
	<circle cx="892.943" cy="652.669" r="4" fill="#0" id="circle297"/>
	<circle cx="880.034" cy="515.601" r="4" fill="#0" id="circle298"/>
	<circle cx="878.378" cy="109.837" r="4" fill="#0" id="circle299"/>
	<circle cx="884.338" cy="701.682" r="4" fill="#0" id="circle300"/>
	<circle cx="899.823" cy="662.171" r="4" fill="#0" id="circle301"/>
	<circle cx="896.052" cy="514.631" r="4" fill="#0" id="circle302"/>
	<circle cx="895.006" cy="122.005" r="4" fill="#0" id="circle303"/>
	<circle cx="901.951" cy="711.621" r="4" fill="#0" id="circle304"/>
	<circle cx="902.378" cy="658.029" r="4" fill="#0" id="circle305"/>
	<circle cx="915.317" cy="121.73" r="4" fill="#0" id="circle306"/>
	<circle cx="899.039" cy="519.402" r="4" fill="#0" id="circle307"/>
	<circle cx="915.109" cy="710.564" r="4" fill="#0" id="circle308"/>
	<circle cx="912.643" cy="675.092" r="4" fill="#0" id="circle309"/>
	<circle cx="914.296" cy="130.93" r="4" fill="#0" id="circle310"/>
	<circle cx="929.654" cy="501.902" r="4" fill="#0" id="circle311"/>
	<circle cx="918.064" cy="701.991" r="4" fill="#0" id="circle312"/>
	<circle cx="935.448" cy="690.593" r="4" fill="#0" id="circle313"/>
	<circle cx="941.453" cy="130.516" r="4" fill="#0" id="circle314"/>
	<circle cx="924.325" cy="489.681" r="4" fill="#0" id="circle315"/>
	<circle cx="922.501" cy="473.589" r="4" fill="#0" id="circle316"/>
	<circle cx="947.937" cy="150.199" r="4" fill="#0" id="circle317"/>
	<circle cx="937.234" cy="465.115" r="4" fill="#0" id="circle318"/>
	<circle cx="938.273" cy="449.26" r="4" fill="#0" id="circle319"/>
	<circle cx="955.099" cy="453.985" r="4" fill="#0" id="circle320"/>
	<circle cx="940.868" cy="161.14" r="4" fill="#0" id="circle321"/>
	<circle cx="941.4" cy="430.965" r="4" fill="#0" id="circle322"/>
	<circle cx="956.733" cy="431.052" r="4" fill="#0" id="circle323"/>
	<circle cx="948.387" cy="177.553" r="4" fill="#0" id="circle324"/>
	<circle cx="948.96" cy="312.441" r="4" fill="#0" id="circle325"/>
	<circle cx="952.135" cy="324.552" r="4" fill="#0" id="circle326"/>
	<circle cx="967.827" cy="354.042" r="4" fill="#0" id="circle327"/>
	<circle cx="969.207" cy="420.887" r="4" fill="#0" id="circle328"/>
	<circle cx="959.237" cy="312.192" r="4" fill="#0" id="circle329"/>
	<circle cx="972.134" cy="366.925" r="4" fill="#0" id="circle330"/>
	<circle cx="955.101" cy="191.331" r="4" fill="#0" id="circle331"/>
	<circle cx="974.166" cy="411.237" r="4" fill="#0" id="circle332"/>
	<circle cx="967.161" cy="367.899" r="4" fill="#0" id="circle333"/>
	<circle cx="958.77" cy="303.745" r="4" fill="#0" id="circle334"/>
	<circle cx="967.213" cy="394.391" r="4" fill="#0" id="circle335"/>
	<circle cx="971.735" cy="393.524" r="4" fill="#0" id="circle336"/>
	<circle cx="973.07" cy="195.22" r="4" fill="#0" id="circle337"/>
	<circle cx="982.657" cy="273.384" r="4" fill="#0" id="circle338"/>
	<circle cx="974.169" cy="208.497" r="4" fill="#0" id="circle339"/>
	<circle cx="990.743" cy="212.864" r="4" fill="#0" id="circle340"/>
	<circle cx="973.771" cy="267.719" r="4" fill="#0" id="circle341"/>
	<circle cx="985.626" cy="210.47" r="4" fill="#0" id="circle342"/>
	<circle cx="996" cy="237.308" r="4" fill="#0" id="circle343"/>
	<circle cx="991.891" cy="259.794" r="4" fill="#0" id="circle344"/>
	<circle cx="979.968" cy="257.061" r="4" fill="#0" id="circle345"/>
	<circle cx="291.879" cy="716.296" r="4" fill="#0" id="circle346"/>
	<circle cx="311.257" cy="734.965" r="4" fill="#0" id="circle347"/>
	<circle cx="309.639" cy="720.716" r="4" fill="#0" id="circle348"/>
	<circle cx="326.679" cy="727.572" r="4" fill="#0" id="circle349"/>
	<circle cx="336.92" cy="740.583" r="4" fill="#0" id="circle350"/>
	<circle cx="355.401" cy="744.154" r="4" fill="#0" id="circle351"/>
	<circle cx="373.174" cy="750.059" r="4" fill="#0" id="circle352"/>
	<circle cx="397.148" cy="753.431" r="4" fill="#0" id="circle353"/>
	<circle cx="431.067" cy="751.489" r="4" fill="#0" id="circle354"/>
	<circle cx="457.579" cy="749.455" r="4" fill="#0" id="circle355"/>
	<circle cx="484.179" cy="748.839" r="4" fill="#0" id="circle356"/>
	<circle cx="502.931" cy="725.496" r="4" fill="#0" id="circle357"/>
	<circle cx="545.4" cy="726" r="4" fill="#0" id="circle358"/>
	<circle cx="562.633" cy="741.335" r="4" fill="#0" id="circle359"/>
	<circle cx="584.003" cy="738.41" r="4" fill="#0" id="circle360"/>
	<circle cx="601.971" cy="728.206" r="4" fill="#0" id="circle361"/>
	<circle cx="617.974" cy="708.711" r="4" fill="#0" id="circle362"/>
	<circle cx="647.545" cy="708.944" r="4" fill="#0" id="circle363"/>
	<circle cx="654.653" cy="709.506" r="4" fill="#0" id="circle364"/>
	<circle cx="300.388" cy="723.657" r="4" fill="#0" id="circle365"/>
	<circle cx="288.459" cy="749.868" r="4" fill="#0" id="circle366"/>
	<circle cx="274.202" cy="751.235" r="4" fill="#0" id="circle367"/>
	<circle cx="289.05" cy="760.313" r="4" fill="#0" id="circle368"/>
	<circle cx="295.067" cy="776.542" r="4" fill="#0" id="circle369"/>
	<circle cx="301.564" cy="773.896" r="4" fill="#0" id="circle370"/>
	<circle cx="324.713" cy="789.643" r="4" fill="#0" id="circle371"/>
	<circle cx="342.557" cy="792.532" r="4" fill="#0" id="circle372"/>
	<circle cx="379.649" cy="783.851" r="4" fill="#0" id="circle373"/>
	<circle cx="404.148" cy="786.371" r="4" fill="#0" id="circle374"/>
	<circle cx="437.025" cy="782.994" r="4" fill="#0" id="circle375"/>
	<circle cx="445.654" cy="789.069" r="4" fill="#0" id="circle376"/>
	<circle cx="480.6" cy="787.399" r="4" fill="#0" id="circle377"/>
	<circle cx="498.518" cy="783.562" r="4" fill="#0" id="circle378"/>
	<circle cx="536.735" cy="796.996" r="4" fill="#0" id="circle379"/>
	<circle cx="566.717" cy="791.857" r="4" fill="#0" id="circle380"/>
	<circle cx="565.602" cy="789.444" r="4" fill="#0" id="circle381"/>
	<circle cx="591.151" cy="781.027" r="4" fill="#0" id="circle382"/>
	<circle cx="645.108" cy="758.827" r="4" fill="#0" id="circle383"/>
	<circle cx="676.388" cy="759.881" r="4" fill="#0" id="circle384"/>
	<circle cx="693.441" cy="759.282" r="4" fill="#0" id="circle385"/>
	<circle cx="694.407" cy="731.133" r="4" fill="#0" id="circle386"/>
	<circle cx="679.576" cy="710.928" r="4" fill="#0" id="circle387"/>
	<circle cx="660.071" cy="706.968" r="4" fill="#0" id="circle388"/>
	<circle cx="612.558" cy="796.304" r="4" fill="#0" id="circle389"/>
	<circle cx="636.7" cy="780.469" r="4" fill="#0" id="circle390"/>
	<circle cx="632.562" cy="783.74" r="4" fill="#0" id="circle391"/>
	</g>
</svg>