<?xml version="1.0" encoding="UTF-8" standalone="no"?>
<!-- Created with CurveBenchmark -->
<svg
	xmlns:dc="http://purl.org/dc/elements/1.1/"
	xmlns:cc="http://creativecommons.org/ns#"
	xmlns:rdf="http://www.w3.org/1999/02/22-rdf-syntax-ns#"
	xmlns:svg="http://www.w3.org/2000/svg"
	xmlns="http://www.w3.org/2000/svg"
	xmlns:sodipodi="http://sodipodi.sourceforge.net/DTD/sodipodi-0.dtd"
	xmlns:inkscape="http://www.inkscape.org/namespaces/inkscape"
	width="1000"
	height="1000"
	id="svg2"
	version="1.1"
	sodipodi:docname="noisy-0.01/gathang-mc52.txt">
<defs
	id="defs4" />
<metadata
	id="metadata7">
	<rdf:RDF>
		<cc:Work
			rdf:about="">
			<dc:format>image/svg+xml</dc:format>
			<dc:type
				rdf:resource="http://purl.org/dc/dcmitype/StillImage" />
			<dc:title></dc:title>
		</cc:Work>
	</rdf:RDF>
</metadata>
<g
	inkscape:label="Layer 1"
	inkscape:groupmode="layer"
	id="layer1">
	<path style="fill:none;stroke:red;stroke-width:1px;stroke-linecap:butt;stroke-linejoin:miter;stroke-opacity:1" d="M 78.3125,163.315 137.448,105.579 z" id="boundary" inkscape:connector-curvature="0" />
	<path style="fill:none;stroke:red;stroke-width:1px;stroke-linecap:butt;stroke-linejoin:miter;stroke-opacity:1" d="M 78.3125,163.315 51.3745,170.452 z" id="boundary" inkscape:connector-curvature="0" />
	<path style="fill:none;stroke:red;stroke-width:1px;stroke-linecap:butt;stroke-linejoin:miter;stroke-opacity:1" d="M 137.448,105.579 175.842,80.3707 z" id="boundary" inkscape:connector-curvature="0" />
	<path style="fill:none;stroke:red;stroke-width:1px;stroke-linecap:butt;stroke-linejoin:miter;stroke-opacity:1" d="M 238.581,64.736 292.212,65.7815 z" id="boundary" inkscape:connector-curvature="0" />
	<path style="fill:none;stroke:red;stroke-width:1px;stroke-linecap:butt;stroke-linejoin:miter;stroke-opacity:1" d="M 292.212,65.7815 320.164,121.854 z" id="boundary" inkscape:connector-curvature="0" />
	<path style="fill:none;stroke:red;stroke-width:1px;stroke-linecap:butt;stroke-linejoin:miter;stroke-opacity:1" d="M 175.842,80.3707 238.581,64.736 z" id="boundary" inkscape:connector-curvature="0" />
	<path style="fill:none;stroke:red;stroke-width:1px;stroke-linecap:butt;stroke-linejoin:miter;stroke-opacity:1" d="M 4,215.839 51.3745,170.452 z" id="boundary" inkscape:connector-curvature="0" />
	<path style="fill:none;stroke:red;stroke-width:1px;stroke-linecap:butt;stroke-linejoin:miter;stroke-opacity:1" d="M 69.7555,219.596 4,215.839 z" id="boundary" inkscape:connector-curvature="0" />
	<path style="fill:none;stroke:red;stroke-width:1px;stroke-linecap:butt;stroke-linejoin:miter;stroke-opacity:1" d="M 69.7555,219.596 134.934,243.649 z" id="boundary" inkscape:connector-curvature="0" />
	<path style="fill:none;stroke:red;stroke-width:1px;stroke-linecap:butt;stroke-linejoin:miter;stroke-opacity:1" d="M 208.08,248.426 134.934,243.649 z" id="boundary" inkscape:connector-curvature="0" />
	<path style="fill:none;stroke:red;stroke-width:1px;stroke-linecap:butt;stroke-linejoin:miter;stroke-opacity:1" d="M 208.08,248.426 269.839,217.843 z" id="boundary" inkscape:connector-curvature="0" />
	<path style="fill:none;stroke:red;stroke-width:1px;stroke-linecap:butt;stroke-linejoin:miter;stroke-opacity:1" d="M 269.839,217.843 325.941,204.151 z" id="boundary" inkscape:connector-curvature="0" />
	<path style="fill:none;stroke:red;stroke-width:1px;stroke-linecap:butt;stroke-linejoin:miter;stroke-opacity:1" d="M 320.164,121.854 325.941,204.151 z" id="boundary" inkscape:connector-curvature="0" />
	<path style="fill:none;stroke:red;stroke-width:1px;stroke-linecap:butt;stroke-linejoin:miter;stroke-opacity:1" d="M 686.436,33.2167 756.587,4 z" id="boundary" inkscape:connector-curvature="0" />
	<path style="fill:none;stroke:red;stroke-width:1px;stroke-linecap:butt;stroke-linejoin:miter;stroke-opacity:1" d="M 687.279,62.388 686.436,33.2167 z" id="boundary" inkscape:connector-curvature="0" />
	<path style="fill:none;stroke:red;stroke-width:1px;stroke-linecap:butt;stroke-linejoin:miter;stroke-opacity:1" d="M 756.587,4 805.934,23.9439 z" id="boundary" inkscape:connector-curvature="0" />
	<path style="fill:none;stroke:red;stroke-width:1px;stroke-linecap:butt;stroke-linejoin:miter;stroke-opacity:1" d="M 687.279,62.388 688.49,148.149 z" id="boundary" inkscape:connector-curvature="0" />
	<path style="fill:none;stroke:red;stroke-width:1px;stroke-linecap:butt;stroke-linejoin:miter;stroke-opacity:1" d="M 952.141,80.9095 882.47,56.5741 z" id="boundary" inkscape:connector-curvature="0" />
	<path style="fill:none;stroke:red;stroke-width:1px;stroke-linecap:butt;stroke-linejoin:miter;stroke-opacity:1" d="M 882.47,56.5741 805.934,23.9439 z" id="boundary" inkscape:connector-curvature="0" />
	<path style="fill:none;stroke:red;stroke-width:1px;stroke-linecap:butt;stroke-linejoin:miter;stroke-opacity:1" d="M 688.49,148.149 717.257,166.736 z" id="boundary" inkscape:connector-curvature="0" />
	<path style="fill:none;stroke:red;stroke-width:1px;stroke-linecap:butt;stroke-linejoin:miter;stroke-opacity:1" d="M 717.257,166.736 806.158,170.462 z" id="boundary" inkscape:connector-curvature="0" />
	<path style="fill:none;stroke:red;stroke-width:1px;stroke-linecap:butt;stroke-linejoin:miter;stroke-opacity:1" d="M 843.603,155.735 806.158,170.462 z" id="boundary" inkscape:connector-curvature="0" />
	<path style="fill:none;stroke:red;stroke-width:1px;stroke-linecap:butt;stroke-linejoin:miter;stroke-opacity:1" d="M 843.603,155.735 915.521,135.077 z" id="boundary" inkscape:connector-curvature="0" />
	<path style="fill:none;stroke:red;stroke-width:1px;stroke-linecap:butt;stroke-linejoin:miter;stroke-opacity:1" d="M 952.141,80.9095 996,102.948 z" id="boundary" inkscape:connector-curvature="0" />
	<path style="fill:none;stroke:red;stroke-width:1px;stroke-linecap:butt;stroke-linejoin:miter;stroke-opacity:1" d="M 996,102.948 915.521,135.077 z" id="boundary" inkscape:connector-curvature="0" />
	<circle cx="4" cy="215.839" r="4" fill="#0" id="circle0"/>
	<circle cx="51.3745" cy="170.452" r="4" fill="#0" id="circle1"/>
	<circle cx="78.3125" cy="163.315" r="4" fill="#0" id="circle2"/>
	<circle cx="137.448" cy="105.579" r="4" fill="#0" id="circle3"/>
	<circle cx="175.842" cy="80.3707" r="4" fill="#0" id="circle4"/>
	<circle cx="238.581" cy="64.736" r="4" fill="#0" id="circle5"/>
	<circle cx="292.212" cy="65.7815" r="4" fill="#0" id="circle6"/>
	<circle cx="320.164" cy="121.854" r="4" fill="#0" id="circle7"/>
	<circle cx="69.7555" cy="219.596" r="4" fill="#0" id="circle8"/>
	<circle cx="134.934" cy="243.649" r="4" fill="#0" id="circle9"/>
	<circle cx="208.08" cy="248.426" r="4" fill="#0" id="circle10"/>
	<circle cx="269.839" cy="217.843" r="4" fill="#0" id="circle11"/>
	<circle cx="325.941" cy="204.151" r="4" fill="#0" id="circle12"/>
	<circle cx="687.279" cy="62.388" r="4" fill="#0" id="circle13"/>
	<circle cx="686.436" cy="33.2167" r="4" fill="#0" id="circle14"/>
	<circle cx="756.587" cy="4" r="4" fill="#0" id="circle15"/>
	<circle cx="805.934" cy="23.9439" r="4" fill="#0" id="circle16"/>
	<circle cx="882.47" cy="56.5741" r="4" fill="#0" id="circle17"/>
	<circle cx="952.141" cy="80.9095" r="4" fill="#0" id="circle18"/>
	<circle cx="996" cy="102.948" r="4" fill="#0" id="circle19"/>
	<circle cx="915.521" cy="135.077" r="4" fill="#0" id="circle20"/>
	<circle cx="843.603" cy="155.735" r="4" fill="#0" id="circle21"/>
	<circle cx="806.158" cy="170.462" r="4" fill="#0" id="circle22"/>
	<circle cx="717.257" cy="166.736" r="4" fill="#0" id="circle23"/>
	<circle cx="688.49" cy="148.149" r="4" fill="#0" id="circle24"/>
	</g>
</svg>