<?xml version="1.0" encoding="UTF-8" standalone="no"?>
<!-- Created with CurveBenchmark -->
<svg
	xmlns:dc="http://purl.org/dc/elements/1.1/"
	xmlns:cc="http://creativecommons.org/ns#"
	xmlns:rdf="http://www.w3.org/1999/02/22-rdf-syntax-ns#"
	xmlns:svg="http://www.w3.org/2000/svg"
	xmlns="http://www.w3.org/2000/svg"
	xmlns:sodipodi="http://sodipodi.sourceforge.net/DTD/sodipodi-0.dtd"
	xmlns:inkscape="http://www.inkscape.org/namespaces/inkscape"
	width="1000"
	height="1000"
	id="svg2"
	version="1.1"
	sodipodi:docname="noisy-0.01/hnncrust-mc15.txt">
<defs
	id="defs4" />
<metadata
	id="metadata7">
	<rdf:RDF>
		<cc:Work
			rdf:about="">
			<dc:format>image/svg+xml</dc:format>
			<dc:type
				rdf:resource="http://purl.org/dc/dcmitype/StillImage" />
			<dc:title></dc:title>
		</cc:Work>
	</rdf:RDF>
</metadata>
<g
	inkscape:label="Layer 1"
	inkscape:groupmode="layer"
	id="layer1">
	<path style="fill:none;stroke:red;stroke-width:1px;stroke-linecap:butt;stroke-linejoin:miter;stroke-opacity:1" d="M 19.7762,99.0525 48.0943,87.6458 z" id="boundary" inkscape:connector-curvature="0" />
	<path style="fill:none;stroke:red;stroke-width:1px;stroke-linecap:butt;stroke-linejoin:miter;stroke-opacity:1" d="M 19.7762,99.0525 17.3457,71.0765 z" id="boundary" inkscape:connector-curvature="0" />
	<path style="fill:none;stroke:red;stroke-width:1px;stroke-linecap:butt;stroke-linejoin:miter;stroke-opacity:1" d="M 48.0943,87.6458 73.6172,101.142 z" id="boundary" inkscape:connector-curvature="0" />
	<path style="fill:none;stroke:red;stroke-width:1px;stroke-linecap:butt;stroke-linejoin:miter;stroke-opacity:1" d="M 73.6172,101.142 117.307,86.4356 z" id="boundary" inkscape:connector-curvature="0" />
	<path style="fill:none;stroke:red;stroke-width:1px;stroke-linecap:butt;stroke-linejoin:miter;stroke-opacity:1" d="M 117.307,86.4356 131.714,116.815 z" id="boundary" inkscape:connector-curvature="0" />
	<path style="fill:none;stroke:red;stroke-width:1px;stroke-linecap:butt;stroke-linejoin:miter;stroke-opacity:1" d="M 131.714,116.815 130.547,144.715 z" id="boundary" inkscape:connector-curvature="0" />
	<path style="fill:none;stroke:red;stroke-width:1px;stroke-linecap:butt;stroke-linejoin:miter;stroke-opacity:1" d="M 130.547,144.715 142.026,155.758 z" id="boundary" inkscape:connector-curvature="0" />
	<path style="fill:none;stroke:red;stroke-width:1px;stroke-linecap:butt;stroke-linejoin:miter;stroke-opacity:1" d="M 143.392,178.515 134.22,191.005 z" id="boundary" inkscape:connector-curvature="0" />
	<path style="fill:none;stroke:red;stroke-width:1px;stroke-linecap:butt;stroke-linejoin:miter;stroke-opacity:1" d="M 134.22,191.005 146.354,216.017 z" id="boundary" inkscape:connector-curvature="0" />
	<path style="fill:none;stroke:red;stroke-width:1px;stroke-linecap:butt;stroke-linejoin:miter;stroke-opacity:1" d="M 146.354,216.017 162.07,237.752 z" id="boundary" inkscape:connector-curvature="0" />
	<path style="fill:none;stroke:red;stroke-width:1px;stroke-linecap:butt;stroke-linejoin:miter;stroke-opacity:1" d="M 173.254,268.015 176.103,274.432 z" id="boundary" inkscape:connector-curvature="0" />
	<path style="fill:none;stroke:red;stroke-width:1px;stroke-linecap:butt;stroke-linejoin:miter;stroke-opacity:1" d="M 176.103,274.432 188.648,290.784 z" id="boundary" inkscape:connector-curvature="0" />
	<path style="fill:none;stroke:red;stroke-width:1px;stroke-linecap:butt;stroke-linejoin:miter;stroke-opacity:1" d="M 183.557,308.687 188.648,290.784 z" id="boundary" inkscape:connector-curvature="0" />
	<path style="fill:none;stroke:red;stroke-width:1px;stroke-linecap:butt;stroke-linejoin:miter;stroke-opacity:1" d="M 189.221,337.096 187.302,358.05 z" id="boundary" inkscape:connector-curvature="0" />
	<path style="fill:none;stroke:red;stroke-width:1px;stroke-linecap:butt;stroke-linejoin:miter;stroke-opacity:1" d="M 189.221,337.096 211.109,321.603 z" id="boundary" inkscape:connector-curvature="0" />
	<path style="fill:none;stroke:red;stroke-width:1px;stroke-linecap:butt;stroke-linejoin:miter;stroke-opacity:1" d="M 172.79,355.157 187.302,358.05 z" id="boundary" inkscape:connector-curvature="0" />
	<path style="fill:none;stroke:red;stroke-width:1px;stroke-linecap:butt;stroke-linejoin:miter;stroke-opacity:1" d="M 192.688,391.931 194.034,406.93 z" id="boundary" inkscape:connector-curvature="0" />
	<path style="fill:none;stroke:red;stroke-width:1px;stroke-linecap:butt;stroke-linejoin:miter;stroke-opacity:1" d="M 194.034,406.93 202.716,414.265 z" id="boundary" inkscape:connector-curvature="0" />
	<path style="fill:none;stroke:red;stroke-width:1px;stroke-linecap:butt;stroke-linejoin:miter;stroke-opacity:1" d="M 213.863,438.348 213.793,459.266 z" id="boundary" inkscape:connector-curvature="0" />
	<path style="fill:none;stroke:red;stroke-width:1px;stroke-linecap:butt;stroke-linejoin:miter;stroke-opacity:1" d="M 213.793,459.266 221.031,478.007 z" id="boundary" inkscape:connector-curvature="0" />
	<path style="fill:none;stroke:red;stroke-width:1px;stroke-linecap:butt;stroke-linejoin:miter;stroke-opacity:1" d="M 221.031,478.007 251.417,478.788 z" id="boundary" inkscape:connector-curvature="0" />
	<path style="fill:none;stroke:red;stroke-width:1px;stroke-linecap:butt;stroke-linejoin:miter;stroke-opacity:1" d="M 230.01,514.769 221.467,521.049 z" id="boundary" inkscape:connector-curvature="0" />
	<path style="fill:none;stroke:red;stroke-width:1px;stroke-linecap:butt;stroke-linejoin:miter;stroke-opacity:1" d="M 230.01,514.769 250.3,509.108 z" id="boundary" inkscape:connector-curvature="0" />
	<path style="fill:none;stroke:red;stroke-width:1px;stroke-linecap:butt;stroke-linejoin:miter;stroke-opacity:1" d="M 246.451,541.149 279.544,532.267 z" id="boundary" inkscape:connector-curvature="0" />
	<path style="fill:none;stroke:red;stroke-width:1px;stroke-linecap:butt;stroke-linejoin:miter;stroke-opacity:1" d="M 240.66,586.265 257.216,602.216 z" id="boundary" inkscape:connector-curvature="0" />
	<path style="fill:none;stroke:red;stroke-width:1px;stroke-linecap:butt;stroke-linejoin:miter;stroke-opacity:1" d="M 257.216,602.216 279.079,607.189 z" id="boundary" inkscape:connector-curvature="0" />
	<path style="fill:none;stroke:red;stroke-width:1px;stroke-linecap:butt;stroke-linejoin:miter;stroke-opacity:1" d="M 269.464,659.559 265.289,679.33 z" id="boundary" inkscape:connector-curvature="0" />
	<path style="fill:none;stroke:red;stroke-width:1px;stroke-linecap:butt;stroke-linejoin:miter;stroke-opacity:1" d="M 269.464,659.559 289.836,655.943 z" id="boundary" inkscape:connector-curvature="0" />
	<path style="fill:none;stroke:red;stroke-width:1px;stroke-linecap:butt;stroke-linejoin:miter;stroke-opacity:1" d="M 289.836,655.943 292.613,657.039 z" id="boundary" inkscape:connector-curvature="0" />
	<path style="fill:none;stroke:red;stroke-width:1px;stroke-linecap:butt;stroke-linejoin:miter;stroke-opacity:1" d="M 292.613,657.039 327.883,663.069 z" id="boundary" inkscape:connector-curvature="0" />
	<path style="fill:none;stroke:red;stroke-width:1px;stroke-linecap:butt;stroke-linejoin:miter;stroke-opacity:1" d="M 327.883,663.069 347.956,657.387 z" id="boundary" inkscape:connector-curvature="0" />
	<path style="fill:none;stroke:red;stroke-width:1px;stroke-linecap:butt;stroke-linejoin:miter;stroke-opacity:1" d="M 347.956,657.387 352.371,678.663 z" id="boundary" inkscape:connector-curvature="0" />
	<path style="fill:none;stroke:red;stroke-width:1px;stroke-linecap:butt;stroke-linejoin:miter;stroke-opacity:1" d="M 352.371,678.663 372.009,688.741 z" id="boundary" inkscape:connector-curvature="0" />
	<path style="fill:none;stroke:red;stroke-width:1px;stroke-linecap:butt;stroke-linejoin:miter;stroke-opacity:1" d="M 349.891,716.734 350.324,716.602 z" id="boundary" inkscape:connector-curvature="0" />
	<path style="fill:none;stroke:red;stroke-width:1px;stroke-linecap:butt;stroke-linejoin:miter;stroke-opacity:1" d="M 349.891,716.734 339.604,742.918 z" id="boundary" inkscape:connector-curvature="0" />
	<path style="fill:none;stroke:red;stroke-width:1px;stroke-linecap:butt;stroke-linejoin:miter;stroke-opacity:1" d="M 350.324,716.602 375.895,706.847 z" id="boundary" inkscape:connector-curvature="0" />
	<path style="fill:none;stroke:red;stroke-width:1px;stroke-linecap:butt;stroke-linejoin:miter;stroke-opacity:1" d="M 339.604,742.918 356.264,761.357 z" id="boundary" inkscape:connector-curvature="0" />
	<path style="fill:none;stroke:red;stroke-width:1px;stroke-linecap:butt;stroke-linejoin:miter;stroke-opacity:1" d="M 326.218,771.265 318.911,784.213 z" id="boundary" inkscape:connector-curvature="0" />
	<path style="fill:none;stroke:red;stroke-width:1px;stroke-linecap:butt;stroke-linejoin:miter;stroke-opacity:1" d="M 307.086,778.1 292.506,788.779 z" id="boundary" inkscape:connector-curvature="0" />
	<path style="fill:none;stroke:red;stroke-width:1px;stroke-linecap:butt;stroke-linejoin:miter;stroke-opacity:1" d="M 307.086,778.1 318.911,784.213 z" id="boundary" inkscape:connector-curvature="0" />
	<path style="fill:none;stroke:red;stroke-width:1px;stroke-linecap:butt;stroke-linejoin:miter;stroke-opacity:1" d="M 329.704,803.461 330.988,814.936 z" id="boundary" inkscape:connector-curvature="0" />
	<path style="fill:none;stroke:red;stroke-width:1px;stroke-linecap:butt;stroke-linejoin:miter;stroke-opacity:1" d="M 330.988,814.936 354.607,825.875 z" id="boundary" inkscape:connector-curvature="0" />
	<path style="fill:none;stroke:red;stroke-width:1px;stroke-linecap:butt;stroke-linejoin:miter;stroke-opacity:1" d="M 354.607,825.875 379.11,839.107 z" id="boundary" inkscape:connector-curvature="0" />
	<path style="fill:none;stroke:red;stroke-width:1px;stroke-linecap:butt;stroke-linejoin:miter;stroke-opacity:1" d="M 379.11,839.107 399.062,856.837 z" id="boundary" inkscape:connector-curvature="0" />
	<path style="fill:none;stroke:red;stroke-width:1px;stroke-linecap:butt;stroke-linejoin:miter;stroke-opacity:1" d="M 399.062,856.837 407.607,870.267 z" id="boundary" inkscape:connector-curvature="0" />
	<path style="fill:none;stroke:red;stroke-width:1px;stroke-linecap:butt;stroke-linejoin:miter;stroke-opacity:1" d="M 407.607,870.267 419.644,886.934 z" id="boundary" inkscape:connector-curvature="0" />
	<path style="fill:none;stroke:red;stroke-width:1px;stroke-linecap:butt;stroke-linejoin:miter;stroke-opacity:1" d="M 450.59,919.005 419.644,886.934 z" id="boundary" inkscape:connector-curvature="0" />
	<path style="fill:none;stroke:red;stroke-width:1px;stroke-linecap:butt;stroke-linejoin:miter;stroke-opacity:1" d="M 450.59,919.005 478.111,916.777 z" id="boundary" inkscape:connector-curvature="0" />
	<path style="fill:none;stroke:red;stroke-width:1px;stroke-linecap:butt;stroke-linejoin:miter;stroke-opacity:1" d="M 478.111,916.777 483.293,944.259 z" id="boundary" inkscape:connector-curvature="0" />
	<path style="fill:none;stroke:red;stroke-width:1px;stroke-linecap:butt;stroke-linejoin:miter;stroke-opacity:1" d="M 483.293,944.259 500.751,965.051 z" id="boundary" inkscape:connector-curvature="0" />
	<path style="fill:none;stroke:red;stroke-width:1px;stroke-linecap:butt;stroke-linejoin:miter;stroke-opacity:1" d="M 500.751,965.051 515.355,977.297 z" id="boundary" inkscape:connector-curvature="0" />
	<path style="fill:none;stroke:red;stroke-width:1px;stroke-linecap:butt;stroke-linejoin:miter;stroke-opacity:1" d="M 543.976,993.314 573.533,996 z" id="boundary" inkscape:connector-curvature="0" />
	<path style="fill:none;stroke:red;stroke-width:1px;stroke-linecap:butt;stroke-linejoin:miter;stroke-opacity:1" d="M 573.533,996 586.896,984.431 z" id="boundary" inkscape:connector-curvature="0" />
	<path style="fill:none;stroke:red;stroke-width:1px;stroke-linecap:butt;stroke-linejoin:miter;stroke-opacity:1" d="M 586.896,984.431 579.412,963.911 z" id="boundary" inkscape:connector-curvature="0" />
	<path style="fill:none;stroke:red;stroke-width:1px;stroke-linecap:butt;stroke-linejoin:miter;stroke-opacity:1" d="M 608.797,956.881 613.492,953.136 z" id="boundary" inkscape:connector-curvature="0" />
	<path style="fill:none;stroke:red;stroke-width:1px;stroke-linecap:butt;stroke-linejoin:miter;stroke-opacity:1" d="M 598.411,917.895 586.473,935.086 z" id="boundary" inkscape:connector-curvature="0" />
	<path style="fill:none;stroke:red;stroke-width:1px;stroke-linecap:butt;stroke-linejoin:miter;stroke-opacity:1" d="M 577.847,890.528 579.62,881.879 z" id="boundary" inkscape:connector-curvature="0" />
	<path style="fill:none;stroke:red;stroke-width:1px;stroke-linecap:butt;stroke-linejoin:miter;stroke-opacity:1" d="M 579.62,881.879 571.971,861.372 z" id="boundary" inkscape:connector-curvature="0" />
	<path style="fill:none;stroke:red;stroke-width:1px;stroke-linecap:butt;stroke-linejoin:miter;stroke-opacity:1" d="M 571.971,861.372 574.763,836.052 z" id="boundary" inkscape:connector-curvature="0" />
	<path style="fill:none;stroke:red;stroke-width:1px;stroke-linecap:butt;stroke-linejoin:miter;stroke-opacity:1" d="M 574.763,836.052 561.315,810.88 z" id="boundary" inkscape:connector-curvature="0" />
	<path style="fill:none;stroke:red;stroke-width:1px;stroke-linecap:butt;stroke-linejoin:miter;stroke-opacity:1" d="M 561.315,810.88 566.484,771.465 z" id="boundary" inkscape:connector-curvature="0" />
	<path style="fill:none;stroke:red;stroke-width:1px;stroke-linecap:butt;stroke-linejoin:miter;stroke-opacity:1" d="M 566.484,771.465 548.286,763.918 z" id="boundary" inkscape:connector-curvature="0" />
	<path style="fill:none;stroke:red;stroke-width:1px;stroke-linecap:butt;stroke-linejoin:miter;stroke-opacity:1" d="M 548.286,763.918 522.432,765.166 z" id="boundary" inkscape:connector-curvature="0" />
	<path style="fill:none;stroke:red;stroke-width:1px;stroke-linecap:butt;stroke-linejoin:miter;stroke-opacity:1" d="M 522.432,765.166 506.842,757.893 z" id="boundary" inkscape:connector-curvature="0" />
	<path style="fill:none;stroke:red;stroke-width:1px;stroke-linecap:butt;stroke-linejoin:miter;stroke-opacity:1" d="M 502.438,665.526 499.25,695.65 z" id="boundary" inkscape:connector-curvature="0" />
	<path style="fill:none;stroke:red;stroke-width:1px;stroke-linecap:butt;stroke-linejoin:miter;stroke-opacity:1" d="M 502.438,665.526 524.252,669.524 z" id="boundary" inkscape:connector-curvature="0" />
	<path style="fill:none;stroke:red;stroke-width:1px;stroke-linecap:butt;stroke-linejoin:miter;stroke-opacity:1" d="M 499.25,695.65 481.243,705.826 z" id="boundary" inkscape:connector-curvature="0" />
	<path style="fill:none;stroke:red;stroke-width:1px;stroke-linecap:butt;stroke-linejoin:miter;stroke-opacity:1" d="M 481.243,705.826 484.883,722.646 z" id="boundary" inkscape:connector-curvature="0" />
	<path style="fill:none;stroke:red;stroke-width:1px;stroke-linecap:butt;stroke-linejoin:miter;stroke-opacity:1" d="M 484.883,722.646 485.324,743.907 z" id="boundary" inkscape:connector-curvature="0" />
	<path style="fill:none;stroke:red;stroke-width:1px;stroke-linecap:butt;stroke-linejoin:miter;stroke-opacity:1" d="M 485.324,743.907 464.845,746.472 z" id="boundary" inkscape:connector-curvature="0" />
	<path style="fill:none;stroke:red;stroke-width:1px;stroke-linecap:butt;stroke-linejoin:miter;stroke-opacity:1" d="M 524.252,669.524 530.159,670.985 z" id="boundary" inkscape:connector-curvature="0" />
	<path style="fill:none;stroke:red;stroke-width:1px;stroke-linecap:butt;stroke-linejoin:miter;stroke-opacity:1" d="M 530.159,670.985 555.684,665.738 z" id="boundary" inkscape:connector-curvature="0" />
	<path style="fill:none;stroke:red;stroke-width:1px;stroke-linecap:butt;stroke-linejoin:miter;stroke-opacity:1" d="M 555.684,665.738 558.521,649.889 z" id="boundary" inkscape:connector-curvature="0" />
	<path style="fill:none;stroke:red;stroke-width:1px;stroke-linecap:butt;stroke-linejoin:miter;stroke-opacity:1" d="M 558.521,649.889 572.541,651.541 z" id="boundary" inkscape:connector-curvature="0" />
	<path style="fill:none;stroke:red;stroke-width:1px;stroke-linecap:butt;stroke-linejoin:miter;stroke-opacity:1" d="M 572.541,651.541 577.215,643.954 z" id="boundary" inkscape:connector-curvature="0" />
	<path style="fill:none;stroke:red;stroke-width:1px;stroke-linecap:butt;stroke-linejoin:miter;stroke-opacity:1" d="M 745.069,84.2681 711.689,102.956 z" id="boundary" inkscape:connector-curvature="0" />
	<path style="fill:none;stroke:red;stroke-width:1px;stroke-linecap:butt;stroke-linejoin:miter;stroke-opacity:1" d="M 745.069,84.2681 763.788,80.3823 z" id="boundary" inkscape:connector-curvature="0" />
	<path style="fill:none;stroke:red;stroke-width:1px;stroke-linecap:butt;stroke-linejoin:miter;stroke-opacity:1" d="M 711.689,102.956 708.559,129.846 z" id="boundary" inkscape:connector-curvature="0" />
	<path style="fill:none;stroke:red;stroke-width:1px;stroke-linecap:butt;stroke-linejoin:miter;stroke-opacity:1" d="M 708.559,129.846 699.814,156.545 z" id="boundary" inkscape:connector-curvature="0" />
	<path style="fill:none;stroke:red;stroke-width:1px;stroke-linecap:butt;stroke-linejoin:miter;stroke-opacity:1" d="M 699.116,176.955 714.482,175.912 z" id="boundary" inkscape:connector-curvature="0" />
	<path style="fill:none;stroke:red;stroke-width:1px;stroke-linecap:butt;stroke-linejoin:miter;stroke-opacity:1" d="M 699.116,176.955 683.007,185.908 z" id="boundary" inkscape:connector-curvature="0" />
	<path style="fill:none;stroke:red;stroke-width:1px;stroke-linecap:butt;stroke-linejoin:miter;stroke-opacity:1" d="M 693.319,213.944 698.453,235.345 z" id="boundary" inkscape:connector-curvature="0" />
	<path style="fill:none;stroke:red;stroke-width:1px;stroke-linecap:butt;stroke-linejoin:miter;stroke-opacity:1" d="M 698.453,235.345 677.14,244.202 z" id="boundary" inkscape:connector-curvature="0" />
	<path style="fill:none;stroke:red;stroke-width:1px;stroke-linecap:butt;stroke-linejoin:miter;stroke-opacity:1" d="M 677.14,244.202 683.46,269.98 z" id="boundary" inkscape:connector-curvature="0" />
	<path style="fill:none;stroke:red;stroke-width:1px;stroke-linecap:butt;stroke-linejoin:miter;stroke-opacity:1" d="M 683.46,269.98 672.81,299.402 z" id="boundary" inkscape:connector-curvature="0" />
	<path style="fill:none;stroke:red;stroke-width:1px;stroke-linecap:butt;stroke-linejoin:miter;stroke-opacity:1" d="M 672.81,299.402 652.344,275.837 z" id="boundary" inkscape:connector-curvature="0" />
	<path style="fill:none;stroke:red;stroke-width:1px;stroke-linecap:butt;stroke-linejoin:miter;stroke-opacity:1" d="M 662.074,329.378 660.143,335.3 z" id="boundary" inkscape:connector-curvature="0" />
	<path style="fill:none;stroke:red;stroke-width:1px;stroke-linecap:butt;stroke-linejoin:miter;stroke-opacity:1" d="M 662.074,329.378 638.896,319.068 z" id="boundary" inkscape:connector-curvature="0" />
	<path style="fill:none;stroke:red;stroke-width:1px;stroke-linecap:butt;stroke-linejoin:miter;stroke-opacity:1" d="M 660.143,335.3 662.003,347.144 z" id="boundary" inkscape:connector-curvature="0" />
	<path style="fill:none;stroke:red;stroke-width:1px;stroke-linecap:butt;stroke-linejoin:miter;stroke-opacity:1" d="M 662.003,347.144 648.016,370.978 z" id="boundary" inkscape:connector-curvature="0" />
	<path style="fill:none;stroke:red;stroke-width:1px;stroke-linecap:butt;stroke-linejoin:miter;stroke-opacity:1" d="M 639.636,398.268 654.017,414.097 z" id="boundary" inkscape:connector-curvature="0" />
	<path style="fill:none;stroke:red;stroke-width:1px;stroke-linecap:butt;stroke-linejoin:miter;stroke-opacity:1" d="M 639.636,398.268 620.395,409.796 z" id="boundary" inkscape:connector-curvature="0" />
	<path style="fill:none;stroke:red;stroke-width:1px;stroke-linecap:butt;stroke-linejoin:miter;stroke-opacity:1" d="M 627.491,430.402 620.395,409.796 z" id="boundary" inkscape:connector-curvature="0" />
	<path style="fill:none;stroke:red;stroke-width:1px;stroke-linecap:butt;stroke-linejoin:miter;stroke-opacity:1" d="M 627.491,430.402 609.785,430.84 z" id="boundary" inkscape:connector-curvature="0" />
	<path style="fill:none;stroke:red;stroke-width:1px;stroke-linecap:butt;stroke-linejoin:miter;stroke-opacity:1" d="M 620.493,452.719 612.786,475.848 z" id="boundary" inkscape:connector-curvature="0" />
	<path style="fill:none;stroke:red;stroke-width:1px;stroke-linecap:butt;stroke-linejoin:miter;stroke-opacity:1" d="M 620.493,452.719 610.729,445.699 z" id="boundary" inkscape:connector-curvature="0" />
	<path style="fill:none;stroke:red;stroke-width:1px;stroke-linecap:butt;stroke-linejoin:miter;stroke-opacity:1" d="M 612.786,475.848 608.78,492.538 z" id="boundary" inkscape:connector-curvature="0" />
	<path style="fill:none;stroke:red;stroke-width:1px;stroke-linecap:butt;stroke-linejoin:miter;stroke-opacity:1" d="M 608.78,492.538 588.209,493.447 z" id="boundary" inkscape:connector-curvature="0" />
	<path style="fill:none;stroke:red;stroke-width:1px;stroke-linecap:butt;stroke-linejoin:miter;stroke-opacity:1" d="M 610.897,523.963 617.891,542.235 z" id="boundary" inkscape:connector-curvature="0" />
	<path style="fill:none;stroke:red;stroke-width:1px;stroke-linecap:butt;stroke-linejoin:miter;stroke-opacity:1" d="M 593.242,579.538 596.425,598 z" id="boundary" inkscape:connector-curvature="0" />
	<path style="fill:none;stroke:red;stroke-width:1px;stroke-linecap:butt;stroke-linejoin:miter;stroke-opacity:1" d="M 593.242,579.538 573.47,578.968 z" id="boundary" inkscape:connector-curvature="0" />
	<path style="fill:none;stroke:red;stroke-width:1px;stroke-linecap:butt;stroke-linejoin:miter;stroke-opacity:1" d="M 596.425,598 587.003,621.357 z" id="boundary" inkscape:connector-curvature="0" />
	<path style="fill:none;stroke:red;stroke-width:1px;stroke-linecap:butt;stroke-linejoin:miter;stroke-opacity:1" d="M 587.003,621.357 577.215,643.954 z" id="boundary" inkscape:connector-curvature="0" />
	<path style="fill:none;stroke:red;stroke-width:1px;stroke-linecap:butt;stroke-linejoin:miter;stroke-opacity:1" d="M 763.788,80.3823 793.219,68.0433 z" id="boundary" inkscape:connector-curvature="0" />
	<path style="fill:none;stroke:red;stroke-width:1px;stroke-linecap:butt;stroke-linejoin:miter;stroke-opacity:1" d="M 793.219,68.0433 818.202,64.5949 z" id="boundary" inkscape:connector-curvature="0" />
	<path style="fill:none;stroke:red;stroke-width:1px;stroke-linecap:butt;stroke-linejoin:miter;stroke-opacity:1" d="M 818.202,64.5949 833.675,54.3513 z" id="boundary" inkscape:connector-curvature="0" />
	<path style="fill:none;stroke:red;stroke-width:1px;stroke-linecap:butt;stroke-linejoin:miter;stroke-opacity:1" d="M 833.675,54.3513 851.094,24.7283 z" id="boundary" inkscape:connector-curvature="0" />
	<path style="fill:none;stroke:red;stroke-width:1px;stroke-linecap:butt;stroke-linejoin:miter;stroke-opacity:1" d="M 19.2961,32.4998 4,62.5459 z" id="boundary" inkscape:connector-curvature="0" />
	<path style="fill:none;stroke:red;stroke-width:1px;stroke-linecap:butt;stroke-linejoin:miter;stroke-opacity:1" d="M 19.2961,32.4998 36.1963,44.501 z" id="boundary" inkscape:connector-curvature="0" />
	<path style="fill:none;stroke:red;stroke-width:1px;stroke-linecap:butt;stroke-linejoin:miter;stroke-opacity:1" d="M 4,62.5459 17.3457,71.0765 z" id="boundary" inkscape:connector-curvature="0" />
	<path style="fill:none;stroke:red;stroke-width:1px;stroke-linecap:butt;stroke-linejoin:miter;stroke-opacity:1" d="M 833.438,12.0833 851.094,24.7283 z" id="boundary" inkscape:connector-curvature="0" />
	<path style="fill:none;stroke:red;stroke-width:1px;stroke-linecap:butt;stroke-linejoin:miter;stroke-opacity:1" d="M 833.438,12.0833 804.255,9.66561 z" id="boundary" inkscape:connector-curvature="0" />
	<path style="fill:none;stroke:red;stroke-width:1px;stroke-linecap:butt;stroke-linejoin:miter;stroke-opacity:1" d="M 67.3401,27.1728 85.581,36.5682 z" id="boundary" inkscape:connector-curvature="0" />
	<path style="fill:none;stroke:red;stroke-width:1px;stroke-linecap:butt;stroke-linejoin:miter;stroke-opacity:1" d="M 85.581,36.5682 114.505,30.1501 z" id="boundary" inkscape:connector-curvature="0" />
	<path style="fill:none;stroke:red;stroke-width:1px;stroke-linecap:butt;stroke-linejoin:miter;stroke-opacity:1" d="M 114.505,30.1501 140.373,34.7369 z" id="boundary" inkscape:connector-curvature="0" />
	<path style="fill:none;stroke:red;stroke-width:1px;stroke-linecap:butt;stroke-linejoin:miter;stroke-opacity:1" d="M 140.373,34.7369 170.238,37.8912 z" id="boundary" inkscape:connector-curvature="0" />
	<path style="fill:none;stroke:red;stroke-width:1px;stroke-linecap:butt;stroke-linejoin:miter;stroke-opacity:1" d="M 170.238,37.8912 198.417,41.5425 z" id="boundary" inkscape:connector-curvature="0" />
	<path style="fill:none;stroke:red;stroke-width:1px;stroke-linecap:butt;stroke-linejoin:miter;stroke-opacity:1" d="M 198.417,41.5425 222.665,22.6716 z" id="boundary" inkscape:connector-curvature="0" />
	<path style="fill:none;stroke:red;stroke-width:1px;stroke-linecap:butt;stroke-linejoin:miter;stroke-opacity:1" d="M 222.665,22.6716 240.824,24.1751 z" id="boundary" inkscape:connector-curvature="0" />
	<path style="fill:none;stroke:red;stroke-width:1px;stroke-linecap:butt;stroke-linejoin:miter;stroke-opacity:1" d="M 240.824,24.1751 276.093,33.8606 z" id="boundary" inkscape:connector-curvature="0" />
	<path style="fill:none;stroke:red;stroke-width:1px;stroke-linecap:butt;stroke-linejoin:miter;stroke-opacity:1" d="M 276.093,33.8606 292.212,22.4565 z" id="boundary" inkscape:connector-curvature="0" />
	<path style="fill:none;stroke:red;stroke-width:1px;stroke-linecap:butt;stroke-linejoin:miter;stroke-opacity:1" d="M 292.212,22.4565 317.913,30.1561 z" id="boundary" inkscape:connector-curvature="0" />
	<path style="fill:none;stroke:red;stroke-width:1px;stroke-linecap:butt;stroke-linejoin:miter;stroke-opacity:1" d="M 317.913,30.1561 342.521,33.4073 z" id="boundary" inkscape:connector-curvature="0" />
	<path style="fill:none;stroke:red;stroke-width:1px;stroke-linecap:butt;stroke-linejoin:miter;stroke-opacity:1" d="M 342.521,33.4073 368.694,18.9836 z" id="boundary" inkscape:connector-curvature="0" />
	<path style="fill:none;stroke:red;stroke-width:1px;stroke-linecap:butt;stroke-linejoin:miter;stroke-opacity:1" d="M 368.694,18.9836 408.408,29.9999 z" id="boundary" inkscape:connector-curvature="0" />
	<path style="fill:none;stroke:red;stroke-width:1px;stroke-linecap:butt;stroke-linejoin:miter;stroke-opacity:1" d="M 408.408,29.9999 440.354,34.371 z" id="boundary" inkscape:connector-curvature="0" />
	<path style="fill:none;stroke:red;stroke-width:1px;stroke-linecap:butt;stroke-linejoin:miter;stroke-opacity:1" d="M 440.354,34.371 481.169,14.0196 z" id="boundary" inkscape:connector-curvature="0" />
	<path style="fill:none;stroke:red;stroke-width:1px;stroke-linecap:butt;stroke-linejoin:miter;stroke-opacity:1" d="M 481.169,14.0196 497.048,34.2139 z" id="boundary" inkscape:connector-curvature="0" />
	<path style="fill:none;stroke:red;stroke-width:1px;stroke-linecap:butt;stroke-linejoin:miter;stroke-opacity:1" d="M 497.048,34.2139 540.697,27.3112 z" id="boundary" inkscape:connector-curvature="0" />
	<path style="fill:none;stroke:red;stroke-width:1px;stroke-linecap:butt;stroke-linejoin:miter;stroke-opacity:1" d="M 540.697,27.3112 561.516,19.354 z" id="boundary" inkscape:connector-curvature="0" />
	<path style="fill:none;stroke:red;stroke-width:1px;stroke-linecap:butt;stroke-linejoin:miter;stroke-opacity:1" d="M 561.516,19.354 594.002,25.2105 z" id="boundary" inkscape:connector-curvature="0" />
	<path style="fill:none;stroke:red;stroke-width:1px;stroke-linecap:butt;stroke-linejoin:miter;stroke-opacity:1" d="M 594.002,25.2105 612.068,25.2208 z" id="boundary" inkscape:connector-curvature="0" />
	<path style="fill:none;stroke:red;stroke-width:1px;stroke-linecap:butt;stroke-linejoin:miter;stroke-opacity:1" d="M 612.068,25.2208 654.389,27.7624 z" id="boundary" inkscape:connector-curvature="0" />
	<path style="fill:none;stroke:red;stroke-width:1px;stroke-linecap:butt;stroke-linejoin:miter;stroke-opacity:1" d="M 654.389,27.7624 671.324,30.5714 z" id="boundary" inkscape:connector-curvature="0" />
	<path style="fill:none;stroke:red;stroke-width:1px;stroke-linecap:butt;stroke-linejoin:miter;stroke-opacity:1" d="M 671.324,30.5714 704.205,20.1328 z" id="boundary" inkscape:connector-curvature="0" />
	<path style="fill:none;stroke:red;stroke-width:1px;stroke-linecap:butt;stroke-linejoin:miter;stroke-opacity:1" d="M 704.205,20.1328 751.501,17.4265 z" id="boundary" inkscape:connector-curvature="0" />
	<path style="fill:none;stroke:red;stroke-width:1px;stroke-linecap:butt;stroke-linejoin:miter;stroke-opacity:1" d="M 751.501,17.4265 768.437,4 z" id="boundary" inkscape:connector-curvature="0" />
	<path style="fill:none;stroke:red;stroke-width:1px;stroke-linecap:butt;stroke-linejoin:miter;stroke-opacity:1" d="M 768.437,4 804.255,9.66561 z" id="boundary" inkscape:connector-curvature="0" />
	<path style="fill:none;stroke:red;stroke-width:1px;stroke-linecap:butt;stroke-linejoin:miter;stroke-opacity:1" d="M 199.387,120.379 217.476,113.127 z" id="boundary" inkscape:connector-curvature="0" />
	<path style="fill:none;stroke:red;stroke-width:1px;stroke-linecap:butt;stroke-linejoin:miter;stroke-opacity:1" d="M 199.387,120.379 198.75,141.323 z" id="boundary" inkscape:connector-curvature="0" />
	<path style="fill:none;stroke:red;stroke-width:1px;stroke-linecap:butt;stroke-linejoin:miter;stroke-opacity:1" d="M 217.476,113.127 235.878,109.467 z" id="boundary" inkscape:connector-curvature="0" />
	<path style="fill:none;stroke:red;stroke-width:1px;stroke-linecap:butt;stroke-linejoin:miter;stroke-opacity:1" d="M 235.878,109.467 237.981,115.236 z" id="boundary" inkscape:connector-curvature="0" />
	<path style="fill:none;stroke:red;stroke-width:1px;stroke-linecap:butt;stroke-linejoin:miter;stroke-opacity:1" d="M 264.816,128.829 251.435,148.22 z" id="boundary" inkscape:connector-curvature="0" />
	<path style="fill:none;stroke:red;stroke-width:1px;stroke-linecap:butt;stroke-linejoin:miter;stroke-opacity:1" d="M 264.816,128.829 237.981,115.236 z" id="boundary" inkscape:connector-curvature="0" />
	<path style="fill:none;stroke:red;stroke-width:1px;stroke-linecap:butt;stroke-linejoin:miter;stroke-opacity:1" d="M 299.388,119.951 337.037,109.76 z" id="boundary" inkscape:connector-curvature="0" />
	<path style="fill:none;stroke:red;stroke-width:1px;stroke-linecap:butt;stroke-linejoin:miter;stroke-opacity:1" d="M 337.037,109.76 348.104,108.569 z" id="boundary" inkscape:connector-curvature="0" />
	<path style="fill:none;stroke:red;stroke-width:1px;stroke-linecap:butt;stroke-linejoin:miter;stroke-opacity:1" d="M 348.104,108.569 375.612,116.242 z" id="boundary" inkscape:connector-curvature="0" />
	<path style="fill:none;stroke:red;stroke-width:1px;stroke-linecap:butt;stroke-linejoin:miter;stroke-opacity:1" d="M 375.612,116.242 409.113,124.032 z" id="boundary" inkscape:connector-curvature="0" />
	<path style="fill:none;stroke:red;stroke-width:1px;stroke-linecap:butt;stroke-linejoin:miter;stroke-opacity:1" d="M 409.113,124.032 415.885,116.413 z" id="boundary" inkscape:connector-curvature="0" />
	<path style="fill:none;stroke:red;stroke-width:1px;stroke-linecap:butt;stroke-linejoin:miter;stroke-opacity:1" d="M 415.885,116.413 461.018,107.225 z" id="boundary" inkscape:connector-curvature="0" />
	<path style="fill:none;stroke:red;stroke-width:1px;stroke-linecap:butt;stroke-linejoin:miter;stroke-opacity:1" d="M 461.018,107.225 483.055,121.602 z" id="boundary" inkscape:connector-curvature="0" />
	<path style="fill:none;stroke:red;stroke-width:1px;stroke-linecap:butt;stroke-linejoin:miter;stroke-opacity:1" d="M 483.055,121.602 516.045,111.471 z" id="boundary" inkscape:connector-curvature="0" />
	<path style="fill:none;stroke:red;stroke-width:1px;stroke-linecap:butt;stroke-linejoin:miter;stroke-opacity:1" d="M 516.045,111.471 528.793,125.519 z" id="boundary" inkscape:connector-curvature="0" />
	<path style="fill:none;stroke:red;stroke-width:1px;stroke-linecap:butt;stroke-linejoin:miter;stroke-opacity:1" d="M 528.793,125.519 560.835,116.413 z" id="boundary" inkscape:connector-curvature="0" />
	<path style="fill:none;stroke:red;stroke-width:1px;stroke-linecap:butt;stroke-linejoin:miter;stroke-opacity:1" d="M 560.835,116.413 575.66,108.45 z" id="boundary" inkscape:connector-curvature="0" />
	<path style="fill:none;stroke:red;stroke-width:1px;stroke-linecap:butt;stroke-linejoin:miter;stroke-opacity:1" d="M 617.524,121.394 628.162,122 z" id="boundary" inkscape:connector-curvature="0" />
	<path style="fill:none;stroke:red;stroke-width:1px;stroke-linecap:butt;stroke-linejoin:miter;stroke-opacity:1" d="M 617.524,121.394 612.626,131.963 z" id="boundary" inkscape:connector-curvature="0" />
	<path style="fill:none;stroke:red;stroke-width:1px;stroke-linecap:butt;stroke-linejoin:miter;stroke-opacity:1" d="M 659.322,117.825 646.559,114.037 z" id="boundary" inkscape:connector-curvature="0" />
	<path style="fill:none;stroke:red;stroke-width:1px;stroke-linecap:butt;stroke-linejoin:miter;stroke-opacity:1" d="M 659.322,117.825 665.254,143.936 z" id="boundary" inkscape:connector-curvature="0" />
	<path style="fill:none;stroke:red;stroke-width:1px;stroke-linecap:butt;stroke-linejoin:miter;stroke-opacity:1" d="M 646.559,114.037 652.753,103.658 z" id="boundary" inkscape:connector-curvature="0" />
	<path style="fill:none;stroke:red;stroke-width:1px;stroke-linecap:butt;stroke-linejoin:miter;stroke-opacity:1" d="M 612.626,131.963 596.574,136.855 z" id="boundary" inkscape:connector-curvature="0" />
	<path style="fill:none;stroke:red;stroke-width:1px;stroke-linecap:butt;stroke-linejoin:miter;stroke-opacity:1" d="M 586.463,158.255 580.663,173.258 z" id="boundary" inkscape:connector-curvature="0" />
	<path style="fill:none;stroke:red;stroke-width:1px;stroke-linecap:butt;stroke-linejoin:miter;stroke-opacity:1" d="M 586.463,158.255 600.936,168.002 z" id="boundary" inkscape:connector-curvature="0" />
	<path style="fill:none;stroke:red;stroke-width:1px;stroke-linecap:butt;stroke-linejoin:miter;stroke-opacity:1" d="M 568.204,159.852 580.663,173.258 z" id="boundary" inkscape:connector-curvature="0" />
	<path style="fill:none;stroke:red;stroke-width:1px;stroke-linecap:butt;stroke-linejoin:miter;stroke-opacity:1" d="M 229.436,156.068 251.435,148.22 z" id="boundary" inkscape:connector-curvature="0" />
	<path style="fill:none;stroke:red;stroke-width:1px;stroke-linecap:butt;stroke-linejoin:miter;stroke-opacity:1" d="M 229.436,156.068 224.112,176.194 z" id="boundary" inkscape:connector-curvature="0" />
	<path style="fill:none;stroke:red;stroke-width:1px;stroke-linecap:butt;stroke-linejoin:miter;stroke-opacity:1" d="M 267.714,167.413 256.735,197.431 z" id="boundary" inkscape:connector-curvature="0" />
	<path style="fill:none;stroke:red;stroke-width:1px;stroke-linecap:butt;stroke-linejoin:miter;stroke-opacity:1" d="M 293.402,187.408 313.8,177.607 z" id="boundary" inkscape:connector-curvature="0" />
	<path style="fill:none;stroke:red;stroke-width:1px;stroke-linecap:butt;stroke-linejoin:miter;stroke-opacity:1" d="M 329.66,204.791 350.592,204.927 z" id="boundary" inkscape:connector-curvature="0" />
	<path style="fill:none;stroke:red;stroke-width:1px;stroke-linecap:butt;stroke-linejoin:miter;stroke-opacity:1" d="M 329.66,204.791 323.001,226.516 z" id="boundary" inkscape:connector-curvature="0" />
	<path style="fill:none;stroke:red;stroke-width:1px;stroke-linecap:butt;stroke-linejoin:miter;stroke-opacity:1" d="M 379.865,232.437 392.54,229.316 z" id="boundary" inkscape:connector-curvature="0" />
	<path style="fill:none;stroke:red;stroke-width:1px;stroke-linecap:butt;stroke-linejoin:miter;stroke-opacity:1" d="M 392.54,229.316 416.869,246.049 z" id="boundary" inkscape:connector-curvature="0" />
	<path style="fill:none;stroke:red;stroke-width:1px;stroke-linecap:butt;stroke-linejoin:miter;stroke-opacity:1" d="M 416.869,246.049 431.752,232.467 z" id="boundary" inkscape:connector-curvature="0" />
	<path style="fill:none;stroke:red;stroke-width:1px;stroke-linecap:butt;stroke-linejoin:miter;stroke-opacity:1" d="M 431.752,232.467 441.636,224.338 z" id="boundary" inkscape:connector-curvature="0" />
	<path style="fill:none;stroke:red;stroke-width:1px;stroke-linecap:butt;stroke-linejoin:miter;stroke-opacity:1" d="M 473.631,218.145 483.007,197.162 z" id="boundary" inkscape:connector-curvature="0" />
	<path style="fill:none;stroke:red;stroke-width:1px;stroke-linecap:butt;stroke-linejoin:miter;stroke-opacity:1" d="M 473.631,218.145 475.58,242.663 z" id="boundary" inkscape:connector-curvature="0" />
	<path style="fill:none;stroke:red;stroke-width:1px;stroke-linecap:butt;stroke-linejoin:miter;stroke-opacity:1" d="M 483.007,197.162 495.316,194.961 z" id="boundary" inkscape:connector-curvature="0" />
	<path style="fill:none;stroke:red;stroke-width:1px;stroke-linecap:butt;stroke-linejoin:miter;stroke-opacity:1" d="M 495.316,194.961 518.446,188.238 z" id="boundary" inkscape:connector-curvature="0" />
	<path style="fill:none;stroke:red;stroke-width:1px;stroke-linecap:butt;stroke-linejoin:miter;stroke-opacity:1" d="M 518.446,188.238 525.335,210.703 z" id="boundary" inkscape:connector-curvature="0" />
	<path style="fill:none;stroke:red;stroke-width:1px;stroke-linecap:butt;stroke-linejoin:miter;stroke-opacity:1" d="M 548.888,184.645 576.013,191.701 z" id="boundary" inkscape:connector-curvature="0" />
	<path style="fill:none;stroke:red;stroke-width:1px;stroke-linecap:butt;stroke-linejoin:miter;stroke-opacity:1" d="M 159.455,150.908 178.216,160.239 z" id="boundary" inkscape:connector-curvature="0" />
	<path style="fill:none;stroke:red;stroke-width:1px;stroke-linecap:butt;stroke-linejoin:miter;stroke-opacity:1" d="M 159.455,150.908 142.026,155.758 z" id="boundary" inkscape:connector-curvature="0" />
	<path style="fill:none;stroke:red;stroke-width:1px;stroke-linecap:butt;stroke-linejoin:miter;stroke-opacity:1" d="M 172.072,186.801 178.216,160.239 z" id="boundary" inkscape:connector-curvature="0" />
	<path style="fill:none;stroke:red;stroke-width:1px;stroke-linecap:butt;stroke-linejoin:miter;stroke-opacity:1" d="M 172.072,186.801 169.893,196.095 z" id="boundary" inkscape:connector-curvature="0" />
	<path style="fill:none;stroke:red;stroke-width:1px;stroke-linecap:butt;stroke-linejoin:miter;stroke-opacity:1" d="M 224.112,176.194 218.85,179.468 z" id="boundary" inkscape:connector-curvature="0" />
	<path style="fill:none;stroke:red;stroke-width:1px;stroke-linecap:butt;stroke-linejoin:miter;stroke-opacity:1" d="M 256.735,197.431 262.743,218.16 z" id="boundary" inkscape:connector-curvature="0" />
	<path style="fill:none;stroke:red;stroke-width:1px;stroke-linecap:butt;stroke-linejoin:miter;stroke-opacity:1" d="M 307.331,222.645 323.001,226.516 z" id="boundary" inkscape:connector-curvature="0" />
	<path style="fill:none;stroke:red;stroke-width:1px;stroke-linecap:butt;stroke-linejoin:miter;stroke-opacity:1" d="M 332.797,251.988 341.852,268.072 z" id="boundary" inkscape:connector-curvature="0" />
	<path style="fill:none;stroke:red;stroke-width:1px;stroke-linecap:butt;stroke-linejoin:miter;stroke-opacity:1" d="M 379.167,270.909 341.852,268.072 z" id="boundary" inkscape:connector-curvature="0" />
	<path style="fill:none;stroke:red;stroke-width:1px;stroke-linecap:butt;stroke-linejoin:miter;stroke-opacity:1" d="M 379.167,270.909 384.25,283.553 z" id="boundary" inkscape:connector-curvature="0" />
	<path style="fill:none;stroke:red;stroke-width:1px;stroke-linecap:butt;stroke-linejoin:miter;stroke-opacity:1" d="M 310.954,289.717 304.839,297.859 z" id="boundary" inkscape:connector-curvature="0" />
	<path style="fill:none;stroke:red;stroke-width:1px;stroke-linecap:butt;stroke-linejoin:miter;stroke-opacity:1" d="M 304.839,297.859 315.94,322.878 z" id="boundary" inkscape:connector-curvature="0" />
	<path style="fill:none;stroke:red;stroke-width:1px;stroke-linecap:butt;stroke-linejoin:miter;stroke-opacity:1" d="M 272.116,312.324 248.823,324.608 z" id="boundary" inkscape:connector-curvature="0" />
	<path style="fill:none;stroke:red;stroke-width:1px;stroke-linecap:butt;stroke-linejoin:miter;stroke-opacity:1" d="M 248.823,324.608 229.469,325.947 z" id="boundary" inkscape:connector-curvature="0" />
	<path style="fill:none;stroke:red;stroke-width:1px;stroke-linecap:butt;stroke-linejoin:miter;stroke-opacity:1" d="M 229.469,325.947 211.109,321.603 z" id="boundary" inkscape:connector-curvature="0" />
	<path style="fill:none;stroke:red;stroke-width:1px;stroke-linecap:butt;stroke-linejoin:miter;stroke-opacity:1" d="M 169.893,196.095 178.605,215.16 z" id="boundary" inkscape:connector-curvature="0" />
	<path style="fill:none;stroke:red;stroke-width:1px;stroke-linecap:butt;stroke-linejoin:miter;stroke-opacity:1" d="M 178.605,215.16 194.499,226.044 z" id="boundary" inkscape:connector-curvature="0" />
	<path style="fill:none;stroke:red;stroke-width:1px;stroke-linecap:butt;stroke-linejoin:miter;stroke-opacity:1" d="M 194.499,226.044 204.68,267.75 z" id="boundary" inkscape:connector-curvature="0" />
	<path style="fill:none;stroke:red;stroke-width:1px;stroke-linecap:butt;stroke-linejoin:miter;stroke-opacity:1" d="M 266.658,366.902 277.866,373.334 z" id="boundary" inkscape:connector-curvature="0" />
	<path style="fill:none;stroke:red;stroke-width:1px;stroke-linecap:butt;stroke-linejoin:miter;stroke-opacity:1" d="M 280.637,345.332 302.681,357.04 z" id="boundary" inkscape:connector-curvature="0" />
	<path style="fill:none;stroke:red;stroke-width:1px;stroke-linecap:butt;stroke-linejoin:miter;stroke-opacity:1" d="M 302.681,357.04 316.702,371.063 z" id="boundary" inkscape:connector-curvature="0" />
	<path style="fill:none;stroke:red;stroke-width:1px;stroke-linecap:butt;stroke-linejoin:miter;stroke-opacity:1" d="M 315.94,322.878 332.684,332.998 z" id="boundary" inkscape:connector-curvature="0" />
	<path style="fill:none;stroke:red;stroke-width:1px;stroke-linecap:butt;stroke-linejoin:miter;stroke-opacity:1" d="M 366.899,301.947 384.25,283.553 z" id="boundary" inkscape:connector-curvature="0" />
	<path style="fill:none;stroke:red;stroke-width:1px;stroke-linecap:butt;stroke-linejoin:miter;stroke-opacity:1" d="M 420.281,282.5 446.983,283.35 z" id="boundary" inkscape:connector-curvature="0" />
	<path style="fill:none;stroke:red;stroke-width:1px;stroke-linecap:butt;stroke-linejoin:miter;stroke-opacity:1" d="M 476.105,291.692 477.666,301.473 z" id="boundary" inkscape:connector-curvature="0" />
	<path style="fill:none;stroke:red;stroke-width:1px;stroke-linecap:butt;stroke-linejoin:miter;stroke-opacity:1" d="M 476.105,291.692 502.278,280.315 z" id="boundary" inkscape:connector-curvature="0" />
	<path style="fill:none;stroke:red;stroke-width:1px;stroke-linecap:butt;stroke-linejoin:miter;stroke-opacity:1" d="M 521.498,323.596 539.407,334.682 z" id="boundary" inkscape:connector-curvature="0" />
	<path style="fill:none;stroke:red;stroke-width:1px;stroke-linecap:butt;stroke-linejoin:miter;stroke-opacity:1" d="M 521.498,323.596 542.143,310.224 z" id="boundary" inkscape:connector-curvature="0" />
	<path style="fill:none;stroke:red;stroke-width:1px;stroke-linecap:butt;stroke-linejoin:miter;stroke-opacity:1" d="M 539.407,334.682 558.493,340.897 z" id="boundary" inkscape:connector-curvature="0" />
	<path style="fill:none;stroke:red;stroke-width:1px;stroke-linecap:butt;stroke-linejoin:miter;stroke-opacity:1" d="M 575.572,364.749 576.273,390.642 z" id="boundary" inkscape:connector-curvature="0" />
	<path style="fill:none;stroke:red;stroke-width:1px;stroke-linecap:butt;stroke-linejoin:miter;stroke-opacity:1" d="M 575.572,364.749 555.347,363.421 z" id="boundary" inkscape:connector-curvature="0" />
	<path style="fill:none;stroke:red;stroke-width:1px;stroke-linecap:butt;stroke-linejoin:miter;stroke-opacity:1" d="M 539.195,377.309 550.605,387.932 z" id="boundary" inkscape:connector-curvature="0" />
	<path style="fill:none;stroke:red;stroke-width:1px;stroke-linecap:butt;stroke-linejoin:miter;stroke-opacity:1" d="M 539.195,377.309 555.347,363.421 z" id="boundary" inkscape:connector-curvature="0" />
	<path style="fill:none;stroke:red;stroke-width:1px;stroke-linecap:butt;stroke-linejoin:miter;stroke-opacity:1" d="M 336.889,365.848 339.083,386.861 z" id="boundary" inkscape:connector-curvature="0" />
	<path style="fill:none;stroke:red;stroke-width:1px;stroke-linecap:butt;stroke-linejoin:miter;stroke-opacity:1" d="M 336.889,365.848 316.702,371.063 z" id="boundary" inkscape:connector-curvature="0" />
	<path style="fill:none;stroke:red;stroke-width:1px;stroke-linecap:butt;stroke-linejoin:miter;stroke-opacity:1" d="M 363.675,356.693 365.587,361.414 z" id="boundary" inkscape:connector-curvature="0" />
	<path style="fill:none;stroke:red;stroke-width:1px;stroke-linecap:butt;stroke-linejoin:miter;stroke-opacity:1" d="M 393.669,360.943 409.017,353.987 z" id="boundary" inkscape:connector-curvature="0" />
	<path style="fill:none;stroke:red;stroke-width:1px;stroke-linecap:butt;stroke-linejoin:miter;stroke-opacity:1" d="M 409.017,353.987 434.408,358.806 z" id="boundary" inkscape:connector-curvature="0" />
	<path style="fill:none;stroke:red;stroke-width:1px;stroke-linecap:butt;stroke-linejoin:miter;stroke-opacity:1" d="M 434.408,358.806 454.984,369.646 z" id="boundary" inkscape:connector-curvature="0" />
	<path style="fill:none;stroke:red;stroke-width:1px;stroke-linecap:butt;stroke-linejoin:miter;stroke-opacity:1" d="M 454.984,369.646 479.192,377.53 z" id="boundary" inkscape:connector-curvature="0" />
	<path style="fill:none;stroke:red;stroke-width:1px;stroke-linecap:butt;stroke-linejoin:miter;stroke-opacity:1" d="M 479.192,377.53 492.689,393.168 z" id="boundary" inkscape:connector-curvature="0" />
	<path style="fill:none;stroke:red;stroke-width:1px;stroke-linecap:butt;stroke-linejoin:miter;stroke-opacity:1" d="M 499.006,355.937 516.69,361.123 z" id="boundary" inkscape:connector-curvature="0" />
	<path style="fill:none;stroke:red;stroke-width:1px;stroke-linecap:butt;stroke-linejoin:miter;stroke-opacity:1" d="M 228.92,400.172 258.802,389.984 z" id="boundary" inkscape:connector-curvature="0" />
	<path style="fill:none;stroke:red;stroke-width:1px;stroke-linecap:butt;stroke-linejoin:miter;stroke-opacity:1" d="M 228.92,400.172 227.217,405.36 z" id="boundary" inkscape:connector-curvature="0" />
	<path style="fill:none;stroke:red;stroke-width:1px;stroke-linecap:butt;stroke-linejoin:miter;stroke-opacity:1" d="M 258.802,389.984 272.328,389.053 z" id="boundary" inkscape:connector-curvature="0" />
	<path style="fill:none;stroke:red;stroke-width:1px;stroke-linecap:butt;stroke-linejoin:miter;stroke-opacity:1" d="M 272.328,389.053 277.866,373.334 z" id="boundary" inkscape:connector-curvature="0" />
	<path style="fill:none;stroke:red;stroke-width:1px;stroke-linecap:butt;stroke-linejoin:miter;stroke-opacity:1" d="M 339.083,386.861 360.744,386.593 z" id="boundary" inkscape:connector-curvature="0" />
	<path style="fill:none;stroke:red;stroke-width:1px;stroke-linecap:butt;stroke-linejoin:miter;stroke-opacity:1" d="M 360.744,386.593 374.38,389.899 z" id="boundary" inkscape:connector-curvature="0" />
	<path style="fill:none;stroke:red;stroke-width:1px;stroke-linecap:butt;stroke-linejoin:miter;stroke-opacity:1" d="M 419.244,406.373 409.419,415.689 z" id="boundary" inkscape:connector-curvature="0" />
	<path style="fill:none;stroke:red;stroke-width:1px;stroke-linecap:butt;stroke-linejoin:miter;stroke-opacity:1" d="M 419.244,406.373 429.117,411.087 z" id="boundary" inkscape:connector-curvature="0" />
	<path style="fill:none;stroke:red;stroke-width:1px;stroke-linecap:butt;stroke-linejoin:miter;stroke-opacity:1" d="M 409.419,415.689 400.396,419.223 z" id="boundary" inkscape:connector-curvature="0" />
	<path style="fill:none;stroke:red;stroke-width:1px;stroke-linecap:butt;stroke-linejoin:miter;stroke-opacity:1" d="M 412.616,453.406 400.087,460.432 z" id="boundary" inkscape:connector-curvature="0" />
	<path style="fill:none;stroke:red;stroke-width:1px;stroke-linecap:butt;stroke-linejoin:miter;stroke-opacity:1" d="M 412.616,453.406 427.969,457.817 z" id="boundary" inkscape:connector-curvature="0" />
	<path style="fill:none;stroke:red;stroke-width:1px;stroke-linecap:butt;stroke-linejoin:miter;stroke-opacity:1" d="M 400.449,496.887 377.989,497.813 z" id="boundary" inkscape:connector-curvature="0" />
	<path style="fill:none;stroke:red;stroke-width:1px;stroke-linecap:butt;stroke-linejoin:miter;stroke-opacity:1" d="M 250.3,509.108 251.417,478.788 z" id="boundary" inkscape:connector-curvature="0" />
	<path style="fill:none;stroke:red;stroke-width:1px;stroke-linecap:butt;stroke-linejoin:miter;stroke-opacity:1" d="M 293.915,500.934 303.45,496.497 z" id="boundary" inkscape:connector-curvature="0" />
	<path style="fill:none;stroke:red;stroke-width:1px;stroke-linecap:butt;stroke-linejoin:miter;stroke-opacity:1" d="M 303.45,496.497 326.37,508.983 z" id="boundary" inkscape:connector-curvature="0" />
	<path style="fill:none;stroke:red;stroke-width:1px;stroke-linecap:butt;stroke-linejoin:miter;stroke-opacity:1" d="M 326.37,508.983 323.769,528.067 z" id="boundary" inkscape:connector-curvature="0" />
	<path style="fill:none;stroke:red;stroke-width:1px;stroke-linecap:butt;stroke-linejoin:miter;stroke-opacity:1" d="M 364.362,493.724 377.989,497.813 z" id="boundary" inkscape:connector-curvature="0" />
	<path style="fill:none;stroke:red;stroke-width:1px;stroke-linecap:butt;stroke-linejoin:miter;stroke-opacity:1" d="M 227.217,405.36 238.015,425.223 z" id="boundary" inkscape:connector-curvature="0" />
	<path style="fill:none;stroke:red;stroke-width:1px;stroke-linecap:butt;stroke-linejoin:miter;stroke-opacity:1" d="M 252.184,448.269 238.015,425.223 z" id="boundary" inkscape:connector-curvature="0" />
	<path style="fill:none;stroke:red;stroke-width:1px;stroke-linecap:butt;stroke-linejoin:miter;stroke-opacity:1" d="M 429.117,411.087 433.161,419.651 z" id="boundary" inkscape:connector-curvature="0" />
	<path style="fill:none;stroke:red;stroke-width:1px;stroke-linecap:butt;stroke-linejoin:miter;stroke-opacity:1" d="M 433.161,419.651 455.111,404.686 z" id="boundary" inkscape:connector-curvature="0" />
	<path style="fill:none;stroke:red;stroke-width:1px;stroke-linecap:butt;stroke-linejoin:miter;stroke-opacity:1" d="M 427.969,457.817 429.555,467.901 z" id="boundary" inkscape:connector-curvature="0" />
	<path style="fill:none;stroke:red;stroke-width:1px;stroke-linecap:butt;stroke-linejoin:miter;stroke-opacity:1" d="M 429.555,467.901 433.662,485.392 z" id="boundary" inkscape:connector-curvature="0" />
	<path style="fill:none;stroke:red;stroke-width:1px;stroke-linecap:butt;stroke-linejoin:miter;stroke-opacity:1" d="M 433.662,485.392 445.03,491.435 z" id="boundary" inkscape:connector-curvature="0" />
	<path style="fill:none;stroke:red;stroke-width:1px;stroke-linecap:butt;stroke-linejoin:miter;stroke-opacity:1" d="M 445.03,491.435 473.155,496.345 z" id="boundary" inkscape:connector-curvature="0" />
	<path style="fill:none;stroke:red;stroke-width:1px;stroke-linecap:butt;stroke-linejoin:miter;stroke-opacity:1" d="M 473.155,496.345 479.314,489.626 z" id="boundary" inkscape:connector-curvature="0" />
	<path style="fill:none;stroke:red;stroke-width:1px;stroke-linecap:butt;stroke-linejoin:miter;stroke-opacity:1" d="M 508.568,507.617 518.08,536.702 z" id="boundary" inkscape:connector-curvature="0" />
	<path style="fill:none;stroke:red;stroke-width:1px;stroke-linecap:butt;stroke-linejoin:miter;stroke-opacity:1" d="M 534.987,494.798 543.51,518.378 z" id="boundary" inkscape:connector-curvature="0" />
	<path style="fill:none;stroke:red;stroke-width:1px;stroke-linecap:butt;stroke-linejoin:miter;stroke-opacity:1" d="M 534.987,494.798 534.166,486.088 z" id="boundary" inkscape:connector-curvature="0" />
	<path style="fill:none;stroke:red;stroke-width:1px;stroke-linecap:butt;stroke-linejoin:miter;stroke-opacity:1" d="M 563.759,498.137 581.876,501.248 z" id="boundary" inkscape:connector-curvature="0" />
	<path style="fill:none;stroke:red;stroke-width:1px;stroke-linecap:butt;stroke-linejoin:miter;stroke-opacity:1" d="M 581.876,501.248 588.209,493.447 z" id="boundary" inkscape:connector-curvature="0" />
	<path style="fill:none;stroke:red;stroke-width:1px;stroke-linecap:butt;stroke-linejoin:miter;stroke-opacity:1" d="M 455.111,404.686 476.938,407.66 z" id="boundary" inkscape:connector-curvature="0" />
	<path style="fill:none;stroke:red;stroke-width:1px;stroke-linecap:butt;stroke-linejoin:miter;stroke-opacity:1" d="M 492.689,393.168 511.171,391.259 z" id="boundary" inkscape:connector-curvature="0" />
	<path style="fill:none;stroke:red;stroke-width:1px;stroke-linecap:butt;stroke-linejoin:miter;stroke-opacity:1" d="M 550.605,387.932 559.248,401.293 z" id="boundary" inkscape:connector-curvature="0" />
	<path style="fill:none;stroke:red;stroke-width:1px;stroke-linecap:butt;stroke-linejoin:miter;stroke-opacity:1" d="M 559.248,401.293 576.273,390.642 z" id="boundary" inkscape:connector-curvature="0" />
	<path style="fill:none;stroke:red;stroke-width:1px;stroke-linecap:butt;stroke-linejoin:miter;stroke-opacity:1" d="M 609.785,430.84 610.729,445.699 z" id="boundary" inkscape:connector-curvature="0" />
	<path style="fill:none;stroke:red;stroke-width:1px;stroke-linecap:butt;stroke-linejoin:miter;stroke-opacity:1" d="M 475.58,242.663 489.267,241.979 z" id="boundary" inkscape:connector-curvature="0" />
	<path style="fill:none;stroke:red;stroke-width:1px;stroke-linecap:butt;stroke-linejoin:miter;stroke-opacity:1" d="M 502.278,280.315 507.822,266.565 z" id="boundary" inkscape:connector-curvature="0" />
	<path style="fill:none;stroke:red;stroke-width:1px;stroke-linecap:butt;stroke-linejoin:miter;stroke-opacity:1" d="M 489.267,241.979 518.936,237.786 z" id="boundary" inkscape:connector-curvature="0" />
	<path style="fill:none;stroke:red;stroke-width:1px;stroke-linecap:butt;stroke-linejoin:miter;stroke-opacity:1" d="M 525.335,210.703 545.429,216.608 z" id="boundary" inkscape:connector-curvature="0" />
	<path style="fill:none;stroke:red;stroke-width:1px;stroke-linecap:butt;stroke-linejoin:miter;stroke-opacity:1" d="M 642.356,166.976 664.197,156.569 z" id="boundary" inkscape:connector-curvature="0" />
	<path style="fill:none;stroke:red;stroke-width:1px;stroke-linecap:butt;stroke-linejoin:miter;stroke-opacity:1" d="M 664.197,156.569 669.925,149.915 z" id="boundary" inkscape:connector-curvature="0" />
	<path style="fill:none;stroke:red;stroke-width:1px;stroke-linecap:butt;stroke-linejoin:miter;stroke-opacity:1" d="M 665.254,143.936 669.925,149.915 z" id="boundary" inkscape:connector-curvature="0" />
	<path style="fill:none;stroke:red;stroke-width:1px;stroke-linecap:butt;stroke-linejoin:miter;stroke-opacity:1" d="M 683.007,185.908 659.681,202.818 z" id="boundary" inkscape:connector-curvature="0" />
	<path style="fill:none;stroke:red;stroke-width:1px;stroke-linecap:butt;stroke-linejoin:miter;stroke-opacity:1" d="M 648.517,240.79 646.24,243.479 z" id="boundary" inkscape:connector-curvature="0" />
	<path style="fill:none;stroke:red;stroke-width:1px;stroke-linecap:butt;stroke-linejoin:miter;stroke-opacity:1" d="M 652.344,275.837 642.467,290.811 z" id="boundary" inkscape:connector-curvature="0" />
	<path style="fill:none;stroke:red;stroke-width:1px;stroke-linecap:butt;stroke-linejoin:miter;stroke-opacity:1" d="M 638.896,319.068 634.658,337.581 z" id="boundary" inkscape:connector-curvature="0" />
	<path style="fill:none;stroke:red;stroke-width:1px;stroke-linecap:butt;stroke-linejoin:miter;stroke-opacity:1" d="M 544.101,285.491 542.143,310.224 z" id="boundary" inkscape:connector-curvature="0" />
	<path style="fill:none;stroke:red;stroke-width:1px;stroke-linecap:butt;stroke-linejoin:miter;stroke-opacity:1" d="M 577.688,314.885 592.53,314.683 z" id="boundary" inkscape:connector-curvature="0" />
	<path style="fill:none;stroke:red;stroke-width:1px;stroke-linecap:butt;stroke-linejoin:miter;stroke-opacity:1" d="M 592.53,314.683 606.67,322.544 z" id="boundary" inkscape:connector-curvature="0" />
	<path style="fill:none;stroke:red;stroke-width:1px;stroke-linecap:butt;stroke-linejoin:miter;stroke-opacity:1" d="M 279.544,532.267 293.384,536.491 z" id="boundary" inkscape:connector-curvature="0" />
	<path style="fill:none;stroke:red;stroke-width:1px;stroke-linecap:butt;stroke-linejoin:miter;stroke-opacity:1" d="M 293.384,536.491 308.767,536.29 z" id="boundary" inkscape:connector-curvature="0" />
	<path style="fill:none;stroke:red;stroke-width:1px;stroke-linecap:butt;stroke-linejoin:miter;stroke-opacity:1" d="M 282.563,566.696 292.759,568.657 z" id="boundary" inkscape:connector-curvature="0" />
	<path style="fill:none;stroke:red;stroke-width:1px;stroke-linecap:butt;stroke-linejoin:miter;stroke-opacity:1" d="M 282.563,566.696 280.478,590.498 z" id="boundary" inkscape:connector-curvature="0" />
	<path style="fill:none;stroke:red;stroke-width:1px;stroke-linecap:butt;stroke-linejoin:miter;stroke-opacity:1" d="M 280.478,590.498 279.079,607.189 z" id="boundary" inkscape:connector-curvature="0" />
	<path style="fill:none;stroke:red;stroke-width:1px;stroke-linecap:butt;stroke-linejoin:miter;stroke-opacity:1" d="M 315.38,625.661 324.175,616.712 z" id="boundary" inkscape:connector-curvature="0" />
	<path style="fill:none;stroke:red;stroke-width:1px;stroke-linecap:butt;stroke-linejoin:miter;stroke-opacity:1" d="M 324.175,616.712 339.169,612.32 z" id="boundary" inkscape:connector-curvature="0" />
	<path style="fill:none;stroke:red;stroke-width:1px;stroke-linecap:butt;stroke-linejoin:miter;stroke-opacity:1" d="M 370.525,629.657 373.669,628.767 z" id="boundary" inkscape:connector-curvature="0" />
	<path style="fill:none;stroke:red;stroke-width:1px;stroke-linecap:butt;stroke-linejoin:miter;stroke-opacity:1" d="M 373.669,628.767 375.214,636.831 z" id="boundary" inkscape:connector-curvature="0" />
	<path style="fill:none;stroke:red;stroke-width:1px;stroke-linecap:butt;stroke-linejoin:miter;stroke-opacity:1" d="M 375.214,636.831 384.142,667.955 z" id="boundary" inkscape:connector-curvature="0" />
	<path style="fill:none;stroke:red;stroke-width:1px;stroke-linecap:butt;stroke-linejoin:miter;stroke-opacity:1" d="M 372.009,688.741 372.107,695.72 z" id="boundary" inkscape:connector-curvature="0" />
	<path style="fill:none;stroke:red;stroke-width:1px;stroke-linecap:butt;stroke-linejoin:miter;stroke-opacity:1" d="M 372.107,695.72 375.895,706.847 z" id="boundary" inkscape:connector-curvature="0" />
	<path style="fill:none;stroke:red;stroke-width:1px;stroke-linecap:butt;stroke-linejoin:miter;stroke-opacity:1" d="M 387.683,744.279 388.118,769.192 z" id="boundary" inkscape:connector-curvature="0" />
	<path style="fill:none;stroke:red;stroke-width:1px;stroke-linecap:butt;stroke-linejoin:miter;stroke-opacity:1" d="M 388.118,769.192 397.172,773.858 z" id="boundary" inkscape:connector-curvature="0" />
	<path style="fill:none;stroke:red;stroke-width:1px;stroke-linecap:butt;stroke-linejoin:miter;stroke-opacity:1" d="M 397.172,773.858 434.901,772.536 z" id="boundary" inkscape:connector-curvature="0" />
	<path style="fill:none;stroke:red;stroke-width:1px;stroke-linecap:butt;stroke-linejoin:miter;stroke-opacity:1" d="M 434.901,772.536 450.554,776.054 z" id="boundary" inkscape:connector-curvature="0" />
	<path style="fill:none;stroke:red;stroke-width:1px;stroke-linecap:butt;stroke-linejoin:miter;stroke-opacity:1" d="M 450.554,776.054 464.845,746.472 z" id="boundary" inkscape:connector-curvature="0" />
	<path style="fill:none;stroke:red;stroke-width:1px;stroke-linecap:butt;stroke-linejoin:miter;stroke-opacity:1" d="M 457.088,706.005 445.405,695.26 z" id="boundary" inkscape:connector-curvature="0" />
	<path style="fill:none;stroke:red;stroke-width:1px;stroke-linecap:butt;stroke-linejoin:miter;stroke-opacity:1" d="M 445.405,695.26 457.138,663.228 z" id="boundary" inkscape:connector-curvature="0" />
	<path style="fill:none;stroke:red;stroke-width:1px;stroke-linecap:butt;stroke-linejoin:miter;stroke-opacity:1" d="M 457.138,663.228 460.832,625.406 z" id="boundary" inkscape:connector-curvature="0" />
	<path style="fill:none;stroke:red;stroke-width:1px;stroke-linecap:butt;stroke-linejoin:miter;stroke-opacity:1" d="M 460.832,625.406 474.643,627.661 z" id="boundary" inkscape:connector-curvature="0" />
	<path style="fill:none;stroke:red;stroke-width:1px;stroke-linecap:butt;stroke-linejoin:miter;stroke-opacity:1" d="M 474.643,627.661 497.502,609.716 z" id="boundary" inkscape:connector-curvature="0" />
	<path style="fill:none;stroke:red;stroke-width:1px;stroke-linecap:butt;stroke-linejoin:miter;stroke-opacity:1" d="M 497.502,609.716 508.094,632.29 z" id="boundary" inkscape:connector-curvature="0" />
	<path style="fill:none;stroke:red;stroke-width:1px;stroke-linecap:butt;stroke-linejoin:miter;stroke-opacity:1" d="M 566.341,529.295 569.15,543.236 z" id="boundary" inkscape:connector-curvature="0" />
	<path style="fill:none;stroke:red;stroke-width:1px;stroke-linecap:butt;stroke-linejoin:miter;stroke-opacity:1" d="M 573.159,547.85 569.15,543.236 z" id="boundary" inkscape:connector-curvature="0" />
	<path style="fill:none;stroke:red;stroke-width:1px;stroke-linecap:butt;stroke-linejoin:miter;stroke-opacity:1" d="M 573.47,578.968 565.233,600.264 z" id="boundary" inkscape:connector-curvature="0" />
	<path style="fill:none;stroke:red;stroke-width:1px;stroke-linecap:butt;stroke-linejoin:miter;stroke-opacity:1" d="M 308.767,536.29 323.769,528.067 z" id="boundary" inkscape:connector-curvature="0" />
	<path style="fill:none;stroke:red;stroke-width:1px;stroke-linecap:butt;stroke-linejoin:miter;stroke-opacity:1" d="M 362.745,539.462 372.668,522.042 z" id="boundary" inkscape:connector-curvature="0" />
	<path style="fill:none;stroke:red;stroke-width:1px;stroke-linecap:butt;stroke-linejoin:miter;stroke-opacity:1" d="M 372.668,522.042 395.301,525.171 z" id="boundary" inkscape:connector-curvature="0" />
	<path style="fill:none;stroke:red;stroke-width:1px;stroke-linecap:butt;stroke-linejoin:miter;stroke-opacity:1" d="M 395.301,525.171 412.876,534.679 z" id="boundary" inkscape:connector-curvature="0" />
	<path style="fill:none;stroke:red;stroke-width:1px;stroke-linecap:butt;stroke-linejoin:miter;stroke-opacity:1" d="M 412.876,534.679 439.655,535.066 z" id="boundary" inkscape:connector-curvature="0" />
	<path style="fill:none;stroke:red;stroke-width:1px;stroke-linecap:butt;stroke-linejoin:miter;stroke-opacity:1" d="M 439.655,535.066 463.047,533.894 z" id="boundary" inkscape:connector-curvature="0" />
	<path style="fill:none;stroke:red;stroke-width:1px;stroke-linecap:butt;stroke-linejoin:miter;stroke-opacity:1" d="M 463.047,533.894 484.581,539.378 z" id="boundary" inkscape:connector-curvature="0" />
	<path style="fill:none;stroke:red;stroke-width:1px;stroke-linecap:butt;stroke-linejoin:miter;stroke-opacity:1" d="M 518.08,536.702 539.261,537.246 z" id="boundary" inkscape:connector-curvature="0" />
	<path style="fill:none;stroke:red;stroke-width:1px;stroke-linecap:butt;stroke-linejoin:miter;stroke-opacity:1" d="M 539.261,537.246 543.51,518.378 z" id="boundary" inkscape:connector-curvature="0" />
	<path style="fill:none;stroke:red;stroke-width:1px;stroke-linecap:butt;stroke-linejoin:miter;stroke-opacity:1" d="M 539.451,909.651 560.82,916.522 z" id="boundary" inkscape:connector-curvature="0" />
	<path style="fill:none;stroke:red;stroke-width:1px;stroke-linecap:butt;stroke-linejoin:miter;stroke-opacity:1" d="M 539.451,909.651 533.398,930.903 z" id="boundary" inkscape:connector-curvature="0" />
	<path style="fill:none;stroke:red;stroke-width:1px;stroke-linecap:butt;stroke-linejoin:miter;stroke-opacity:1" d="M 560.82,916.522 568.519,933.677 z" id="boundary" inkscape:connector-curvature="0" />
	<path style="fill:none;stroke:red;stroke-width:1px;stroke-linecap:butt;stroke-linejoin:miter;stroke-opacity:1" d="M 568.519,933.677 586.473,935.086 z" id="boundary" inkscape:connector-curvature="0" />
	<path style="fill:none;stroke:red;stroke-width:1px;stroke-linecap:butt;stroke-linejoin:miter;stroke-opacity:1" d="M 579.412,963.911 571.076,966.781 z" id="boundary" inkscape:connector-curvature="0" />
	<path style="fill:none;stroke:red;stroke-width:1px;stroke-linecap:butt;stroke-linejoin:miter;stroke-opacity:1" d="M 563.31,967.315 571.076,966.781 z" id="boundary" inkscape:connector-curvature="0" />
	<path style="fill:none;stroke:red;stroke-width:1px;stroke-linecap:butt;stroke-linejoin:miter;stroke-opacity:1" d="M 563.31,967.315 550.135,966.367 z" id="boundary" inkscape:connector-curvature="0" />
	<path style="fill:none;stroke:red;stroke-width:1px;stroke-linecap:butt;stroke-linejoin:miter;stroke-opacity:1" d="M 550.135,966.367 535.987,951.692 z" id="boundary" inkscape:connector-curvature="0" />
	<path style="fill:none;stroke:red;stroke-width:1px;stroke-linecap:butt;stroke-linejoin:miter;stroke-opacity:1" d="M 535.987,951.692 534.128,946.469 z" id="boundary" inkscape:connector-curvature="0" />
	<path style="fill:none;stroke:red;stroke-width:1px;stroke-linecap:butt;stroke-linejoin:miter;stroke-opacity:1" d="M 534.128,946.469 533.398,930.903 z" id="boundary" inkscape:connector-curvature="0" />
	<circle cx="19.7762" cy="99.0525" r="4" fill="#0" id="circle0"/>
	<circle cx="48.0943" cy="87.6458" r="4" fill="#0" id="circle1"/>
	<circle cx="73.6172" cy="101.142" r="4" fill="#0" id="circle2"/>
	<circle cx="117.307" cy="86.4356" r="4" fill="#0" id="circle3"/>
	<circle cx="131.714" cy="116.815" r="4" fill="#0" id="circle4"/>
	<circle cx="130.547" cy="144.715" r="4" fill="#0" id="circle5"/>
	<circle cx="143.392" cy="178.515" r="4" fill="#0" id="circle6"/>
	<circle cx="134.22" cy="191.005" r="4" fill="#0" id="circle7"/>
	<circle cx="146.354" cy="216.017" r="4" fill="#0" id="circle8"/>
	<circle cx="162.07" cy="237.752" r="4" fill="#0" id="circle9"/>
	<circle cx="173.254" cy="268.015" r="4" fill="#0" id="circle10"/>
	<circle cx="176.103" cy="274.432" r="4" fill="#0" id="circle11"/>
	<circle cx="183.557" cy="308.687" r="4" fill="#0" id="circle12"/>
	<circle cx="189.221" cy="337.096" r="4" fill="#0" id="circle13"/>
	<circle cx="172.79" cy="355.157" r="4" fill="#0" id="circle14"/>
	<circle cx="187.302" cy="358.05" r="4" fill="#0" id="circle15"/>
	<circle cx="192.688" cy="391.931" r="4" fill="#0" id="circle16"/>
	<circle cx="194.034" cy="406.93" r="4" fill="#0" id="circle17"/>
	<circle cx="202.716" cy="414.265" r="4" fill="#0" id="circle18"/>
	<circle cx="213.863" cy="438.348" r="4" fill="#0" id="circle19"/>
	<circle cx="213.793" cy="459.266" r="4" fill="#0" id="circle20"/>
	<circle cx="221.031" cy="478.007" r="4" fill="#0" id="circle21"/>
	<circle cx="230.01" cy="514.769" r="4" fill="#0" id="circle22"/>
	<circle cx="221.467" cy="521.049" r="4" fill="#0" id="circle23"/>
	<circle cx="246.451" cy="541.149" r="4" fill="#0" id="circle24"/>
	<circle cx="240.66" cy="586.265" r="4" fill="#0" id="circle25"/>
	<circle cx="257.216" cy="602.216" r="4" fill="#0" id="circle26"/>
	<circle cx="243.205" cy="629.208" r="4" fill="#0" id="circle27"/>
	<circle cx="269.464" cy="659.559" r="4" fill="#0" id="circle28"/>
	<circle cx="265.289" cy="679.33" r="4" fill="#0" id="circle29"/>
	<circle cx="289.836" cy="655.943" r="4" fill="#0" id="circle30"/>
	<circle cx="292.613" cy="657.039" r="4" fill="#0" id="circle31"/>
	<circle cx="327.883" cy="663.069" r="4" fill="#0" id="circle32"/>
	<circle cx="347.956" cy="657.387" r="4" fill="#0" id="circle33"/>
	<circle cx="352.371" cy="678.663" r="4" fill="#0" id="circle34"/>
	<circle cx="349.891" cy="716.734" r="4" fill="#0" id="circle35"/>
	<circle cx="350.324" cy="716.602" r="4" fill="#0" id="circle36"/>
	<circle cx="339.604" cy="742.918" r="4" fill="#0" id="circle37"/>
	<circle cx="356.264" cy="761.357" r="4" fill="#0" id="circle38"/>
	<circle cx="326.218" cy="771.265" r="4" fill="#0" id="circle39"/>
	<circle cx="307.086" cy="778.1" r="4" fill="#0" id="circle40"/>
	<circle cx="292.589" cy="761.687" r="4" fill="#0" id="circle41"/>
	<circle cx="292.506" cy="788.779" r="4" fill="#0" id="circle42"/>
	<circle cx="318.911" cy="784.213" r="4" fill="#0" id="circle43"/>
	<circle cx="329.704" cy="803.461" r="4" fill="#0" id="circle44"/>
	<circle cx="330.988" cy="814.936" r="4" fill="#0" id="circle45"/>
	<circle cx="354.607" cy="825.875" r="4" fill="#0" id="circle46"/>
	<circle cx="379.11" cy="839.107" r="4" fill="#0" id="circle47"/>
	<circle cx="399.062" cy="856.837" r="4" fill="#0" id="circle48"/>
	<circle cx="407.607" cy="870.267" r="4" fill="#0" id="circle49"/>
	<circle cx="450.59" cy="919.005" r="4" fill="#0" id="circle50"/>
	<circle cx="419.644" cy="886.934" r="4" fill="#0" id="circle51"/>
	<circle cx="478.111" cy="916.777" r="4" fill="#0" id="circle52"/>
	<circle cx="483.293" cy="944.259" r="4" fill="#0" id="circle53"/>
	<circle cx="500.751" cy="965.051" r="4" fill="#0" id="circle54"/>
	<circle cx="515.355" cy="977.297" r="4" fill="#0" id="circle55"/>
	<circle cx="543.976" cy="993.314" r="4" fill="#0" id="circle56"/>
	<circle cx="573.533" cy="996" r="4" fill="#0" id="circle57"/>
	<circle cx="586.896" cy="984.431" r="4" fill="#0" id="circle58"/>
	<circle cx="608.797" cy="956.881" r="4" fill="#0" id="circle59"/>
	<circle cx="613.492" cy="953.136" r="4" fill="#0" id="circle60"/>
	<circle cx="598.411" cy="917.895" r="4" fill="#0" id="circle61"/>
	<circle cx="577.847" cy="890.528" r="4" fill="#0" id="circle62"/>
	<circle cx="579.62" cy="881.879" r="4" fill="#0" id="circle63"/>
	<circle cx="571.971" cy="861.372" r="4" fill="#0" id="circle64"/>
	<circle cx="574.763" cy="836.052" r="4" fill="#0" id="circle65"/>
	<circle cx="561.315" cy="810.88" r="4" fill="#0" id="circle66"/>
	<circle cx="566.484" cy="771.465" r="4" fill="#0" id="circle67"/>
	<circle cx="548.286" cy="763.918" r="4" fill="#0" id="circle68"/>
	<circle cx="522.432" cy="765.166" r="4" fill="#0" id="circle69"/>
	<circle cx="506.842" cy="757.893" r="4" fill="#0" id="circle70"/>
	<circle cx="502.438" cy="665.526" r="4" fill="#0" id="circle71"/>
	<circle cx="499.25" cy="695.65" r="4" fill="#0" id="circle72"/>
	<circle cx="481.243" cy="705.826" r="4" fill="#0" id="circle73"/>
	<circle cx="484.883" cy="722.646" r="4" fill="#0" id="circle74"/>
	<circle cx="485.324" cy="743.907" r="4" fill="#0" id="circle75"/>
	<circle cx="524.252" cy="669.524" r="4" fill="#0" id="circle76"/>
	<circle cx="530.159" cy="670.985" r="4" fill="#0" id="circle77"/>
	<circle cx="555.684" cy="665.738" r="4" fill="#0" id="circle78"/>
	<circle cx="558.521" cy="649.889" r="4" fill="#0" id="circle79"/>
	<circle cx="572.541" cy="651.541" r="4" fill="#0" id="circle80"/>
	<circle cx="745.069" cy="84.2681" r="4" fill="#0" id="circle81"/>
	<circle cx="711.689" cy="102.956" r="4" fill="#0" id="circle82"/>
	<circle cx="708.559" cy="129.846" r="4" fill="#0" id="circle83"/>
	<circle cx="699.814" cy="156.545" r="4" fill="#0" id="circle84"/>
	<circle cx="699.116" cy="176.955" r="4" fill="#0" id="circle85"/>
	<circle cx="714.482" cy="175.912" r="4" fill="#0" id="circle86"/>
	<circle cx="693.319" cy="213.944" r="4" fill="#0" id="circle87"/>
	<circle cx="698.453" cy="235.345" r="4" fill="#0" id="circle88"/>
	<circle cx="677.14" cy="244.202" r="4" fill="#0" id="circle89"/>
	<circle cx="683.46" cy="269.98" r="4" fill="#0" id="circle90"/>
	<circle cx="672.81" cy="299.402" r="4" fill="#0" id="circle91"/>
	<circle cx="662.074" cy="329.378" r="4" fill="#0" id="circle92"/>
	<circle cx="660.143" cy="335.3" r="4" fill="#0" id="circle93"/>
	<circle cx="662.003" cy="347.144" r="4" fill="#0" id="circle94"/>
	<circle cx="648.016" cy="370.978" r="4" fill="#0" id="circle95"/>
	<circle cx="639.636" cy="398.268" r="4" fill="#0" id="circle96"/>
	<circle cx="654.017" cy="414.097" r="4" fill="#0" id="circle97"/>
	<circle cx="627.491" cy="430.402" r="4" fill="#0" id="circle98"/>
	<circle cx="620.493" cy="452.719" r="4" fill="#0" id="circle99"/>
	<circle cx="612.786" cy="475.848" r="4" fill="#0" id="circle100"/>
	<circle cx="608.78" cy="492.538" r="4" fill="#0" id="circle101"/>
	<circle cx="610.897" cy="523.963" r="4" fill="#0" id="circle102"/>
	<circle cx="617.891" cy="542.235" r="4" fill="#0" id="circle103"/>
	<circle cx="593.242" cy="579.538" r="4" fill="#0" id="circle104"/>
	<circle cx="596.425" cy="598" r="4" fill="#0" id="circle105"/>
	<circle cx="587.003" cy="621.357" r="4" fill="#0" id="circle106"/>
	<circle cx="577.215" cy="643.954" r="4" fill="#0" id="circle107"/>
	<circle cx="763.788" cy="80.3823" r="4" fill="#0" id="circle108"/>
	<circle cx="793.219" cy="68.0433" r="4" fill="#0" id="circle109"/>
	<circle cx="818.202" cy="64.5949" r="4" fill="#0" id="circle110"/>
	<circle cx="833.675" cy="54.3513" r="4" fill="#0" id="circle111"/>
	<circle cx="19.2961" cy="32.4998" r="4" fill="#0" id="circle112"/>
	<circle cx="4" cy="62.5459" r="4" fill="#0" id="circle113"/>
	<circle cx="17.3457" cy="71.0765" r="4" fill="#0" id="circle114"/>
	<circle cx="833.438" cy="12.0833" r="4" fill="#0" id="circle115"/>
	<circle cx="851.094" cy="24.7283" r="4" fill="#0" id="circle116"/>
	<circle cx="36.1963" cy="44.501" r="4" fill="#0" id="circle117"/>
	<circle cx="67.3401" cy="27.1728" r="4" fill="#0" id="circle118"/>
	<circle cx="85.581" cy="36.5682" r="4" fill="#0" id="circle119"/>
	<circle cx="114.505" cy="30.1501" r="4" fill="#0" id="circle120"/>
	<circle cx="140.373" cy="34.7369" r="4" fill="#0" id="circle121"/>
	<circle cx="170.238" cy="37.8912" r="4" fill="#0" id="circle122"/>
	<circle cx="198.417" cy="41.5425" r="4" fill="#0" id="circle123"/>
	<circle cx="222.665" cy="22.6716" r="4" fill="#0" id="circle124"/>
	<circle cx="240.824" cy="24.1751" r="4" fill="#0" id="circle125"/>
	<circle cx="276.093" cy="33.8606" r="4" fill="#0" id="circle126"/>
	<circle cx="292.212" cy="22.4565" r="4" fill="#0" id="circle127"/>
	<circle cx="317.913" cy="30.1561" r="4" fill="#0" id="circle128"/>
	<circle cx="342.521" cy="33.4073" r="4" fill="#0" id="circle129"/>
	<circle cx="368.694" cy="18.9836" r="4" fill="#0" id="circle130"/>
	<circle cx="408.408" cy="29.9999" r="4" fill="#0" id="circle131"/>
	<circle cx="440.354" cy="34.371" r="4" fill="#0" id="circle132"/>
	<circle cx="481.169" cy="14.0196" r="4" fill="#0" id="circle133"/>
	<circle cx="497.048" cy="34.2139" r="4" fill="#0" id="circle134"/>
	<circle cx="540.697" cy="27.3112" r="4" fill="#0" id="circle135"/>
	<circle cx="561.516" cy="19.354" r="4" fill="#0" id="circle136"/>
	<circle cx="594.002" cy="25.2105" r="4" fill="#0" id="circle137"/>
	<circle cx="612.068" cy="25.2208" r="4" fill="#0" id="circle138"/>
	<circle cx="654.389" cy="27.7624" r="4" fill="#0" id="circle139"/>
	<circle cx="671.324" cy="30.5714" r="4" fill="#0" id="circle140"/>
	<circle cx="704.205" cy="20.1328" r="4" fill="#0" id="circle141"/>
	<circle cx="751.501" cy="17.4265" r="4" fill="#0" id="circle142"/>
	<circle cx="768.437" cy="4" r="4" fill="#0" id="circle143"/>
	<circle cx="804.255" cy="9.66561" r="4" fill="#0" id="circle144"/>
	<circle cx="199.387" cy="120.379" r="4" fill="#0" id="circle145"/>
	<circle cx="217.476" cy="113.127" r="4" fill="#0" id="circle146"/>
	<circle cx="235.878" cy="109.467" r="4" fill="#0" id="circle147"/>
	<circle cx="264.816" cy="128.829" r="4" fill="#0" id="circle148"/>
	<circle cx="299.388" cy="119.951" r="4" fill="#0" id="circle149"/>
	<circle cx="337.037" cy="109.76" r="4" fill="#0" id="circle150"/>
	<circle cx="348.104" cy="108.569" r="4" fill="#0" id="circle151"/>
	<circle cx="375.612" cy="116.242" r="4" fill="#0" id="circle152"/>
	<circle cx="409.113" cy="124.032" r="4" fill="#0" id="circle153"/>
	<circle cx="415.885" cy="116.413" r="4" fill="#0" id="circle154"/>
	<circle cx="461.018" cy="107.225" r="4" fill="#0" id="circle155"/>
	<circle cx="483.055" cy="121.602" r="4" fill="#0" id="circle156"/>
	<circle cx="516.045" cy="111.471" r="4" fill="#0" id="circle157"/>
	<circle cx="528.793" cy="125.519" r="4" fill="#0" id="circle158"/>
	<circle cx="560.835" cy="116.413" r="4" fill="#0" id="circle159"/>
	<circle cx="575.66" cy="108.45" r="4" fill="#0" id="circle160"/>
	<circle cx="617.524" cy="121.394" r="4" fill="#0" id="circle161"/>
	<circle cx="628.162" cy="122" r="4" fill="#0" id="circle162"/>
	<circle cx="659.322" cy="117.825" r="4" fill="#0" id="circle163"/>
	<circle cx="646.559" cy="114.037" r="4" fill="#0" id="circle164"/>
	<circle cx="612.626" cy="131.963" r="4" fill="#0" id="circle165"/>
	<circle cx="596.574" cy="136.855" r="4" fill="#0" id="circle166"/>
	<circle cx="586.463" cy="158.255" r="4" fill="#0" id="circle167"/>
	<circle cx="568.204" cy="159.852" r="4" fill="#0" id="circle168"/>
	<circle cx="198.75" cy="141.323" r="4" fill="#0" id="circle169"/>
	<circle cx="229.436" cy="156.068" r="4" fill="#0" id="circle170"/>
	<circle cx="251.435" cy="148.22" r="4" fill="#0" id="circle171"/>
	<circle cx="267.714" cy="167.413" r="4" fill="#0" id="circle172"/>
	<circle cx="293.402" cy="187.408" r="4" fill="#0" id="circle173"/>
	<circle cx="313.8" cy="177.607" r="4" fill="#0" id="circle174"/>
	<circle cx="329.66" cy="204.791" r="4" fill="#0" id="circle175"/>
	<circle cx="350.592" cy="204.927" r="4" fill="#0" id="circle176"/>
	<circle cx="379.865" cy="232.437" r="4" fill="#0" id="circle177"/>
	<circle cx="392.54" cy="229.316" r="4" fill="#0" id="circle178"/>
	<circle cx="416.869" cy="246.049" r="4" fill="#0" id="circle179"/>
	<circle cx="431.752" cy="232.467" r="4" fill="#0" id="circle180"/>
	<circle cx="441.636" cy="224.338" r="4" fill="#0" id="circle181"/>
	<circle cx="473.631" cy="218.145" r="4" fill="#0" id="circle182"/>
	<circle cx="483.007" cy="197.162" r="4" fill="#0" id="circle183"/>
	<circle cx="495.316" cy="194.961" r="4" fill="#0" id="circle184"/>
	<circle cx="518.446" cy="188.238" r="4" fill="#0" id="circle185"/>
	<circle cx="548.888" cy="184.645" r="4" fill="#0" id="circle186"/>
	<circle cx="159.455" cy="150.908" r="4" fill="#0" id="circle187"/>
	<circle cx="172.072" cy="186.801" r="4" fill="#0" id="circle188"/>
	<circle cx="178.216" cy="160.239" r="4" fill="#0" id="circle189"/>
	<circle cx="224.112" cy="176.194" r="4" fill="#0" id="circle190"/>
	<circle cx="218.85" cy="179.468" r="4" fill="#0" id="circle191"/>
	<circle cx="256.735" cy="197.431" r="4" fill="#0" id="circle192"/>
	<circle cx="262.743" cy="218.16" r="4" fill="#0" id="circle193"/>
	<circle cx="307.331" cy="222.645" r="4" fill="#0" id="circle194"/>
	<circle cx="323.001" cy="226.516" r="4" fill="#0" id="circle195"/>
	<circle cx="332.797" cy="251.988" r="4" fill="#0" id="circle196"/>
	<circle cx="379.167" cy="270.909" r="4" fill="#0" id="circle197"/>
	<circle cx="341.852" cy="268.072" r="4" fill="#0" id="circle198"/>
	<circle cx="310.954" cy="289.717" r="4" fill="#0" id="circle199"/>
	<circle cx="304.839" cy="297.859" r="4" fill="#0" id="circle200"/>
	<circle cx="272.116" cy="312.324" r="4" fill="#0" id="circle201"/>
	<circle cx="248.823" cy="324.608" r="4" fill="#0" id="circle202"/>
	<circle cx="229.469" cy="325.947" r="4" fill="#0" id="circle203"/>
	<circle cx="211.109" cy="321.603" r="4" fill="#0" id="circle204"/>
	<circle cx="169.893" cy="196.095" r="4" fill="#0" id="circle205"/>
	<circle cx="178.605" cy="215.16" r="4" fill="#0" id="circle206"/>
	<circle cx="194.499" cy="226.044" r="4" fill="#0" id="circle207"/>
	<circle cx="204.68" cy="267.75" r="4" fill="#0" id="circle208"/>
	<circle cx="188.648" cy="290.784" r="4" fill="#0" id="circle209"/>
	<circle cx="266.658" cy="366.902" r="4" fill="#0" id="circle210"/>
	<circle cx="280.637" cy="345.332" r="4" fill="#0" id="circle211"/>
	<circle cx="302.681" cy="357.04" r="4" fill="#0" id="circle212"/>
	<circle cx="315.94" cy="322.878" r="4" fill="#0" id="circle213"/>
	<circle cx="332.684" cy="332.998" r="4" fill="#0" id="circle214"/>
	<circle cx="366.899" cy="301.947" r="4" fill="#0" id="circle215"/>
	<circle cx="384.25" cy="283.553" r="4" fill="#0" id="circle216"/>
	<circle cx="420.281" cy="282.5" r="4" fill="#0" id="circle217"/>
	<circle cx="446.983" cy="283.35" r="4" fill="#0" id="circle218"/>
	<circle cx="476.105" cy="291.692" r="4" fill="#0" id="circle219"/>
	<circle cx="477.666" cy="301.473" r="4" fill="#0" id="circle220"/>
	<circle cx="521.498" cy="323.596" r="4" fill="#0" id="circle221"/>
	<circle cx="539.407" cy="334.682" r="4" fill="#0" id="circle222"/>
	<circle cx="558.493" cy="340.897" r="4" fill="#0" id="circle223"/>
	<circle cx="575.572" cy="364.749" r="4" fill="#0" id="circle224"/>
	<circle cx="539.195" cy="377.309" r="4" fill="#0" id="circle225"/>
	<circle cx="336.889" cy="365.848" r="4" fill="#0" id="circle226"/>
	<circle cx="363.675" cy="356.693" r="4" fill="#0" id="circle227"/>
	<circle cx="393.669" cy="360.943" r="4" fill="#0" id="circle228"/>
	<circle cx="409.017" cy="353.987" r="4" fill="#0" id="circle229"/>
	<circle cx="434.408" cy="358.806" r="4" fill="#0" id="circle230"/>
	<circle cx="454.984" cy="369.646" r="4" fill="#0" id="circle231"/>
	<circle cx="479.192" cy="377.53" r="4" fill="#0" id="circle232"/>
	<circle cx="499.006" cy="355.937" r="4" fill="#0" id="circle233"/>
	<circle cx="516.69" cy="361.123" r="4" fill="#0" id="circle234"/>
	<circle cx="228.92" cy="400.172" r="4" fill="#0" id="circle235"/>
	<circle cx="258.802" cy="389.984" r="4" fill="#0" id="circle236"/>
	<circle cx="272.328" cy="389.053" r="4" fill="#0" id="circle237"/>
	<circle cx="313.912" cy="407.661" r="4" fill="#0" id="circle238"/>
	<circle cx="339.083" cy="386.861" r="4" fill="#0" id="circle239"/>
	<circle cx="360.744" cy="386.593" r="4" fill="#0" id="circle240"/>
	<circle cx="374.38" cy="389.899" r="4" fill="#0" id="circle241"/>
	<circle cx="419.244" cy="406.373" r="4" fill="#0" id="circle242"/>
	<circle cx="409.419" cy="415.689" r="4" fill="#0" id="circle243"/>
	<circle cx="400.396" cy="419.223" r="4" fill="#0" id="circle244"/>
	<circle cx="412.616" cy="453.406" r="4" fill="#0" id="circle245"/>
	<circle cx="400.087" cy="460.432" r="4" fill="#0" id="circle246"/>
	<circle cx="400.449" cy="496.887" r="4" fill="#0" id="circle247"/>
	<circle cx="250.3" cy="509.108" r="4" fill="#0" id="circle248"/>
	<circle cx="293.915" cy="500.934" r="4" fill="#0" id="circle249"/>
	<circle cx="303.45" cy="496.497" r="4" fill="#0" id="circle250"/>
	<circle cx="326.37" cy="508.983" r="4" fill="#0" id="circle251"/>
	<circle cx="364.362" cy="493.724" r="4" fill="#0" id="circle252"/>
	<circle cx="377.989" cy="497.813" r="4" fill="#0" id="circle253"/>
	<circle cx="227.217" cy="405.36" r="4" fill="#0" id="circle254"/>
	<circle cx="252.184" cy="448.269" r="4" fill="#0" id="circle255"/>
	<circle cx="238.015" cy="425.223" r="4" fill="#0" id="circle256"/>
	<circle cx="251.417" cy="478.788" r="4" fill="#0" id="circle257"/>
	<circle cx="425.896" cy="385.914" r="4" fill="#0" id="circle258"/>
	<circle cx="429.117" cy="411.087" r="4" fill="#0" id="circle259"/>
	<circle cx="433.161" cy="419.651" r="4" fill="#0" id="circle260"/>
	<circle cx="427.969" cy="457.817" r="4" fill="#0" id="circle261"/>
	<circle cx="429.555" cy="467.901" r="4" fill="#0" id="circle262"/>
	<circle cx="433.662" cy="485.392" r="4" fill="#0" id="circle263"/>
	<circle cx="445.03" cy="491.435" r="4" fill="#0" id="circle264"/>
	<circle cx="473.155" cy="496.345" r="4" fill="#0" id="circle265"/>
	<circle cx="508.568" cy="507.617" r="4" fill="#0" id="circle266"/>
	<circle cx="479.314" cy="489.626" r="4" fill="#0" id="circle267"/>
	<circle cx="534.987" cy="494.798" r="4" fill="#0" id="circle268"/>
	<circle cx="563.759" cy="498.137" r="4" fill="#0" id="circle269"/>
	<circle cx="581.876" cy="501.248" r="4" fill="#0" id="circle270"/>
	<circle cx="455.111" cy="404.686" r="4" fill="#0" id="circle271"/>
	<circle cx="476.938" cy="407.66" r="4" fill="#0" id="circle272"/>
	<circle cx="492.689" cy="393.168" r="4" fill="#0" id="circle273"/>
	<circle cx="511.171" cy="391.259" r="4" fill="#0" id="circle274"/>
	<circle cx="550.605" cy="387.932" r="4" fill="#0" id="circle275"/>
	<circle cx="559.248" cy="401.293" r="4" fill="#0" id="circle276"/>
	<circle cx="576.273" cy="390.642" r="4" fill="#0" id="circle277"/>
	<circle cx="605.684" cy="387.909" r="4" fill="#0" id="circle278"/>
	<circle cx="620.395" cy="409.796" r="4" fill="#0" id="circle279"/>
	<circle cx="609.785" cy="430.84" r="4" fill="#0" id="circle280"/>
	<circle cx="610.729" cy="445.699" r="4" fill="#0" id="circle281"/>
	<circle cx="590.428" cy="464.123" r="4" fill="#0" id="circle282"/>
	<circle cx="588.209" cy="493.447" r="4" fill="#0" id="circle283"/>
	<circle cx="475.58" cy="242.663" r="4" fill="#0" id="circle284"/>
	<circle cx="502.278" cy="280.315" r="4" fill="#0" id="circle285"/>
	<circle cx="489.267" cy="241.979" r="4" fill="#0" id="circle286"/>
	<circle cx="518.936" cy="237.786" r="4" fill="#0" id="circle287"/>
	<circle cx="525.335" cy="210.703" r="4" fill="#0" id="circle288"/>
	<circle cx="545.429" cy="216.608" r="4" fill="#0" id="circle289"/>
	<circle cx="576.013" cy="191.701" r="4" fill="#0" id="circle290"/>
	<circle cx="580.663" cy="173.258" r="4" fill="#0" id="circle291"/>
	<circle cx="600.936" cy="168.002" r="4" fill="#0" id="circle292"/>
	<circle cx="642.356" cy="166.976" r="4" fill="#0" id="circle293"/>
	<circle cx="664.197" cy="156.569" r="4" fill="#0" id="circle294"/>
	<circle cx="665.254" cy="143.936" r="4" fill="#0" id="circle295"/>
	<circle cx="669.925" cy="149.915" r="4" fill="#0" id="circle296"/>
	<circle cx="683.007" cy="185.908" r="4" fill="#0" id="circle297"/>
	<circle cx="659.681" cy="202.818" r="4" fill="#0" id="circle298"/>
	<circle cx="648.517" cy="240.79" r="4" fill="#0" id="circle299"/>
	<circle cx="646.24" cy="243.479" r="4" fill="#0" id="circle300"/>
	<circle cx="652.344" cy="275.837" r="4" fill="#0" id="circle301"/>
	<circle cx="642.467" cy="290.811" r="4" fill="#0" id="circle302"/>
	<circle cx="638.896" cy="319.068" r="4" fill="#0" id="circle303"/>
	<circle cx="634.658" cy="337.581" r="4" fill="#0" id="circle304"/>
	<circle cx="507.822" cy="266.565" r="4" fill="#0" id="circle305"/>
	<circle cx="544.101" cy="285.491" r="4" fill="#0" id="circle306"/>
	<circle cx="542.143" cy="310.224" r="4" fill="#0" id="circle307"/>
	<circle cx="577.688" cy="314.885" r="4" fill="#0" id="circle308"/>
	<circle cx="592.53" cy="314.683" r="4" fill="#0" id="circle309"/>
	<circle cx="606.67" cy="322.544" r="4" fill="#0" id="circle310"/>
	<circle cx="279.544" cy="532.267" r="4" fill="#0" id="circle311"/>
	<circle cx="293.384" cy="536.491" r="4" fill="#0" id="circle312"/>
	<circle cx="282.563" cy="566.696" r="4" fill="#0" id="circle313"/>
	<circle cx="292.759" cy="568.657" r="4" fill="#0" id="circle314"/>
	<circle cx="280.478" cy="590.498" r="4" fill="#0" id="circle315"/>
	<circle cx="279.079" cy="607.189" r="4" fill="#0" id="circle316"/>
	<circle cx="315.38" cy="625.661" r="4" fill="#0" id="circle317"/>
	<circle cx="324.175" cy="616.712" r="4" fill="#0" id="circle318"/>
	<circle cx="339.169" cy="612.32" r="4" fill="#0" id="circle319"/>
	<circle cx="370.525" cy="629.657" r="4" fill="#0" id="circle320"/>
	<circle cx="373.669" cy="628.767" r="4" fill="#0" id="circle321"/>
	<circle cx="375.214" cy="636.831" r="4" fill="#0" id="circle322"/>
	<circle cx="384.142" cy="667.955" r="4" fill="#0" id="circle323"/>
	<circle cx="372.009" cy="688.741" r="4" fill="#0" id="circle324"/>
	<circle cx="372.107" cy="695.72" r="4" fill="#0" id="circle325"/>
	<circle cx="375.895" cy="706.847" r="4" fill="#0" id="circle326"/>
	<circle cx="387.683" cy="744.279" r="4" fill="#0" id="circle327"/>
	<circle cx="388.118" cy="769.192" r="4" fill="#0" id="circle328"/>
	<circle cx="397.172" cy="773.858" r="4" fill="#0" id="circle329"/>
	<circle cx="434.901" cy="772.536" r="4" fill="#0" id="circle330"/>
	<circle cx="450.554" cy="776.054" r="4" fill="#0" id="circle331"/>
	<circle cx="464.845" cy="746.472" r="4" fill="#0" id="circle332"/>
	<circle cx="457.088" cy="706.005" r="4" fill="#0" id="circle333"/>
	<circle cx="445.405" cy="695.26" r="4" fill="#0" id="circle334"/>
	<circle cx="457.138" cy="663.228" r="4" fill="#0" id="circle335"/>
	<circle cx="460.832" cy="625.406" r="4" fill="#0" id="circle336"/>
	<circle cx="474.643" cy="627.661" r="4" fill="#0" id="circle337"/>
	<circle cx="497.502" cy="609.716" r="4" fill="#0" id="circle338"/>
	<circle cx="508.094" cy="632.29" r="4" fill="#0" id="circle339"/>
	<circle cx="550.624" cy="627.071" r="4" fill="#0" id="circle340"/>
	<circle cx="566.341" cy="529.295" r="4" fill="#0" id="circle341"/>
	<circle cx="573.159" cy="547.85" r="4" fill="#0" id="circle342"/>
	<circle cx="573.47" cy="578.968" r="4" fill="#0" id="circle343"/>
	<circle cx="565.233" cy="600.264" r="4" fill="#0" id="circle344"/>
	<circle cx="308.767" cy="536.29" r="4" fill="#0" id="circle345"/>
	<circle cx="323.769" cy="528.067" r="4" fill="#0" id="circle346"/>
	<circle cx="362.745" cy="539.462" r="4" fill="#0" id="circle347"/>
	<circle cx="372.668" cy="522.042" r="4" fill="#0" id="circle348"/>
	<circle cx="395.301" cy="525.171" r="4" fill="#0" id="circle349"/>
	<circle cx="412.876" cy="534.679" r="4" fill="#0" id="circle350"/>
	<circle cx="439.655" cy="535.066" r="4" fill="#0" id="circle351"/>
	<circle cx="463.047" cy="533.894" r="4" fill="#0" id="circle352"/>
	<circle cx="484.581" cy="539.378" r="4" fill="#0" id="circle353"/>
	<circle cx="518.08" cy="536.702" r="4" fill="#0" id="circle354"/>
	<circle cx="539.261" cy="537.246" r="4" fill="#0" id="circle355"/>
	<circle cx="569.15" cy="543.236" r="4" fill="#0" id="circle356"/>
	<circle cx="543.51" cy="518.378" r="4" fill="#0" id="circle357"/>
	<circle cx="534.166" cy="486.088" r="4" fill="#0" id="circle358"/>
	<circle cx="316.702" cy="371.063" r="4" fill="#0" id="circle359"/>
	<circle cx="277.866" cy="373.334" r="4" fill="#0" id="circle360"/>
	<circle cx="555.347" cy="363.421" r="4" fill="#0" id="circle361"/>
	<circle cx="539.451" cy="909.651" r="4" fill="#0" id="circle362"/>
	<circle cx="560.82" cy="916.522" r="4" fill="#0" id="circle363"/>
	<circle cx="568.519" cy="933.677" r="4" fill="#0" id="circle364"/>
	<circle cx="586.473" cy="935.086" r="4" fill="#0" id="circle365"/>
	<circle cx="579.412" cy="963.911" r="4" fill="#0" id="circle366"/>
	<circle cx="563.31" cy="967.315" r="4" fill="#0" id="circle367"/>
	<circle cx="571.076" cy="966.781" r="4" fill="#0" id="circle368"/>
	<circle cx="550.135" cy="966.367" r="4" fill="#0" id="circle369"/>
	<circle cx="535.987" cy="951.692" r="4" fill="#0" id="circle370"/>
	<circle cx="534.128" cy="946.469" r="4" fill="#0" id="circle371"/>
	<circle cx="533.398" cy="930.903" r="4" fill="#0" id="circle372"/>
	<circle cx="142.026" cy="155.758" r="4" fill="#0" id="circle373"/>
	<circle cx="237.981" cy="115.236" r="4" fill="#0" id="circle374"/>
	<circle cx="652.753" cy="103.658" r="4" fill="#0" id="circle375"/>
	<circle cx="365.587" cy="361.414" r="4" fill="#0" id="circle376"/>
	</g>
</svg>