<?xml version="1.0" encoding="UTF-8" standalone="no"?>
<!-- Created with CurveBenchmark -->
<svg
	xmlns:dc="http://purl.org/dc/elements/1.1/"
	xmlns:cc="http://creativecommons.org/ns#"
	xmlns:rdf="http://www.w3.org/1999/02/22-rdf-syntax-ns#"
	xmlns:svg="http://www.w3.org/2000/svg"
	xmlns="http://www.w3.org/2000/svg"
	xmlns:sodipodi="http://sodipodi.sourceforge.net/DTD/sodipodi-0.dtd"
	xmlns:inkscape="http://www.inkscape.org/namespaces/inkscape"
	width="1000"
	height="1000"
	id="svg2"
	version="1.1"
	sodipodi:docname="noisy-0.01/hnncrust-mc13.txt">
<defs
	id="defs4" />
<metadata
	id="metadata7">
	<rdf:RDF>
		<cc:Work
			rdf:about="">
			<dc:format>image/svg+xml</dc:format>
			<dc:type
				rdf:resource="http://purl.org/dc/dcmitype/StillImage" />
			<dc:title></dc:title>
		</cc:Work>
	</rdf:RDF>
</metadata>
<g
	inkscape:label="Layer 1"
	inkscape:groupmode="layer"
	id="layer1">
	<path style="fill:none;stroke:red;stroke-width:1px;stroke-linecap:butt;stroke-linejoin:miter;stroke-opacity:1" d="M 127.502,143.209 125.766,147.987 z" id="boundary" inkscape:connector-curvature="0" />
	<path style="fill:none;stroke:red;stroke-width:1px;stroke-linecap:butt;stroke-linejoin:miter;stroke-opacity:1" d="M 125.766,147.987 118.155,144.611 z" id="boundary" inkscape:connector-curvature="0" />
	<path style="fill:none;stroke:red;stroke-width:1px;stroke-linecap:butt;stroke-linejoin:miter;stroke-opacity:1" d="M 144.074,128.798 149.313,125.335 z" id="boundary" inkscape:connector-curvature="0" />
	<path style="fill:none;stroke:red;stroke-width:1px;stroke-linecap:butt;stroke-linejoin:miter;stroke-opacity:1" d="M 144.074,128.798 151.327,135.316 z" id="boundary" inkscape:connector-curvature="0" />
	<path style="fill:none;stroke:red;stroke-width:1px;stroke-linecap:butt;stroke-linejoin:miter;stroke-opacity:1" d="M 149.313,125.335 157.704,123.96 z" id="boundary" inkscape:connector-curvature="0" />
	<path style="fill:none;stroke:red;stroke-width:1px;stroke-linecap:butt;stroke-linejoin:miter;stroke-opacity:1" d="M 147.066,115.709 154.485,112.148 z" id="boundary" inkscape:connector-curvature="0" />
	<path style="fill:none;stroke:red;stroke-width:1px;stroke-linecap:butt;stroke-linejoin:miter;stroke-opacity:1" d="M 154.485,112.148 163.784,107.375 z" id="boundary" inkscape:connector-curvature="0" />
	<path style="fill:none;stroke:red;stroke-width:1px;stroke-linecap:butt;stroke-linejoin:miter;stroke-opacity:1" d="M 145.978,95.5327 156.74,92.7461 z" id="boundary" inkscape:connector-curvature="0" />
	<path style="fill:none;stroke:red;stroke-width:1px;stroke-linecap:butt;stroke-linejoin:miter;stroke-opacity:1" d="M 170.282,88.0717 175.964,88.8058 z" id="boundary" inkscape:connector-curvature="0" />
	<path style="fill:none;stroke:red;stroke-width:1px;stroke-linecap:butt;stroke-linejoin:miter;stroke-opacity:1" d="M 170.282,88.0717 170.103,97.6468 z" id="boundary" inkscape:connector-curvature="0" />
	<path style="fill:none;stroke:red;stroke-width:1px;stroke-linecap:butt;stroke-linejoin:miter;stroke-opacity:1" d="M 175.964,88.8058 175.811,86.0213 z" id="boundary" inkscape:connector-curvature="0" />
	<path style="fill:none;stroke:red;stroke-width:1px;stroke-linecap:butt;stroke-linejoin:miter;stroke-opacity:1" d="M 178.405,68.8128 181.002,70.3814 z" id="boundary" inkscape:connector-curvature="0" />
	<path style="fill:none;stroke:red;stroke-width:1px;stroke-linecap:butt;stroke-linejoin:miter;stroke-opacity:1" d="M 178.405,68.8128 174.151,73.3908 z" id="boundary" inkscape:connector-curvature="0" />
	<path style="fill:none;stroke:red;stroke-width:1px;stroke-linecap:butt;stroke-linejoin:miter;stroke-opacity:1" d="M 181.002,70.3814 185.59,70.5858 z" id="boundary" inkscape:connector-curvature="0" />
	<path style="fill:none;stroke:red;stroke-width:1px;stroke-linecap:butt;stroke-linejoin:miter;stroke-opacity:1" d="M 185.59,70.5858 188.186,77.093 z" id="boundary" inkscape:connector-curvature="0" />
	<path style="fill:none;stroke:red;stroke-width:1px;stroke-linecap:butt;stroke-linejoin:miter;stroke-opacity:1" d="M 170.076,60.2234 158.635,59.0234 z" id="boundary" inkscape:connector-curvature="0" />
	<path style="fill:none;stroke:red;stroke-width:1px;stroke-linecap:butt;stroke-linejoin:miter;stroke-opacity:1" d="M 170.076,60.2234 177.853,52.512 z" id="boundary" inkscape:connector-curvature="0" />
	<path style="fill:none;stroke:red;stroke-width:1px;stroke-linecap:butt;stroke-linejoin:miter;stroke-opacity:1" d="M 151.327,135.316 153.216,136.855 z" id="boundary" inkscape:connector-curvature="0" />
	<path style="fill:none;stroke:red;stroke-width:1px;stroke-linecap:butt;stroke-linejoin:miter;stroke-opacity:1" d="M 153.216,136.855 164.131,142.452 z" id="boundary" inkscape:connector-curvature="0" />
	<path style="fill:none;stroke:red;stroke-width:1px;stroke-linecap:butt;stroke-linejoin:miter;stroke-opacity:1" d="M 163.784,107.375 171.08,103.638 z" id="boundary" inkscape:connector-curvature="0" />
	<path style="fill:none;stroke:red;stroke-width:1px;stroke-linecap:butt;stroke-linejoin:miter;stroke-opacity:1" d="M 171.08,103.638 170.103,97.6468 z" id="boundary" inkscape:connector-curvature="0" />
	<path style="fill:none;stroke:red;stroke-width:1px;stroke-linecap:butt;stroke-linejoin:miter;stroke-opacity:1" d="M 175.811,86.0213 174.151,73.3908 z" id="boundary" inkscape:connector-curvature="0" />
	<path style="fill:none;stroke:red;stroke-width:1px;stroke-linecap:butt;stroke-linejoin:miter;stroke-opacity:1" d="M 183.321,89.4815 188.186,77.093 z" id="boundary" inkscape:connector-curvature="0" />
	<path style="fill:none;stroke:red;stroke-width:1px;stroke-linecap:butt;stroke-linejoin:miter;stroke-opacity:1" d="M 193.895,66.7227 198.311,55.7577 z" id="boundary" inkscape:connector-curvature="0" />
	<path style="fill:none;stroke:red;stroke-width:1px;stroke-linecap:butt;stroke-linejoin:miter;stroke-opacity:1" d="M 198.311,55.7577 188.452,55.4316 z" id="boundary" inkscape:connector-curvature="0" />
	<path style="fill:none;stroke:red;stroke-width:1px;stroke-linecap:butt;stroke-linejoin:miter;stroke-opacity:1" d="M 188.452,55.4316 177.853,52.512 z" id="boundary" inkscape:connector-curvature="0" />
	<path style="fill:none;stroke:red;stroke-width:1px;stroke-linecap:butt;stroke-linejoin:miter;stroke-opacity:1" d="M 217.099,62.4411 217.745,61.5231 z" id="boundary" inkscape:connector-curvature="0" />
	<path style="fill:none;stroke:red;stroke-width:1px;stroke-linecap:butt;stroke-linejoin:miter;stroke-opacity:1" d="M 217.745,61.5231 224.33,44.7313 z" id="boundary" inkscape:connector-curvature="0" />
	<path style="fill:none;stroke:red;stroke-width:1px;stroke-linecap:butt;stroke-linejoin:miter;stroke-opacity:1" d="M 230.451,42.1797 224.33,44.7313 z" id="boundary" inkscape:connector-curvature="0" />
	<path style="fill:none;stroke:red;stroke-width:1px;stroke-linecap:butt;stroke-linejoin:miter;stroke-opacity:1" d="M 230.451,42.1797 248.917,51.3634 z" id="boundary" inkscape:connector-curvature="0" />
	<path style="fill:none;stroke:red;stroke-width:1px;stroke-linecap:butt;stroke-linejoin:miter;stroke-opacity:1" d="M 248.917,51.3634 257.644,46.6639 z" id="boundary" inkscape:connector-curvature="0" />
	<path style="fill:none;stroke:red;stroke-width:1px;stroke-linecap:butt;stroke-linejoin:miter;stroke-opacity:1" d="M 257.644,46.6639 265.758,49.6397 z" id="boundary" inkscape:connector-curvature="0" />
	<path style="fill:none;stroke:red;stroke-width:1px;stroke-linecap:butt;stroke-linejoin:miter;stroke-opacity:1" d="M 265.758,49.6397 275.388,63.0344 z" id="boundary" inkscape:connector-curvature="0" />
	<path style="fill:none;stroke:red;stroke-width:1px;stroke-linecap:butt;stroke-linejoin:miter;stroke-opacity:1" d="M 275.388,63.0344 291.972,48.5051 z" id="boundary" inkscape:connector-curvature="0" />
	<path style="fill:none;stroke:red;stroke-width:1px;stroke-linecap:butt;stroke-linejoin:miter;stroke-opacity:1" d="M 292.447,44.0104 291.972,48.5051 z" id="boundary" inkscape:connector-curvature="0" />
	<path style="fill:none;stroke:red;stroke-width:1px;stroke-linecap:butt;stroke-linejoin:miter;stroke-opacity:1" d="M 292.447,44.0104 286.537,22.9237 z" id="boundary" inkscape:connector-curvature="0" />
	<path style="fill:none;stroke:red;stroke-width:1px;stroke-linecap:butt;stroke-linejoin:miter;stroke-opacity:1" d="M 318.8,48.1304 320.252,56.3254 z" id="boundary" inkscape:connector-curvature="0" />
	<path style="fill:none;stroke:red;stroke-width:1px;stroke-linecap:butt;stroke-linejoin:miter;stroke-opacity:1" d="M 318.8,48.1304 320.751,24.5922 z" id="boundary" inkscape:connector-curvature="0" />
	<path style="fill:none;stroke:red;stroke-width:1px;stroke-linecap:butt;stroke-linejoin:miter;stroke-opacity:1" d="M 320.252,56.3254 329.269,60.334 z" id="boundary" inkscape:connector-curvature="0" />
	<path style="fill:none;stroke:red;stroke-width:1px;stroke-linecap:butt;stroke-linejoin:miter;stroke-opacity:1" d="M 346.594,45.1136 349.342,59.8419 z" id="boundary" inkscape:connector-curvature="0" />
	<path style="fill:none;stroke:red;stroke-width:1px;stroke-linecap:butt;stroke-linejoin:miter;stroke-opacity:1" d="M 349.342,59.8419 367.154,55.8709 z" id="boundary" inkscape:connector-curvature="0" />
	<path style="fill:none;stroke:red;stroke-width:1px;stroke-linecap:butt;stroke-linejoin:miter;stroke-opacity:1" d="M 367.154,55.8709 366.574,68.3062 z" id="boundary" inkscape:connector-curvature="0" />
	<path style="fill:none;stroke:red;stroke-width:1px;stroke-linecap:butt;stroke-linejoin:miter;stroke-opacity:1" d="M 366.574,68.3062 351.648,82.4401 z" id="boundary" inkscape:connector-curvature="0" />
	<path style="fill:none;stroke:red;stroke-width:1px;stroke-linecap:butt;stroke-linejoin:miter;stroke-opacity:1" d="M 351.648,82.4401 358.024,87.7253 z" id="boundary" inkscape:connector-curvature="0" />
	<path style="fill:none;stroke:red;stroke-width:1px;stroke-linecap:butt;stroke-linejoin:miter;stroke-opacity:1" d="M 358.024,87.7253 362.665,95.3669 z" id="boundary" inkscape:connector-curvature="0" />
	<path style="fill:none;stroke:red;stroke-width:1px;stroke-linecap:butt;stroke-linejoin:miter;stroke-opacity:1" d="M 362.665,95.3669 363.542,105.724 z" id="boundary" inkscape:connector-curvature="0" />
	<path style="fill:none;stroke:red;stroke-width:1px;stroke-linecap:butt;stroke-linejoin:miter;stroke-opacity:1" d="M 363.542,105.724 359.458,113.711 z" id="boundary" inkscape:connector-curvature="0" />
	<path style="fill:none;stroke:red;stroke-width:1px;stroke-linecap:butt;stroke-linejoin:miter;stroke-opacity:1" d="M 361.75,138.564 351.78,136.601 z" id="boundary" inkscape:connector-curvature="0" />
	<path style="fill:none;stroke:red;stroke-width:1px;stroke-linecap:butt;stroke-linejoin:miter;stroke-opacity:1" d="M 351.78,136.601 349.539,156.022 z" id="boundary" inkscape:connector-curvature="0" />
	<path style="fill:none;stroke:red;stroke-width:1px;stroke-linecap:butt;stroke-linejoin:miter;stroke-opacity:1" d="M 164.131,142.452 166.662,152.024 z" id="boundary" inkscape:connector-curvature="0" />
	<path style="fill:none;stroke:red;stroke-width:1px;stroke-linecap:butt;stroke-linejoin:miter;stroke-opacity:1" d="M 166.662,152.024 179.165,156.244 z" id="boundary" inkscape:connector-curvature="0" />
	<path style="fill:none;stroke:red;stroke-width:1px;stroke-linecap:butt;stroke-linejoin:miter;stroke-opacity:1" d="M 179.165,156.244 190.673,155.681 z" id="boundary" inkscape:connector-curvature="0" />
	<path style="fill:none;stroke:red;stroke-width:1px;stroke-linecap:butt;stroke-linejoin:miter;stroke-opacity:1" d="M 190.673,155.681 212.954,156.412 z" id="boundary" inkscape:connector-curvature="0" />
	<path style="fill:none;stroke:red;stroke-width:1px;stroke-linecap:butt;stroke-linejoin:miter;stroke-opacity:1" d="M 212.954,156.412 234.544,155.343 z" id="boundary" inkscape:connector-curvature="0" />
	<path style="fill:none;stroke:red;stroke-width:1px;stroke-linecap:butt;stroke-linejoin:miter;stroke-opacity:1" d="M 234.544,155.343 238.725,152.354 z" id="boundary" inkscape:connector-curvature="0" />
	<path style="fill:none;stroke:red;stroke-width:1px;stroke-linecap:butt;stroke-linejoin:miter;stroke-opacity:1" d="M 238.725,152.354 262.026,142.907 z" id="boundary" inkscape:connector-curvature="0" />
	<path style="fill:none;stroke:red;stroke-width:1px;stroke-linecap:butt;stroke-linejoin:miter;stroke-opacity:1" d="M 276.49,157.54 282.181,144.018 z" id="boundary" inkscape:connector-curvature="0" />
	<path style="fill:none;stroke:red;stroke-width:1px;stroke-linecap:butt;stroke-linejoin:miter;stroke-opacity:1" d="M 282.181,144.018 288.815,140.298 z" id="boundary" inkscape:connector-curvature="0" />
	<path style="fill:none;stroke:red;stroke-width:1px;stroke-linecap:butt;stroke-linejoin:miter;stroke-opacity:1" d="M 288.815,140.298 309.268,152.06 z" id="boundary" inkscape:connector-curvature="0" />
	<path style="fill:none;stroke:red;stroke-width:1px;stroke-linecap:butt;stroke-linejoin:miter;stroke-opacity:1" d="M 309.268,152.06 320.923,152.37 z" id="boundary" inkscape:connector-curvature="0" />
	<path style="fill:none;stroke:red;stroke-width:1px;stroke-linecap:butt;stroke-linejoin:miter;stroke-opacity:1" d="M 320.923,152.37 340.671,155.277 z" id="boundary" inkscape:connector-curvature="0" />
	<path style="fill:none;stroke:red;stroke-width:1px;stroke-linecap:butt;stroke-linejoin:miter;stroke-opacity:1" d="M 340.671,155.277 349.539,156.022 z" id="boundary" inkscape:connector-curvature="0" />
	<path style="fill:none;stroke:red;stroke-width:1px;stroke-linecap:butt;stroke-linejoin:miter;stroke-opacity:1" d="M 71.6892,144.622 80.2925,145.323 z" id="boundary" inkscape:connector-curvature="0" />
	<path style="fill:none;stroke:red;stroke-width:1px;stroke-linecap:butt;stroke-linejoin:miter;stroke-opacity:1" d="M 71.6892,144.622 64.958,131.578 z" id="boundary" inkscape:connector-curvature="0" />
	<path style="fill:none;stroke:red;stroke-width:1px;stroke-linecap:butt;stroke-linejoin:miter;stroke-opacity:1" d="M 80.2925,145.323 87.4988,146.354 z" id="boundary" inkscape:connector-curvature="0" />
	<path style="fill:none;stroke:red;stroke-width:1px;stroke-linecap:butt;stroke-linejoin:miter;stroke-opacity:1" d="M 87.4988,146.354 89.0041,134.267 z" id="boundary" inkscape:connector-curvature="0" />
	<path style="fill:none;stroke:red;stroke-width:1px;stroke-linecap:butt;stroke-linejoin:miter;stroke-opacity:1" d="M 112.962,150.114 121.367,155.111 z" id="boundary" inkscape:connector-curvature="0" />
	<path style="fill:none;stroke:red;stroke-width:1px;stroke-linecap:butt;stroke-linejoin:miter;stroke-opacity:1" d="M 112.962,150.114 118.155,144.611 z" id="boundary" inkscape:connector-curvature="0" />
	<path style="fill:none;stroke:red;stroke-width:1px;stroke-linecap:butt;stroke-linejoin:miter;stroke-opacity:1" d="M 64.958,131.578 72.3485,128.979 z" id="boundary" inkscape:connector-curvature="0" />
	<path style="fill:none;stroke:red;stroke-width:1px;stroke-linecap:butt;stroke-linejoin:miter;stroke-opacity:1" d="M 72.3485,128.979 83.9235,126.441 z" id="boundary" inkscape:connector-curvature="0" />
	<path style="fill:none;stroke:red;stroke-width:1px;stroke-linecap:butt;stroke-linejoin:miter;stroke-opacity:1" d="M 89.0041,134.267 83.9235,126.441 z" id="boundary" inkscape:connector-curvature="0" />
	<path style="fill:none;stroke:red;stroke-width:1px;stroke-linecap:butt;stroke-linejoin:miter;stroke-opacity:1" d="M 99.5436,114.713 99.2284,93.575 z" id="boundary" inkscape:connector-curvature="0" />
	<path style="fill:none;stroke:red;stroke-width:1px;stroke-linecap:butt;stroke-linejoin:miter;stroke-opacity:1" d="M 99.2284,93.575 103.869,84.9041 z" id="boundary" inkscape:connector-curvature="0" />
	<path style="fill:none;stroke:red;stroke-width:1px;stroke-linecap:butt;stroke-linejoin:miter;stroke-opacity:1" d="M 103.869,84.9041 106.82,73.5684 z" id="boundary" inkscape:connector-curvature="0" />
	<path style="fill:none;stroke:red;stroke-width:1px;stroke-linecap:butt;stroke-linejoin:miter;stroke-opacity:1" d="M 106.82,73.5684 116.191,67.2196 z" id="boundary" inkscape:connector-curvature="0" />
	<path style="fill:none;stroke:red;stroke-width:1px;stroke-linecap:butt;stroke-linejoin:miter;stroke-opacity:1" d="M 116.191,67.2196 121.922,64.7268 z" id="boundary" inkscape:connector-curvature="0" />
	<path style="fill:none;stroke:red;stroke-width:1px;stroke-linecap:butt;stroke-linejoin:miter;stroke-opacity:1" d="M 121.922,64.7268 133.668,63.3337 z" id="boundary" inkscape:connector-curvature="0" />
	<path style="fill:none;stroke:red;stroke-width:1px;stroke-linecap:butt;stroke-linejoin:miter;stroke-opacity:1" d="M 160.163,43.1935 158.635,59.0234 z" id="boundary" inkscape:connector-curvature="0" />
	<path style="fill:none;stroke:red;stroke-width:1px;stroke-linecap:butt;stroke-linejoin:miter;stroke-opacity:1" d="M 400.751,47.4042 403.525,62.1329 z" id="boundary" inkscape:connector-curvature="0" />
	<path style="fill:none;stroke:red;stroke-width:1px;stroke-linecap:butt;stroke-linejoin:miter;stroke-opacity:1" d="M 400.751,47.4042 426.39,42.162 z" id="boundary" inkscape:connector-curvature="0" />
	<path style="fill:none;stroke:red;stroke-width:1px;stroke-linecap:butt;stroke-linejoin:miter;stroke-opacity:1" d="M 403.525,62.1329 394.813,76.3069 z" id="boundary" inkscape:connector-curvature="0" />
	<path style="fill:none;stroke:red;stroke-width:1px;stroke-linecap:butt;stroke-linejoin:miter;stroke-opacity:1" d="M 394.813,76.3069 392.512,98.885 z" id="boundary" inkscape:connector-curvature="0" />
	<path style="fill:none;stroke:red;stroke-width:1px;stroke-linecap:butt;stroke-linejoin:miter;stroke-opacity:1" d="M 392.512,98.885 394.846,100.927 z" id="boundary" inkscape:connector-curvature="0" />
	<path style="fill:none;stroke:red;stroke-width:1px;stroke-linecap:butt;stroke-linejoin:miter;stroke-opacity:1" d="M 394.846,100.927 398.67,115.994 z" id="boundary" inkscape:connector-curvature="0" />
	<path style="fill:none;stroke:red;stroke-width:1px;stroke-linecap:butt;stroke-linejoin:miter;stroke-opacity:1" d="M 398.67,115.994 394.866,131.485 z" id="boundary" inkscape:connector-curvature="0" />
	<path style="fill:none;stroke:red;stroke-width:1px;stroke-linecap:butt;stroke-linejoin:miter;stroke-opacity:1" d="M 394.866,131.485 400.258,146.823 z" id="boundary" inkscape:connector-curvature="0" />
	<path style="fill:none;stroke:red;stroke-width:1px;stroke-linecap:butt;stroke-linejoin:miter;stroke-opacity:1" d="M 400.258,146.823 423.53,141.507 z" id="boundary" inkscape:connector-curvature="0" />
	<path style="fill:none;stroke:red;stroke-width:1px;stroke-linecap:butt;stroke-linejoin:miter;stroke-opacity:1" d="M 425.479,145.292 423.53,141.507 z" id="boundary" inkscape:connector-curvature="0" />
	<path style="fill:none;stroke:red;stroke-width:1px;stroke-linecap:butt;stroke-linejoin:miter;stroke-opacity:1" d="M 425.479,145.292 438.736,145.526 z" id="boundary" inkscape:connector-curvature="0" />
	<path style="fill:none;stroke:red;stroke-width:1px;stroke-linecap:butt;stroke-linejoin:miter;stroke-opacity:1" d="M 438.736,145.526 451.529,147.385 z" id="boundary" inkscape:connector-curvature="0" />
	<path style="fill:none;stroke:red;stroke-width:1px;stroke-linecap:butt;stroke-linejoin:miter;stroke-opacity:1" d="M 451.529,147.385 469.209,142.274 z" id="boundary" inkscape:connector-curvature="0" />
	<path style="fill:none;stroke:red;stroke-width:1px;stroke-linecap:butt;stroke-linejoin:miter;stroke-opacity:1" d="M 469.209,142.274 491.313,152.64 z" id="boundary" inkscape:connector-curvature="0" />
	<path style="fill:none;stroke:red;stroke-width:1px;stroke-linecap:butt;stroke-linejoin:miter;stroke-opacity:1" d="M 491.313,152.64 512.676,161.597 z" id="boundary" inkscape:connector-curvature="0" />
	<path style="fill:none;stroke:red;stroke-width:1px;stroke-linecap:butt;stroke-linejoin:miter;stroke-opacity:1" d="M 515.08,145.547 512.676,161.597 z" id="boundary" inkscape:connector-curvature="0" />
	<path style="fill:none;stroke:red;stroke-width:1px;stroke-linecap:butt;stroke-linejoin:miter;stroke-opacity:1" d="M 515.08,145.547 531.827,147.914 z" id="boundary" inkscape:connector-curvature="0" />
	<path style="fill:none;stroke:red;stroke-width:1px;stroke-linecap:butt;stroke-linejoin:miter;stroke-opacity:1" d="M 531.254,71.0322 530.742,85.2216 z" id="boundary" inkscape:connector-curvature="0" />
	<path style="fill:none;stroke:red;stroke-width:1px;stroke-linecap:butt;stroke-linejoin:miter;stroke-opacity:1" d="M 531.254,71.0322 526.278,53.1229 z" id="boundary" inkscape:connector-curvature="0" />
	<path style="fill:none;stroke:red;stroke-width:1px;stroke-linecap:butt;stroke-linejoin:miter;stroke-opacity:1" d="M 530.742,85.2216 538.667,101.095 z" id="boundary" inkscape:connector-curvature="0" />
	<path style="fill:none;stroke:red;stroke-width:1px;stroke-linecap:butt;stroke-linejoin:miter;stroke-opacity:1" d="M 538.667,101.095 544.094,105.582 z" id="boundary" inkscape:connector-curvature="0" />
	<path style="fill:none;stroke:red;stroke-width:1px;stroke-linecap:butt;stroke-linejoin:miter;stroke-opacity:1" d="M 541.911,120.253 554.404,114.737 z" id="boundary" inkscape:connector-curvature="0" />
	<path style="fill:none;stroke:red;stroke-width:1px;stroke-linecap:butt;stroke-linejoin:miter;stroke-opacity:1" d="M 426.39,42.162 444.354,52.2318 z" id="boundary" inkscape:connector-curvature="0" />
	<path style="fill:none;stroke:red;stroke-width:1px;stroke-linecap:butt;stroke-linejoin:miter;stroke-opacity:1" d="M 444.354,52.2318 445.029,61.4571 z" id="boundary" inkscape:connector-curvature="0" />
	<path style="fill:none;stroke:red;stroke-width:1px;stroke-linecap:butt;stroke-linejoin:miter;stroke-opacity:1" d="M 468.377,51.2421 471.347,54.2607 z" id="boundary" inkscape:connector-curvature="0" />
	<path style="fill:none;stroke:red;stroke-width:1px;stroke-linecap:butt;stroke-linejoin:miter;stroke-opacity:1" d="M 471.347,54.2607 498.358,47.8114 z" id="boundary" inkscape:connector-curvature="0" />
	<path style="fill:none;stroke:red;stroke-width:1px;stroke-linecap:butt;stroke-linejoin:miter;stroke-opacity:1" d="M 498.358,47.8114 511.321,64.8064 z" id="boundary" inkscape:connector-curvature="0" />
	<path style="fill:none;stroke:red;stroke-width:1px;stroke-linecap:butt;stroke-linejoin:miter;stroke-opacity:1" d="M 511.321,64.8064 526.278,53.1229 z" id="boundary" inkscape:connector-curvature="0" />
	<path style="fill:none;stroke:red;stroke-width:1px;stroke-linecap:butt;stroke-linejoin:miter;stroke-opacity:1" d="M 563.045,63.9049 572.2,64.3103 z" id="boundary" inkscape:connector-curvature="0" />
	<path style="fill:none;stroke:red;stroke-width:1px;stroke-linecap:butt;stroke-linejoin:miter;stroke-opacity:1" d="M 563.045,63.9049 564.594,74.4687 z" id="boundary" inkscape:connector-curvature="0" />
	<path style="fill:none;stroke:red;stroke-width:1px;stroke-linecap:butt;stroke-linejoin:miter;stroke-opacity:1" d="M 578.452,54.5817 592.614,58.3755 z" id="boundary" inkscape:connector-curvature="0" />
	<path style="fill:none;stroke:red;stroke-width:1px;stroke-linecap:butt;stroke-linejoin:miter;stroke-opacity:1" d="M 578.452,54.5817 572.2,64.3103 z" id="boundary" inkscape:connector-curvature="0" />
	<path style="fill:none;stroke:red;stroke-width:1px;stroke-linecap:butt;stroke-linejoin:miter;stroke-opacity:1" d="M 592.614,58.3755 597.745,60.9843 z" id="boundary" inkscape:connector-curvature="0" />
	<path style="fill:none;stroke:red;stroke-width:1px;stroke-linecap:butt;stroke-linejoin:miter;stroke-opacity:1" d="M 597.745,60.9843 613.721,65.008 z" id="boundary" inkscape:connector-curvature="0" />
	<path style="fill:none;stroke:red;stroke-width:1px;stroke-linecap:butt;stroke-linejoin:miter;stroke-opacity:1" d="M 613.721,65.008 631.199,51.0447 z" id="boundary" inkscape:connector-curvature="0" />
	<path style="fill:none;stroke:red;stroke-width:1px;stroke-linecap:butt;stroke-linejoin:miter;stroke-opacity:1" d="M 631.199,51.0447 639.71,52.2883 z" id="boundary" inkscape:connector-curvature="0" />
	<path style="fill:none;stroke:red;stroke-width:1px;stroke-linecap:butt;stroke-linejoin:miter;stroke-opacity:1" d="M 639.71,52.2883 661.732,61.944 z" id="boundary" inkscape:connector-curvature="0" />
	<path style="fill:none;stroke:red;stroke-width:1px;stroke-linecap:butt;stroke-linejoin:miter;stroke-opacity:1" d="M 661.732,61.944 674.215,50.5043 z" id="boundary" inkscape:connector-curvature="0" />
	<path style="fill:none;stroke:red;stroke-width:1px;stroke-linecap:butt;stroke-linejoin:miter;stroke-opacity:1" d="M 674.215,50.5043 681.659,60.8874 z" id="boundary" inkscape:connector-curvature="0" />
	<path style="fill:none;stroke:red;stroke-width:1px;stroke-linecap:butt;stroke-linejoin:miter;stroke-opacity:1" d="M 681.659,60.8874 687.475,75.6209 z" id="boundary" inkscape:connector-curvature="0" />
	<path style="fill:none;stroke:red;stroke-width:1px;stroke-linecap:butt;stroke-linejoin:miter;stroke-opacity:1" d="M 687.475,75.6209 684.632,77.3804 z" id="boundary" inkscape:connector-curvature="0" />
	<path style="fill:none;stroke:red;stroke-width:1px;stroke-linecap:butt;stroke-linejoin:miter;stroke-opacity:1" d="M 684.632,77.3804 690.339,97.5327 z" id="boundary" inkscape:connector-curvature="0" />
	<path style="fill:none;stroke:red;stroke-width:1px;stroke-linecap:butt;stroke-linejoin:miter;stroke-opacity:1" d="M 690.339,97.5327 692.912,112.189 z" id="boundary" inkscape:connector-curvature="0" />
	<path style="fill:none;stroke:red;stroke-width:1px;stroke-linecap:butt;stroke-linejoin:miter;stroke-opacity:1" d="M 692.912,112.189 700.715,110.412 z" id="boundary" inkscape:connector-curvature="0" />
	<path style="fill:none;stroke:red;stroke-width:1px;stroke-linecap:butt;stroke-linejoin:miter;stroke-opacity:1" d="M 700.715,110.412 721.793,114.879 z" id="boundary" inkscape:connector-curvature="0" />
	<path style="fill:none;stroke:red;stroke-width:1px;stroke-linecap:butt;stroke-linejoin:miter;stroke-opacity:1" d="M 690.64,137.151 700.885,143.487 z" id="boundary" inkscape:connector-curvature="0" />
	<path style="fill:none;stroke:red;stroke-width:1px;stroke-linecap:butt;stroke-linejoin:miter;stroke-opacity:1" d="M 690.64,137.151 678.92,146.58 z" id="boundary" inkscape:connector-curvature="0" />
	<path style="fill:none;stroke:red;stroke-width:1px;stroke-linecap:butt;stroke-linejoin:miter;stroke-opacity:1" d="M 700.885,143.487 716.857,140.2 z" id="boundary" inkscape:connector-curvature="0" />
	<path style="fill:none;stroke:red;stroke-width:1px;stroke-linecap:butt;stroke-linejoin:miter;stroke-opacity:1" d="M 678.92,146.58 665.876,146.331 z" id="boundary" inkscape:connector-curvature="0" />
	<path style="fill:none;stroke:red;stroke-width:1px;stroke-linecap:butt;stroke-linejoin:miter;stroke-opacity:1" d="M 574.627,155.076 587.355,155.084 z" id="boundary" inkscape:connector-curvature="0" />
	<path style="fill:none;stroke:red;stroke-width:1px;stroke-linecap:butt;stroke-linejoin:miter;stroke-opacity:1" d="M 587.355,155.084 609.005,161.155 z" id="boundary" inkscape:connector-curvature="0" />
	<path style="fill:none;stroke:red;stroke-width:1px;stroke-linecap:butt;stroke-linejoin:miter;stroke-opacity:1" d="M 609.912,157.187 609.005,161.155 z" id="boundary" inkscape:connector-curvature="0" />
	<path style="fill:none;stroke:red;stroke-width:1px;stroke-linecap:butt;stroke-linejoin:miter;stroke-opacity:1" d="M 609.912,157.187 625.399,153.162 z" id="boundary" inkscape:connector-curvature="0" />
	<path style="fill:none;stroke:red;stroke-width:1px;stroke-linecap:butt;stroke-linejoin:miter;stroke-opacity:1" d="M 651.067,150.924 648.698,140.641 z" id="boundary" inkscape:connector-curvature="0" />
	<path style="fill:none;stroke:red;stroke-width:1px;stroke-linecap:butt;stroke-linejoin:miter;stroke-opacity:1" d="M 651.067,150.924 665.876,146.331 z" id="boundary" inkscape:connector-curvature="0" />
	<path style="fill:none;stroke:red;stroke-width:1px;stroke-linecap:butt;stroke-linejoin:miter;stroke-opacity:1" d="M 564.594,74.4687 551.671,83.4865 z" id="boundary" inkscape:connector-curvature="0" />
	<path style="fill:none;stroke:red;stroke-width:1px;stroke-linecap:butt;stroke-linejoin:miter;stroke-opacity:1" d="M 554.404,114.737 555.859,119.439 z" id="boundary" inkscape:connector-curvature="0" />
	<path style="fill:none;stroke:red;stroke-width:1px;stroke-linecap:butt;stroke-linejoin:miter;stroke-opacity:1" d="M 555.859,119.439 566.438,123.876 z" id="boundary" inkscape:connector-curvature="0" />
	<path style="fill:none;stroke:red;stroke-width:1px;stroke-linecap:butt;stroke-linejoin:miter;stroke-opacity:1" d="M 566.438,123.876 556.398,134.573 z" id="boundary" inkscape:connector-curvature="0" />
	<path style="fill:none;stroke:red;stroke-width:1px;stroke-linecap:butt;stroke-linejoin:miter;stroke-opacity:1" d="M 720.743,57.6127 734.442,60.3607 z" id="boundary" inkscape:connector-curvature="0" />
	<path style="fill:none;stroke:red;stroke-width:1px;stroke-linecap:butt;stroke-linejoin:miter;stroke-opacity:1" d="M 727.891,79.1112 721.478,92.9513 z" id="boundary" inkscape:connector-curvature="0" />
	<path style="fill:none;stroke:red;stroke-width:1px;stroke-linecap:butt;stroke-linejoin:miter;stroke-opacity:1" d="M 727.891,79.1112 734.442,60.3607 z" id="boundary" inkscape:connector-curvature="0" />
	<path style="fill:none;stroke:red;stroke-width:1px;stroke-linecap:butt;stroke-linejoin:miter;stroke-opacity:1" d="M 711.929,86.4988 721.478,92.9513 z" id="boundary" inkscape:connector-curvature="0" />
	<path style="fill:none;stroke:red;stroke-width:1px;stroke-linecap:butt;stroke-linejoin:miter;stroke-opacity:1" d="M 721.793,114.879 728.518,116.537 z" id="boundary" inkscape:connector-curvature="0" />
	<path style="fill:none;stroke:red;stroke-width:1px;stroke-linecap:butt;stroke-linejoin:miter;stroke-opacity:1" d="M 716.857,140.2 725.531,143.71 z" id="boundary" inkscape:connector-curvature="0" />
	<path style="fill:none;stroke:red;stroke-width:1px;stroke-linecap:butt;stroke-linejoin:miter;stroke-opacity:1" d="M 725.531,143.71 732.566,144.79 z" id="boundary" inkscape:connector-curvature="0" />
	<path style="fill:none;stroke:red;stroke-width:1px;stroke-linecap:butt;stroke-linejoin:miter;stroke-opacity:1" d="M 732.566,144.79 761.688,158.507 z" id="boundary" inkscape:connector-curvature="0" />
	<path style="fill:none;stroke:red;stroke-width:1px;stroke-linecap:butt;stroke-linejoin:miter;stroke-opacity:1" d="M 761.688,158.507 766.905,160.654 z" id="boundary" inkscape:connector-curvature="0" />
	<path style="fill:none;stroke:red;stroke-width:1px;stroke-linecap:butt;stroke-linejoin:miter;stroke-opacity:1" d="M 766.905,160.654 785.625,154.552 z" id="boundary" inkscape:connector-curvature="0" />
	<path style="fill:none;stroke:red;stroke-width:1px;stroke-linecap:butt;stroke-linejoin:miter;stroke-opacity:1" d="M 785.625,154.552 792.293,148.975 z" id="boundary" inkscape:connector-curvature="0" />
	<path style="fill:none;stroke:red;stroke-width:1px;stroke-linecap:butt;stroke-linejoin:miter;stroke-opacity:1" d="M 791.685,142.372 792.293,148.975 z" id="boundary" inkscape:connector-curvature="0" />
	<path style="fill:none;stroke:red;stroke-width:1px;stroke-linecap:butt;stroke-linejoin:miter;stroke-opacity:1" d="M 806.868,144.797 826.176,153.088 z" id="boundary" inkscape:connector-curvature="0" />
	<path style="fill:none;stroke:red;stroke-width:1px;stroke-linecap:butt;stroke-linejoin:miter;stroke-opacity:1" d="M 826.176,153.088 839.385,145.181 z" id="boundary" inkscape:connector-curvature="0" />
	<path style="fill:none;stroke:red;stroke-width:1px;stroke-linecap:butt;stroke-linejoin:miter;stroke-opacity:1" d="M 839.385,145.181 839.27,137.582 z" id="boundary" inkscape:connector-curvature="0" />
	<path style="fill:none;stroke:red;stroke-width:1px;stroke-linecap:butt;stroke-linejoin:miter;stroke-opacity:1" d="M 756.241,62.3254 771.217,49.0733 z" id="boundary" inkscape:connector-curvature="0" />
	<path style="fill:none;stroke:red;stroke-width:1px;stroke-linecap:butt;stroke-linejoin:miter;stroke-opacity:1" d="M 771.217,49.0733 779.818,56.7237 z" id="boundary" inkscape:connector-curvature="0" />
	<path style="fill:none;stroke:red;stroke-width:1px;stroke-linecap:butt;stroke-linejoin:miter;stroke-opacity:1" d="M 779.818,56.7237 797.567,61.9289 z" id="boundary" inkscape:connector-curvature="0" />
	<path style="fill:none;stroke:red;stroke-width:1px;stroke-linecap:butt;stroke-linejoin:miter;stroke-opacity:1" d="M 797.567,61.9289 814.274,59.2172 z" id="boundary" inkscape:connector-curvature="0" />
	<path style="fill:none;stroke:red;stroke-width:1px;stroke-linecap:butt;stroke-linejoin:miter;stroke-opacity:1" d="M 814.274,59.2172 825.72,48.6387 z" id="boundary" inkscape:connector-curvature="0" />
	<path style="fill:none;stroke:red;stroke-width:1px;stroke-linecap:butt;stroke-linejoin:miter;stroke-opacity:1" d="M 840.412,69.5528 833.987,70.6102 z" id="boundary" inkscape:connector-curvature="0" />
	<path style="fill:none;stroke:red;stroke-width:1px;stroke-linecap:butt;stroke-linejoin:miter;stroke-opacity:1" d="M 840.412,69.5528 841.774,90.5565 z" id="boundary" inkscape:connector-curvature="0" />
	<path style="fill:none;stroke:red;stroke-width:1px;stroke-linecap:butt;stroke-linejoin:miter;stroke-opacity:1" d="M 841.774,90.5565 840.924,97.9469 z" id="boundary" inkscape:connector-curvature="0" />
	<path style="fill:none;stroke:red;stroke-width:1px;stroke-linecap:butt;stroke-linejoin:miter;stroke-opacity:1" d="M 840.924,97.9469 835.119,111.673 z" id="boundary" inkscape:connector-curvature="0" />
	<path style="fill:none;stroke:red;stroke-width:1px;stroke-linecap:butt;stroke-linejoin:miter;stroke-opacity:1" d="M 835.119,111.673 847.601,131.197 z" id="boundary" inkscape:connector-curvature="0" />
	<path style="fill:none;stroke:red;stroke-width:1px;stroke-linecap:butt;stroke-linejoin:miter;stroke-opacity:1" d="M 847.601,131.197 839.27,137.582 z" id="boundary" inkscape:connector-curvature="0" />
	<path style="fill:none;stroke:red;stroke-width:1px;stroke-linecap:butt;stroke-linejoin:miter;stroke-opacity:1" d="M 86.0647,58.6697 79.8955,55.9528 z" id="boundary" inkscape:connector-curvature="0" />
	<path style="fill:none;stroke:red;stroke-width:1px;stroke-linecap:butt;stroke-linejoin:miter;stroke-opacity:1" d="M 86.0647,58.6697 81.6735,63.2449 z" id="boundary" inkscape:connector-curvature="0" />
	<path style="fill:none;stroke:red;stroke-width:1px;stroke-linecap:butt;stroke-linejoin:miter;stroke-opacity:1" d="M 96.2928,49.7045 99.3942,25.2847 z" id="boundary" inkscape:connector-curvature="0" />
	<path style="fill:none;stroke:red;stroke-width:1px;stroke-linecap:butt;stroke-linejoin:miter;stroke-opacity:1" d="M 99.3942,25.2847 125.889,34.3275 z" id="boundary" inkscape:connector-curvature="0" />
	<path style="fill:none;stroke:red;stroke-width:1px;stroke-linecap:butt;stroke-linejoin:miter;stroke-opacity:1" d="M 125.889,34.3275 132.771,14.378 z" id="boundary" inkscape:connector-curvature="0" />
	<path style="fill:none;stroke:red;stroke-width:1px;stroke-linecap:butt;stroke-linejoin:miter;stroke-opacity:1" d="M 132.771,14.378 168.334,11.6461 z" id="boundary" inkscape:connector-curvature="0" />
	<path style="fill:none;stroke:red;stroke-width:1px;stroke-linecap:butt;stroke-linejoin:miter;stroke-opacity:1" d="M 169.241,18.166 168.334,11.6461 z" id="boundary" inkscape:connector-curvature="0" />
	<path style="fill:none;stroke:red;stroke-width:1px;stroke-linecap:butt;stroke-linejoin:miter;stroke-opacity:1" d="M 207.95,17.6376 216.086,25.7364 z" id="boundary" inkscape:connector-curvature="0" />
	<path style="fill:none;stroke:red;stroke-width:1px;stroke-linecap:butt;stroke-linejoin:miter;stroke-opacity:1" d="M 258.501,19.5772 275.269,12.7286 z" id="boundary" inkscape:connector-curvature="0" />
	<path style="fill:none;stroke:red;stroke-width:1px;stroke-linecap:butt;stroke-linejoin:miter;stroke-opacity:1" d="M 275.269,12.7286 286.537,22.9237 z" id="boundary" inkscape:connector-curvature="0" />
	<path style="fill:none;stroke:red;stroke-width:1px;stroke-linecap:butt;stroke-linejoin:miter;stroke-opacity:1" d="M 320.751,24.5922 337.185,10.091 z" id="boundary" inkscape:connector-curvature="0" />
	<path style="fill:none;stroke:red;stroke-width:1px;stroke-linecap:butt;stroke-linejoin:miter;stroke-opacity:1" d="M 337.185,10.091 352.264,17.3018 z" id="boundary" inkscape:connector-curvature="0" />
	<path style="fill:none;stroke:red;stroke-width:1px;stroke-linecap:butt;stroke-linejoin:miter;stroke-opacity:1" d="M 387.562,14.167 396.838,15.4402 z" id="boundary" inkscape:connector-curvature="0" />
	<path style="fill:none;stroke:red;stroke-width:1px;stroke-linecap:butt;stroke-linejoin:miter;stroke-opacity:1" d="M 396.838,15.4402 419.573,16.0095 z" id="boundary" inkscape:connector-curvature="0" />
	<path style="fill:none;stroke:red;stroke-width:1px;stroke-linecap:butt;stroke-linejoin:miter;stroke-opacity:1" d="M 447.852,4.78107 469.272,20.1039 z" id="boundary" inkscape:connector-curvature="0" />
	<path style="fill:none;stroke:red;stroke-width:1px;stroke-linecap:butt;stroke-linejoin:miter;stroke-opacity:1" d="M 469.272,20.1039 494.538,12.5176 z" id="boundary" inkscape:connector-curvature="0" />
	<path style="fill:none;stroke:red;stroke-width:1px;stroke-linecap:butt;stroke-linejoin:miter;stroke-opacity:1" d="M 494.538,12.5176 516.424,11.016 z" id="boundary" inkscape:connector-curvature="0" />
	<path style="fill:none;stroke:red;stroke-width:1px;stroke-linecap:butt;stroke-linejoin:miter;stroke-opacity:1" d="M 516.424,11.016 543.706,6.03679 z" id="boundary" inkscape:connector-curvature="0" />
	<path style="fill:none;stroke:red;stroke-width:1px;stroke-linecap:butt;stroke-linejoin:miter;stroke-opacity:1" d="M 543.706,6.03679 571.281,21.6168 z" id="boundary" inkscape:connector-curvature="0" />
	<path style="fill:none;stroke:red;stroke-width:1px;stroke-linecap:butt;stroke-linejoin:miter;stroke-opacity:1" d="M 571.281,21.6168 579.183,20.1075 z" id="boundary" inkscape:connector-curvature="0" />
	<path style="fill:none;stroke:red;stroke-width:1px;stroke-linecap:butt;stroke-linejoin:miter;stroke-opacity:1" d="M 617.711,20.9247 636.453,17.5247 z" id="boundary" inkscape:connector-curvature="0" />
	<path style="fill:none;stroke:red;stroke-width:1px;stroke-linecap:butt;stroke-linejoin:miter;stroke-opacity:1" d="M 669.547,4 689.897,5.35066 z" id="boundary" inkscape:connector-curvature="0" />
	<path style="fill:none;stroke:red;stroke-width:1px;stroke-linecap:butt;stroke-linejoin:miter;stroke-opacity:1" d="M 689.897,5.35066 707.274,21.9454 z" id="boundary" inkscape:connector-curvature="0" />
	<path style="fill:none;stroke:red;stroke-width:1px;stroke-linecap:butt;stroke-linejoin:miter;stroke-opacity:1" d="M 707.274,21.9454 741.932,7.13555 z" id="boundary" inkscape:connector-curvature="0" />
	<path style="fill:none;stroke:red;stroke-width:1px;stroke-linecap:butt;stroke-linejoin:miter;stroke-opacity:1" d="M 741.932,7.13555 757.163,4.8989 z" id="boundary" inkscape:connector-curvature="0" />
	<path style="fill:none;stroke:red;stroke-width:1px;stroke-linecap:butt;stroke-linejoin:miter;stroke-opacity:1" d="M 790.033,18.0091 811.451,9.66606 z" id="boundary" inkscape:connector-curvature="0" />
	<path style="fill:none;stroke:red;stroke-width:1px;stroke-linecap:butt;stroke-linejoin:miter;stroke-opacity:1" d="M 811.451,9.66606 831.399,7.3374 z" id="boundary" inkscape:connector-curvature="0" />
	<path style="fill:none;stroke:red;stroke-width:1px;stroke-linecap:butt;stroke-linejoin:miter;stroke-opacity:1" d="M 831.399,7.3374 836.135,6.38132 z" id="boundary" inkscape:connector-curvature="0" />
	<path style="fill:none;stroke:red;stroke-width:1px;stroke-linecap:butt;stroke-linejoin:miter;stroke-opacity:1" d="M 836.135,6.38132 865.601,15.1725 z" id="boundary" inkscape:connector-curvature="0" />
	<path style="fill:none;stroke:red;stroke-width:1px;stroke-linecap:butt;stroke-linejoin:miter;stroke-opacity:1" d="M 865.601,15.1725 883.217,18.4877 z" id="boundary" inkscape:connector-curvature="0" />
	<path style="fill:none;stroke:red;stroke-width:1px;stroke-linecap:butt;stroke-linejoin:miter;stroke-opacity:1" d="M 883.217,18.4877 908.107,23.5312 z" id="boundary" inkscape:connector-curvature="0" />
	<path style="fill:none;stroke:red;stroke-width:1px;stroke-linecap:butt;stroke-linejoin:miter;stroke-opacity:1" d="M 908.107,23.5312 920.744,30.4627 z" id="boundary" inkscape:connector-curvature="0" />
	<path style="fill:none;stroke:red;stroke-width:1px;stroke-linecap:butt;stroke-linejoin:miter;stroke-opacity:1" d="M 920.744,30.4627 939.334,38.4683 z" id="boundary" inkscape:connector-curvature="0" />
	<path style="fill:none;stroke:red;stroke-width:1px;stroke-linecap:butt;stroke-linejoin:miter;stroke-opacity:1" d="M 939.334,38.4683 960.13,37.6594 z" id="boundary" inkscape:connector-curvature="0" />
	<path style="fill:none;stroke:red;stroke-width:1px;stroke-linecap:butt;stroke-linejoin:miter;stroke-opacity:1" d="M 974.773,38.1174 967.702,47.0136 z" id="boundary" inkscape:connector-curvature="0" />
	<path style="fill:none;stroke:red;stroke-width:1px;stroke-linecap:butt;stroke-linejoin:miter;stroke-opacity:1" d="M 967.702,47.0136 967.503,49.2899 z" id="boundary" inkscape:connector-curvature="0" />
	<path style="fill:none;stroke:red;stroke-width:1px;stroke-linecap:butt;stroke-linejoin:miter;stroke-opacity:1" d="M 967.503,49.2899 968.669,65.6821 z" id="boundary" inkscape:connector-curvature="0" />
	<path style="fill:none;stroke:red;stroke-width:1px;stroke-linecap:butt;stroke-linejoin:miter;stroke-opacity:1" d="M 968.669,65.6821 968.416,88.3375 z" id="boundary" inkscape:connector-curvature="0" />
	<path style="fill:none;stroke:red;stroke-width:1px;stroke-linecap:butt;stroke-linejoin:miter;stroke-opacity:1" d="M 968.416,88.3375 973.938,96.0697 z" id="boundary" inkscape:connector-curvature="0" />
	<path style="fill:none;stroke:red;stroke-width:1px;stroke-linecap:butt;stroke-linejoin:miter;stroke-opacity:1" d="M 971.531,104.896 973.938,96.0697 z" id="boundary" inkscape:connector-curvature="0" />
	<path style="fill:none;stroke:red;stroke-width:1px;stroke-linecap:butt;stroke-linejoin:miter;stroke-opacity:1" d="M 971.531,104.896 971.112,112.403 z" id="boundary" inkscape:connector-curvature="0" />
	<path style="fill:none;stroke:red;stroke-width:1px;stroke-linecap:butt;stroke-linejoin:miter;stroke-opacity:1" d="M 971.112,112.403 973.242,132.616 z" id="boundary" inkscape:connector-curvature="0" />
	<path style="fill:none;stroke:red;stroke-width:1px;stroke-linecap:butt;stroke-linejoin:miter;stroke-opacity:1" d="M 973.242,132.616 977.578,137.879 z" id="boundary" inkscape:connector-curvature="0" />
	<path style="fill:none;stroke:red;stroke-width:1px;stroke-linecap:butt;stroke-linejoin:miter;stroke-opacity:1" d="M 977.578,137.879 968.206,150.799 z" id="boundary" inkscape:connector-curvature="0" />
	<path style="fill:none;stroke:red;stroke-width:1px;stroke-linecap:butt;stroke-linejoin:miter;stroke-opacity:1" d="M 984.046,173.578 989.965,169.701 z" id="boundary" inkscape:connector-curvature="0" />
	<path style="fill:none;stroke:red;stroke-width:1px;stroke-linecap:butt;stroke-linejoin:miter;stroke-opacity:1" d="M 984.046,173.578 984.31,182.164 z" id="boundary" inkscape:connector-curvature="0" />
	<path style="fill:none;stroke:red;stroke-width:1px;stroke-linecap:butt;stroke-linejoin:miter;stroke-opacity:1" d="M 984.31,182.164 973.382,193.291 z" id="boundary" inkscape:connector-curvature="0" />
	<path style="fill:none;stroke:red;stroke-width:1px;stroke-linecap:butt;stroke-linejoin:miter;stroke-opacity:1" d="M 973.382,193.291 989.288,216.313 z" id="boundary" inkscape:connector-curvature="0" />
	<path style="fill:none;stroke:red;stroke-width:1px;stroke-linecap:butt;stroke-linejoin:miter;stroke-opacity:1" d="M 989.288,216.313 980.799,225.915 z" id="boundary" inkscape:connector-curvature="0" />
	<path style="fill:none;stroke:red;stroke-width:1px;stroke-linecap:butt;stroke-linejoin:miter;stroke-opacity:1" d="M 980.799,225.915 973.336,226.26 z" id="boundary" inkscape:connector-curvature="0" />
	<path style="fill:none;stroke:red;stroke-width:1px;stroke-linecap:butt;stroke-linejoin:miter;stroke-opacity:1" d="M 983.444,255.329 974.085,257.922 z" id="boundary" inkscape:connector-curvature="0" />
	<path style="fill:none;stroke:red;stroke-width:1px;stroke-linecap:butt;stroke-linejoin:miter;stroke-opacity:1" d="M 974.085,257.922 974.384,286.04 z" id="boundary" inkscape:connector-curvature="0" />
	<path style="fill:none;stroke:red;stroke-width:1px;stroke-linecap:butt;stroke-linejoin:miter;stroke-opacity:1" d="M 974.384,286.04 977.475,295.772 z" id="boundary" inkscape:connector-curvature="0" />
	<path style="fill:none;stroke:red;stroke-width:1px;stroke-linecap:butt;stroke-linejoin:miter;stroke-opacity:1" d="M 977.475,295.772 980.677,309.43 z" id="boundary" inkscape:connector-curvature="0" />
	<path style="fill:none;stroke:red;stroke-width:1px;stroke-linecap:butt;stroke-linejoin:miter;stroke-opacity:1" d="M 996,301.056 980.677,309.43 z" id="boundary" inkscape:connector-curvature="0" />
	<path style="fill:none;stroke:red;stroke-width:1px;stroke-linecap:butt;stroke-linejoin:miter;stroke-opacity:1" d="M 980.078,331.802 989.937,332.871 z" id="boundary" inkscape:connector-curvature="0" />
	<path style="fill:none;stroke:red;stroke-width:1px;stroke-linecap:butt;stroke-linejoin:miter;stroke-opacity:1" d="M 980.078,331.802 970.792,342.275 z" id="boundary" inkscape:connector-curvature="0" />
	<path style="fill:none;stroke:red;stroke-width:1px;stroke-linecap:butt;stroke-linejoin:miter;stroke-opacity:1" d="M 970.792,342.275 971.555,346.112 z" id="boundary" inkscape:connector-curvature="0" />
	<path style="fill:none;stroke:red;stroke-width:1px;stroke-linecap:butt;stroke-linejoin:miter;stroke-opacity:1" d="M 971.555,346.112 982.336,359.286 z" id="boundary" inkscape:connector-curvature="0" />
	<path style="fill:none;stroke:red;stroke-width:1px;stroke-linecap:butt;stroke-linejoin:miter;stroke-opacity:1" d="M 982.336,359.286 976.555,374.195 z" id="boundary" inkscape:connector-curvature="0" />
	<path style="fill:none;stroke:red;stroke-width:1px;stroke-linecap:butt;stroke-linejoin:miter;stroke-opacity:1" d="M 976.555,374.195 974.76,398.372 z" id="boundary" inkscape:connector-curvature="0" />
	<path style="fill:none;stroke:red;stroke-width:1px;stroke-linecap:butt;stroke-linejoin:miter;stroke-opacity:1" d="M 974.76,398.372 960.262,406.154 z" id="boundary" inkscape:connector-curvature="0" />
	<path style="fill:none;stroke:red;stroke-width:1px;stroke-linecap:butt;stroke-linejoin:miter;stroke-opacity:1" d="M 960.262,406.154 958.949,429.155 z" id="boundary" inkscape:connector-curvature="0" />
	<path style="fill:none;stroke:red;stroke-width:1px;stroke-linecap:butt;stroke-linejoin:miter;stroke-opacity:1" d="M 81.6735,63.2449 77.9926,65.7429 z" id="boundary" inkscape:connector-curvature="0" />
	<path style="fill:none;stroke:red;stroke-width:1px;stroke-linecap:butt;stroke-linejoin:miter;stroke-opacity:1" d="M 77.9926,65.7429 63.02,91.0803 z" id="boundary" inkscape:connector-curvature="0" />
	<path style="fill:none;stroke:red;stroke-width:1px;stroke-linecap:butt;stroke-linejoin:miter;stroke-opacity:1" d="M 63.02,91.0803 56.3021,95.4773 z" id="boundary" inkscape:connector-curvature="0" />
	<path style="fill:none;stroke:red;stroke-width:1px;stroke-linecap:butt;stroke-linejoin:miter;stroke-opacity:1" d="M 56.3021,95.4773 54.3178,102.891 z" id="boundary" inkscape:connector-curvature="0" />
	<path style="fill:none;stroke:red;stroke-width:1px;stroke-linecap:butt;stroke-linejoin:miter;stroke-opacity:1" d="M 54.3178,102.891 43.3543,116.184 z" id="boundary" inkscape:connector-curvature="0" />
	<path style="fill:none;stroke:red;stroke-width:1px;stroke-linecap:butt;stroke-linejoin:miter;stroke-opacity:1" d="M 43.3543,116.184 48.2584,131.286 z" id="boundary" inkscape:connector-curvature="0" />
	<path style="fill:none;stroke:red;stroke-width:1px;stroke-linecap:butt;stroke-linejoin:miter;stroke-opacity:1" d="M 36.8039,150.647 22.8524,146.807 z" id="boundary" inkscape:connector-curvature="0" />
	<path style="fill:none;stroke:red;stroke-width:1px;stroke-linecap:butt;stroke-linejoin:miter;stroke-opacity:1" d="M 22.8524,146.807 15.1777,161.121 z" id="boundary" inkscape:connector-curvature="0" />
	<path style="fill:none;stroke:red;stroke-width:1px;stroke-linecap:butt;stroke-linejoin:miter;stroke-opacity:1" d="M 15.1777,161.121 13.9529,169.265 z" id="boundary" inkscape:connector-curvature="0" />
	<path style="fill:none;stroke:red;stroke-width:1px;stroke-linecap:butt;stroke-linejoin:miter;stroke-opacity:1" d="M 13.9529,169.265 4,181.596 z" id="boundary" inkscape:connector-curvature="0" />
	<path style="fill:none;stroke:red;stroke-width:1px;stroke-linecap:butt;stroke-linejoin:miter;stroke-opacity:1" d="M 4,181.596 6.24722,205.243 z" id="boundary" inkscape:connector-curvature="0" />
	<path style="fill:none;stroke:red;stroke-width:1px;stroke-linecap:butt;stroke-linejoin:miter;stroke-opacity:1" d="M 6.24722,205.243 9.39957,218.743 z" id="boundary" inkscape:connector-curvature="0" />
	<path style="fill:none;stroke:red;stroke-width:1px;stroke-linecap:butt;stroke-linejoin:miter;stroke-opacity:1" d="M 9.39957,218.743 9.81273,221.45 z" id="boundary" inkscape:connector-curvature="0" />
	<path style="fill:none;stroke:red;stroke-width:1px;stroke-linecap:butt;stroke-linejoin:miter;stroke-opacity:1" d="M 9.81273,221.45 7.00568,234.564 z" id="boundary" inkscape:connector-curvature="0" />
	<path style="fill:none;stroke:red;stroke-width:1px;stroke-linecap:butt;stroke-linejoin:miter;stroke-opacity:1" d="M 7.00568,234.564 22.351,250.158 z" id="boundary" inkscape:connector-curvature="0" />
	<path style="fill:none;stroke:red;stroke-width:1px;stroke-linecap:butt;stroke-linejoin:miter;stroke-opacity:1" d="M 22.351,250.158 12.8707,271.608 z" id="boundary" inkscape:connector-curvature="0" />
	<path style="fill:none;stroke:red;stroke-width:1px;stroke-linecap:butt;stroke-linejoin:miter;stroke-opacity:1" d="M 12.8707,271.608 5.38742,281.507 z" id="boundary" inkscape:connector-curvature="0" />
	<path style="fill:none;stroke:red;stroke-width:1px;stroke-linecap:butt;stroke-linejoin:miter;stroke-opacity:1" d="M 5.38742,281.507 9.15352,293.117 z" id="boundary" inkscape:connector-curvature="0" />
	<path style="fill:none;stroke:red;stroke-width:1px;stroke-linecap:butt;stroke-linejoin:miter;stroke-opacity:1" d="M 9.15352,293.117 18.6721,309.005 z" id="boundary" inkscape:connector-curvature="0" />
	<path style="fill:none;stroke:red;stroke-width:1px;stroke-linecap:butt;stroke-linejoin:miter;stroke-opacity:1" d="M 18.6721,309.005 15.4719,325.198 z" id="boundary" inkscape:connector-curvature="0" />
	<path style="fill:none;stroke:red;stroke-width:1px;stroke-linecap:butt;stroke-linejoin:miter;stroke-opacity:1" d="M 15.4719,325.198 20.3651,333.629 z" id="boundary" inkscape:connector-curvature="0" />
	<path style="fill:none;stroke:red;stroke-width:1px;stroke-linecap:butt;stroke-linejoin:miter;stroke-opacity:1" d="M 20.3651,333.629 8.50883,350.667 z" id="boundary" inkscape:connector-curvature="0" />
	<path style="fill:none;stroke:red;stroke-width:1px;stroke-linecap:butt;stroke-linejoin:miter;stroke-opacity:1" d="M 8.50883,350.667 8.31784,372.524 z" id="boundary" inkscape:connector-curvature="0" />
	<path style="fill:none;stroke:red;stroke-width:1px;stroke-linecap:butt;stroke-linejoin:miter;stroke-opacity:1" d="M 8.31784,372.524 8.55525,372.879 z" id="boundary" inkscape:connector-curvature="0" />
	<path style="fill:none;stroke:red;stroke-width:1px;stroke-linecap:butt;stroke-linejoin:miter;stroke-opacity:1" d="M 16.4745,408.567 7.07982,414.482 z" id="boundary" inkscape:connector-curvature="0" />
	<path style="fill:none;stroke:red;stroke-width:1px;stroke-linecap:butt;stroke-linejoin:miter;stroke-opacity:1" d="M 16.4745,408.567 33.4004,414.555 z" id="boundary" inkscape:connector-curvature="0" />
	<path style="fill:none;stroke:red;stroke-width:1px;stroke-linecap:butt;stroke-linejoin:miter;stroke-opacity:1" d="M 31.0482,429.554 33.4004,414.555 z" id="boundary" inkscape:connector-curvature="0" />
	<path style="fill:none;stroke:red;stroke-width:1px;stroke-linecap:butt;stroke-linejoin:miter;stroke-opacity:1" d="M 31.0482,429.554 45.1569,424.373 z" id="boundary" inkscape:connector-curvature="0" />
	<path style="fill:none;stroke:red;stroke-width:1px;stroke-linecap:butt;stroke-linejoin:miter;stroke-opacity:1" d="M 45.1569,424.373 69.6045,416.109 z" id="boundary" inkscape:connector-curvature="0" />
	<path style="fill:none;stroke:red;stroke-width:1px;stroke-linecap:butt;stroke-linejoin:miter;stroke-opacity:1" d="M 69.6045,416.109 77.7173,414.013 z" id="boundary" inkscape:connector-curvature="0" />
	<path style="fill:none;stroke:red;stroke-width:1px;stroke-linecap:butt;stroke-linejoin:miter;stroke-opacity:1" d="M 77.7173,414.013 95.9222,414.879 z" id="boundary" inkscape:connector-curvature="0" />
	<path style="fill:none;stroke:red;stroke-width:1px;stroke-linecap:butt;stroke-linejoin:miter;stroke-opacity:1" d="M 95.9222,414.879 117.009,407.743 z" id="boundary" inkscape:connector-curvature="0" />
	<path style="fill:none;stroke:red;stroke-width:1px;stroke-linecap:butt;stroke-linejoin:miter;stroke-opacity:1" d="M 117.009,407.743 128.481,390.938 z" id="boundary" inkscape:connector-curvature="0" />
	<path style="fill:none;stroke:red;stroke-width:1px;stroke-linecap:butt;stroke-linejoin:miter;stroke-opacity:1" d="M 128.481,390.938 117.926,375.121 z" id="boundary" inkscape:connector-curvature="0" />
	<path style="fill:none;stroke:red;stroke-width:1px;stroke-linecap:butt;stroke-linejoin:miter;stroke-opacity:1" d="M 117.926,375.121 128.356,351.392 z" id="boundary" inkscape:connector-curvature="0" />
	<path style="fill:none;stroke:red;stroke-width:1px;stroke-linecap:butt;stroke-linejoin:miter;stroke-opacity:1" d="M 128.356,351.392 160.35,352.209 z" id="boundary" inkscape:connector-curvature="0" />
	<path style="fill:none;stroke:red;stroke-width:1px;stroke-linecap:butt;stroke-linejoin:miter;stroke-opacity:1" d="M 160.35,352.209 166.708,336.602 z" id="boundary" inkscape:connector-curvature="0" />
	<path style="fill:none;stroke:red;stroke-width:1px;stroke-linecap:butt;stroke-linejoin:miter;stroke-opacity:1" d="M 166.708,336.602 176.097,341.426 z" id="boundary" inkscape:connector-curvature="0" />
	<path style="fill:none;stroke:red;stroke-width:1px;stroke-linecap:butt;stroke-linejoin:miter;stroke-opacity:1" d="M 176.097,341.426 196.212,324.373 z" id="boundary" inkscape:connector-curvature="0" />
	<path style="fill:none;stroke:red;stroke-width:1px;stroke-linecap:butt;stroke-linejoin:miter;stroke-opacity:1" d="M 196.212,324.373 220.427,336.333 z" id="boundary" inkscape:connector-curvature="0" />
	<path style="fill:none;stroke:red;stroke-width:1px;stroke-linecap:butt;stroke-linejoin:miter;stroke-opacity:1" d="M 220.427,336.333 231.607,334.095 z" id="boundary" inkscape:connector-curvature="0" />
	<path style="fill:none;stroke:red;stroke-width:1px;stroke-linecap:butt;stroke-linejoin:miter;stroke-opacity:1" d="M 231.607,334.095 245.354,342.845 z" id="boundary" inkscape:connector-curvature="0" />
	<path style="fill:none;stroke:red;stroke-width:1px;stroke-linecap:butt;stroke-linejoin:miter;stroke-opacity:1" d="M 245.354,342.845 264.487,340.245 z" id="boundary" inkscape:connector-curvature="0" />
	<path style="fill:none;stroke:red;stroke-width:1px;stroke-linecap:butt;stroke-linejoin:miter;stroke-opacity:1" d="M 264.487,340.245 278.804,332.4 z" id="boundary" inkscape:connector-curvature="0" />
	<path style="fill:none;stroke:red;stroke-width:1px;stroke-linecap:butt;stroke-linejoin:miter;stroke-opacity:1" d="M 278.804,332.4 299.291,347.037 z" id="boundary" inkscape:connector-curvature="0" />
	<path style="fill:none;stroke:red;stroke-width:1px;stroke-linecap:butt;stroke-linejoin:miter;stroke-opacity:1" d="M 299.291,347.037 299.388,368.665 z" id="boundary" inkscape:connector-curvature="0" />
	<path style="fill:none;stroke:red;stroke-width:1px;stroke-linecap:butt;stroke-linejoin:miter;stroke-opacity:1" d="M 299.388,368.665 320.913,379.812 z" id="boundary" inkscape:connector-curvature="0" />
	<path style="fill:none;stroke:red;stroke-width:1px;stroke-linecap:butt;stroke-linejoin:miter;stroke-opacity:1" d="M 320.913,379.812 319.109,386.476 z" id="boundary" inkscape:connector-curvature="0" />
	<path style="fill:none;stroke:red;stroke-width:1px;stroke-linecap:butt;stroke-linejoin:miter;stroke-opacity:1" d="M 319.109,386.476 324.491,401.454 z" id="boundary" inkscape:connector-curvature="0" />
	<path style="fill:none;stroke:red;stroke-width:1px;stroke-linecap:butt;stroke-linejoin:miter;stroke-opacity:1" d="M 324.491,401.454 344.683,411.243 z" id="boundary" inkscape:connector-curvature="0" />
	<path style="fill:none;stroke:red;stroke-width:1px;stroke-linecap:butt;stroke-linejoin:miter;stroke-opacity:1" d="M 344.683,411.243 345.969,427.06 z" id="boundary" inkscape:connector-curvature="0" />
	<path style="fill:none;stroke:red;stroke-width:1px;stroke-linecap:butt;stroke-linejoin:miter;stroke-opacity:1" d="M 345.969,427.06 374.642,424.903 z" id="boundary" inkscape:connector-curvature="0" />
	<path style="fill:none;stroke:red;stroke-width:1px;stroke-linecap:butt;stroke-linejoin:miter;stroke-opacity:1" d="M 387.9,411.54 390.33,414.801 z" id="boundary" inkscape:connector-curvature="0" />
	<path style="fill:none;stroke:red;stroke-width:1px;stroke-linecap:butt;stroke-linejoin:miter;stroke-opacity:1" d="M 390.33,414.801 401.302,411.336 z" id="boundary" inkscape:connector-curvature="0" />
	<path style="fill:none;stroke:red;stroke-width:1px;stroke-linecap:butt;stroke-linejoin:miter;stroke-opacity:1" d="M 401.302,411.336 431.579,421.679 z" id="boundary" inkscape:connector-curvature="0" />
	<path style="fill:none;stroke:red;stroke-width:1px;stroke-linecap:butt;stroke-linejoin:miter;stroke-opacity:1" d="M 431.579,421.679 443.942,413.274 z" id="boundary" inkscape:connector-curvature="0" />
	<path style="fill:none;stroke:red;stroke-width:1px;stroke-linecap:butt;stroke-linejoin:miter;stroke-opacity:1" d="M 443.942,413.274 459.788,409.641 z" id="boundary" inkscape:connector-curvature="0" />
	<path style="fill:none;stroke:red;stroke-width:1px;stroke-linecap:butt;stroke-linejoin:miter;stroke-opacity:1" d="M 459.788,409.641 489.168,421.974 z" id="boundary" inkscape:connector-curvature="0" />
	<path style="fill:none;stroke:red;stroke-width:1px;stroke-linecap:butt;stroke-linejoin:miter;stroke-opacity:1" d="M 489.168,421.974 496.76,421.419 z" id="boundary" inkscape:connector-curvature="0" />
	<path style="fill:none;stroke:red;stroke-width:1px;stroke-linecap:butt;stroke-linejoin:miter;stroke-opacity:1" d="M 496.76,421.419 515.463,413.285 z" id="boundary" inkscape:connector-curvature="0" />
	<path style="fill:none;stroke:red;stroke-width:1px;stroke-linecap:butt;stroke-linejoin:miter;stroke-opacity:1" d="M 515.463,413.285 549.585,425.409 z" id="boundary" inkscape:connector-curvature="0" />
	<path style="fill:none;stroke:red;stroke-width:1px;stroke-linecap:butt;stroke-linejoin:miter;stroke-opacity:1" d="M 549.585,425.409 561.631,428.62 z" id="boundary" inkscape:connector-curvature="0" />
	<path style="fill:none;stroke:red;stroke-width:1px;stroke-linecap:butt;stroke-linejoin:miter;stroke-opacity:1" d="M 561.631,428.62 584.435,417.945 z" id="boundary" inkscape:connector-curvature="0" />
	<path style="fill:none;stroke:red;stroke-width:1px;stroke-linecap:butt;stroke-linejoin:miter;stroke-opacity:1" d="M 584.435,417.945 606.639,411.522 z" id="boundary" inkscape:connector-curvature="0" />
	<path style="fill:none;stroke:red;stroke-width:1px;stroke-linecap:butt;stroke-linejoin:miter;stroke-opacity:1" d="M 606.639,411.522 642.122,426.215 z" id="boundary" inkscape:connector-curvature="0" />
	<path style="fill:none;stroke:red;stroke-width:1px;stroke-linecap:butt;stroke-linejoin:miter;stroke-opacity:1" d="M 642.122,426.215 663.56,429.912 z" id="boundary" inkscape:connector-curvature="0" />
	<path style="fill:none;stroke:red;stroke-width:1px;stroke-linecap:butt;stroke-linejoin:miter;stroke-opacity:1" d="M 663.56,429.912 674.856,427.471 z" id="boundary" inkscape:connector-curvature="0" />
	<path style="fill:none;stroke:red;stroke-width:1px;stroke-linecap:butt;stroke-linejoin:miter;stroke-opacity:1" d="M 674.856,427.471 699.133,429.928 z" id="boundary" inkscape:connector-curvature="0" />
	<path style="fill:none;stroke:red;stroke-width:1px;stroke-linecap:butt;stroke-linejoin:miter;stroke-opacity:1" d="M 702.564,426.377 699.133,429.928 z" id="boundary" inkscape:connector-curvature="0" />
	<path style="fill:none;stroke:red;stroke-width:1px;stroke-linecap:butt;stroke-linejoin:miter;stroke-opacity:1" d="M 702.564,426.377 721.91,417.629 z" id="boundary" inkscape:connector-curvature="0" />
	<path style="fill:none;stroke:red;stroke-width:1px;stroke-linecap:butt;stroke-linejoin:miter;stroke-opacity:1" d="M 721.91,417.629 722.894,395.956 z" id="boundary" inkscape:connector-curvature="0" />
	<path style="fill:none;stroke:red;stroke-width:1px;stroke-linecap:butt;stroke-linejoin:miter;stroke-opacity:1" d="M 726.535,394.319 722.894,395.956 z" id="boundary" inkscape:connector-curvature="0" />
	<path style="fill:none;stroke:red;stroke-width:1px;stroke-linecap:butt;stroke-linejoin:miter;stroke-opacity:1" d="M 726.535,394.319 743.361,387.568 z" id="boundary" inkscape:connector-curvature="0" />
	<path style="fill:none;stroke:red;stroke-width:1px;stroke-linecap:butt;stroke-linejoin:miter;stroke-opacity:1" d="M 743.361,387.568 768.134,372.469 z" id="boundary" inkscape:connector-curvature="0" />
	<path style="fill:none;stroke:red;stroke-width:1px;stroke-linecap:butt;stroke-linejoin:miter;stroke-opacity:1" d="M 768.134,372.469 792.314,376.801 z" id="boundary" inkscape:connector-curvature="0" />
	<path style="fill:none;stroke:red;stroke-width:1px;stroke-linecap:butt;stroke-linejoin:miter;stroke-opacity:1" d="M 792.314,376.801 829.54,364.607 z" id="boundary" inkscape:connector-curvature="0" />
	<path style="fill:none;stroke:red;stroke-width:1px;stroke-linecap:butt;stroke-linejoin:miter;stroke-opacity:1" d="M 829.54,364.607 845.76,379.989 z" id="boundary" inkscape:connector-curvature="0" />
	<path style="fill:none;stroke:red;stroke-width:1px;stroke-linecap:butt;stroke-linejoin:miter;stroke-opacity:1" d="M 845.76,379.989 877.161,374.849 z" id="boundary" inkscape:connector-curvature="0" />
	<path style="fill:none;stroke:red;stroke-width:1px;stroke-linecap:butt;stroke-linejoin:miter;stroke-opacity:1" d="M 877.161,374.849 876.613,366.992 z" id="boundary" inkscape:connector-curvature="0" />
	<path style="fill:none;stroke:red;stroke-width:1px;stroke-linecap:butt;stroke-linejoin:miter;stroke-opacity:1" d="M 876.613,366.992 905.435,366.797 z" id="boundary" inkscape:connector-curvature="0" />
	<path style="fill:none;stroke:red;stroke-width:1px;stroke-linecap:butt;stroke-linejoin:miter;stroke-opacity:1" d="M 905.435,366.797 921.304,389.957 z" id="boundary" inkscape:connector-curvature="0" />
	<path style="fill:none;stroke:red;stroke-width:1px;stroke-linecap:butt;stroke-linejoin:miter;stroke-opacity:1" d="M 921.304,389.957 926.814,398.052 z" id="boundary" inkscape:connector-curvature="0" />
	<path style="fill:none;stroke:red;stroke-width:1px;stroke-linecap:butt;stroke-linejoin:miter;stroke-opacity:1" d="M 926.814,398.052 934.223,416.44 z" id="boundary" inkscape:connector-curvature="0" />
	<path style="fill:none;stroke:red;stroke-width:1px;stroke-linecap:butt;stroke-linejoin:miter;stroke-opacity:1" d="M 926.219,418.222 934.223,416.44 z" id="boundary" inkscape:connector-curvature="0" />
	<circle cx="142.344" cy="152.825" r="4" fill="#0" id="circle0"/>
	<circle cx="127.502" cy="143.209" r="4" fill="#0" id="circle1"/>
	<circle cx="125.766" cy="147.987" r="4" fill="#0" id="circle2"/>
	<circle cx="144.074" cy="128.798" r="4" fill="#0" id="circle3"/>
	<circle cx="149.313" cy="125.335" r="4" fill="#0" id="circle4"/>
	<circle cx="147.066" cy="115.709" r="4" fill="#0" id="circle5"/>
	<circle cx="154.485" cy="112.148" r="4" fill="#0" id="circle6"/>
	<circle cx="145.978" cy="95.5327" r="4" fill="#0" id="circle7"/>
	<circle cx="156.74" cy="92.7461" r="4" fill="#0" id="circle8"/>
	<circle cx="170.282" cy="88.0717" r="4" fill="#0" id="circle9"/>
	<circle cx="175.964" cy="88.8058" r="4" fill="#0" id="circle10"/>
	<circle cx="178.405" cy="68.8128" r="4" fill="#0" id="circle11"/>
	<circle cx="181.002" cy="70.3814" r="4" fill="#0" id="circle12"/>
	<circle cx="185.59" cy="70.5858" r="4" fill="#0" id="circle13"/>
	<circle cx="170.076" cy="60.2234" r="4" fill="#0" id="circle14"/>
	<circle cx="151.327" cy="135.316" r="4" fill="#0" id="circle15"/>
	<circle cx="153.216" cy="136.855" r="4" fill="#0" id="circle16"/>
	<circle cx="157.704" cy="123.96" r="4" fill="#0" id="circle17"/>
	<circle cx="163.784" cy="107.375" r="4" fill="#0" id="circle18"/>
	<circle cx="171.08" cy="103.638" r="4" fill="#0" id="circle19"/>
	<circle cx="170.103" cy="97.6468" r="4" fill="#0" id="circle20"/>
	<circle cx="175.811" cy="86.0213" r="4" fill="#0" id="circle21"/>
	<circle cx="183.321" cy="89.4815" r="4" fill="#0" id="circle22"/>
	<circle cx="174.151" cy="73.3908" r="4" fill="#0" id="circle23"/>
	<circle cx="193.895" cy="66.7227" r="4" fill="#0" id="circle24"/>
	<circle cx="188.186" cy="77.093" r="4" fill="#0" id="circle25"/>
	<circle cx="198.311" cy="55.7577" r="4" fill="#0" id="circle26"/>
	<circle cx="188.452" cy="55.4316" r="4" fill="#0" id="circle27"/>
	<circle cx="217.099" cy="62.4411" r="4" fill="#0" id="circle28"/>
	<circle cx="217.745" cy="61.5231" r="4" fill="#0" id="circle29"/>
	<circle cx="230.451" cy="42.1797" r="4" fill="#0" id="circle30"/>
	<circle cx="224.33" cy="44.7313" r="4" fill="#0" id="circle31"/>
	<circle cx="248.917" cy="51.3634" r="4" fill="#0" id="circle32"/>
	<circle cx="257.644" cy="46.6639" r="4" fill="#0" id="circle33"/>
	<circle cx="265.758" cy="49.6397" r="4" fill="#0" id="circle34"/>
	<circle cx="275.388" cy="63.0344" r="4" fill="#0" id="circle35"/>
	<circle cx="292.447" cy="44.0104" r="4" fill="#0" id="circle36"/>
	<circle cx="291.972" cy="48.5051" r="4" fill="#0" id="circle37"/>
	<circle cx="318.8" cy="48.1304" r="4" fill="#0" id="circle38"/>
	<circle cx="320.252" cy="56.3254" r="4" fill="#0" id="circle39"/>
	<circle cx="329.269" cy="60.334" r="4" fill="#0" id="circle40"/>
	<circle cx="346.594" cy="45.1136" r="4" fill="#0" id="circle41"/>
	<circle cx="349.342" cy="59.8419" r="4" fill="#0" id="circle42"/>
	<circle cx="367.154" cy="55.8709" r="4" fill="#0" id="circle43"/>
	<circle cx="366.574" cy="68.3062" r="4" fill="#0" id="circle44"/>
	<circle cx="351.648" cy="82.4401" r="4" fill="#0" id="circle45"/>
	<circle cx="358.024" cy="87.7253" r="4" fill="#0" id="circle46"/>
	<circle cx="362.665" cy="95.3669" r="4" fill="#0" id="circle47"/>
	<circle cx="363.542" cy="105.724" r="4" fill="#0" id="circle48"/>
	<circle cx="359.458" cy="113.711" r="4" fill="#0" id="circle49"/>
	<circle cx="361.75" cy="138.564" r="4" fill="#0" id="circle50"/>
	<circle cx="351.78" cy="136.601" r="4" fill="#0" id="circle51"/>
	<circle cx="164.131" cy="142.452" r="4" fill="#0" id="circle52"/>
	<circle cx="166.662" cy="152.024" r="4" fill="#0" id="circle53"/>
	<circle cx="179.165" cy="156.244" r="4" fill="#0" id="circle54"/>
	<circle cx="190.673" cy="155.681" r="4" fill="#0" id="circle55"/>
	<circle cx="212.954" cy="156.412" r="4" fill="#0" id="circle56"/>
	<circle cx="234.544" cy="155.343" r="4" fill="#0" id="circle57"/>
	<circle cx="238.725" cy="152.354" r="4" fill="#0" id="circle58"/>
	<circle cx="262.026" cy="142.907" r="4" fill="#0" id="circle59"/>
	<circle cx="276.49" cy="157.54" r="4" fill="#0" id="circle60"/>
	<circle cx="282.181" cy="144.018" r="4" fill="#0" id="circle61"/>
	<circle cx="288.815" cy="140.298" r="4" fill="#0" id="circle62"/>
	<circle cx="309.268" cy="152.06" r="4" fill="#0" id="circle63"/>
	<circle cx="320.923" cy="152.37" r="4" fill="#0" id="circle64"/>
	<circle cx="340.671" cy="155.277" r="4" fill="#0" id="circle65"/>
	<circle cx="349.539" cy="156.022" r="4" fill="#0" id="circle66"/>
	<circle cx="71.6892" cy="144.622" r="4" fill="#0" id="circle67"/>
	<circle cx="80.2925" cy="145.323" r="4" fill="#0" id="circle68"/>
	<circle cx="87.4988" cy="146.354" r="4" fill="#0" id="circle69"/>
	<circle cx="101.452" cy="140.98" r="4" fill="#0" id="circle70"/>
	<circle cx="112.962" cy="150.114" r="4" fill="#0" id="circle71"/>
	<circle cx="121.367" cy="155.111" r="4" fill="#0" id="circle72"/>
	<circle cx="118.155" cy="144.611" r="4" fill="#0" id="circle73"/>
	<circle cx="64.958" cy="131.578" r="4" fill="#0" id="circle74"/>
	<circle cx="72.3485" cy="128.979" r="4" fill="#0" id="circle75"/>
	<circle cx="89.0041" cy="134.267" r="4" fill="#0" id="circle76"/>
	<circle cx="83.9235" cy="126.441" r="4" fill="#0" id="circle77"/>
	<circle cx="99.5436" cy="114.713" r="4" fill="#0" id="circle78"/>
	<circle cx="99.2284" cy="93.575" r="4" fill="#0" id="circle79"/>
	<circle cx="103.869" cy="84.9041" r="4" fill="#0" id="circle80"/>
	<circle cx="122.008" cy="84.597" r="4" fill="#0" id="circle81"/>
	<circle cx="106.82" cy="73.5684" r="4" fill="#0" id="circle82"/>
	<circle cx="116.191" cy="67.2196" r="4" fill="#0" id="circle83"/>
	<circle cx="121.922" cy="64.7268" r="4" fill="#0" id="circle84"/>
	<circle cx="133.668" cy="63.3337" r="4" fill="#0" id="circle85"/>
	<circle cx="160.163" cy="43.1935" r="4" fill="#0" id="circle86"/>
	<circle cx="158.635" cy="59.0234" r="4" fill="#0" id="circle87"/>
	<circle cx="177.853" cy="52.512" r="4" fill="#0" id="circle88"/>
	<circle cx="400.751" cy="47.4042" r="4" fill="#0" id="circle89"/>
	<circle cx="403.525" cy="62.1329" r="4" fill="#0" id="circle90"/>
	<circle cx="394.813" cy="76.3069" r="4" fill="#0" id="circle91"/>
	<circle cx="392.512" cy="98.885" r="4" fill="#0" id="circle92"/>
	<circle cx="394.846" cy="100.927" r="4" fill="#0" id="circle93"/>
	<circle cx="398.67" cy="115.994" r="4" fill="#0" id="circle94"/>
	<circle cx="394.866" cy="131.485" r="4" fill="#0" id="circle95"/>
	<circle cx="400.258" cy="146.823" r="4" fill="#0" id="circle96"/>
	<circle cx="425.479" cy="145.292" r="4" fill="#0" id="circle97"/>
	<circle cx="423.53" cy="141.507" r="4" fill="#0" id="circle98"/>
	<circle cx="438.736" cy="145.526" r="4" fill="#0" id="circle99"/>
	<circle cx="451.529" cy="147.385" r="4" fill="#0" id="circle100"/>
	<circle cx="469.209" cy="142.274" r="4" fill="#0" id="circle101"/>
	<circle cx="491.313" cy="152.64" r="4" fill="#0" id="circle102"/>
	<circle cx="515.08" cy="145.547" r="4" fill="#0" id="circle103"/>
	<circle cx="512.676" cy="161.597" r="4" fill="#0" id="circle104"/>
	<circle cx="531.827" cy="147.914" r="4" fill="#0" id="circle105"/>
	<circle cx="531.254" cy="71.0322" r="4" fill="#0" id="circle106"/>
	<circle cx="530.742" cy="85.2216" r="4" fill="#0" id="circle107"/>
	<circle cx="538.667" cy="101.095" r="4" fill="#0" id="circle108"/>
	<circle cx="544.094" cy="105.582" r="4" fill="#0" id="circle109"/>
	<circle cx="541.911" cy="120.253" r="4" fill="#0" id="circle110"/>
	<circle cx="426.39" cy="42.162" r="4" fill="#0" id="circle111"/>
	<circle cx="444.354" cy="52.2318" r="4" fill="#0" id="circle112"/>
	<circle cx="445.029" cy="61.4571" r="4" fill="#0" id="circle113"/>
	<circle cx="468.377" cy="51.2421" r="4" fill="#0" id="circle114"/>
	<circle cx="471.347" cy="54.2607" r="4" fill="#0" id="circle115"/>
	<circle cx="498.358" cy="47.8114" r="4" fill="#0" id="circle116"/>
	<circle cx="511.321" cy="64.8064" r="4" fill="#0" id="circle117"/>
	<circle cx="526.278" cy="53.1229" r="4" fill="#0" id="circle118"/>
	<circle cx="563.045" cy="63.9049" r="4" fill="#0" id="circle119"/>
	<circle cx="578.452" cy="54.5817" r="4" fill="#0" id="circle120"/>
	<circle cx="592.614" cy="58.3755" r="4" fill="#0" id="circle121"/>
	<circle cx="597.745" cy="60.9843" r="4" fill="#0" id="circle122"/>
	<circle cx="613.721" cy="65.008" r="4" fill="#0" id="circle123"/>
	<circle cx="631.199" cy="51.0447" r="4" fill="#0" id="circle124"/>
	<circle cx="639.71" cy="52.2883" r="4" fill="#0" id="circle125"/>
	<circle cx="661.732" cy="61.944" r="4" fill="#0" id="circle126"/>
	<circle cx="674.215" cy="50.5043" r="4" fill="#0" id="circle127"/>
	<circle cx="681.659" cy="60.8874" r="4" fill="#0" id="circle128"/>
	<circle cx="687.475" cy="75.6209" r="4" fill="#0" id="circle129"/>
	<circle cx="684.632" cy="77.3804" r="4" fill="#0" id="circle130"/>
	<circle cx="690.339" cy="97.5327" r="4" fill="#0" id="circle131"/>
	<circle cx="692.912" cy="112.189" r="4" fill="#0" id="circle132"/>
	<circle cx="700.715" cy="110.412" r="4" fill="#0" id="circle133"/>
	<circle cx="690.64" cy="137.151" r="4" fill="#0" id="circle134"/>
	<circle cx="700.885" cy="143.487" r="4" fill="#0" id="circle135"/>
	<circle cx="678.92" cy="146.58" r="4" fill="#0" id="circle136"/>
	<circle cx="574.627" cy="155.076" r="4" fill="#0" id="circle137"/>
	<circle cx="587.355" cy="155.084" r="4" fill="#0" id="circle138"/>
	<circle cx="609.912" cy="157.187" r="4" fill="#0" id="circle139"/>
	<circle cx="609.005" cy="161.155" r="4" fill="#0" id="circle140"/>
	<circle cx="625.399" cy="153.162" r="4" fill="#0" id="circle141"/>
	<circle cx="651.067" cy="150.924" r="4" fill="#0" id="circle142"/>
	<circle cx="648.698" cy="140.641" r="4" fill="#0" id="circle143"/>
	<circle cx="665.876" cy="146.331" r="4" fill="#0" id="circle144"/>
	<circle cx="572.2" cy="64.3103" r="4" fill="#0" id="circle145"/>
	<circle cx="564.594" cy="74.4687" r="4" fill="#0" id="circle146"/>
	<circle cx="551.671" cy="83.4865" r="4" fill="#0" id="circle147"/>
	<circle cx="554.404" cy="114.737" r="4" fill="#0" id="circle148"/>
	<circle cx="555.859" cy="119.439" r="4" fill="#0" id="circle149"/>
	<circle cx="566.438" cy="123.876" r="4" fill="#0" id="circle150"/>
	<circle cx="556.398" cy="134.573" r="4" fill="#0" id="circle151"/>
	<circle cx="720.743" cy="57.6127" r="4" fill="#0" id="circle152"/>
	<circle cx="727.891" cy="79.1112" r="4" fill="#0" id="circle153"/>
	<circle cx="711.929" cy="86.4988" r="4" fill="#0" id="circle154"/>
	<circle cx="721.478" cy="92.9513" r="4" fill="#0" id="circle155"/>
	<circle cx="721.793" cy="114.879" r="4" fill="#0" id="circle156"/>
	<circle cx="728.518" cy="116.537" r="4" fill="#0" id="circle157"/>
	<circle cx="716.857" cy="140.2" r="4" fill="#0" id="circle158"/>
	<circle cx="725.531" cy="143.71" r="4" fill="#0" id="circle159"/>
	<circle cx="732.566" cy="144.79" r="4" fill="#0" id="circle160"/>
	<circle cx="761.688" cy="158.507" r="4" fill="#0" id="circle161"/>
	<circle cx="766.905" cy="160.654" r="4" fill="#0" id="circle162"/>
	<circle cx="785.625" cy="154.552" r="4" fill="#0" id="circle163"/>
	<circle cx="791.685" cy="142.372" r="4" fill="#0" id="circle164"/>
	<circle cx="792.293" cy="148.975" r="4" fill="#0" id="circle165"/>
	<circle cx="806.868" cy="144.797" r="4" fill="#0" id="circle166"/>
	<circle cx="826.176" cy="153.088" r="4" fill="#0" id="circle167"/>
	<circle cx="839.385" cy="145.181" r="4" fill="#0" id="circle168"/>
	<circle cx="734.442" cy="60.3607" r="4" fill="#0" id="circle169"/>
	<circle cx="756.241" cy="62.3254" r="4" fill="#0" id="circle170"/>
	<circle cx="771.217" cy="49.0733" r="4" fill="#0" id="circle171"/>
	<circle cx="779.818" cy="56.7237" r="4" fill="#0" id="circle172"/>
	<circle cx="797.567" cy="61.9289" r="4" fill="#0" id="circle173"/>
	<circle cx="806.563" cy="43.9537" r="4" fill="#0" id="circle174"/>
	<circle cx="814.274" cy="59.2172" r="4" fill="#0" id="circle175"/>
	<circle cx="825.72" cy="48.6387" r="4" fill="#0" id="circle176"/>
	<circle cx="840.412" cy="69.5528" r="4" fill="#0" id="circle177"/>
	<circle cx="833.987" cy="70.6102" r="4" fill="#0" id="circle178"/>
	<circle cx="841.774" cy="90.5565" r="4" fill="#0" id="circle179"/>
	<circle cx="840.924" cy="97.9469" r="4" fill="#0" id="circle180"/>
	<circle cx="835.119" cy="111.673" r="4" fill="#0" id="circle181"/>
	<circle cx="847.601" cy="131.197" r="4" fill="#0" id="circle182"/>
	<circle cx="839.27" cy="137.582" r="4" fill="#0" id="circle183"/>
	<circle cx="86.0647" cy="58.6697" r="4" fill="#0" id="circle184"/>
	<circle cx="79.8955" cy="55.9528" r="4" fill="#0" id="circle185"/>
	<circle cx="96.2928" cy="49.7045" r="4" fill="#0" id="circle186"/>
	<circle cx="99.3942" cy="25.2847" r="4" fill="#0" id="circle187"/>
	<circle cx="125.889" cy="34.3275" r="4" fill="#0" id="circle188"/>
	<circle cx="132.771" cy="14.378" r="4" fill="#0" id="circle189"/>
	<circle cx="169.241" cy="18.166" r="4" fill="#0" id="circle190"/>
	<circle cx="168.334" cy="11.6461" r="4" fill="#0" id="circle191"/>
	<circle cx="207.95" cy="17.6376" r="4" fill="#0" id="circle192"/>
	<circle cx="216.086" cy="25.7364" r="4" fill="#0" id="circle193"/>
	<circle cx="258.501" cy="19.5772" r="4" fill="#0" id="circle194"/>
	<circle cx="275.269" cy="12.7286" r="4" fill="#0" id="circle195"/>
	<circle cx="286.537" cy="22.9237" r="4" fill="#0" id="circle196"/>
	<circle cx="320.751" cy="24.5922" r="4" fill="#0" id="circle197"/>
	<circle cx="337.185" cy="10.091" r="4" fill="#0" id="circle198"/>
	<circle cx="352.264" cy="17.3018" r="4" fill="#0" id="circle199"/>
	<circle cx="387.562" cy="14.167" r="4" fill="#0" id="circle200"/>
	<circle cx="396.838" cy="15.4402" r="4" fill="#0" id="circle201"/>
	<circle cx="419.573" cy="16.0095" r="4" fill="#0" id="circle202"/>
	<circle cx="447.852" cy="4.78107" r="4" fill="#0" id="circle203"/>
	<circle cx="469.272" cy="20.1039" r="4" fill="#0" id="circle204"/>
	<circle cx="494.538" cy="12.5176" r="4" fill="#0" id="circle205"/>
	<circle cx="516.424" cy="11.016" r="4" fill="#0" id="circle206"/>
	<circle cx="543.706" cy="6.03679" r="4" fill="#0" id="circle207"/>
	<circle cx="571.281" cy="21.6168" r="4" fill="#0" id="circle208"/>
	<circle cx="579.183" cy="20.1075" r="4" fill="#0" id="circle209"/>
	<circle cx="617.711" cy="20.9247" r="4" fill="#0" id="circle210"/>
	<circle cx="636.453" cy="17.5247" r="4" fill="#0" id="circle211"/>
	<circle cx="669.547" cy="4" r="4" fill="#0" id="circle212"/>
	<circle cx="689.897" cy="5.35066" r="4" fill="#0" id="circle213"/>
	<circle cx="707.274" cy="21.9454" r="4" fill="#0" id="circle214"/>
	<circle cx="741.932" cy="7.13555" r="4" fill="#0" id="circle215"/>
	<circle cx="757.163" cy="4.8989" r="4" fill="#0" id="circle216"/>
	<circle cx="790.033" cy="18.0091" r="4" fill="#0" id="circle217"/>
	<circle cx="811.451" cy="9.66606" r="4" fill="#0" id="circle218"/>
	<circle cx="831.399" cy="7.3374" r="4" fill="#0" id="circle219"/>
	<circle cx="836.135" cy="6.38132" r="4" fill="#0" id="circle220"/>
	<circle cx="865.601" cy="15.1725" r="4" fill="#0" id="circle221"/>
	<circle cx="883.217" cy="18.4877" r="4" fill="#0" id="circle222"/>
	<circle cx="908.107" cy="23.5312" r="4" fill="#0" id="circle223"/>
	<circle cx="920.744" cy="30.4627" r="4" fill="#0" id="circle224"/>
	<circle cx="939.334" cy="38.4683" r="4" fill="#0" id="circle225"/>
	<circle cx="960.13" cy="37.6594" r="4" fill="#0" id="circle226"/>
	<circle cx="974.773" cy="38.1174" r="4" fill="#0" id="circle227"/>
	<circle cx="967.702" cy="47.0136" r="4" fill="#0" id="circle228"/>
	<circle cx="967.503" cy="49.2899" r="4" fill="#0" id="circle229"/>
	<circle cx="968.669" cy="65.6821" r="4" fill="#0" id="circle230"/>
	<circle cx="968.416" cy="88.3375" r="4" fill="#0" id="circle231"/>
	<circle cx="971.531" cy="104.896" r="4" fill="#0" id="circle232"/>
	<circle cx="973.938" cy="96.0697" r="4" fill="#0" id="circle233"/>
	<circle cx="971.112" cy="112.403" r="4" fill="#0" id="circle234"/>
	<circle cx="973.242" cy="132.616" r="4" fill="#0" id="circle235"/>
	<circle cx="977.578" cy="137.879" r="4" fill="#0" id="circle236"/>
	<circle cx="968.206" cy="150.799" r="4" fill="#0" id="circle237"/>
	<circle cx="984.046" cy="173.578" r="4" fill="#0" id="circle238"/>
	<circle cx="989.965" cy="169.701" r="4" fill="#0" id="circle239"/>
	<circle cx="984.31" cy="182.164" r="4" fill="#0" id="circle240"/>
	<circle cx="973.382" cy="193.291" r="4" fill="#0" id="circle241"/>
	<circle cx="989.288" cy="216.313" r="4" fill="#0" id="circle242"/>
	<circle cx="980.799" cy="225.915" r="4" fill="#0" id="circle243"/>
	<circle cx="973.336" cy="226.26" r="4" fill="#0" id="circle244"/>
	<circle cx="983.444" cy="255.329" r="4" fill="#0" id="circle245"/>
	<circle cx="974.085" cy="257.922" r="4" fill="#0" id="circle246"/>
	<circle cx="974.384" cy="286.04" r="4" fill="#0" id="circle247"/>
	<circle cx="977.475" cy="295.772" r="4" fill="#0" id="circle248"/>
	<circle cx="996" cy="301.056" r="4" fill="#0" id="circle249"/>
	<circle cx="980.677" cy="309.43" r="4" fill="#0" id="circle250"/>
	<circle cx="980.078" cy="331.802" r="4" fill="#0" id="circle251"/>
	<circle cx="989.937" cy="332.871" r="4" fill="#0" id="circle252"/>
	<circle cx="970.792" cy="342.275" r="4" fill="#0" id="circle253"/>
	<circle cx="971.555" cy="346.112" r="4" fill="#0" id="circle254"/>
	<circle cx="982.336" cy="359.286" r="4" fill="#0" id="circle255"/>
	<circle cx="976.555" cy="374.195" r="4" fill="#0" id="circle256"/>
	<circle cx="974.76" cy="398.372" r="4" fill="#0" id="circle257"/>
	<circle cx="960.262" cy="406.154" r="4" fill="#0" id="circle258"/>
	<circle cx="81.6735" cy="63.2449" r="4" fill="#0" id="circle259"/>
	<circle cx="77.9926" cy="65.7429" r="4" fill="#0" id="circle260"/>
	<circle cx="63.02" cy="91.0803" r="4" fill="#0" id="circle261"/>
	<circle cx="56.3021" cy="95.4773" r="4" fill="#0" id="circle262"/>
	<circle cx="54.3178" cy="102.891" r="4" fill="#0" id="circle263"/>
	<circle cx="43.3543" cy="116.184" r="4" fill="#0" id="circle264"/>
	<circle cx="48.2584" cy="131.286" r="4" fill="#0" id="circle265"/>
	<circle cx="36.8039" cy="150.647" r="4" fill="#0" id="circle266"/>
	<circle cx="22.8524" cy="146.807" r="4" fill="#0" id="circle267"/>
	<circle cx="15.1777" cy="161.121" r="4" fill="#0" id="circle268"/>
	<circle cx="13.9529" cy="169.265" r="4" fill="#0" id="circle269"/>
	<circle cx="4" cy="181.596" r="4" fill="#0" id="circle270"/>
	<circle cx="6.24722" cy="205.243" r="4" fill="#0" id="circle271"/>
	<circle cx="9.39957" cy="218.743" r="4" fill="#0" id="circle272"/>
	<circle cx="9.81273" cy="221.45" r="4" fill="#0" id="circle273"/>
	<circle cx="7.00568" cy="234.564" r="4" fill="#0" id="circle274"/>
	<circle cx="22.351" cy="250.158" r="4" fill="#0" id="circle275"/>
	<circle cx="12.8707" cy="271.608" r="4" fill="#0" id="circle276"/>
	<circle cx="5.38742" cy="281.507" r="4" fill="#0" id="circle277"/>
	<circle cx="9.15352" cy="293.117" r="4" fill="#0" id="circle278"/>
	<circle cx="18.6721" cy="309.005" r="4" fill="#0" id="circle279"/>
	<circle cx="15.4719" cy="325.198" r="4" fill="#0" id="circle280"/>
	<circle cx="20.3651" cy="333.629" r="4" fill="#0" id="circle281"/>
	<circle cx="8.50883" cy="350.667" r="4" fill="#0" id="circle282"/>
	<circle cx="8.31784" cy="372.524" r="4" fill="#0" id="circle283"/>
	<circle cx="8.55525" cy="372.879" r="4" fill="#0" id="circle284"/>
	<circle cx="16.4745" cy="408.567" r="4" fill="#0" id="circle285"/>
	<circle cx="7.07982" cy="414.482" r="4" fill="#0" id="circle286"/>
	<circle cx="31.0482" cy="429.554" r="4" fill="#0" id="circle287"/>
	<circle cx="33.4004" cy="414.555" r="4" fill="#0" id="circle288"/>
	<circle cx="45.1569" cy="424.373" r="4" fill="#0" id="circle289"/>
	<circle cx="69.6045" cy="416.109" r="4" fill="#0" id="circle290"/>
	<circle cx="77.7173" cy="414.013" r="4" fill="#0" id="circle291"/>
	<circle cx="95.9222" cy="414.879" r="4" fill="#0" id="circle292"/>
	<circle cx="117.009" cy="407.743" r="4" fill="#0" id="circle293"/>
	<circle cx="128.481" cy="390.938" r="4" fill="#0" id="circle294"/>
	<circle cx="117.926" cy="375.121" r="4" fill="#0" id="circle295"/>
	<circle cx="128.356" cy="351.392" r="4" fill="#0" id="circle296"/>
	<circle cx="160.35" cy="352.209" r="4" fill="#0" id="circle297"/>
	<circle cx="166.708" cy="336.602" r="4" fill="#0" id="circle298"/>
	<circle cx="176.097" cy="341.426" r="4" fill="#0" id="circle299"/>
	<circle cx="196.212" cy="324.373" r="4" fill="#0" id="circle300"/>
	<circle cx="220.427" cy="336.333" r="4" fill="#0" id="circle301"/>
	<circle cx="231.607" cy="334.095" r="4" fill="#0" id="circle302"/>
	<circle cx="245.354" cy="342.845" r="4" fill="#0" id="circle303"/>
	<circle cx="264.487" cy="340.245" r="4" fill="#0" id="circle304"/>
	<circle cx="278.804" cy="332.4" r="4" fill="#0" id="circle305"/>
	<circle cx="299.291" cy="347.037" r="4" fill="#0" id="circle306"/>
	<circle cx="299.388" cy="368.665" r="4" fill="#0" id="circle307"/>
	<circle cx="320.913" cy="379.812" r="4" fill="#0" id="circle308"/>
	<circle cx="319.109" cy="386.476" r="4" fill="#0" id="circle309"/>
	<circle cx="324.491" cy="401.454" r="4" fill="#0" id="circle310"/>
	<circle cx="344.683" cy="411.243" r="4" fill="#0" id="circle311"/>
	<circle cx="345.969" cy="427.06" r="4" fill="#0" id="circle312"/>
	<circle cx="374.642" cy="424.903" r="4" fill="#0" id="circle313"/>
	<circle cx="387.9" cy="411.54" r="4" fill="#0" id="circle314"/>
	<circle cx="390.33" cy="414.801" r="4" fill="#0" id="circle315"/>
	<circle cx="401.302" cy="411.336" r="4" fill="#0" id="circle316"/>
	<circle cx="431.579" cy="421.679" r="4" fill="#0" id="circle317"/>
	<circle cx="443.942" cy="413.274" r="4" fill="#0" id="circle318"/>
	<circle cx="459.788" cy="409.641" r="4" fill="#0" id="circle319"/>
	<circle cx="489.168" cy="421.974" r="4" fill="#0" id="circle320"/>
	<circle cx="496.76" cy="421.419" r="4" fill="#0" id="circle321"/>
	<circle cx="515.463" cy="413.285" r="4" fill="#0" id="circle322"/>
	<circle cx="549.585" cy="425.409" r="4" fill="#0" id="circle323"/>
	<circle cx="561.631" cy="428.62" r="4" fill="#0" id="circle324"/>
	<circle cx="584.435" cy="417.945" r="4" fill="#0" id="circle325"/>
	<circle cx="606.639" cy="411.522" r="4" fill="#0" id="circle326"/>
	<circle cx="642.122" cy="426.215" r="4" fill="#0" id="circle327"/>
	<circle cx="663.56" cy="429.912" r="4" fill="#0" id="circle328"/>
	<circle cx="674.856" cy="427.471" r="4" fill="#0" id="circle329"/>
	<circle cx="702.564" cy="426.377" r="4" fill="#0" id="circle330"/>
	<circle cx="699.133" cy="429.928" r="4" fill="#0" id="circle331"/>
	<circle cx="721.91" cy="417.629" r="4" fill="#0" id="circle332"/>
	<circle cx="726.535" cy="394.319" r="4" fill="#0" id="circle333"/>
	<circle cx="722.894" cy="395.956" r="4" fill="#0" id="circle334"/>
	<circle cx="743.361" cy="387.568" r="4" fill="#0" id="circle335"/>
	<circle cx="768.134" cy="372.469" r="4" fill="#0" id="circle336"/>
	<circle cx="792.314" cy="376.801" r="4" fill="#0" id="circle337"/>
	<circle cx="829.54" cy="364.607" r="4" fill="#0" id="circle338"/>
	<circle cx="845.76" cy="379.989" r="4" fill="#0" id="circle339"/>
	<circle cx="877.161" cy="374.849" r="4" fill="#0" id="circle340"/>
	<circle cx="876.613" cy="366.992" r="4" fill="#0" id="circle341"/>
	<circle cx="905.435" cy="366.797" r="4" fill="#0" id="circle342"/>
	<circle cx="921.304" cy="389.957" r="4" fill="#0" id="circle343"/>
	<circle cx="926.814" cy="398.052" r="4" fill="#0" id="circle344"/>
	<circle cx="926.219" cy="418.222" r="4" fill="#0" id="circle345"/>
	<circle cx="934.223" cy="416.44" r="4" fill="#0" id="circle346"/>
	<circle cx="958.949" cy="429.155" r="4" fill="#0" id="circle347"/>
	</g>
</svg>