<?xml version="1.0" encoding="UTF-8" standalone="no"?>
<!-- Created with CurveBenchmark -->
<svg
	xmlns:dc="http://purl.org/dc/elements/1.1/"
	xmlns:cc="http://creativecommons.org/ns#"
	xmlns:rdf="http://www.w3.org/1999/02/22-rdf-syntax-ns#"
	xmlns:svg="http://www.w3.org/2000/svg"
	xmlns="http://www.w3.org/2000/svg"
	xmlns:sodipodi="http://sodipodi.sourceforge.net/DTD/sodipodi-0.dtd"
	xmlns:inkscape="http://www.inkscape.org/namespaces/inkscape"
	width="1000"
	height="1000"
	id="svg2"
	version="1.1"
	sodipodi:docname="noisy-0.01/hnncrust-mc29.txt">
<defs
	id="defs4" />
<metadata
	id="metadata7">
	<rdf:RDF>
		<cc:Work
			rdf:about="">
			<dc:format>image/svg+xml</dc:format>
			<dc:type
				rdf:resource="http://purl.org/dc/dcmitype/StillImage" />
			<dc:title></dc:title>
		</cc:Work>
	</rdf:RDF>
</metadata>
<g
	inkscape:label="Layer 1"
	inkscape:groupmode="layer"
	id="layer1">
	<path style="fill:none;stroke:red;stroke-width:1px;stroke-linecap:butt;stroke-linejoin:miter;stroke-opacity:1" d="M 345.436,822.094 281.591,816.14 z" id="boundary" inkscape:connector-curvature="0" />
	<path style="fill:none;stroke:red;stroke-width:1px;stroke-linecap:butt;stroke-linejoin:miter;stroke-opacity:1" d="M 281.591,816.14 275.051,743.904 z" id="boundary" inkscape:connector-curvature="0" />
	<path style="fill:none;stroke:red;stroke-width:1px;stroke-linecap:butt;stroke-linejoin:miter;stroke-opacity:1" d="M 275.051,743.904 290.335,682.946 z" id="boundary" inkscape:connector-curvature="0" />
	<path style="fill:none;stroke:red;stroke-width:1px;stroke-linecap:butt;stroke-linejoin:miter;stroke-opacity:1" d="M 290.335,682.946 284.634,645.687 z" id="boundary" inkscape:connector-curvature="0" />
	<path style="fill:none;stroke:red;stroke-width:1px;stroke-linecap:butt;stroke-linejoin:miter;stroke-opacity:1" d="M 284.634,645.687 227.102,615.743 z" id="boundary" inkscape:connector-curvature="0" />
	<path style="fill:none;stroke:red;stroke-width:1px;stroke-linecap:butt;stroke-linejoin:miter;stroke-opacity:1" d="M 227.102,615.743 166.312,599.076 z" id="boundary" inkscape:connector-curvature="0" />
	<path style="fill:none;stroke:red;stroke-width:1px;stroke-linecap:butt;stroke-linejoin:miter;stroke-opacity:1" d="M 166.312,599.076 99.6828,547.343 z" id="boundary" inkscape:connector-curvature="0" />
	<path style="fill:none;stroke:red;stroke-width:1px;stroke-linecap:butt;stroke-linejoin:miter;stroke-opacity:1" d="M 99.6828,547.343 26.1618,501.425 z" id="boundary" inkscape:connector-curvature="0" />
	<path style="fill:none;stroke:red;stroke-width:1px;stroke-linecap:butt;stroke-linejoin:miter;stroke-opacity:1" d="M 26.1618,501.425 6.14042,424.488 z" id="boundary" inkscape:connector-curvature="0" />
	<path style="fill:none;stroke:red;stroke-width:1px;stroke-linecap:butt;stroke-linejoin:miter;stroke-opacity:1" d="M 6.14042,424.488 5.00685,331.071 z" id="boundary" inkscape:connector-curvature="0" />
	<path style="fill:none;stroke:red;stroke-width:1px;stroke-linecap:butt;stroke-linejoin:miter;stroke-opacity:1" d="M 46.0101,288.342 55.7497,320.225 z" id="boundary" inkscape:connector-curvature="0" />
	<path style="fill:none;stroke:red;stroke-width:1px;stroke-linecap:butt;stroke-linejoin:miter;stroke-opacity:1" d="M 46.0101,288.342 30.818,275.061 z" id="boundary" inkscape:connector-curvature="0" />
	<path style="fill:none;stroke:red;stroke-width:1px;stroke-linecap:butt;stroke-linejoin:miter;stroke-opacity:1" d="M 55.7497,320.225 93.0817,349.51 z" id="boundary" inkscape:connector-curvature="0" />
	<path style="fill:none;stroke:red;stroke-width:1px;stroke-linecap:butt;stroke-linejoin:miter;stroke-opacity:1" d="M 93.0817,349.51 114.501,344.902 z" id="boundary" inkscape:connector-curvature="0" />
	<path style="fill:none;stroke:red;stroke-width:1px;stroke-linecap:butt;stroke-linejoin:miter;stroke-opacity:1" d="M 114.501,344.902 147.309,298.734 z" id="boundary" inkscape:connector-curvature="0" />
	<path style="fill:none;stroke:red;stroke-width:1px;stroke-linecap:butt;stroke-linejoin:miter;stroke-opacity:1" d="M 147.309,298.734 156.182,262.536 z" id="boundary" inkscape:connector-curvature="0" />
	<path style="fill:none;stroke:red;stroke-width:1px;stroke-linecap:butt;stroke-linejoin:miter;stroke-opacity:1" d="M 156.182,262.536 167.835,211.3 z" id="boundary" inkscape:connector-curvature="0" />
	<path style="fill:none;stroke:red;stroke-width:1px;stroke-linecap:butt;stroke-linejoin:miter;stroke-opacity:1" d="M 193.263,107.62 193.882,72.9933 z" id="boundary" inkscape:connector-curvature="0" />
	<path style="fill:none;stroke:red;stroke-width:1px;stroke-linecap:butt;stroke-linejoin:miter;stroke-opacity:1" d="M 193.263,107.62 241.313,105.486 z" id="boundary" inkscape:connector-curvature="0" />
	<path style="fill:none;stroke:red;stroke-width:1px;stroke-linecap:butt;stroke-linejoin:miter;stroke-opacity:1" d="M 193.882,72.9933 223.041,59.3375 z" id="boundary" inkscape:connector-curvature="0" />
	<path style="fill:none;stroke:red;stroke-width:1px;stroke-linecap:butt;stroke-linejoin:miter;stroke-opacity:1" d="M 228.463,74.2133 223.041,59.3375 z" id="boundary" inkscape:connector-curvature="0" />
	<path style="fill:none;stroke:red;stroke-width:1px;stroke-linecap:butt;stroke-linejoin:miter;stroke-opacity:1" d="M 228.463,74.2133 241.313,105.486 z" id="boundary" inkscape:connector-curvature="0" />
	<path style="fill:none;stroke:red;stroke-width:1px;stroke-linecap:butt;stroke-linejoin:miter;stroke-opacity:1" d="M 234.683,157.349 249.652,174.397 z" id="boundary" inkscape:connector-curvature="0" />
	<path style="fill:none;stroke:red;stroke-width:1px;stroke-linecap:butt;stroke-linejoin:miter;stroke-opacity:1" d="M 249.652,174.397 244.489,217.456 z" id="boundary" inkscape:connector-curvature="0" />
	<path style="fill:none;stroke:red;stroke-width:1px;stroke-linecap:butt;stroke-linejoin:miter;stroke-opacity:1" d="M 244.489,217.456 275.331,279.449 z" id="boundary" inkscape:connector-curvature="0" />
	<path style="fill:none;stroke:red;stroke-width:1px;stroke-linecap:butt;stroke-linejoin:miter;stroke-opacity:1" d="M 275.331,279.449 277.068,325.093 z" id="boundary" inkscape:connector-curvature="0" />
	<path style="fill:none;stroke:red;stroke-width:1px;stroke-linecap:butt;stroke-linejoin:miter;stroke-opacity:1" d="M 277.068,325.093 306.689,322.154 z" id="boundary" inkscape:connector-curvature="0" />
	<path style="fill:none;stroke:red;stroke-width:1px;stroke-linecap:butt;stroke-linejoin:miter;stroke-opacity:1" d="M 306.689,322.154 322.718,340.256 z" id="boundary" inkscape:connector-curvature="0" />
	<path style="fill:none;stroke:red;stroke-width:1px;stroke-linecap:butt;stroke-linejoin:miter;stroke-opacity:1" d="M 322.718,340.256 367.198,329.205 z" id="boundary" inkscape:connector-curvature="0" />
	<path style="fill:none;stroke:red;stroke-width:1px;stroke-linecap:butt;stroke-linejoin:miter;stroke-opacity:1" d="M 367.198,329.205 391.157,311.023 z" id="boundary" inkscape:connector-curvature="0" />
	<path style="fill:none;stroke:red;stroke-width:1px;stroke-linecap:butt;stroke-linejoin:miter;stroke-opacity:1" d="M 391.157,311.023 392.018,283.379 z" id="boundary" inkscape:connector-curvature="0" />
	<path style="fill:none;stroke:red;stroke-width:1px;stroke-linecap:butt;stroke-linejoin:miter;stroke-opacity:1" d="M 392.018,283.379 392.712,270.834 z" id="boundary" inkscape:connector-curvature="0" />
	<path style="fill:none;stroke:red;stroke-width:1px;stroke-linecap:butt;stroke-linejoin:miter;stroke-opacity:1" d="M 400.014,204.437 393.417,169.977 z" id="boundary" inkscape:connector-curvature="0" />
	<path style="fill:none;stroke:red;stroke-width:1px;stroke-linecap:butt;stroke-linejoin:miter;stroke-opacity:1" d="M 400.014,204.437 437.966,196.943 z" id="boundary" inkscape:connector-curvature="0" />
	<path style="fill:none;stroke:red;stroke-width:1px;stroke-linecap:butt;stroke-linejoin:miter;stroke-opacity:1" d="M 393.417,169.977 402.908,121.38 z" id="boundary" inkscape:connector-curvature="0" />
	<path style="fill:none;stroke:red;stroke-width:1px;stroke-linecap:butt;stroke-linejoin:miter;stroke-opacity:1" d="M 445.294,155.296 431.864,112.99 z" id="boundary" inkscape:connector-curvature="0" />
	<path style="fill:none;stroke:red;stroke-width:1px;stroke-linecap:butt;stroke-linejoin:miter;stroke-opacity:1" d="M 437.966,196.943 444.998,225.82 z" id="boundary" inkscape:connector-curvature="0" />
	<path style="fill:none;stroke:red;stroke-width:1px;stroke-linecap:butt;stroke-linejoin:miter;stroke-opacity:1" d="M 444.998,225.82 452.85,244.753 z" id="boundary" inkscape:connector-curvature="0" />
	<path style="fill:none;stroke:red;stroke-width:1px;stroke-linecap:butt;stroke-linejoin:miter;stroke-opacity:1" d="M 452.85,244.753 450.862,286.196 z" id="boundary" inkscape:connector-curvature="0" />
	<path style="fill:none;stroke:red;stroke-width:1px;stroke-linecap:butt;stroke-linejoin:miter;stroke-opacity:1" d="M 450.862,286.196 476.154,301.543 z" id="boundary" inkscape:connector-curvature="0" />
	<path style="fill:none;stroke:red;stroke-width:1px;stroke-linecap:butt;stroke-linejoin:miter;stroke-opacity:1" d="M 476.154,301.543 521.228,321.677 z" id="boundary" inkscape:connector-curvature="0" />
	<path style="fill:none;stroke:red;stroke-width:1px;stroke-linecap:butt;stroke-linejoin:miter;stroke-opacity:1" d="M 521.228,321.677 549.834,318.878 z" id="boundary" inkscape:connector-curvature="0" />
	<path style="fill:none;stroke:red;stroke-width:1px;stroke-linecap:butt;stroke-linejoin:miter;stroke-opacity:1" d="M 596.61,290.12 617.012,262.074 z" id="boundary" inkscape:connector-curvature="0" />
	<path style="fill:none;stroke:red;stroke-width:1px;stroke-linecap:butt;stroke-linejoin:miter;stroke-opacity:1" d="M 596.61,290.12 627.591,321.513 z" id="boundary" inkscape:connector-curvature="0" />
	<path style="fill:none;stroke:red;stroke-width:1px;stroke-linecap:butt;stroke-linejoin:miter;stroke-opacity:1" d="M 617.012,262.074 627.156,226.919 z" id="boundary" inkscape:connector-curvature="0" />
	<path style="fill:none;stroke:red;stroke-width:1px;stroke-linecap:butt;stroke-linejoin:miter;stroke-opacity:1" d="M 627.591,321.513 614.989,408.174 z" id="boundary" inkscape:connector-curvature="0" />
	<path style="fill:none;stroke:red;stroke-width:1px;stroke-linecap:butt;stroke-linejoin:miter;stroke-opacity:1" d="M 614.989,408.174 570.372,479.333 z" id="boundary" inkscape:connector-curvature="0" />
	<path style="fill:none;stroke:red;stroke-width:1px;stroke-linecap:butt;stroke-linejoin:miter;stroke-opacity:1" d="M 570.372,479.333 554.53,535.31 z" id="boundary" inkscape:connector-curvature="0" />
	<path style="fill:none;stroke:red;stroke-width:1px;stroke-linecap:butt;stroke-linejoin:miter;stroke-opacity:1" d="M 554.53,535.31 432.842,600.906 z" id="boundary" inkscape:connector-curvature="0" />
	<path style="fill:none;stroke:red;stroke-width:1px;stroke-linecap:butt;stroke-linejoin:miter;stroke-opacity:1" d="M 432.842,600.906 395.62,623.812 z" id="boundary" inkscape:connector-curvature="0" />
	<path style="fill:none;stroke:red;stroke-width:1px;stroke-linecap:butt;stroke-linejoin:miter;stroke-opacity:1" d="M 353.99,677.229 353.787,728.084 z" id="boundary" inkscape:connector-curvature="0" />
	<path style="fill:none;stroke:red;stroke-width:1px;stroke-linecap:butt;stroke-linejoin:miter;stroke-opacity:1" d="M 364.271,965.808 355.617,996 z" id="boundary" inkscape:connector-curvature="0" />
	<path style="fill:none;stroke:red;stroke-width:1px;stroke-linecap:butt;stroke-linejoin:miter;stroke-opacity:1" d="M 355.617,996 297.745,982.736 z" id="boundary" inkscape:connector-curvature="0" />
	<path style="fill:none;stroke:red;stroke-width:1px;stroke-linecap:butt;stroke-linejoin:miter;stroke-opacity:1" d="M 251.835,473.664 255.44,446.047 z" id="boundary" inkscape:connector-curvature="0" />
	<path style="fill:none;stroke:red;stroke-width:1px;stroke-linecap:butt;stroke-linejoin:miter;stroke-opacity:1" d="M 251.835,473.664 226.154,473.263 z" id="boundary" inkscape:connector-curvature="0" />
	<path style="fill:none;stroke:red;stroke-width:1px;stroke-linecap:butt;stroke-linejoin:miter;stroke-opacity:1" d="M 226.979,445.34 226.154,473.263 z" id="boundary" inkscape:connector-curvature="0" />
	<path style="fill:none;stroke:red;stroke-width:1px;stroke-linecap:butt;stroke-linejoin:miter;stroke-opacity:1" d="M 255.44,446.047 281.438,439.258 z" id="boundary" inkscape:connector-curvature="0" />
	<path style="fill:none;stroke:red;stroke-width:1px;stroke-linecap:butt;stroke-linejoin:miter;stroke-opacity:1" d="M 281.438,439.258 321.688,441.433 z" id="boundary" inkscape:connector-curvature="0" />
	<path style="fill:none;stroke:red;stroke-width:1px;stroke-linecap:butt;stroke-linejoin:miter;stroke-opacity:1" d="M 321.688,441.433 340.367,442.173 z" id="boundary" inkscape:connector-curvature="0" />
	<path style="fill:none;stroke:red;stroke-width:1px;stroke-linecap:butt;stroke-linejoin:miter;stroke-opacity:1" d="M 340.367,442.173 340.093,467.418 z" id="boundary" inkscape:connector-curvature="0" />
	<path style="fill:none;stroke:red;stroke-width:1px;stroke-linecap:butt;stroke-linejoin:miter;stroke-opacity:1" d="M 379.049,438.886 399.056,448.66 z" id="boundary" inkscape:connector-curvature="0" />
	<path style="fill:none;stroke:red;stroke-width:1px;stroke-linecap:butt;stroke-linejoin:miter;stroke-opacity:1" d="M 379.049,438.886 374.702,464.073 z" id="boundary" inkscape:connector-curvature="0" />
	<path style="fill:none;stroke:red;stroke-width:1px;stroke-linecap:butt;stroke-linejoin:miter;stroke-opacity:1" d="M 374.702,464.073 340.093,467.418 z" id="boundary" inkscape:connector-curvature="0" />
	<path style="fill:none;stroke:red;stroke-width:1px;stroke-linecap:butt;stroke-linejoin:miter;stroke-opacity:1" d="M 30.818,275.061 4,228.845 z" id="boundary" inkscape:connector-curvature="0" />
	<path style="fill:none;stroke:red;stroke-width:1px;stroke-linecap:butt;stroke-linejoin:miter;stroke-opacity:1" d="M 431.864,112.99 419.182,103.183 z" id="boundary" inkscape:connector-curvature="0" />
	<path style="fill:none;stroke:red;stroke-width:1px;stroke-linecap:butt;stroke-linejoin:miter;stroke-opacity:1" d="M 419.182,103.183 427.523,85.137 z" id="boundary" inkscape:connector-curvature="0" />
	<path style="fill:none;stroke:red;stroke-width:1px;stroke-linecap:butt;stroke-linejoin:miter;stroke-opacity:1" d="M 427.523,85.137 419.735,70.9595 z" id="boundary" inkscape:connector-curvature="0" />
	<path style="fill:none;stroke:red;stroke-width:1px;stroke-linecap:butt;stroke-linejoin:miter;stroke-opacity:1" d="M 419.735,70.9595 416.665,32.0588 z" id="boundary" inkscape:connector-curvature="0" />
	<path style="fill:none;stroke:red;stroke-width:1px;stroke-linecap:butt;stroke-linejoin:miter;stroke-opacity:1" d="M 416.665,32.0588 418.122,4 z" id="boundary" inkscape:connector-curvature="0" />
	<circle cx="345.436" cy="822.094" r="4" fill="#0" id="circle0"/>
	<circle cx="281.591" cy="816.14" r="4" fill="#0" id="circle1"/>
	<circle cx="275.051" cy="743.904" r="4" fill="#0" id="circle2"/>
	<circle cx="290.335" cy="682.946" r="4" fill="#0" id="circle3"/>
	<circle cx="284.634" cy="645.687" r="4" fill="#0" id="circle4"/>
	<circle cx="227.102" cy="615.743" r="4" fill="#0" id="circle5"/>
	<circle cx="166.312" cy="599.076" r="4" fill="#0" id="circle6"/>
	<circle cx="99.6828" cy="547.343" r="4" fill="#0" id="circle7"/>
	<circle cx="26.1618" cy="501.425" r="4" fill="#0" id="circle8"/>
	<circle cx="6.14042" cy="424.488" r="4" fill="#0" id="circle9"/>
	<circle cx="5.00685" cy="331.071" r="4" fill="#0" id="circle10"/>
	<circle cx="46.0101" cy="288.342" r="4" fill="#0" id="circle11"/>
	<circle cx="55.7497" cy="320.225" r="4" fill="#0" id="circle12"/>
	<circle cx="93.0817" cy="349.51" r="4" fill="#0" id="circle13"/>
	<circle cx="114.501" cy="344.902" r="4" fill="#0" id="circle14"/>
	<circle cx="147.309" cy="298.734" r="4" fill="#0" id="circle15"/>
	<circle cx="156.182" cy="262.536" r="4" fill="#0" id="circle16"/>
	<circle cx="167.835" cy="211.3" r="4" fill="#0" id="circle17"/>
	<circle cx="178.351" cy="155.915" r="4" fill="#0" id="circle18"/>
	<circle cx="193.263" cy="107.62" r="4" fill="#0" id="circle19"/>
	<circle cx="193.882" cy="72.9933" r="4" fill="#0" id="circle20"/>
	<circle cx="228.463" cy="74.2133" r="4" fill="#0" id="circle21"/>
	<circle cx="223.041" cy="59.3375" r="4" fill="#0" id="circle22"/>
	<circle cx="202.585" cy="17.4915" r="4" fill="#0" id="circle23"/>
	<circle cx="241.313" cy="105.486" r="4" fill="#0" id="circle24"/>
	<circle cx="234.683" cy="157.349" r="4" fill="#0" id="circle25"/>
	<circle cx="249.652" cy="174.397" r="4" fill="#0" id="circle26"/>
	<circle cx="244.489" cy="217.456" r="4" fill="#0" id="circle27"/>
	<circle cx="275.331" cy="279.449" r="4" fill="#0" id="circle28"/>
	<circle cx="277.068" cy="325.093" r="4" fill="#0" id="circle29"/>
	<circle cx="306.689" cy="322.154" r="4" fill="#0" id="circle30"/>
	<circle cx="322.718" cy="340.256" r="4" fill="#0" id="circle31"/>
	<circle cx="367.198" cy="329.205" r="4" fill="#0" id="circle32"/>
	<circle cx="391.157" cy="311.023" r="4" fill="#0" id="circle33"/>
	<circle cx="392.018" cy="283.379" r="4" fill="#0" id="circle34"/>
	<circle cx="392.712" cy="270.834" r="4" fill="#0" id="circle35"/>
	<circle cx="400.014" cy="204.437" r="4" fill="#0" id="circle36"/>
	<circle cx="393.417" cy="169.977" r="4" fill="#0" id="circle37"/>
	<circle cx="445.294" cy="155.296" r="4" fill="#0" id="circle38"/>
	<circle cx="437.966" cy="196.943" r="4" fill="#0" id="circle39"/>
	<circle cx="444.998" cy="225.82" r="4" fill="#0" id="circle40"/>
	<circle cx="452.85" cy="244.753" r="4" fill="#0" id="circle41"/>
	<circle cx="450.862" cy="286.196" r="4" fill="#0" id="circle42"/>
	<circle cx="476.154" cy="301.543" r="4" fill="#0" id="circle43"/>
	<circle cx="521.228" cy="321.677" r="4" fill="#0" id="circle44"/>
	<circle cx="549.834" cy="318.878" r="4" fill="#0" id="circle45"/>
	<circle cx="596.61" cy="290.12" r="4" fill="#0" id="circle46"/>
	<circle cx="617.012" cy="262.074" r="4" fill="#0" id="circle47"/>
	<circle cx="627.156" cy="226.919" r="4" fill="#0" id="circle48"/>
	<circle cx="627.591" cy="321.513" r="4" fill="#0" id="circle49"/>
	<circle cx="614.989" cy="408.174" r="4" fill="#0" id="circle50"/>
	<circle cx="570.372" cy="479.333" r="4" fill="#0" id="circle51"/>
	<circle cx="554.53" cy="535.31" r="4" fill="#0" id="circle52"/>
	<circle cx="432.842" cy="600.906" r="4" fill="#0" id="circle53"/>
	<circle cx="395.62" cy="623.812" r="4" fill="#0" id="circle54"/>
	<circle cx="353.99" cy="677.229" r="4" fill="#0" id="circle55"/>
	<circle cx="353.787" cy="728.084" r="4" fill="#0" id="circle56"/>
	<circle cx="364.271" cy="965.808" r="4" fill="#0" id="circle57"/>
	<circle cx="355.617" cy="996" r="4" fill="#0" id="circle58"/>
	<circle cx="297.745" cy="982.736" r="4" fill="#0" id="circle59"/>
	<circle cx="298.638" cy="487.764" r="4" fill="#0" id="circle60"/>
	<circle cx="251.835" cy="473.664" r="4" fill="#0" id="circle61"/>
	<circle cx="226.979" cy="445.34" r="4" fill="#0" id="circle62"/>
	<circle cx="255.44" cy="446.047" r="4" fill="#0" id="circle63"/>
	<circle cx="281.438" cy="439.258" r="4" fill="#0" id="circle64"/>
	<circle cx="321.688" cy="441.433" r="4" fill="#0" id="circle65"/>
	<circle cx="340.367" cy="442.173" r="4" fill="#0" id="circle66"/>
	<circle cx="379.049" cy="438.886" r="4" fill="#0" id="circle67"/>
	<circle cx="399.056" cy="448.66" r="4" fill="#0" id="circle68"/>
	<circle cx="374.702" cy="464.073" r="4" fill="#0" id="circle69"/>
	<circle cx="340.093" cy="467.418" r="4" fill="#0" id="circle70"/>
	<circle cx="226.154" cy="473.263" r="4" fill="#0" id="circle71"/>
	<circle cx="30.818" cy="275.061" r="4" fill="#0" id="circle72"/>
	<circle cx="4" cy="228.845" r="4" fill="#0" id="circle73"/>
	<circle cx="402.908" cy="121.38" r="4" fill="#0" id="circle74"/>
	<circle cx="431.864" cy="112.99" r="4" fill="#0" id="circle75"/>
	<circle cx="419.182" cy="103.183" r="4" fill="#0" id="circle76"/>
	<circle cx="427.523" cy="85.137" r="4" fill="#0" id="circle77"/>
	<circle cx="419.735" cy="70.9595" r="4" fill="#0" id="circle78"/>
	<circle cx="416.665" cy="32.0588" r="4" fill="#0" id="circle79"/>
	<circle cx="418.122" cy="4" r="4" fill="#0" id="circle80"/>
	</g>
</svg>