<?xml version="1.0" encoding="UTF-8" standalone="no"?>
<!-- Created with CurveBenchmark -->
<svg
	xmlns:dc="http://purl.org/dc/elements/1.1/"
	xmlns:cc="http://creativecommons.org/ns#"
	xmlns:rdf="http://www.w3.org/1999/02/22-rdf-syntax-ns#"
	xmlns:svg="http://www.w3.org/2000/svg"
	xmlns="http://www.w3.org/2000/svg"
	xmlns:sodipodi="http://sodipodi.sourceforge.net/DTD/sodipodi-0.dtd"
	xmlns:inkscape="http://www.inkscape.org/namespaces/inkscape"
	width="1000"
	height="1000"
	id="svg2"
	version="1.1"
	sodipodi:docname="noisy-0.01/stretchdenoise-mc19.txt">
<defs
	id="defs4" />
<metadata
	id="metadata7">
	<rdf:RDF>
		<cc:Work
			rdf:about="">
			<dc:format>image/svg+xml</dc:format>
			<dc:type
				rdf:resource="http://purl.org/dc/dcmitype/StillImage" />
			<dc:title></dc:title>
		</cc:Work>
	</rdf:RDF>
</metadata>
<g
	inkscape:label="Layer 1"
	inkscape:groupmode="layer"
	id="layer1">
	<path style="fill:none;stroke:red;stroke-width:1px;stroke-linecap:butt;stroke-linejoin:miter;stroke-opacity:1" d="M 4,678.675 44.8351,732.097 z" id="boundary" inkscape:connector-curvature="0" />
	<path style="fill:none;stroke:red;stroke-width:1px;stroke-linecap:butt;stroke-linejoin:miter;stroke-opacity:1" d="M 4,678.675 48.3296,566.054 z" id="boundary" inkscape:connector-curvature="0" />
	<path style="fill:none;stroke:red;stroke-width:1px;stroke-linecap:butt;stroke-linejoin:miter;stroke-opacity:1" d="M 44.8351,732.097 160.574,778.13 z" id="boundary" inkscape:connector-curvature="0" />
	<path style="fill:none;stroke:red;stroke-width:1px;stroke-linecap:butt;stroke-linejoin:miter;stroke-opacity:1" d="M 48.3296,566.054 224.188,453.362 z" id="boundary" inkscape:connector-curvature="0" />
	<path style="fill:none;stroke:red;stroke-width:1px;stroke-linecap:butt;stroke-linejoin:miter;stroke-opacity:1" d="M 160.574,778.13 225.565,994.409 z" id="boundary" inkscape:connector-curvature="0" />
	<path style="fill:none;stroke:red;stroke-width:1px;stroke-linecap:butt;stroke-linejoin:miter;stroke-opacity:1" d="M 224.188,453.362 341.299,429.163 z" id="boundary" inkscape:connector-curvature="0" />
	<path style="fill:none;stroke:red;stroke-width:1px;stroke-linecap:butt;stroke-linejoin:miter;stroke-opacity:1" d="M 225.565,994.409 382.252,981.33 z" id="boundary" inkscape:connector-curvature="0" />
	<path style="fill:none;stroke:red;stroke-width:1px;stroke-linecap:butt;stroke-linejoin:miter;stroke-opacity:1" d="M 341.299,429.163 452.023,456.573 z" id="boundary" inkscape:connector-curvature="0" />
	<path style="fill:none;stroke:red;stroke-width:1px;stroke-linecap:butt;stroke-linejoin:miter;stroke-opacity:1" d="M 360.951,877.836 382.252,981.33 z" id="boundary" inkscape:connector-curvature="0" />
	<path style="fill:none;stroke:red;stroke-width:1px;stroke-linecap:butt;stroke-linejoin:miter;stroke-opacity:1" d="M 360.951,877.836 420.275,780.44 z" id="boundary" inkscape:connector-curvature="0" />
	<path style="fill:none;stroke:red;stroke-width:1px;stroke-linecap:butt;stroke-linejoin:miter;stroke-opacity:1" d="M 420.275,780.44 571.398,752.938 z" id="boundary" inkscape:connector-curvature="0" />
	<path style="fill:none;stroke:red;stroke-width:1px;stroke-linecap:butt;stroke-linejoin:miter;stroke-opacity:1" d="M 452.023,456.573 627.5,547.497 z" id="boundary" inkscape:connector-curvature="0" />
	<path style="fill:none;stroke:red;stroke-width:1px;stroke-linecap:butt;stroke-linejoin:miter;stroke-opacity:1" d="M 460.015,95.854 456.593,78.6908 z" id="boundary" inkscape:connector-curvature="0" />
	<path style="fill:none;stroke:red;stroke-width:1px;stroke-linecap:butt;stroke-linejoin:miter;stroke-opacity:1" d="M 460.015,95.854 537.002,46.3996 z" id="boundary" inkscape:connector-curvature="0" />
	<path style="fill:none;stroke:red;stroke-width:1px;stroke-linecap:butt;stroke-linejoin:miter;stroke-opacity:1" d="M 456.593,78.6908 487.804,70.1743 z" id="boundary" inkscape:connector-curvature="0" />
	<path style="fill:none;stroke:red;stroke-width:1px;stroke-linecap:butt;stroke-linejoin:miter;stroke-opacity:1" d="M 537.002,46.3996 685.546,18.6752 z" id="boundary" inkscape:connector-curvature="0" />
	<path style="fill:none;stroke:red;stroke-width:1px;stroke-linecap:butt;stroke-linejoin:miter;stroke-opacity:1" d="M 571.398,752.938 646.841,706.756 z" id="boundary" inkscape:connector-curvature="0" />
	<path style="fill:none;stroke:red;stroke-width:1px;stroke-linecap:butt;stroke-linejoin:miter;stroke-opacity:1" d="M 646.841,706.756 723.373,627.511 z" id="boundary" inkscape:connector-curvature="0" />
	<path style="fill:none;stroke:red;stroke-width:1px;stroke-linecap:butt;stroke-linejoin:miter;stroke-opacity:1" d="M 680.869,74.8677 685.546,18.6752 z" id="boundary" inkscape:connector-curvature="0" />
	<path style="fill:none;stroke:red;stroke-width:1px;stroke-linecap:butt;stroke-linejoin:miter;stroke-opacity:1" d="M 680.869,74.8677 686.095,103.381 z" id="boundary" inkscape:connector-curvature="0" />
	<path style="fill:none;stroke:red;stroke-width:1px;stroke-linecap:butt;stroke-linejoin:miter;stroke-opacity:1" d="M 686.095,103.381 771.435,91.6595 z" id="boundary" inkscape:connector-curvature="0" />
	<path style="fill:none;stroke:red;stroke-width:1px;stroke-linecap:butt;stroke-linejoin:miter;stroke-opacity:1" d="M 723.373,627.511 755.958,549.864 z" id="boundary" inkscape:connector-curvature="0" />
	<path style="fill:none;stroke:red;stroke-width:1px;stroke-linecap:butt;stroke-linejoin:miter;stroke-opacity:1" d="M 755.958,549.864 769.242,436.888 z" id="boundary" inkscape:connector-curvature="0" />
	<path style="fill:none;stroke:red;stroke-width:1px;stroke-linecap:butt;stroke-linejoin:miter;stroke-opacity:1" d="M 769.242,436.888 788.437,327.126 z" id="boundary" inkscape:connector-curvature="0" />
	<path style="fill:none;stroke:red;stroke-width:1px;stroke-linecap:butt;stroke-linejoin:miter;stroke-opacity:1" d="M 771.435,91.6595 776.789,117.147 z" id="boundary" inkscape:connector-curvature="0" />
	<path style="fill:none;stroke:red;stroke-width:1px;stroke-linecap:butt;stroke-linejoin:miter;stroke-opacity:1" d="M 776.789,117.147 805.03,184.185 z" id="boundary" inkscape:connector-curvature="0" />
	<path style="fill:none;stroke:red;stroke-width:1px;stroke-linecap:butt;stroke-linejoin:miter;stroke-opacity:1" d="M 788.437,327.126 791.822,270.618 z" id="boundary" inkscape:connector-curvature="0" />
	<path style="fill:none;stroke:red;stroke-width:1px;stroke-linecap:butt;stroke-linejoin:miter;stroke-opacity:1" d="M 791.822,270.618 805.03,184.185 z" id="boundary" inkscape:connector-curvature="0" />
	<circle cx="4" cy="678.675" r="4" fill="#0" id="circle0"/>
	<circle cx="44.8351" cy="732.097" r="4" fill="#0" id="circle1"/>
	<circle cx="48.3296" cy="566.054" r="4" fill="#0" id="circle2"/>
	<circle cx="160.574" cy="778.13" r="4" fill="#0" id="circle3"/>
	<circle cx="224.188" cy="453.362" r="4" fill="#0" id="circle4"/>
	<circle cx="225.565" cy="994.409" r="4" fill="#0" id="circle5"/>
	<circle cx="239.791" cy="984.23" r="4" fill="#0" id="circle6"/>
	<circle cx="231.257" cy="994.002" r="4" fill="#0" id="circle7"/>
	<circle cx="250.156" cy="971.993" r="4" fill="#0" id="circle8"/>
	<circle cx="274.136" cy="992.894" r="4" fill="#0" id="circle9"/>
	<circle cx="282.202" cy="809.392" r="4" fill="#0" id="circle10"/>
	<circle cx="283.433" cy="965.59" r="4" fill="#0" id="circle11"/>
	<circle cx="295.905" cy="994" r="4" fill="#0" id="circle12"/>
	<circle cx="305.778" cy="978.525" r="4" fill="#0" id="circle13"/>
	<circle cx="292.204" cy="810.151" r="4" fill="#0" id="circle14"/>
	<circle cx="306.79" cy="942.337" r="4" fill="#0" id="circle15"/>
	<circle cx="309.104" cy="863.96" r="4" fill="#0" id="circle16"/>
	<circle cx="308.467" cy="916.483" r="4" fill="#0" id="circle17"/>
	<circle cx="314.309" cy="884.884" r="4" fill="#0" id="circle18"/>
	<circle cx="319.45" cy="981.894" r="4" fill="#0" id="circle19"/>
	<circle cx="330.753" cy="845.285" r="4" fill="#0" id="circle20"/>
	<circle cx="336.149" cy="949.642" r="4" fill="#0" id="circle21"/>
	<circle cx="341.299" cy="429.163" r="4" fill="#0" id="circle22"/>
	<circle cx="327.893" cy="982.917" r="4" fill="#0" id="circle23"/>
	<circle cx="348.92" cy="786.663" r="4" fill="#0" id="circle24"/>
	<circle cx="337.257" cy="950.176" r="4" fill="#0" id="circle25"/>
	<circle cx="345.79" cy="969.053" r="4" fill="#0" id="circle26"/>
	<circle cx="330.646" cy="918.892" r="4" fill="#0" id="circle27"/>
	<circle cx="360.951" cy="877.836" r="4" fill="#0" id="circle28"/>
	<circle cx="350.89" cy="901.256" r="4" fill="#0" id="circle29"/>
	<circle cx="362.984" cy="965.657" r="4" fill="#0" id="circle30"/>
	<circle cx="348.172" cy="991.077" r="4" fill="#0" id="circle31"/>
	<circle cx="382.252" cy="981.33" r="4" fill="#0" id="circle32"/>
	<circle cx="383.8" cy="996" r="4" fill="#0" id="circle33"/>
	<circle cx="420.275" cy="780.44" r="4" fill="#0" id="circle34"/>
	<circle cx="452.023" cy="456.573" r="4" fill="#0" id="circle35"/>
	<circle cx="460.015" cy="95.854" r="4" fill="#0" id="circle36"/>
	<circle cx="456.593" cy="78.6908" r="4" fill="#0" id="circle37"/>
	<circle cx="492.574" cy="96.4838" r="4" fill="#0" id="circle38"/>
	<circle cx="487.804" cy="70.1743" r="4" fill="#0" id="circle39"/>
	<circle cx="509.275" cy="110.916" r="4" fill="#0" id="circle40"/>
	<circle cx="540.465" cy="97.1881" r="4" fill="#0" id="circle41"/>
	<circle cx="537.002" cy="46.3996" r="4" fill="#0" id="circle42"/>
	<circle cx="627.5" cy="547.497" r="4" fill="#0" id="circle43"/>
	<circle cx="571.398" cy="752.938" r="4" fill="#0" id="circle44"/>
	<circle cx="560.226" cy="19.4029" r="4" fill="#0" id="circle45"/>
	<circle cx="579.221" cy="99.8966" r="4" fill="#0" id="circle46"/>
	<circle cx="597.757" cy="4" r="4" fill="#0" id="circle47"/>
	<circle cx="621.503" cy="4.63039" r="4" fill="#0" id="circle48"/>
	<circle cx="616.358" cy="76.1997" r="4" fill="#0" id="circle49"/>
	<circle cx="656.639" cy="325.201" r="4" fill="#0" id="circle50"/>
	<circle cx="646.841" cy="706.756" r="4" fill="#0" id="circle51"/>
	<circle cx="680.869" cy="74.8677" r="4" fill="#0" id="circle52"/>
	<circle cx="685.546" cy="18.6752" r="4" fill="#0" id="circle53"/>
	<circle cx="686.095" cy="103.381" r="4" fill="#0" id="circle54"/>
	<circle cx="688.866" cy="253.465" r="4" fill="#0" id="circle55"/>
	<circle cx="717.525" cy="35.35" r="4" fill="#0" id="circle56"/>
	<circle cx="726.32" cy="170.919" r="4" fill="#0" id="circle57"/>
	<circle cx="723.373" cy="627.511" r="4" fill="#0" id="circle58"/>
	<circle cx="755.958" cy="549.864" r="4" fill="#0" id="circle59"/>
	<circle cx="770.625" cy="520.381" r="4" fill="#0" id="circle60"/>
	<circle cx="769.242" cy="436.888" r="4" fill="#0" id="circle61"/>
	<circle cx="759.434" cy="369.496" r="4" fill="#0" id="circle62"/>
	<circle cx="771.435" cy="91.6595" r="4" fill="#0" id="circle63"/>
	<circle cx="776.789" cy="117.147" r="4" fill="#0" id="circle64"/>
	<circle cx="788.437" cy="327.126" r="4" fill="#0" id="circle65"/>
	<circle cx="791.822" cy="270.618" r="4" fill="#0" id="circle66"/>
	<circle cx="805.03" cy="184.185" r="4" fill="#0" id="circle67"/>
	<circle cx="807.88" cy="211.796" r="4" fill="#0" id="circle68"/>
	<circle cx="586.924" cy="48.1493" r="4" fill="#0" id="circle69"/>
	<circle cx="596.703" cy="50.3861" r="4" fill="#0" id="circle70"/>
	<circle cx="608.073" cy="56.3598" r="4" fill="#0" id="circle71"/>
	<circle cx="606.575" cy="50.2421" r="4" fill="#0" id="circle72"/>
	<circle cx="579.866" cy="36.8167" r="4" fill="#0" id="circle73"/>
	</g>
</svg>