<?xml version="1.0" encoding="UTF-8" standalone="no"?>
<!-- Created with CurveBenchmark -->
<svg
	xmlns:dc="http://purl.org/dc/elements/1.1/"
	xmlns:cc="http://creativecommons.org/ns#"
	xmlns:rdf="http://www.w3.org/1999/02/22-rdf-syntax-ns#"
	xmlns:svg="http://www.w3.org/2000/svg"
	xmlns="http://www.w3.org/2000/svg"
	xmlns:sodipodi="http://sodipodi.sourceforge.net/DTD/sodipodi-0.dtd"
	xmlns:inkscape="http://www.inkscape.org/namespaces/inkscape"
	width="1000"
	height="1000"
	id="svg2"
	version="1.1"
	sodipodi:docname="noisy-0.01/stretchdenoise-mc20.txt">
<defs
	id="defs4" />
<metadata
	id="metadata7">
	<rdf:RDF>
		<cc:Work
			rdf:about="">
			<dc:format>image/svg+xml</dc:format>
			<dc:type
				rdf:resource="http://purl.org/dc/dcmitype/StillImage" />
			<dc:title></dc:title>
		</cc:Work>
	</rdf:RDF>
</metadata>
<g
	inkscape:label="Layer 1"
	inkscape:groupmode="layer"
	id="layer1">
	<path style="fill:none;stroke:red;stroke-width:1px;stroke-linecap:butt;stroke-linejoin:miter;stroke-opacity:1" d="M 4,960.358 16.3627,850.953 z" id="boundary" inkscape:connector-curvature="0" />
	<path style="fill:none;stroke:red;stroke-width:1px;stroke-linecap:butt;stroke-linejoin:miter;stroke-opacity:1" d="M 4,960.358 49.5363,996 z" id="boundary" inkscape:connector-curvature="0" />
	<path style="fill:none;stroke:red;stroke-width:1px;stroke-linecap:butt;stroke-linejoin:miter;stroke-opacity:1" d="M 16.3627,850.953 75.2904,783.657 z" id="boundary" inkscape:connector-curvature="0" />
	<path style="fill:none;stroke:red;stroke-width:1px;stroke-linecap:butt;stroke-linejoin:miter;stroke-opacity:1" d="M 49.5363,996 134.986,947.36 z" id="boundary" inkscape:connector-curvature="0" />
	<path style="fill:none;stroke:red;stroke-width:1px;stroke-linecap:butt;stroke-linejoin:miter;stroke-opacity:1" d="M 75.2904,783.657 139.666,711.755 z" id="boundary" inkscape:connector-curvature="0" />
	<path style="fill:none;stroke:red;stroke-width:1px;stroke-linecap:butt;stroke-linejoin:miter;stroke-opacity:1" d="M 134.986,947.36 208.808,865.58 z" id="boundary" inkscape:connector-curvature="0" />
	<path style="fill:none;stroke:red;stroke-width:1px;stroke-linecap:butt;stroke-linejoin:miter;stroke-opacity:1" d="M 139.666,711.755 144.454,643.984 z" id="boundary" inkscape:connector-curvature="0" />
	<path style="fill:none;stroke:red;stroke-width:1px;stroke-linecap:butt;stroke-linejoin:miter;stroke-opacity:1" d="M 153.007,484.102 144.454,643.984 z" id="boundary" inkscape:connector-curvature="0" />
	<path style="fill:none;stroke:red;stroke-width:1px;stroke-linecap:butt;stroke-linejoin:miter;stroke-opacity:1" d="M 153.007,484.102 171.135,354.275 z" id="boundary" inkscape:connector-curvature="0" />
	<path style="fill:none;stroke:red;stroke-width:1px;stroke-linecap:butt;stroke-linejoin:miter;stroke-opacity:1" d="M 171.135,354.275 205.568,216.216 z" id="boundary" inkscape:connector-curvature="0" />
	<path style="fill:none;stroke:red;stroke-width:1px;stroke-linecap:butt;stroke-linejoin:miter;stroke-opacity:1" d="M 205.568,216.216 258.995,95.5012 z" id="boundary" inkscape:connector-curvature="0" />
	<path style="fill:none;stroke:red;stroke-width:1px;stroke-linecap:butt;stroke-linejoin:miter;stroke-opacity:1" d="M 208.808,865.58 262.437,782.195 z" id="boundary" inkscape:connector-curvature="0" />
	<path style="fill:none;stroke:red;stroke-width:1px;stroke-linecap:butt;stroke-linejoin:miter;stroke-opacity:1" d="M 258.995,95.5012 351.185,29.7339 z" id="boundary" inkscape:connector-curvature="0" />
	<path style="fill:none;stroke:red;stroke-width:1px;stroke-linecap:butt;stroke-linejoin:miter;stroke-opacity:1" d="M 262.437,782.195 318.282,749.205 z" id="boundary" inkscape:connector-curvature="0" />
	<path style="fill:none;stroke:red;stroke-width:1px;stroke-linecap:butt;stroke-linejoin:miter;stroke-opacity:1" d="M 318.282,749.205 389.888,728.193 z" id="boundary" inkscape:connector-curvature="0" />
	<path style="fill:none;stroke:red;stroke-width:1px;stroke-linecap:butt;stroke-linejoin:miter;stroke-opacity:1" d="M 351.185,29.7339 527.164,4 z" id="boundary" inkscape:connector-curvature="0" />
	<path style="fill:none;stroke:red;stroke-width:1px;stroke-linecap:butt;stroke-linejoin:miter;stroke-opacity:1" d="M 389.888,728.193 565.02,727.172 z" id="boundary" inkscape:connector-curvature="0" />
	<path style="fill:none;stroke:red;stroke-width:1px;stroke-linecap:butt;stroke-linejoin:miter;stroke-opacity:1" d="M 394.702,339.5 394.059,429.706 z" id="boundary" inkscape:connector-curvature="0" />
	<path style="fill:none;stroke:red;stroke-width:1px;stroke-linecap:butt;stroke-linejoin:miter;stroke-opacity:1" d="M 394.702,339.5 458.952,209.535 z" id="boundary" inkscape:connector-curvature="0" />
	<path style="fill:none;stroke:red;stroke-width:1px;stroke-linecap:butt;stroke-linejoin:miter;stroke-opacity:1" d="M 394.059,429.706 511.507,462.791 z" id="boundary" inkscape:connector-curvature="0" />
	<path style="fill:none;stroke:red;stroke-width:1px;stroke-linecap:butt;stroke-linejoin:miter;stroke-opacity:1" d="M 458.952,209.535 536.352,194.861 z" id="boundary" inkscape:connector-curvature="0" />
	<path style="fill:none;stroke:red;stroke-width:1px;stroke-linecap:butt;stroke-linejoin:miter;stroke-opacity:1" d="M 511.507,462.791 645.531,395.835 z" id="boundary" inkscape:connector-curvature="0" />
	<path style="fill:none;stroke:red;stroke-width:1px;stroke-linecap:butt;stroke-linejoin:miter;stroke-opacity:1" d="M 527.164,4 664.082,25.7017 z" id="boundary" inkscape:connector-curvature="0" />
	<path style="fill:none;stroke:red;stroke-width:1px;stroke-linecap:butt;stroke-linejoin:miter;stroke-opacity:1" d="M 536.352,194.861 618.574,216.844 z" id="boundary" inkscape:connector-curvature="0" />
	<path style="fill:none;stroke:red;stroke-width:1px;stroke-linecap:butt;stroke-linejoin:miter;stroke-opacity:1" d="M 565.02,727.172 653.49,684.163 z" id="boundary" inkscape:connector-curvature="0" />
	<path style="fill:none;stroke:red;stroke-width:1px;stroke-linecap:butt;stroke-linejoin:miter;stroke-opacity:1" d="M 618.574,216.844 646.043,287.813 z" id="boundary" inkscape:connector-curvature="0" />
	<path style="fill:none;stroke:red;stroke-width:1px;stroke-linecap:butt;stroke-linejoin:miter;stroke-opacity:1" d="M 645.531,395.835 646.043,287.813 z" id="boundary" inkscape:connector-curvature="0" />
	<path style="fill:none;stroke:red;stroke-width:1px;stroke-linecap:butt;stroke-linejoin:miter;stroke-opacity:1" d="M 653.49,684.163 767.709,566.128 z" id="boundary" inkscape:connector-curvature="0" />
	<path style="fill:none;stroke:red;stroke-width:1px;stroke-linecap:butt;stroke-linejoin:miter;stroke-opacity:1" d="M 664.082,25.7017 777.877,98.7877 z" id="boundary" inkscape:connector-curvature="0" />
	<path style="fill:none;stroke:red;stroke-width:1px;stroke-linecap:butt;stroke-linejoin:miter;stroke-opacity:1" d="M 777.877,98.7877 850.336,243.34 z" id="boundary" inkscape:connector-curvature="0" />
	<path style="fill:none;stroke:red;stroke-width:1px;stroke-linecap:butt;stroke-linejoin:miter;stroke-opacity:1" d="M 767.709,566.128 846.998,401.531 z" id="boundary" inkscape:connector-curvature="0" />
	<path style="fill:none;stroke:red;stroke-width:1px;stroke-linecap:butt;stroke-linejoin:miter;stroke-opacity:1" d="M 850.336,243.34 846.998,401.531 z" id="boundary" inkscape:connector-curvature="0" />
	<circle cx="4" cy="960.358" r="4" fill="#0" id="circle0"/>
	<circle cx="16.3627" cy="850.953" r="4" fill="#0" id="circle1"/>
	<circle cx="49.5363" cy="996" r="4" fill="#0" id="circle2"/>
	<circle cx="75.2904" cy="783.657" r="4" fill="#0" id="circle3"/>
	<circle cx="134.986" cy="947.36" r="4" fill="#0" id="circle4"/>
	<circle cx="139.666" cy="711.755" r="4" fill="#0" id="circle5"/>
	<circle cx="153.007" cy="484.102" r="4" fill="#0" id="circle6"/>
	<circle cx="144.454" cy="643.984" r="4" fill="#0" id="circle7"/>
	<circle cx="171.135" cy="354.275" r="4" fill="#0" id="circle8"/>
	<circle cx="205.568" cy="216.216" r="4" fill="#0" id="circle9"/>
	<circle cx="208.808" cy="865.58" r="4" fill="#0" id="circle10"/>
	<circle cx="258.995" cy="95.5012" r="4" fill="#0" id="circle11"/>
	<circle cx="262.437" cy="782.195" r="4" fill="#0" id="circle12"/>
	<circle cx="318.282" cy="749.205" r="4" fill="#0" id="circle13"/>
	<circle cx="351.185" cy="29.7339" r="4" fill="#0" id="circle14"/>
	<circle cx="389.888" cy="728.193" r="4" fill="#0" id="circle15"/>
	<circle cx="394.702" cy="339.5" r="4" fill="#0" id="circle16"/>
	<circle cx="394.059" cy="429.706" r="4" fill="#0" id="circle17"/>
	<circle cx="458.952" cy="209.535" r="4" fill="#0" id="circle18"/>
	<circle cx="511.507" cy="462.791" r="4" fill="#0" id="circle19"/>
	<circle cx="527.164" cy="4" r="4" fill="#0" id="circle20"/>
	<circle cx="536.352" cy="194.861" r="4" fill="#0" id="circle21"/>
	<circle cx="565.02" cy="727.172" r="4" fill="#0" id="circle22"/>
	<circle cx="618.574" cy="216.844" r="4" fill="#0" id="circle23"/>
	<circle cx="645.531" cy="395.835" r="4" fill="#0" id="circle24"/>
	<circle cx="653.49" cy="684.163" r="4" fill="#0" id="circle25"/>
	<circle cx="664.082" cy="25.7017" r="4" fill="#0" id="circle26"/>
	<circle cx="646.043" cy="287.813" r="4" fill="#0" id="circle27"/>
	<circle cx="777.877" cy="98.7877" r="4" fill="#0" id="circle28"/>
	<circle cx="767.709" cy="566.128" r="4" fill="#0" id="circle29"/>
	<circle cx="850.336" cy="243.34" r="4" fill="#0" id="circle30"/>
	<circle cx="846.998" cy="401.531" r="4" fill="#0" id="circle31"/>
	</g>
</svg>