<?xml version="1.0" encoding="UTF-8" standalone="no"?>
<!-- Created with CurveBenchmark -->
<svg
	xmlns:dc="http://purl.org/dc/elements/1.1/"
	xmlns:cc="http://creativecommons.org/ns#"
	xmlns:rdf="http://www.w3.org/1999/02/22-rdf-syntax-ns#"
	xmlns:svg="http://www.w3.org/2000/svg"
	xmlns="http://www.w3.org/2000/svg"
	xmlns:sodipodi="http://sodipodi.sourceforge.net/DTD/sodipodi-0.dtd"
	xmlns:inkscape="http://www.inkscape.org/namespaces/inkscape"
	width="1000"
	height="1000"
	id="svg2"
	version="1.1"
	sodipodi:docname="noisy-0.01/stretchdenoise-mc9.txt">
<defs
	id="defs4" />
<metadata
	id="metadata7">
	<rdf:RDF>
		<cc:Work
			rdf:about="">
			<dc:format>image/svg+xml</dc:format>
			<dc:type
				rdf:resource="http://purl.org/dc/dcmitype/StillImage" />
			<dc:title></dc:title>
		</cc:Work>
	</rdf:RDF>
</metadata>
<g
	inkscape:label="Layer 1"
	inkscape:groupmode="layer"
	id="layer1">
	<path style="fill:none;stroke:red;stroke-width:1px;stroke-linecap:butt;stroke-linejoin:miter;stroke-opacity:1" d="M 195.309,146.503 220.326,151.09 z" id="boundary" inkscape:connector-curvature="0" />
	<path style="fill:none;stroke:red;stroke-width:1px;stroke-linecap:butt;stroke-linejoin:miter;stroke-opacity:1" d="M 195.309,146.503 118.22,180.126 z" id="boundary" inkscape:connector-curvature="0" />
	<path style="fill:none;stroke:red;stroke-width:1px;stroke-linecap:butt;stroke-linejoin:miter;stroke-opacity:1" d="M 70.0087,450.539 157.085,425.331 z" id="boundary" inkscape:connector-curvature="0" />
	<path style="fill:none;stroke:red;stroke-width:1px;stroke-linecap:butt;stroke-linejoin:miter;stroke-opacity:1" d="M 70.0087,450.539 118.22,180.126 z" id="boundary" inkscape:connector-curvature="0" />
	<path style="fill:none;stroke:red;stroke-width:1px;stroke-linecap:butt;stroke-linejoin:miter;stroke-opacity:1" d="M 157.085,425.331 178.926,460.326 z" id="boundary" inkscape:connector-curvature="0" />
	<path style="fill:none;stroke:red;stroke-width:1px;stroke-linecap:butt;stroke-linejoin:miter;stroke-opacity:1" d="M 178.926,460.326 206.06,489.373 z" id="boundary" inkscape:connector-curvature="0" />
	<path style="fill:none;stroke:red;stroke-width:1px;stroke-linecap:butt;stroke-linejoin:miter;stroke-opacity:1" d="M 206.06,489.373 228.112,513.807 z" id="boundary" inkscape:connector-curvature="0" />
	<path style="fill:none;stroke:red;stroke-width:1px;stroke-linecap:butt;stroke-linejoin:miter;stroke-opacity:1" d="M 228.112,513.807 269.365,530.795 z" id="boundary" inkscape:connector-curvature="0" />
	<path style="fill:none;stroke:red;stroke-width:1px;stroke-linecap:butt;stroke-linejoin:miter;stroke-opacity:1" d="M 269.365,530.795 298.849,544.317 z" id="boundary" inkscape:connector-curvature="0" />
	<path style="fill:none;stroke:red;stroke-width:1px;stroke-linecap:butt;stroke-linejoin:miter;stroke-opacity:1" d="M 298.849,544.317 321.078,549.364 z" id="boundary" inkscape:connector-curvature="0" />
	<path style="fill:none;stroke:red;stroke-width:1px;stroke-linecap:butt;stroke-linejoin:miter;stroke-opacity:1" d="M 321.078,549.364 342.03,559.381 z" id="boundary" inkscape:connector-curvature="0" />
	<path style="fill:none;stroke:red;stroke-width:1px;stroke-linecap:butt;stroke-linejoin:miter;stroke-opacity:1" d="M 342.03,559.381 365.554,567.075 z" id="boundary" inkscape:connector-curvature="0" />
	<path style="fill:none;stroke:red;stroke-width:1px;stroke-linecap:butt;stroke-linejoin:miter;stroke-opacity:1" d="M 365.554,567.075 378.212,564.009 z" id="boundary" inkscape:connector-curvature="0" />
	<path style="fill:none;stroke:red;stroke-width:1px;stroke-linecap:butt;stroke-linejoin:miter;stroke-opacity:1" d="M 378.212,564.009 395.734,575.911 z" id="boundary" inkscape:connector-curvature="0" />
	<path style="fill:none;stroke:red;stroke-width:1px;stroke-linecap:butt;stroke-linejoin:miter;stroke-opacity:1" d="M 395.734,575.911 408.802,570.227 z" id="boundary" inkscape:connector-curvature="0" />
	<path style="fill:none;stroke:red;stroke-width:1px;stroke-linecap:butt;stroke-linejoin:miter;stroke-opacity:1" d="M 408.802,570.227 444.563,570.214 z" id="boundary" inkscape:connector-curvature="0" />
	<path style="fill:none;stroke:red;stroke-width:1px;stroke-linecap:butt;stroke-linejoin:miter;stroke-opacity:1" d="M 444.563,570.214 451.506,581.135 z" id="boundary" inkscape:connector-curvature="0" />
	<path style="fill:none;stroke:red;stroke-width:1px;stroke-linecap:butt;stroke-linejoin:miter;stroke-opacity:1" d="M 451.506,581.135 475.06,587.673 z" id="boundary" inkscape:connector-curvature="0" />
	<path style="fill:none;stroke:red;stroke-width:1px;stroke-linecap:butt;stroke-linejoin:miter;stroke-opacity:1" d="M 475.06,587.673 489.693,587.1 z" id="boundary" inkscape:connector-curvature="0" />
	<path style="fill:none;stroke:red;stroke-width:1px;stroke-linecap:butt;stroke-linejoin:miter;stroke-opacity:1" d="M 489.693,587.1 515.936,590.506 z" id="boundary" inkscape:connector-curvature="0" />
	<path style="fill:none;stroke:red;stroke-width:1px;stroke-linecap:butt;stroke-linejoin:miter;stroke-opacity:1" d="M 515.936,590.506 541.885,589.323 z" id="boundary" inkscape:connector-curvature="0" />
	<path style="fill:none;stroke:red;stroke-width:1px;stroke-linecap:butt;stroke-linejoin:miter;stroke-opacity:1" d="M 541.885,589.323 551.552,583.431 z" id="boundary" inkscape:connector-curvature="0" />
	<path style="fill:none;stroke:red;stroke-width:1px;stroke-linecap:butt;stroke-linejoin:miter;stroke-opacity:1" d="M 551.552,583.431 582.093,581.664 z" id="boundary" inkscape:connector-curvature="0" />
	<path style="fill:none;stroke:red;stroke-width:1px;stroke-linecap:butt;stroke-linejoin:miter;stroke-opacity:1" d="M 582.093,581.664 601.647,587.881 z" id="boundary" inkscape:connector-curvature="0" />
	<path style="fill:none;stroke:red;stroke-width:1px;stroke-linecap:butt;stroke-linejoin:miter;stroke-opacity:1" d="M 601.647,587.881 611.735,576.687 z" id="boundary" inkscape:connector-curvature="0" />
	<path style="fill:none;stroke:red;stroke-width:1px;stroke-linecap:butt;stroke-linejoin:miter;stroke-opacity:1" d="M 611.735,576.687 617.412,569.606 z" id="boundary" inkscape:connector-curvature="0" />
	<path style="fill:none;stroke:red;stroke-width:1px;stroke-linecap:butt;stroke-linejoin:miter;stroke-opacity:1" d="M 617.412,569.606 641.218,576.098 z" id="boundary" inkscape:connector-curvature="0" />
	<path style="fill:none;stroke:red;stroke-width:1px;stroke-linecap:butt;stroke-linejoin:miter;stroke-opacity:1" d="M 641.218,576.098 662.791,573.389 z" id="boundary" inkscape:connector-curvature="0" />
	<path style="fill:none;stroke:red;stroke-width:1px;stroke-linecap:butt;stroke-linejoin:miter;stroke-opacity:1" d="M 662.791,573.389 687.087,568.802 z" id="boundary" inkscape:connector-curvature="0" />
	<path style="fill:none;stroke:red;stroke-width:1px;stroke-linecap:butt;stroke-linejoin:miter;stroke-opacity:1" d="M 687.087,568.802 694.281,560.857 z" id="boundary" inkscape:connector-curvature="0" />
	<path style="fill:none;stroke:red;stroke-width:1px;stroke-linecap:butt;stroke-linejoin:miter;stroke-opacity:1" d="M 694.281,560.857 719.565,540.401 z" id="boundary" inkscape:connector-curvature="0" />
	<path style="fill:none;stroke:red;stroke-width:1px;stroke-linecap:butt;stroke-linejoin:miter;stroke-opacity:1" d="M 719.565,540.401 735.584,528.253 z" id="boundary" inkscape:connector-curvature="0" />
	<path style="fill:none;stroke:red;stroke-width:1px;stroke-linecap:butt;stroke-linejoin:miter;stroke-opacity:1" d="M 735.584,528.253 748.52,518.572 z" id="boundary" inkscape:connector-curvature="0" />
	<path style="fill:none;stroke:red;stroke-width:1px;stroke-linecap:butt;stroke-linejoin:miter;stroke-opacity:1" d="M 748.52,518.572 767.509,500.049 z" id="boundary" inkscape:connector-curvature="0" />
	<path style="fill:none;stroke:red;stroke-width:1px;stroke-linecap:butt;stroke-linejoin:miter;stroke-opacity:1" d="M 767.509,500.049 783.396,500.663 z" id="boundary" inkscape:connector-curvature="0" />
	<path style="fill:none;stroke:red;stroke-width:1px;stroke-linecap:butt;stroke-linejoin:miter;stroke-opacity:1" d="M 783.396,500.663 794.381,494.799 z" id="boundary" inkscape:connector-curvature="0" />
	<path style="fill:none;stroke:red;stroke-width:1px;stroke-linecap:butt;stroke-linejoin:miter;stroke-opacity:1" d="M 794.381,494.799 793.974,469.657 z" id="boundary" inkscape:connector-curvature="0" />
	<path style="fill:none;stroke:red;stroke-width:1px;stroke-linecap:butt;stroke-linejoin:miter;stroke-opacity:1" d="M 793.974,469.657 807.955,447.332 z" id="boundary" inkscape:connector-curvature="0" />
	<path style="fill:none;stroke:red;stroke-width:1px;stroke-linecap:butt;stroke-linejoin:miter;stroke-opacity:1" d="M 807.955,447.332 817.6,433.667 z" id="boundary" inkscape:connector-curvature="0" />
	<path style="fill:none;stroke:red;stroke-width:1px;stroke-linecap:butt;stroke-linejoin:miter;stroke-opacity:1" d="M 817.6,433.667 832.515,425.669 z" id="boundary" inkscape:connector-curvature="0" />
	<path style="fill:none;stroke:red;stroke-width:1px;stroke-linecap:butt;stroke-linejoin:miter;stroke-opacity:1" d="M 832.515,425.669 840.031,421.73 z" id="boundary" inkscape:connector-curvature="0" />
	<path style="fill:none;stroke:red;stroke-width:1px;stroke-linecap:butt;stroke-linejoin:miter;stroke-opacity:1" d="M 840.031,421.73 864.496,407.942 z" id="boundary" inkscape:connector-curvature="0" />
	<path style="fill:none;stroke:red;stroke-width:1px;stroke-linecap:butt;stroke-linejoin:miter;stroke-opacity:1" d="M 864.496,407.942 870.912,386.144 z" id="boundary" inkscape:connector-curvature="0" />
	<path style="fill:none;stroke:red;stroke-width:1px;stroke-linecap:butt;stroke-linejoin:miter;stroke-opacity:1" d="M 870.912,386.144 887.327,375.912 z" id="boundary" inkscape:connector-curvature="0" />
	<path style="fill:none;stroke:red;stroke-width:1px;stroke-linecap:butt;stroke-linejoin:miter;stroke-opacity:1" d="M 887.327,375.912 900.398,365.757 z" id="boundary" inkscape:connector-curvature="0" />
	<path style="fill:none;stroke:red;stroke-width:1px;stroke-linecap:butt;stroke-linejoin:miter;stroke-opacity:1" d="M 900.398,365.757 895.456,355.668 z" id="boundary" inkscape:connector-curvature="0" />
	<path style="fill:none;stroke:red;stroke-width:1px;stroke-linecap:butt;stroke-linejoin:miter;stroke-opacity:1" d="M 895.456,355.668 905.643,343.627 z" id="boundary" inkscape:connector-curvature="0" />
	<path style="fill:none;stroke:red;stroke-width:1px;stroke-linecap:butt;stroke-linejoin:miter;stroke-opacity:1" d="M 905.643,343.627 907.632,327.591 z" id="boundary" inkscape:connector-curvature="0" />
	<path style="fill:none;stroke:red;stroke-width:1px;stroke-linecap:butt;stroke-linejoin:miter;stroke-opacity:1" d="M 907.632,327.591 917.159,310.527 z" id="boundary" inkscape:connector-curvature="0" />
	<path style="fill:none;stroke:red;stroke-width:1px;stroke-linecap:butt;stroke-linejoin:miter;stroke-opacity:1" d="M 917.159,310.527 938.368,271.852 z" id="boundary" inkscape:connector-curvature="0" />
	<path style="fill:none;stroke:red;stroke-width:1px;stroke-linecap:butt;stroke-linejoin:miter;stroke-opacity:1" d="M 942.52,272.859 938.368,271.852 z" id="boundary" inkscape:connector-curvature="0" />
	<path style="fill:none;stroke:red;stroke-width:1px;stroke-linecap:butt;stroke-linejoin:miter;stroke-opacity:1" d="M 942.52,272.859 942.587,247.019 z" id="boundary" inkscape:connector-curvature="0" />
	<path style="fill:none;stroke:red;stroke-width:1px;stroke-linecap:butt;stroke-linejoin:miter;stroke-opacity:1" d="M 942.587,247.019 938.333,221.521 z" id="boundary" inkscape:connector-curvature="0" />
	<path style="fill:none;stroke:red;stroke-width:1px;stroke-linecap:butt;stroke-linejoin:miter;stroke-opacity:1" d="M 938.333,221.521 951.675,210.774 z" id="boundary" inkscape:connector-curvature="0" />
	<path style="fill:none;stroke:red;stroke-width:1px;stroke-linecap:butt;stroke-linejoin:miter;stroke-opacity:1" d="M 951.675,210.774 956.517,202.636 z" id="boundary" inkscape:connector-curvature="0" />
	<path style="fill:none;stroke:red;stroke-width:1px;stroke-linecap:butt;stroke-linejoin:miter;stroke-opacity:1" d="M 956.517,202.636 966.436,195.263 z" id="boundary" inkscape:connector-curvature="0" />
	<path style="fill:none;stroke:red;stroke-width:1px;stroke-linecap:butt;stroke-linejoin:miter;stroke-opacity:1" d="M 966.436,195.263 980.974,164.831 z" id="boundary" inkscape:connector-curvature="0" />
	<path style="fill:none;stroke:red;stroke-width:1px;stroke-linecap:butt;stroke-linejoin:miter;stroke-opacity:1" d="M 980.974,164.831 996,151.455 z" id="boundary" inkscape:connector-curvature="0" />
	<path style="fill:none;stroke:red;stroke-width:1px;stroke-linecap:butt;stroke-linejoin:miter;stroke-opacity:1" d="M 996,151.455 995.833,141.586 z" id="boundary" inkscape:connector-curvature="0" />
	<path style="fill:none;stroke:red;stroke-width:1px;stroke-linecap:butt;stroke-linejoin:miter;stroke-opacity:1" d="M 995.833,141.586 972.355,133.687 z" id="boundary" inkscape:connector-curvature="0" />
	<path style="fill:none;stroke:red;stroke-width:1px;stroke-linecap:butt;stroke-linejoin:miter;stroke-opacity:1" d="M 924.32,141.356 957.405,137.257 z" id="boundary" inkscape:connector-curvature="0" />
	<path style="fill:none;stroke:red;stroke-width:1px;stroke-linecap:butt;stroke-linejoin:miter;stroke-opacity:1" d="M 924.32,141.356 924.379,150.483 z" id="boundary" inkscape:connector-curvature="0" />
	<path style="fill:none;stroke:red;stroke-width:1px;stroke-linecap:butt;stroke-linejoin:miter;stroke-opacity:1" d="M 957.405,137.257 972.355,133.687 z" id="boundary" inkscape:connector-curvature="0" />
	<path style="fill:none;stroke:red;stroke-width:1px;stroke-linecap:butt;stroke-linejoin:miter;stroke-opacity:1" d="M 805.333,275.618 822.727,275.778 z" id="boundary" inkscape:connector-curvature="0" />
	<path style="fill:none;stroke:red;stroke-width:1px;stroke-linecap:butt;stroke-linejoin:miter;stroke-opacity:1" d="M 805.333,275.618 804.514,271.391 z" id="boundary" inkscape:connector-curvature="0" />
	<path style="fill:none;stroke:red;stroke-width:1px;stroke-linecap:butt;stroke-linejoin:miter;stroke-opacity:1" d="M 822.727,275.778 842.164,274.381 z" id="boundary" inkscape:connector-curvature="0" />
	<path style="fill:none;stroke:red;stroke-width:1px;stroke-linecap:butt;stroke-linejoin:miter;stroke-opacity:1" d="M 842.164,274.381 865.245,246.435 z" id="boundary" inkscape:connector-curvature="0" />
	<path style="fill:none;stroke:red;stroke-width:1px;stroke-linecap:butt;stroke-linejoin:miter;stroke-opacity:1" d="M 865.245,246.435 862.629,243.227 z" id="boundary" inkscape:connector-curvature="0" />
	<path style="fill:none;stroke:red;stroke-width:1px;stroke-linecap:butt;stroke-linejoin:miter;stroke-opacity:1" d="M 862.629,243.227 875.786,219.307 z" id="boundary" inkscape:connector-curvature="0" />
	<path style="fill:none;stroke:red;stroke-width:1px;stroke-linecap:butt;stroke-linejoin:miter;stroke-opacity:1" d="M 875.786,219.307 880.895,202.835 z" id="boundary" inkscape:connector-curvature="0" />
	<path style="fill:none;stroke:red;stroke-width:1px;stroke-linecap:butt;stroke-linejoin:miter;stroke-opacity:1" d="M 880.895,202.835 890.025,186.982 z" id="boundary" inkscape:connector-curvature="0" />
	<path style="fill:none;stroke:red;stroke-width:1px;stroke-linecap:butt;stroke-linejoin:miter;stroke-opacity:1" d="M 890.025,186.982 907.771,175.078 z" id="boundary" inkscape:connector-curvature="0" />
	<path style="fill:none;stroke:red;stroke-width:1px;stroke-linecap:butt;stroke-linejoin:miter;stroke-opacity:1" d="M 907.771,175.078 924.379,150.483 z" id="boundary" inkscape:connector-curvature="0" />
	<path style="fill:none;stroke:red;stroke-width:1px;stroke-linecap:butt;stroke-linejoin:miter;stroke-opacity:1" d="M 785.096,208.825 788.325,210.85 z" id="boundary" inkscape:connector-curvature="0" />
	<path style="fill:none;stroke:red;stroke-width:1px;stroke-linecap:butt;stroke-linejoin:miter;stroke-opacity:1" d="M 785.096,208.825 774.452,196.018 z" id="boundary" inkscape:connector-curvature="0" />
	<path style="fill:none;stroke:red;stroke-width:1px;stroke-linecap:butt;stroke-linejoin:miter;stroke-opacity:1" d="M 788.325,210.85 794.833,242.13 z" id="boundary" inkscape:connector-curvature="0" />
	<path style="fill:none;stroke:red;stroke-width:1px;stroke-linecap:butt;stroke-linejoin:miter;stroke-opacity:1" d="M 794.833,242.13 798.536,265.372 z" id="boundary" inkscape:connector-curvature="0" />
	<path style="fill:none;stroke:red;stroke-width:1px;stroke-linecap:butt;stroke-linejoin:miter;stroke-opacity:1" d="M 798.536,265.372 804.514,271.391 z" id="boundary" inkscape:connector-curvature="0" />
	<path style="fill:none;stroke:red;stroke-width:1px;stroke-linecap:butt;stroke-linejoin:miter;stroke-opacity:1" d="M 704.464,113.124 732.523,114.52 z" id="boundary" inkscape:connector-curvature="0" />
	<path style="fill:none;stroke:red;stroke-width:1px;stroke-linecap:butt;stroke-linejoin:miter;stroke-opacity:1" d="M 704.464,113.124 691.16,109.884 z" id="boundary" inkscape:connector-curvature="0" />
	<path style="fill:none;stroke:red;stroke-width:1px;stroke-linecap:butt;stroke-linejoin:miter;stroke-opacity:1" d="M 732.523,114.52 749.506,141.813 z" id="boundary" inkscape:connector-curvature="0" />
	<path style="fill:none;stroke:red;stroke-width:1px;stroke-linecap:butt;stroke-linejoin:miter;stroke-opacity:1" d="M 749.506,141.813 756.668,146.677 z" id="boundary" inkscape:connector-curvature="0" />
	<path style="fill:none;stroke:red;stroke-width:1px;stroke-linecap:butt;stroke-linejoin:miter;stroke-opacity:1" d="M 756.668,146.677 751.631,168.876 z" id="boundary" inkscape:connector-curvature="0" />
	<path style="fill:none;stroke:red;stroke-width:1px;stroke-linecap:butt;stroke-linejoin:miter;stroke-opacity:1" d="M 751.631,168.876 758.099,179.858 z" id="boundary" inkscape:connector-curvature="0" />
	<path style="fill:none;stroke:red;stroke-width:1px;stroke-linecap:butt;stroke-linejoin:miter;stroke-opacity:1" d="M 758.099,179.858 774.452,196.018 z" id="boundary" inkscape:connector-curvature="0" />
	<path style="fill:none;stroke:red;stroke-width:1px;stroke-linecap:butt;stroke-linejoin:miter;stroke-opacity:1" d="M 535.533,92.2671 559.603,96.4292 z" id="boundary" inkscape:connector-curvature="0" />
	<path style="fill:none;stroke:red;stroke-width:1px;stroke-linecap:butt;stroke-linejoin:miter;stroke-opacity:1" d="M 535.533,92.2671 524.521,64.1355 z" id="boundary" inkscape:connector-curvature="0" />
	<path style="fill:none;stroke:red;stroke-width:1px;stroke-linecap:butt;stroke-linejoin:miter;stroke-opacity:1" d="M 559.603,96.4292 585.908,81.3818 z" id="boundary" inkscape:connector-curvature="0" />
	<path style="fill:none;stroke:red;stroke-width:1px;stroke-linecap:butt;stroke-linejoin:miter;stroke-opacity:1" d="M 585.908,81.3818 597.571,84.6598 z" id="boundary" inkscape:connector-curvature="0" />
	<path style="fill:none;stroke:red;stroke-width:1px;stroke-linecap:butt;stroke-linejoin:miter;stroke-opacity:1" d="M 597.571,84.6598 625.469,90.5178 z" id="boundary" inkscape:connector-curvature="0" />
	<path style="fill:none;stroke:red;stroke-width:1px;stroke-linecap:butt;stroke-linejoin:miter;stroke-opacity:1" d="M 625.469,90.5178 633.721,89.1151 z" id="boundary" inkscape:connector-curvature="0" />
	<path style="fill:none;stroke:red;stroke-width:1px;stroke-linecap:butt;stroke-linejoin:miter;stroke-opacity:1" d="M 633.721,89.1151 646.314,97.4844 z" id="boundary" inkscape:connector-curvature="0" />
	<path style="fill:none;stroke:red;stroke-width:1px;stroke-linecap:butt;stroke-linejoin:miter;stroke-opacity:1" d="M 646.314,97.4844 661.462,101.919 z" id="boundary" inkscape:connector-curvature="0" />
	<path style="fill:none;stroke:red;stroke-width:1px;stroke-linecap:butt;stroke-linejoin:miter;stroke-opacity:1" d="M 661.462,101.919 671.165,97.0205 z" id="boundary" inkscape:connector-curvature="0" />
	<path style="fill:none;stroke:red;stroke-width:1px;stroke-linecap:butt;stroke-linejoin:miter;stroke-opacity:1" d="M 671.165,97.0205 691.16,109.884 z" id="boundary" inkscape:connector-curvature="0" />
	<path style="fill:none;stroke:red;stroke-width:1px;stroke-linecap:butt;stroke-linejoin:miter;stroke-opacity:1" d="M 220.326,151.09 254.235,131.716 z" id="boundary" inkscape:connector-curvature="0" />
	<path style="fill:none;stroke:red;stroke-width:1px;stroke-linecap:butt;stroke-linejoin:miter;stroke-opacity:1" d="M 254.235,131.716 286.322,120.551 z" id="boundary" inkscape:connector-curvature="0" />
	<path style="fill:none;stroke:red;stroke-width:1px;stroke-linecap:butt;stroke-linejoin:miter;stroke-opacity:1" d="M 286.322,120.551 304.681,102.697 z" id="boundary" inkscape:connector-curvature="0" />
	<path style="fill:none;stroke:red;stroke-width:1px;stroke-linecap:butt;stroke-linejoin:miter;stroke-opacity:1" d="M 304.681,102.697 317.655,98.1205 z" id="boundary" inkscape:connector-curvature="0" />
	<path style="fill:none;stroke:red;stroke-width:1px;stroke-linecap:butt;stroke-linejoin:miter;stroke-opacity:1" d="M 317.655,98.1205 352.335,97.6046 z" id="boundary" inkscape:connector-curvature="0" />
	<path style="fill:none;stroke:red;stroke-width:1px;stroke-linecap:butt;stroke-linejoin:miter;stroke-opacity:1" d="M 352.335,97.6046 377.031,92.9399 z" id="boundary" inkscape:connector-curvature="0" />
	<path style="fill:none;stroke:red;stroke-width:1px;stroke-linecap:butt;stroke-linejoin:miter;stroke-opacity:1" d="M 377.031,92.9399 410.306,90.5772 z" id="boundary" inkscape:connector-curvature="0" />
	<path style="fill:none;stroke:red;stroke-width:1px;stroke-linecap:butt;stroke-linejoin:miter;stroke-opacity:1" d="M 410.306,90.5772 428.326,72.5086 z" id="boundary" inkscape:connector-curvature="0" />
	<path style="fill:none;stroke:red;stroke-width:1px;stroke-linecap:butt;stroke-linejoin:miter;stroke-opacity:1" d="M 428.326,72.5086 436.889,46.2496 z" id="boundary" inkscape:connector-curvature="0" />
	<path style="fill:none;stroke:red;stroke-width:1px;stroke-linecap:butt;stroke-linejoin:miter;stroke-opacity:1" d="M 436.889,46.2496 438.709,24.6251 z" id="boundary" inkscape:connector-curvature="0" />
	<path style="fill:none;stroke:red;stroke-width:1px;stroke-linecap:butt;stroke-linejoin:miter;stroke-opacity:1" d="M 438.709,24.6251 460.765,6.37451 z" id="boundary" inkscape:connector-curvature="0" />
	<path style="fill:none;stroke:red;stroke-width:1px;stroke-linecap:butt;stroke-linejoin:miter;stroke-opacity:1" d="M 460.765,6.37451 463.688,4 z" id="boundary" inkscape:connector-curvature="0" />
	<path style="fill:none;stroke:red;stroke-width:1px;stroke-linecap:butt;stroke-linejoin:miter;stroke-opacity:1" d="M 463.688,4 490.706,9.48975 z" id="boundary" inkscape:connector-curvature="0" />
	<path style="fill:none;stroke:red;stroke-width:1px;stroke-linecap:butt;stroke-linejoin:miter;stroke-opacity:1" d="M 490.706,9.48975 510.947,13.7617 z" id="boundary" inkscape:connector-curvature="0" />
	<path style="fill:none;stroke:red;stroke-width:1px;stroke-linecap:butt;stroke-linejoin:miter;stroke-opacity:1" d="M 512.884,16.0685 510.947,13.7617 z" id="boundary" inkscape:connector-curvature="0" />
	<path style="fill:none;stroke:red;stroke-width:1px;stroke-linecap:butt;stroke-linejoin:miter;stroke-opacity:1" d="M 512.884,16.0685 531.97,9.23004 z" id="boundary" inkscape:connector-curvature="0" />
	<path style="fill:none;stroke:red;stroke-width:1px;stroke-linecap:butt;stroke-linejoin:miter;stroke-opacity:1" d="M 531.97,9.23004 551.781,19.7528 z" id="boundary" inkscape:connector-curvature="0" />
	<path style="fill:none;stroke:red;stroke-width:1px;stroke-linecap:butt;stroke-linejoin:miter;stroke-opacity:1" d="M 551.781,19.7528 546.875,53.3518 z" id="boundary" inkscape:connector-curvature="0" />
	<path style="fill:none;stroke:red;stroke-width:1px;stroke-linecap:butt;stroke-linejoin:miter;stroke-opacity:1" d="M 546.875,53.3518 537.489,59.2591 z" id="boundary" inkscape:connector-curvature="0" />
	<path style="fill:none;stroke:red;stroke-width:1px;stroke-linecap:butt;stroke-linejoin:miter;stroke-opacity:1" d="M 537.489,59.2591 524.521,64.1355 z" id="boundary" inkscape:connector-curvature="0" />
	<circle cx="217.75" cy="163.658" r="4" fill="#0" id="circle0"/>
	<circle cx="195.309" cy="146.503" r="4" fill="#0" id="circle1"/>
	<circle cx="183.81" cy="168.179" r="4" fill="#0" id="circle2"/>
	<circle cx="181.669" cy="155.071" r="4" fill="#0" id="circle3"/>
	<circle cx="167.608" cy="158.455" r="4" fill="#0" id="circle4"/>
	<circle cx="147.643" cy="156.734" r="4" fill="#0" id="circle5"/>
	<circle cx="136.387" cy="160.925" r="4" fill="#0" id="circle6"/>
	<circle cx="107.513" cy="151.673" r="4" fill="#0" id="circle7"/>
	<circle cx="99.4016" cy="156.241" r="4" fill="#0" id="circle8"/>
	<circle cx="95.3714" cy="160.314" r="4" fill="#0" id="circle9"/>
	<circle cx="84.4065" cy="171.751" r="4" fill="#0" id="circle10"/>
	<circle cx="64.7097" cy="161.935" r="4" fill="#0" id="circle11"/>
	<circle cx="50.42" cy="175.811" r="4" fill="#0" id="circle12"/>
	<circle cx="37.1964" cy="190.211" r="4" fill="#0" id="circle13"/>
	<circle cx="8.00446" cy="198.464" r="4" fill="#0" id="circle14"/>
	<circle cx="11.4768" cy="194.971" r="4" fill="#0" id="circle15"/>
	<circle cx="6.11035" cy="221.288" r="4" fill="#0" id="circle16"/>
	<circle cx="4" cy="234.5" r="4" fill="#0" id="circle17"/>
	<circle cx="10.3831" cy="239.58" r="4" fill="#0" id="circle18"/>
	<circle cx="16.5395" cy="258.049" r="4" fill="#0" id="circle19"/>
	<circle cx="14.2357" cy="271.924" r="4" fill="#0" id="circle20"/>
	<circle cx="24.8322" cy="284.512" r="4" fill="#0" id="circle21"/>
	<circle cx="33.67" cy="307.66" r="4" fill="#0" id="circle22"/>
	<circle cx="29.3154" cy="305.413" r="4" fill="#0" id="circle23"/>
	<circle cx="53.9547" cy="317.021" r="4" fill="#0" id="circle24"/>
	<circle cx="54.242" cy="347.616" r="4" fill="#0" id="circle25"/>
	<circle cx="72.6754" cy="345.126" r="4" fill="#0" id="circle26"/>
	<circle cx="64.3331" cy="360.036" r="4" fill="#0" id="circle27"/>
	<circle cx="92.5356" cy="378.357" r="4" fill="#0" id="circle28"/>
	<circle cx="97.3379" cy="385.058" r="4" fill="#0" id="circle29"/>
	<circle cx="117.759" cy="370.363" r="4" fill="#0" id="circle30"/>
	<circle cx="119.428" cy="383.88" r="4" fill="#0" id="circle31"/>
	<circle cx="70.0087" cy="450.539" r="4" fill="#0" id="circle32"/>
	<circle cx="154.603" cy="407.496" r="4" fill="#0" id="circle33"/>
	<circle cx="157.085" cy="425.331" r="4" fill="#0" id="circle34"/>
	<circle cx="160.239" cy="454.816" r="4" fill="#0" id="circle35"/>
	<circle cx="171.626" cy="448.158" r="4" fill="#0" id="circle36"/>
	<circle cx="178.926" cy="460.326" r="4" fill="#0" id="circle37"/>
	<circle cx="198.22" cy="475.67" r="4" fill="#0" id="circle38"/>
	<circle cx="206.06" cy="489.373" r="4" fill="#0" id="circle39"/>
	<circle cx="215.097" cy="508.815" r="4" fill="#0" id="circle40"/>
	<circle cx="228.112" cy="513.807" r="4" fill="#0" id="circle41"/>
	<circle cx="242.612" cy="526.573" r="4" fill="#0" id="circle42"/>
	<circle cx="269.365" cy="530.795" r="4" fill="#0" id="circle43"/>
	<circle cx="290.524" cy="541.458" r="4" fill="#0" id="circle44"/>
	<circle cx="298.849" cy="544.317" r="4" fill="#0" id="circle45"/>
	<circle cx="321.078" cy="549.364" r="4" fill="#0" id="circle46"/>
	<circle cx="342.03" cy="559.381" r="4" fill="#0" id="circle47"/>
	<circle cx="365.554" cy="567.075" r="4" fill="#0" id="circle48"/>
	<circle cx="378.212" cy="564.009" r="4" fill="#0" id="circle49"/>
	<circle cx="395.734" cy="575.911" r="4" fill="#0" id="circle50"/>
	<circle cx="408.802" cy="570.227" r="4" fill="#0" id="circle51"/>
	<circle cx="444.563" cy="570.214" r="4" fill="#0" id="circle52"/>
	<circle cx="451.506" cy="581.135" r="4" fill="#0" id="circle53"/>
	<circle cx="475.06" cy="587.673" r="4" fill="#0" id="circle54"/>
	<circle cx="489.693" cy="587.1" r="4" fill="#0" id="circle55"/>
	<circle cx="515.936" cy="590.506" r="4" fill="#0" id="circle56"/>
	<circle cx="541.885" cy="589.323" r="4" fill="#0" id="circle57"/>
	<circle cx="551.552" cy="583.431" r="4" fill="#0" id="circle58"/>
	<circle cx="582.093" cy="581.664" r="4" fill="#0" id="circle59"/>
	<circle cx="601.647" cy="587.881" r="4" fill="#0" id="circle60"/>
	<circle cx="611.735" cy="576.687" r="4" fill="#0" id="circle61"/>
	<circle cx="617.412" cy="569.606" r="4" fill="#0" id="circle62"/>
	<circle cx="641.218" cy="576.098" r="4" fill="#0" id="circle63"/>
	<circle cx="662.791" cy="573.389" r="4" fill="#0" id="circle64"/>
	<circle cx="687.087" cy="568.802" r="4" fill="#0" id="circle65"/>
	<circle cx="694.281" cy="560.857" r="4" fill="#0" id="circle66"/>
	<circle cx="719.565" cy="540.401" r="4" fill="#0" id="circle67"/>
	<circle cx="735.584" cy="528.253" r="4" fill="#0" id="circle68"/>
	<circle cx="748.52" cy="518.572" r="4" fill="#0" id="circle69"/>
	<circle cx="767.509" cy="500.049" r="4" fill="#0" id="circle70"/>
	<circle cx="783.396" cy="500.663" r="4" fill="#0" id="circle71"/>
	<circle cx="794.381" cy="494.799" r="4" fill="#0" id="circle72"/>
	<circle cx="793.974" cy="469.657" r="4" fill="#0" id="circle73"/>
	<circle cx="807.955" cy="447.332" r="4" fill="#0" id="circle74"/>
	<circle cx="817.6" cy="433.667" r="4" fill="#0" id="circle75"/>
	<circle cx="832.515" cy="425.669" r="4" fill="#0" id="circle76"/>
	<circle cx="840.031" cy="421.73" r="4" fill="#0" id="circle77"/>
	<circle cx="864.496" cy="407.942" r="4" fill="#0" id="circle78"/>
	<circle cx="870.912" cy="386.144" r="4" fill="#0" id="circle79"/>
	<circle cx="887.327" cy="375.912" r="4" fill="#0" id="circle80"/>
	<circle cx="900.398" cy="365.757" r="4" fill="#0" id="circle81"/>
	<circle cx="895.456" cy="355.668" r="4" fill="#0" id="circle82"/>
	<circle cx="905.643" cy="343.627" r="4" fill="#0" id="circle83"/>
	<circle cx="907.632" cy="327.591" r="4" fill="#0" id="circle84"/>
	<circle cx="917.159" cy="310.527" r="4" fill="#0" id="circle85"/>
	<circle cx="942.52" cy="272.859" r="4" fill="#0" id="circle86"/>
	<circle cx="938.368" cy="271.852" r="4" fill="#0" id="circle87"/>
	<circle cx="942.587" cy="247.019" r="4" fill="#0" id="circle88"/>
	<circle cx="938.333" cy="221.521" r="4" fill="#0" id="circle89"/>
	<circle cx="951.675" cy="210.774" r="4" fill="#0" id="circle90"/>
	<circle cx="956.517" cy="202.636" r="4" fill="#0" id="circle91"/>
	<circle cx="966.436" cy="195.263" r="4" fill="#0" id="circle92"/>
	<circle cx="980.974" cy="164.831" r="4" fill="#0" id="circle93"/>
	<circle cx="996" cy="151.455" r="4" fill="#0" id="circle94"/>
	<circle cx="995.833" cy="141.586" r="4" fill="#0" id="circle95"/>
	<circle cx="924.32" cy="141.356" r="4" fill="#0" id="circle96"/>
	<circle cx="957.405" cy="137.257" r="4" fill="#0" id="circle97"/>
	<circle cx="956.178" cy="136.081" r="4" fill="#0" id="circle98"/>
	<circle cx="972.355" cy="133.687" r="4" fill="#0" id="circle99"/>
	<circle cx="805.333" cy="275.618" r="4" fill="#0" id="circle100"/>
	<circle cx="822.727" cy="275.778" r="4" fill="#0" id="circle101"/>
	<circle cx="842.164" cy="274.381" r="4" fill="#0" id="circle102"/>
	<circle cx="865.245" cy="246.435" r="4" fill="#0" id="circle103"/>
	<circle cx="862.629" cy="243.227" r="4" fill="#0" id="circle104"/>
	<circle cx="875.786" cy="219.307" r="4" fill="#0" id="circle105"/>
	<circle cx="880.895" cy="202.835" r="4" fill="#0" id="circle106"/>
	<circle cx="890.025" cy="186.982" r="4" fill="#0" id="circle107"/>
	<circle cx="907.771" cy="175.078" r="4" fill="#0" id="circle108"/>
	<circle cx="924.379" cy="150.483" r="4" fill="#0" id="circle109"/>
	<circle cx="785.096" cy="208.825" r="4" fill="#0" id="circle110"/>
	<circle cx="788.325" cy="210.85" r="4" fill="#0" id="circle111"/>
	<circle cx="794.833" cy="242.13" r="4" fill="#0" id="circle112"/>
	<circle cx="798.536" cy="265.372" r="4" fill="#0" id="circle113"/>
	<circle cx="804.514" cy="271.391" r="4" fill="#0" id="circle114"/>
	<circle cx="704.464" cy="113.124" r="4" fill="#0" id="circle115"/>
	<circle cx="732.523" cy="114.52" r="4" fill="#0" id="circle116"/>
	<circle cx="749.506" cy="141.813" r="4" fill="#0" id="circle117"/>
	<circle cx="756.668" cy="146.677" r="4" fill="#0" id="circle118"/>
	<circle cx="751.631" cy="168.876" r="4" fill="#0" id="circle119"/>
	<circle cx="758.099" cy="179.858" r="4" fill="#0" id="circle120"/>
	<circle cx="774.452" cy="196.018" r="4" fill="#0" id="circle121"/>
	<circle cx="535.533" cy="92.2671" r="4" fill="#0" id="circle122"/>
	<circle cx="559.603" cy="96.4292" r="4" fill="#0" id="circle123"/>
	<circle cx="585.908" cy="81.3818" r="4" fill="#0" id="circle124"/>
	<circle cx="597.571" cy="84.6598" r="4" fill="#0" id="circle125"/>
	<circle cx="625.469" cy="90.5178" r="4" fill="#0" id="circle126"/>
	<circle cx="633.721" cy="89.1151" r="4" fill="#0" id="circle127"/>
	<circle cx="646.314" cy="97.4844" r="4" fill="#0" id="circle128"/>
	<circle cx="661.462" cy="101.919" r="4" fill="#0" id="circle129"/>
	<circle cx="671.165" cy="97.0205" r="4" fill="#0" id="circle130"/>
	<circle cx="691.16" cy="109.884" r="4" fill="#0" id="circle131"/>
	<circle cx="220.326" cy="151.09" r="4" fill="#0" id="circle132"/>
	<circle cx="254.235" cy="131.716" r="4" fill="#0" id="circle133"/>
	<circle cx="253.587" cy="132.111" r="4" fill="#0" id="circle134"/>
	<circle cx="286.322" cy="120.551" r="4" fill="#0" id="circle135"/>
	<circle cx="289.939" cy="100.645" r="4" fill="#0" id="circle136"/>
	<circle cx="304.681" cy="102.697" r="4" fill="#0" id="circle137"/>
	<circle cx="317.655" cy="98.1205" r="4" fill="#0" id="circle138"/>
	<circle cx="349.446" cy="99.1454" r="4" fill="#0" id="circle139"/>
	<circle cx="352.335" cy="97.6046" r="4" fill="#0" id="circle140"/>
	<circle cx="377.031" cy="92.9399" r="4" fill="#0" id="circle141"/>
	<circle cx="410.306" cy="90.5772" r="4" fill="#0" id="circle142"/>
	<circle cx="408.824" cy="74.7062" r="4" fill="#0" id="circle143"/>
	<circle cx="428.326" cy="72.5086" r="4" fill="#0" id="circle144"/>
	<circle cx="466.514" cy="75.447" r="4" fill="#0" id="circle145"/>
	<circle cx="460.48" cy="58.0335" r="4" fill="#0" id="circle146"/>
	<circle cx="435.33" cy="42.4687" r="4" fill="#0" id="circle147"/>
	<circle cx="436.889" cy="46.2496" r="4" fill="#0" id="circle148"/>
	<circle cx="438.709" cy="24.6251" r="4" fill="#0" id="circle149"/>
	<circle cx="460.765" cy="6.37451" r="4" fill="#0" id="circle150"/>
	<circle cx="463.688" cy="4" r="4" fill="#0" id="circle151"/>
	<circle cx="490.706" cy="9.48975" r="4" fill="#0" id="circle152"/>
	<circle cx="512.884" cy="16.0685" r="4" fill="#0" id="circle153"/>
	<circle cx="510.947" cy="13.7617" r="4" fill="#0" id="circle154"/>
	<circle cx="531.97" cy="9.23004" r="4" fill="#0" id="circle155"/>
	<circle cx="551.781" cy="19.7528" r="4" fill="#0" id="circle156"/>
	<circle cx="566.664" cy="29.3424" r="4" fill="#0" id="circle157"/>
	<circle cx="546.875" cy="53.3518" r="4" fill="#0" id="circle158"/>
	<circle cx="537.489" cy="59.2591" r="4" fill="#0" id="circle159"/>
	<circle cx="524.521" cy="64.1355" r="4" fill="#0" id="circle160"/>
	<circle cx="77.6115" cy="241.444" r="4" fill="#0" id="circle161"/>
	<circle cx="76.4065" cy="226.84" r="4" fill="#0" id="circle162"/>
	<circle cx="95.4487" cy="212.118" r="4" fill="#0" id="circle163"/>
	<circle cx="108.081" cy="192.839" r="4" fill="#0" id="circle164"/>
	<circle cx="111.594" cy="196.879" r="4" fill="#0" id="circle165"/>
	<circle cx="130.159" cy="189.3" r="4" fill="#0" id="circle166"/>
	<circle cx="154.903" cy="200.398" r="4" fill="#0" id="circle167"/>
	<circle cx="172.621" cy="189.883" r="4" fill="#0" id="circle168"/>
	<circle cx="187.688" cy="199.069" r="4" fill="#0" id="circle169"/>
	<circle cx="215.118" cy="204.887" r="4" fill="#0" id="circle170"/>
	<circle cx="82.3038" cy="247.058" r="4" fill="#0" id="circle171"/>
	<circle cx="77.9675" cy="267.607" r="4" fill="#0" id="circle172"/>
	<circle cx="87.9361" cy="287.514" r="4" fill="#0" id="circle173"/>
	<circle cx="91.8848" cy="281.987" r="4" fill="#0" id="circle174"/>
	<circle cx="97.523" cy="308.12" r="4" fill="#0" id="circle175"/>
	<circle cx="103.487" cy="310.563" r="4" fill="#0" id="circle176"/>
	<circle cx="119.727" cy="336.752" r="4" fill="#0" id="circle177"/>
	<circle cx="121.407" cy="339.836" r="4" fill="#0" id="circle178"/>
	<circle cx="143.641" cy="361.738" r="4" fill="#0" id="circle179"/>
	<circle cx="153.491" cy="344.418" r="4" fill="#0" id="circle180"/>
	<circle cx="151.849" cy="328.231" r="4" fill="#0" id="circle181"/>
	<circle cx="168.376" cy="311.344" r="4" fill="#0" id="circle182"/>
	<circle cx="163.388" cy="287.244" r="4" fill="#0" id="circle183"/>
	<circle cx="162.134" cy="275.688" r="4" fill="#0" id="circle184"/>
	<circle cx="171.829" cy="260.336" r="4" fill="#0" id="circle185"/>
	<circle cx="118.22" cy="180.126" r="4" fill="#0" id="circle186"/>
	<circle cx="192.911" cy="213.375" r="4" fill="#0" id="circle187"/>
	<circle cx="213.384" cy="214.687" r="4" fill="#0" id="circle188"/>
	</g>
</svg>