<?xml version="1.0" encoding="UTF-8" standalone="no"?>
<!-- Created with CurveBenchmark -->
<svg
	xmlns:dc="http://purl.org/dc/elements/1.1/"
	xmlns:cc="http://creativecommons.org/ns#"
	xmlns:rdf="http://www.w3.org/1999/02/22-rdf-syntax-ns#"
	xmlns:svg="http://www.w3.org/2000/svg"
	xmlns="http://www.w3.org/2000/svg"
	xmlns:sodipodi="http://sodipodi.sourceforge.net/DTD/sodipodi-0.dtd"
	xmlns:inkscape="http://www.inkscape.org/namespaces/inkscape"
	width="1000"
	height="1000"
	id="svg2"
	version="1.1"
	sodipodi:docname="noisy-0.01/vicur-mc14.txt">
<defs
	id="defs4" />
<metadata
	id="metadata7">
	<rdf:RDF>
		<cc:Work
			rdf:about="">
			<dc:format>image/svg+xml</dc:format>
			<dc:type
				rdf:resource="http://purl.org/dc/dcmitype/StillImage" />
			<dc:title></dc:title>
		</cc:Work>
	</rdf:RDF>
</metadata>
<g
	inkscape:label="Layer 1"
	inkscape:groupmode="layer"
	id="layer1">
	<path style="fill:none;stroke:red;stroke-width:1px;stroke-linecap:butt;stroke-linejoin:miter;stroke-opacity:1" d="M 164.223,76.7297 178.725,77.2391 z" id="boundary" inkscape:connector-curvature="0" />
	<path style="fill:none;stroke:red;stroke-width:1px;stroke-linecap:butt;stroke-linejoin:miter;stroke-opacity:1" d="M 178.725,77.2391 187.898,104.483 z" id="boundary" inkscape:connector-curvature="0" />
	<path style="fill:none;stroke:red;stroke-width:1px;stroke-linecap:butt;stroke-linejoin:miter;stroke-opacity:1" d="M 187.898,104.483 205.76,107.463 z" id="boundary" inkscape:connector-curvature="0" />
	<path style="fill:none;stroke:red;stroke-width:1px;stroke-linecap:butt;stroke-linejoin:miter;stroke-opacity:1" d="M 205.76,107.463 220.269,111.902 z" id="boundary" inkscape:connector-curvature="0" />
	<path style="fill:none;stroke:red;stroke-width:1px;stroke-linecap:butt;stroke-linejoin:miter;stroke-opacity:1" d="M 220.269,111.902 235.371,108.872 z" id="boundary" inkscape:connector-curvature="0" />
	<path style="fill:none;stroke:red;stroke-width:1px;stroke-linecap:butt;stroke-linejoin:miter;stroke-opacity:1" d="M 235.371,108.872 258.423,111.264 z" id="boundary" inkscape:connector-curvature="0" />
	<path style="fill:none;stroke:red;stroke-width:1px;stroke-linecap:butt;stroke-linejoin:miter;stroke-opacity:1" d="M 258.423,111.264 264.013,102.92 z" id="boundary" inkscape:connector-curvature="0" />
	<path style="fill:none;stroke:red;stroke-width:1px;stroke-linecap:butt;stroke-linejoin:miter;stroke-opacity:1" d="M 264.013,102.92 291.285,105.557 z" id="boundary" inkscape:connector-curvature="0" />
	<path style="fill:none;stroke:red;stroke-width:1px;stroke-linecap:butt;stroke-linejoin:miter;stroke-opacity:1" d="M 291.285,105.557 295.289,86.9515 z" id="boundary" inkscape:connector-curvature="0" />
	<path style="fill:none;stroke:red;stroke-width:1px;stroke-linecap:butt;stroke-linejoin:miter;stroke-opacity:1" d="M 255.645,27.9304 274.521,50.2694 z" id="boundary" inkscape:connector-curvature="0" />
	<path style="fill:none;stroke:red;stroke-width:1px;stroke-linecap:butt;stroke-linejoin:miter;stroke-opacity:1" d="M 255.645,27.9304 209.476,12.764 z" id="boundary" inkscape:connector-curvature="0" />
	<path style="fill:none;stroke:red;stroke-width:1px;stroke-linecap:butt;stroke-linejoin:miter;stroke-opacity:1" d="M 274.521,50.2694 286.813,60.8405 z" id="boundary" inkscape:connector-curvature="0" />
	<path style="fill:none;stroke:red;stroke-width:1px;stroke-linecap:butt;stroke-linejoin:miter;stroke-opacity:1" d="M 286.813,60.8405 295.289,86.9515 z" id="boundary" inkscape:connector-curvature="0" />
	<path style="fill:none;stroke:red;stroke-width:1px;stroke-linecap:butt;stroke-linejoin:miter;stroke-opacity:1" d="M 150.819,19.0126 165.375,16.7455 z" id="boundary" inkscape:connector-curvature="0" />
	<path style="fill:none;stroke:red;stroke-width:1px;stroke-linecap:butt;stroke-linejoin:miter;stroke-opacity:1" d="M 150.819,19.0126 106.783,18.0915 z" id="boundary" inkscape:connector-curvature="0" />
	<path style="fill:none;stroke:red;stroke-width:1px;stroke-linecap:butt;stroke-linejoin:miter;stroke-opacity:1" d="M 165.375,16.7455 209.476,12.764 z" id="boundary" inkscape:connector-curvature="0" />
	<path style="fill:none;stroke:red;stroke-width:1px;stroke-linecap:butt;stroke-linejoin:miter;stroke-opacity:1" d="M 106.783,18.0915 76.6683,22.2425 z" id="boundary" inkscape:connector-curvature="0" />
	<path style="fill:none;stroke:red;stroke-width:1px;stroke-linecap:butt;stroke-linejoin:miter;stroke-opacity:1" d="M 76.6683,22.2425 57.4526,30.7107 z" id="boundary" inkscape:connector-curvature="0" />
	<path style="fill:none;stroke:red;stroke-width:1px;stroke-linecap:butt;stroke-linejoin:miter;stroke-opacity:1" d="M 57.4526,30.7107 45.3378,46.7231 z" id="boundary" inkscape:connector-curvature="0" />
	<path style="fill:none;stroke:red;stroke-width:1px;stroke-linecap:butt;stroke-linejoin:miter;stroke-opacity:1" d="M 45.3378,46.7231 22.7276,85.2307 z" id="boundary" inkscape:connector-curvature="0" />
	<path style="fill:none;stroke:red;stroke-width:1px;stroke-linecap:butt;stroke-linejoin:miter;stroke-opacity:1" d="M 22.7276,85.2307 26.8308,124.146 z" id="boundary" inkscape:connector-curvature="0" />
	<path style="fill:none;stroke:red;stroke-width:1px;stroke-linecap:butt;stroke-linejoin:miter;stroke-opacity:1" d="M 26.8308,124.146 51.4505,166.39 z" id="boundary" inkscape:connector-curvature="0" />
	<path style="fill:none;stroke:red;stroke-width:1px;stroke-linecap:butt;stroke-linejoin:miter;stroke-opacity:1" d="M 51.4505,166.39 71.6647,176.852 z" id="boundary" inkscape:connector-curvature="0" />
	<path style="fill:none;stroke:red;stroke-width:1px;stroke-linecap:butt;stroke-linejoin:miter;stroke-opacity:1" d="M 71.6647,176.852 106.188,185.103 z" id="boundary" inkscape:connector-curvature="0" />
	<path style="fill:none;stroke:red;stroke-width:1px;stroke-linecap:butt;stroke-linejoin:miter;stroke-opacity:1" d="M 106.188,185.103 83.6975,229.414 z" id="boundary" inkscape:connector-curvature="0" />
	<path style="fill:none;stroke:red;stroke-width:1px;stroke-linecap:butt;stroke-linejoin:miter;stroke-opacity:1" d="M 115.974,208.907 145.086,204.348 z" id="boundary" inkscape:connector-curvature="0" />
	<path style="fill:none;stroke:red;stroke-width:1px;stroke-linecap:butt;stroke-linejoin:miter;stroke-opacity:1" d="M 115.974,208.907 107.262,228.976 z" id="boundary" inkscape:connector-curvature="0" />
	<path style="fill:none;stroke:red;stroke-width:1px;stroke-linecap:butt;stroke-linejoin:miter;stroke-opacity:1" d="M 145.086,204.348 164.665,218.26 z" id="boundary" inkscape:connector-curvature="0" />
	<path style="fill:none;stroke:red;stroke-width:1px;stroke-linecap:butt;stroke-linejoin:miter;stroke-opacity:1" d="M 164.665,218.26 211.375,247.27 z" id="boundary" inkscape:connector-curvature="0" />
	<path style="fill:none;stroke:red;stroke-width:1px;stroke-linecap:butt;stroke-linejoin:miter;stroke-opacity:1" d="M 211.375,247.27 197.301,281.895 z" id="boundary" inkscape:connector-curvature="0" />
	<path style="fill:none;stroke:red;stroke-width:1px;stroke-linecap:butt;stroke-linejoin:miter;stroke-opacity:1" d="M 197.301,281.895 172.252,273.453 z" id="boundary" inkscape:connector-curvature="0" />
	<path style="fill:none;stroke:red;stroke-width:1px;stroke-linecap:butt;stroke-linejoin:miter;stroke-opacity:1" d="M 172.252,273.453 124.461,270.015 z" id="boundary" inkscape:connector-curvature="0" />
	<path style="fill:none;stroke:red;stroke-width:1px;stroke-linecap:butt;stroke-linejoin:miter;stroke-opacity:1" d="M 124.461,270.015 115.428,254.262 z" id="boundary" inkscape:connector-curvature="0" />
	<path style="fill:none;stroke:red;stroke-width:1px;stroke-linecap:butt;stroke-linejoin:miter;stroke-opacity:1" d="M 115.428,254.262 107.262,228.976 z" id="boundary" inkscape:connector-curvature="0" />
	<path style="fill:none;stroke:red;stroke-width:1px;stroke-linecap:butt;stroke-linejoin:miter;stroke-opacity:1" d="M 83.6975,229.414 55.1865,242.432 z" id="boundary" inkscape:connector-curvature="0" />
	<path style="fill:none;stroke:red;stroke-width:1px;stroke-linecap:butt;stroke-linejoin:miter;stroke-opacity:1" d="M 55.1865,242.432 11.2547,225.422 z" id="boundary" inkscape:connector-curvature="0" />
	<path style="fill:none;stroke:red;stroke-width:1px;stroke-linecap:butt;stroke-linejoin:miter;stroke-opacity:1" d="M 11.2547,225.422 4,260.867 z" id="boundary" inkscape:connector-curvature="0" />
	<path style="fill:none;stroke:red;stroke-width:1px;stroke-linecap:butt;stroke-linejoin:miter;stroke-opacity:1" d="M 4,260.867 35.1504,296.019 z" id="boundary" inkscape:connector-curvature="0" />
	<path style="fill:none;stroke:red;stroke-width:1px;stroke-linecap:butt;stroke-linejoin:miter;stroke-opacity:1" d="M 35.1504,296.019 57.3812,329.143 z" id="boundary" inkscape:connector-curvature="0" />
	<path style="fill:none;stroke:red;stroke-width:1px;stroke-linecap:butt;stroke-linejoin:miter;stroke-opacity:1" d="M 57.3812,329.143 93.3845,350.797 z" id="boundary" inkscape:connector-curvature="0" />
	<path style="fill:none;stroke:red;stroke-width:1px;stroke-linecap:butt;stroke-linejoin:miter;stroke-opacity:1" d="M 93.3845,350.797 151.791,341.923 z" id="boundary" inkscape:connector-curvature="0" />
	<path style="fill:none;stroke:red;stroke-width:1px;stroke-linecap:butt;stroke-linejoin:miter;stroke-opacity:1" d="M 151.791,341.923 191.088,353.31 z" id="boundary" inkscape:connector-curvature="0" />
	<path style="fill:none;stroke:red;stroke-width:1px;stroke-linecap:butt;stroke-linejoin:miter;stroke-opacity:1" d="M 191.088,353.31 247.918,329.811 z" id="boundary" inkscape:connector-curvature="0" />
	<path style="fill:none;stroke:red;stroke-width:1px;stroke-linecap:butt;stroke-linejoin:miter;stroke-opacity:1" d="M 247.918,329.811 280.92,310.412 z" id="boundary" inkscape:connector-curvature="0" />
	<path style="fill:none;stroke:red;stroke-width:1px;stroke-linecap:butt;stroke-linejoin:miter;stroke-opacity:1" d="M 280.92,310.412 281.683,287.288 z" id="boundary" inkscape:connector-curvature="0" />
	<path style="fill:none;stroke:red;stroke-width:1px;stroke-linecap:butt;stroke-linejoin:miter;stroke-opacity:1" d="M 281.683,287.288 293.798,262.454 z" id="boundary" inkscape:connector-curvature="0" />
	<path style="fill:none;stroke:red;stroke-width:1px;stroke-linecap:butt;stroke-linejoin:miter;stroke-opacity:1" d="M 293.798,262.454 299.787,237.425 z" id="boundary" inkscape:connector-curvature="0" />
	<path style="fill:none;stroke:red;stroke-width:1px;stroke-linecap:butt;stroke-linejoin:miter;stroke-opacity:1" d="M 299.787,237.425 299.161,210.088 z" id="boundary" inkscape:connector-curvature="0" />
	<path style="fill:none;stroke:red;stroke-width:1px;stroke-linecap:butt;stroke-linejoin:miter;stroke-opacity:1" d="M 299.161,210.088 282.883,177.018 z" id="boundary" inkscape:connector-curvature="0" />
	<path style="fill:none;stroke:red;stroke-width:1px;stroke-linecap:butt;stroke-linejoin:miter;stroke-opacity:1" d="M 282.883,177.018 264.864,169.22 z" id="boundary" inkscape:connector-curvature="0" />
	<path style="fill:none;stroke:red;stroke-width:1px;stroke-linecap:butt;stroke-linejoin:miter;stroke-opacity:1" d="M 264.864,169.22 233.322,136.203 z" id="boundary" inkscape:connector-curvature="0" />
	<path style="fill:none;stroke:red;stroke-width:1px;stroke-linecap:butt;stroke-linejoin:miter;stroke-opacity:1" d="M 232.977,142.795 233.322,136.203 z" id="boundary" inkscape:connector-curvature="0" />
	<path style="fill:none;stroke:red;stroke-width:1px;stroke-linecap:butt;stroke-linejoin:miter;stroke-opacity:1" d="M 232.977,142.795 208.304,141.067 z" id="boundary" inkscape:connector-curvature="0" />
	<path style="fill:none;stroke:red;stroke-width:1px;stroke-linecap:butt;stroke-linejoin:miter;stroke-opacity:1" d="M 208.304,141.067 192.469,138.274 z" id="boundary" inkscape:connector-curvature="0" />
	<path style="fill:none;stroke:red;stroke-width:1px;stroke-linecap:butt;stroke-linejoin:miter;stroke-opacity:1" d="M 192.469,138.274 172.742,133.288 z" id="boundary" inkscape:connector-curvature="0" />
	<path style="fill:none;stroke:red;stroke-width:1px;stroke-linecap:butt;stroke-linejoin:miter;stroke-opacity:1" d="M 172.742,133.288 157.566,129.051 z" id="boundary" inkscape:connector-curvature="0" />
	<path style="fill:none;stroke:red;stroke-width:1px;stroke-linecap:butt;stroke-linejoin:miter;stroke-opacity:1" d="M 157.566,129.051 131.864,122.094 z" id="boundary" inkscape:connector-curvature="0" />
	<path style="fill:none;stroke:red;stroke-width:1px;stroke-linecap:butt;stroke-linejoin:miter;stroke-opacity:1" d="M 131.864,122.094 113.865,95.5084 z" id="boundary" inkscape:connector-curvature="0" />
	<path style="fill:none;stroke:red;stroke-width:1px;stroke-linecap:butt;stroke-linejoin:miter;stroke-opacity:1" d="M 113.865,95.5084 133.718,66.1153 z" id="boundary" inkscape:connector-curvature="0" />
	<path style="fill:none;stroke:red;stroke-width:1px;stroke-linecap:butt;stroke-linejoin:miter;stroke-opacity:1" d="M 470.295,88.3832 503.076,74.4103 z" id="boundary" inkscape:connector-curvature="0" />
	<path style="fill:none;stroke:red;stroke-width:1px;stroke-linecap:butt;stroke-linejoin:miter;stroke-opacity:1" d="M 470.295,88.3832 447.827,127.445 z" id="boundary" inkscape:connector-curvature="0" />
	<path style="fill:none;stroke:red;stroke-width:1px;stroke-linecap:butt;stroke-linejoin:miter;stroke-opacity:1" d="M 503.076,74.4103 543.331,96.1985 z" id="boundary" inkscape:connector-curvature="0" />
	<path style="fill:none;stroke:red;stroke-width:1px;stroke-linecap:butt;stroke-linejoin:miter;stroke-opacity:1" d="M 543.331,96.1985 562.697,120.18 z" id="boundary" inkscape:connector-curvature="0" />
	<path style="fill:none;stroke:red;stroke-width:1px;stroke-linecap:butt;stroke-linejoin:miter;stroke-opacity:1" d="M 562.697,120.18 576.426,116.997 z" id="boundary" inkscape:connector-curvature="0" />
	<path style="fill:none;stroke:red;stroke-width:1px;stroke-linecap:butt;stroke-linejoin:miter;stroke-opacity:1" d="M 447.827,127.445 434.412,170.11 z" id="boundary" inkscape:connector-curvature="0" />
	<path style="fill:none;stroke:red;stroke-width:1px;stroke-linecap:butt;stroke-linejoin:miter;stroke-opacity:1" d="M 434.412,170.11 440.406,205.882 z" id="boundary" inkscape:connector-curvature="0" />
	<path style="fill:none;stroke:red;stroke-width:1px;stroke-linecap:butt;stroke-linejoin:miter;stroke-opacity:1" d="M 440.406,205.882 460.2,247.529 z" id="boundary" inkscape:connector-curvature="0" />
	<path style="fill:none;stroke:red;stroke-width:1px;stroke-linecap:butt;stroke-linejoin:miter;stroke-opacity:1" d="M 494.917,269.246 523.409,267.96 z" id="boundary" inkscape:connector-curvature="0" />
	<path style="fill:none;stroke:red;stroke-width:1px;stroke-linecap:butt;stroke-linejoin:miter;stroke-opacity:1" d="M 494.917,269.246 509.738,232.746 z" id="boundary" inkscape:connector-curvature="0" />
	<path style="fill:none;stroke:red;stroke-width:1px;stroke-linecap:butt;stroke-linejoin:miter;stroke-opacity:1" d="M 523.409,267.96 546.063,273.876 z" id="boundary" inkscape:connector-curvature="0" />
	<path style="fill:none;stroke:red;stroke-width:1px;stroke-linecap:butt;stroke-linejoin:miter;stroke-opacity:1" d="M 546.063,273.876 571.617,269.35 z" id="boundary" inkscape:connector-curvature="0" />
	<path style="fill:none;stroke:red;stroke-width:1px;stroke-linecap:butt;stroke-linejoin:miter;stroke-opacity:1" d="M 571.617,269.35 566.142,241.388 z" id="boundary" inkscape:connector-curvature="0" />
	<path style="fill:none;stroke:red;stroke-width:1px;stroke-linecap:butt;stroke-linejoin:miter;stroke-opacity:1" d="M 566.142,241.388 546.693,231.572 z" id="boundary" inkscape:connector-curvature="0" />
	<path style="fill:none;stroke:red;stroke-width:1px;stroke-linecap:butt;stroke-linejoin:miter;stroke-opacity:1" d="M 570.546,212.849 554.625,220.107 z" id="boundary" inkscape:connector-curvature="0" />
	<path style="fill:none;stroke:red;stroke-width:1px;stroke-linecap:butt;stroke-linejoin:miter;stroke-opacity:1" d="M 554.625,220.107 546.693,231.572 z" id="boundary" inkscape:connector-curvature="0" />
	<path style="fill:none;stroke:red;stroke-width:1px;stroke-linecap:butt;stroke-linejoin:miter;stroke-opacity:1" d="M 509.738,232.746 513.147,196.089 z" id="boundary" inkscape:connector-curvature="0" />
	<path style="fill:none;stroke:red;stroke-width:1px;stroke-linecap:butt;stroke-linejoin:miter;stroke-opacity:1" d="M 513.147,196.089 502.076,152.272 z" id="boundary" inkscape:connector-curvature="0" />
	<path style="fill:none;stroke:red;stroke-width:1px;stroke-linecap:butt;stroke-linejoin:miter;stroke-opacity:1" d="M 502.076,152.272 532.314,150.643 z" id="boundary" inkscape:connector-curvature="0" />
	<path style="fill:none;stroke:red;stroke-width:1px;stroke-linecap:butt;stroke-linejoin:miter;stroke-opacity:1" d="M 566.795,163.025 601.228,163.695 z" id="boundary" inkscape:connector-curvature="0" />
	<path style="fill:none;stroke:red;stroke-width:1px;stroke-linecap:butt;stroke-linejoin:miter;stroke-opacity:1" d="M 601.228,163.695 630.071,165.174 z" id="boundary" inkscape:connector-curvature="0" />
	<path style="fill:none;stroke:red;stroke-width:1px;stroke-linecap:butt;stroke-linejoin:miter;stroke-opacity:1" d="M 630.071,165.174 659.345,164.796 z" id="boundary" inkscape:connector-curvature="0" />
	<path style="fill:none;stroke:red;stroke-width:1px;stroke-linecap:butt;stroke-linejoin:miter;stroke-opacity:1" d="M 659.345,164.796 675.813,175.289 z" id="boundary" inkscape:connector-curvature="0" />
	<path style="fill:none;stroke:red;stroke-width:1px;stroke-linecap:butt;stroke-linejoin:miter;stroke-opacity:1" d="M 675.813,175.289 662.118,217.311 z" id="boundary" inkscape:connector-curvature="0" />
	<path style="fill:none;stroke:red;stroke-width:1px;stroke-linecap:butt;stroke-linejoin:miter;stroke-opacity:1" d="M 662.118,217.311 673.998,242.532 z" id="boundary" inkscape:connector-curvature="0" />
	<path style="fill:none;stroke:red;stroke-width:1px;stroke-linecap:butt;stroke-linejoin:miter;stroke-opacity:1" d="M 673.998,242.532 658.465,263.261 z" id="boundary" inkscape:connector-curvature="0" />
	<path style="fill:none;stroke:red;stroke-width:1px;stroke-linecap:butt;stroke-linejoin:miter;stroke-opacity:1" d="M 658.465,263.261 669.939,290.994 z" id="boundary" inkscape:connector-curvature="0" />
	<path style="fill:none;stroke:red;stroke-width:1px;stroke-linecap:butt;stroke-linejoin:miter;stroke-opacity:1" d="M 669.939,290.994 703.68,310.438 z" id="boundary" inkscape:connector-curvature="0" />
	<path style="fill:none;stroke:red;stroke-width:1px;stroke-linecap:butt;stroke-linejoin:miter;stroke-opacity:1" d="M 638.737,312.304 600.985,337.374 z" id="boundary" inkscape:connector-curvature="0" />
	<path style="fill:none;stroke:red;stroke-width:1px;stroke-linecap:butt;stroke-linejoin:miter;stroke-opacity:1" d="M 638.737,312.304 703.478,336.727 z" id="boundary" inkscape:connector-curvature="0" />
	<path style="fill:none;stroke:red;stroke-width:1px;stroke-linecap:butt;stroke-linejoin:miter;stroke-opacity:1" d="M 600.985,337.374 570.194,337.069 z" id="boundary" inkscape:connector-curvature="0" />
	<path style="fill:none;stroke:red;stroke-width:1px;stroke-linecap:butt;stroke-linejoin:miter;stroke-opacity:1" d="M 570.194,337.069 540.848,335.16 z" id="boundary" inkscape:connector-curvature="0" />
	<path style="fill:none;stroke:red;stroke-width:1px;stroke-linecap:butt;stroke-linejoin:miter;stroke-opacity:1" d="M 540.848,335.16 492.282,334.577 z" id="boundary" inkscape:connector-curvature="0" />
	<path style="fill:none;stroke:red;stroke-width:1px;stroke-linecap:butt;stroke-linejoin:miter;stroke-opacity:1" d="M 492.282,334.577 448.787,333.807 z" id="boundary" inkscape:connector-curvature="0" />
	<path style="fill:none;stroke:red;stroke-width:1px;stroke-linecap:butt;stroke-linejoin:miter;stroke-opacity:1" d="M 448.787,333.807 422.109,318.025 z" id="boundary" inkscape:connector-curvature="0" />
	<path style="fill:none;stroke:red;stroke-width:1px;stroke-linecap:butt;stroke-linejoin:miter;stroke-opacity:1" d="M 422.109,318.025 375.985,296.589 z" id="boundary" inkscape:connector-curvature="0" />
	<path style="fill:none;stroke:red;stroke-width:1px;stroke-linecap:butt;stroke-linejoin:miter;stroke-opacity:1" d="M 375.985,296.589 348.518,265.987 z" id="boundary" inkscape:connector-curvature="0" />
	<path style="fill:none;stroke:red;stroke-width:1px;stroke-linecap:butt;stroke-linejoin:miter;stroke-opacity:1" d="M 348.518,265.987 334.482,235.238 z" id="boundary" inkscape:connector-curvature="0" />
	<path style="fill:none;stroke:red;stroke-width:1px;stroke-linecap:butt;stroke-linejoin:miter;stroke-opacity:1" d="M 334.482,235.238 327.179,200.673 z" id="boundary" inkscape:connector-curvature="0" />
	<path style="fill:none;stroke:red;stroke-width:1px;stroke-linecap:butt;stroke-linejoin:miter;stroke-opacity:1" d="M 327.179,200.673 330.595,179.67 z" id="boundary" inkscape:connector-curvature="0" />
	<path style="fill:none;stroke:red;stroke-width:1px;stroke-linecap:butt;stroke-linejoin:miter;stroke-opacity:1" d="M 330.595,179.67 341.013,138.739 z" id="boundary" inkscape:connector-curvature="0" />
	<path style="fill:none;stroke:red;stroke-width:1px;stroke-linecap:butt;stroke-linejoin:miter;stroke-opacity:1" d="M 341.013,138.739 331.917,126.221 z" id="boundary" inkscape:connector-curvature="0" />
	<path style="fill:none;stroke:red;stroke-width:1px;stroke-linecap:butt;stroke-linejoin:miter;stroke-opacity:1" d="M 331.917,126.221 348.709,91.6013 z" id="boundary" inkscape:connector-curvature="0" />
	<path style="fill:none;stroke:red;stroke-width:1px;stroke-linecap:butt;stroke-linejoin:miter;stroke-opacity:1" d="M 348.709,91.6013 369.848,65.3554 z" id="boundary" inkscape:connector-curvature="0" />
	<path style="fill:none;stroke:red;stroke-width:1px;stroke-linecap:butt;stroke-linejoin:miter;stroke-opacity:1" d="M 369.848,65.3554 403.891,38.3792 z" id="boundary" inkscape:connector-curvature="0" />
	<path style="fill:none;stroke:red;stroke-width:1px;stroke-linecap:butt;stroke-linejoin:miter;stroke-opacity:1" d="M 403.891,38.3792 463.389,23.8693 z" id="boundary" inkscape:connector-curvature="0" />
	<path style="fill:none;stroke:red;stroke-width:1px;stroke-linecap:butt;stroke-linejoin:miter;stroke-opacity:1" d="M 463.389,23.8693 521.939,9.63139 z" id="boundary" inkscape:connector-curvature="0" />
	<path style="fill:none;stroke:red;stroke-width:1px;stroke-linecap:butt;stroke-linejoin:miter;stroke-opacity:1" d="M 521.939,9.63139 567.677,9.2573 z" id="boundary" inkscape:connector-curvature="0" />
	<path style="fill:none;stroke:red;stroke-width:1px;stroke-linecap:butt;stroke-linejoin:miter;stroke-opacity:1" d="M 567.677,9.2573 603.166,17.4191 z" id="boundary" inkscape:connector-curvature="0" />
	<path style="fill:none;stroke:red;stroke-width:1px;stroke-linecap:butt;stroke-linejoin:miter;stroke-opacity:1" d="M 603.166,17.4191 636.06,49.9105 z" id="boundary" inkscape:connector-curvature="0" />
	<path style="fill:none;stroke:red;stroke-width:1px;stroke-linecap:butt;stroke-linejoin:miter;stroke-opacity:1" d="M 636.06,49.9105 643.241,85.5136 z" id="boundary" inkscape:connector-curvature="0" />
	<path style="fill:none;stroke:red;stroke-width:1px;stroke-linecap:butt;stroke-linejoin:miter;stroke-opacity:1" d="M 643.241,85.5136 649.517,100.618 z" id="boundary" inkscape:connector-curvature="0" />
	<path style="fill:none;stroke:red;stroke-width:1px;stroke-linecap:butt;stroke-linejoin:miter;stroke-opacity:1" d="M 658.732,100.741 629.903,118.87 z" id="boundary" inkscape:connector-curvature="0" />
	<path style="fill:none;stroke:red;stroke-width:1px;stroke-linecap:butt;stroke-linejoin:miter;stroke-opacity:1" d="M 658.732,100.741 649.517,100.618 z" id="boundary" inkscape:connector-curvature="0" />
	<path style="fill:none;stroke:red;stroke-width:1px;stroke-linecap:butt;stroke-linejoin:miter;stroke-opacity:1" d="M 576.426,116.997 609.739,105.818 z" id="boundary" inkscape:connector-curvature="0" />
	<path style="fill:none;stroke:red;stroke-width:1px;stroke-linecap:butt;stroke-linejoin:miter;stroke-opacity:1" d="M 609.739,105.818 629.903,118.87 z" id="boundary" inkscape:connector-curvature="0" />
	<path style="fill:none;stroke:red;stroke-width:1px;stroke-linecap:butt;stroke-linejoin:miter;stroke-opacity:1" d="M 700.073,20.8612 703.342,61.5764 z" id="boundary" inkscape:connector-curvature="0" />
	<path style="fill:none;stroke:red;stroke-width:1px;stroke-linecap:butt;stroke-linejoin:miter;stroke-opacity:1" d="M 700.073,20.8612 760.645,6.11971 z" id="boundary" inkscape:connector-curvature="0" />
	<path style="fill:none;stroke:red;stroke-width:1px;stroke-linecap:butt;stroke-linejoin:miter;stroke-opacity:1" d="M 703.342,61.5764 711.79,97.819 z" id="boundary" inkscape:connector-curvature="0" />
	<path style="fill:none;stroke:red;stroke-width:1px;stroke-linecap:butt;stroke-linejoin:miter;stroke-opacity:1" d="M 711.79,97.819 707.023,134.393 z" id="boundary" inkscape:connector-curvature="0" />
	<path style="fill:none;stroke:red;stroke-width:1px;stroke-linecap:butt;stroke-linejoin:miter;stroke-opacity:1" d="M 707.023,134.393 708.893,172.844 z" id="boundary" inkscape:connector-curvature="0" />
	<path style="fill:none;stroke:red;stroke-width:1px;stroke-linecap:butt;stroke-linejoin:miter;stroke-opacity:1" d="M 708.893,172.844 711.719,193.312 z" id="boundary" inkscape:connector-curvature="0" />
	<path style="fill:none;stroke:red;stroke-width:1px;stroke-linecap:butt;stroke-linejoin:miter;stroke-opacity:1" d="M 711.719,193.312 704.856,225.597 z" id="boundary" inkscape:connector-curvature="0" />
	<path style="fill:none;stroke:red;stroke-width:1px;stroke-linecap:butt;stroke-linejoin:miter;stroke-opacity:1" d="M 704.856,225.597 713.104,264.58 z" id="boundary" inkscape:connector-curvature="0" />
	<path style="fill:none;stroke:red;stroke-width:1px;stroke-linecap:butt;stroke-linejoin:miter;stroke-opacity:1" d="M 713.104,264.58 707.677,279.09 z" id="boundary" inkscape:connector-curvature="0" />
	<path style="fill:none;stroke:red;stroke-width:1px;stroke-linecap:butt;stroke-linejoin:miter;stroke-opacity:1" d="M 707.677,279.09 703.68,310.438 z" id="boundary" inkscape:connector-curvature="0" />
	<path style="fill:none;stroke:red;stroke-width:1px;stroke-linecap:butt;stroke-linejoin:miter;stroke-opacity:1" d="M 703.478,336.727 698.257,347.451 z" id="boundary" inkscape:connector-curvature="0" />
	<path style="fill:none;stroke:red;stroke-width:1px;stroke-linecap:butt;stroke-linejoin:miter;stroke-opacity:1" d="M 698.257,347.451 739.321,356.306 z" id="boundary" inkscape:connector-curvature="0" />
	<path style="fill:none;stroke:red;stroke-width:1px;stroke-linecap:butt;stroke-linejoin:miter;stroke-opacity:1" d="M 739.321,356.306 769.941,358.337 z" id="boundary" inkscape:connector-curvature="0" />
	<path style="fill:none;stroke:red;stroke-width:1px;stroke-linecap:butt;stroke-linejoin:miter;stroke-opacity:1" d="M 769.941,358.337 806.714,358.211 z" id="boundary" inkscape:connector-curvature="0" />
	<path style="fill:none;stroke:red;stroke-width:1px;stroke-linecap:butt;stroke-linejoin:miter;stroke-opacity:1" d="M 806.714,358.211 818.621,327.508 z" id="boundary" inkscape:connector-curvature="0" />
	<path style="fill:none;stroke:red;stroke-width:1px;stroke-linecap:butt;stroke-linejoin:miter;stroke-opacity:1" d="M 818.621,327.508 807.498,285.711 z" id="boundary" inkscape:connector-curvature="0" />
	<path style="fill:none;stroke:red;stroke-width:1px;stroke-linecap:butt;stroke-linejoin:miter;stroke-opacity:1" d="M 807.498,285.711 808.598,250.582 z" id="boundary" inkscape:connector-curvature="0" />
	<path style="fill:none;stroke:red;stroke-width:1px;stroke-linecap:butt;stroke-linejoin:miter;stroke-opacity:1" d="M 808.598,250.582 807.814,218.035 z" id="boundary" inkscape:connector-curvature="0" />
	<path style="fill:none;stroke:red;stroke-width:1px;stroke-linecap:butt;stroke-linejoin:miter;stroke-opacity:1" d="M 807.814,218.035 840.735,221.556 z" id="boundary" inkscape:connector-curvature="0" />
	<path style="fill:none;stroke:red;stroke-width:1px;stroke-linecap:butt;stroke-linejoin:miter;stroke-opacity:1" d="M 840.735,221.556 856.768,223.934 z" id="boundary" inkscape:connector-curvature="0" />
	<path style="fill:none;stroke:red;stroke-width:1px;stroke-linecap:butt;stroke-linejoin:miter;stroke-opacity:1" d="M 856.768,223.934 892.579,217.142 z" id="boundary" inkscape:connector-curvature="0" />
	<path style="fill:none;stroke:red;stroke-width:1px;stroke-linecap:butt;stroke-linejoin:miter;stroke-opacity:1" d="M 892.579,217.142 936.896,209.045 z" id="boundary" inkscape:connector-curvature="0" />
	<path style="fill:none;stroke:red;stroke-width:1px;stroke-linecap:butt;stroke-linejoin:miter;stroke-opacity:1" d="M 936.896,209.045 952.014,181.293 z" id="boundary" inkscape:connector-curvature="0" />
	<path style="fill:none;stroke:red;stroke-width:1px;stroke-linecap:butt;stroke-linejoin:miter;stroke-opacity:1" d="M 952.014,181.293 978.226,153.292 z" id="boundary" inkscape:connector-curvature="0" />
	<path style="fill:none;stroke:red;stroke-width:1px;stroke-linecap:butt;stroke-linejoin:miter;stroke-opacity:1" d="M 978.226,153.292 996,118.05 z" id="boundary" inkscape:connector-curvature="0" />
	<path style="fill:none;stroke:red;stroke-width:1px;stroke-linecap:butt;stroke-linejoin:miter;stroke-opacity:1" d="M 996,118.05 987.598,83.6578 z" id="boundary" inkscape:connector-curvature="0" />
	<path style="fill:none;stroke:red;stroke-width:1px;stroke-linecap:butt;stroke-linejoin:miter;stroke-opacity:1" d="M 987.598,83.6578 959.734,39.2817 z" id="boundary" inkscape:connector-curvature="0" />
	<path style="fill:none;stroke:red;stroke-width:1px;stroke-linecap:butt;stroke-linejoin:miter;stroke-opacity:1" d="M 959.734,39.2817 922.941,22.9683 z" id="boundary" inkscape:connector-curvature="0" />
	<path style="fill:none;stroke:red;stroke-width:1px;stroke-linecap:butt;stroke-linejoin:miter;stroke-opacity:1" d="M 922.941,22.9683 868.119,11.3927 z" id="boundary" inkscape:connector-curvature="0" />
	<path style="fill:none;stroke:red;stroke-width:1px;stroke-linecap:butt;stroke-linejoin:miter;stroke-opacity:1" d="M 868.119,11.3927 823.647,4 z" id="boundary" inkscape:connector-curvature="0" />
	<path style="fill:none;stroke:red;stroke-width:1px;stroke-linecap:butt;stroke-linejoin:miter;stroke-opacity:1" d="M 823.647,4 760.645,6.11971 z" id="boundary" inkscape:connector-curvature="0" />
	<path style="fill:none;stroke:red;stroke-width:1px;stroke-linecap:butt;stroke-linejoin:miter;stroke-opacity:1" d="M 816.072,104.384 800.056,120.578 z" id="boundary" inkscape:connector-curvature="0" />
	<path style="fill:none;stroke:red;stroke-width:1px;stroke-linecap:butt;stroke-linejoin:miter;stroke-opacity:1" d="M 816.072,104.384 841.739,80.3938 z" id="boundary" inkscape:connector-curvature="0" />
	<path style="fill:none;stroke:red;stroke-width:1px;stroke-linecap:butt;stroke-linejoin:miter;stroke-opacity:1" d="M 800.056,120.578 809.839,135.39 z" id="boundary" inkscape:connector-curvature="0" />
	<path style="fill:none;stroke:red;stroke-width:1px;stroke-linecap:butt;stroke-linejoin:miter;stroke-opacity:1" d="M 809.839,135.39 825.45,146.946 z" id="boundary" inkscape:connector-curvature="0" />
	<path style="fill:none;stroke:red;stroke-width:1px;stroke-linecap:butt;stroke-linejoin:miter;stroke-opacity:1" d="M 825.45,146.946 849.745,140.282 z" id="boundary" inkscape:connector-curvature="0" />
	<path style="fill:none;stroke:red;stroke-width:1px;stroke-linecap:butt;stroke-linejoin:miter;stroke-opacity:1" d="M 849.745,140.282 856.17,147.134 z" id="boundary" inkscape:connector-curvature="0" />
	<path style="fill:none;stroke:red;stroke-width:1px;stroke-linecap:butt;stroke-linejoin:miter;stroke-opacity:1" d="M 856.17,147.134 873.544,130.935 z" id="boundary" inkscape:connector-curvature="0" />
	<path style="fill:none;stroke:red;stroke-width:1px;stroke-linecap:butt;stroke-linejoin:miter;stroke-opacity:1" d="M 873.544,130.935 879.038,108.374 z" id="boundary" inkscape:connector-curvature="0" />
	<path style="fill:none;stroke:red;stroke-width:1px;stroke-linecap:butt;stroke-linejoin:miter;stroke-opacity:1" d="M 879.038,108.374 889.747,90.6589 z" id="boundary" inkscape:connector-curvature="0" />
	<path style="fill:none;stroke:red;stroke-width:1px;stroke-linecap:butt;stroke-linejoin:miter;stroke-opacity:1" d="M 889.747,90.6589 860.914,88.3054 z" id="boundary" inkscape:connector-curvature="0" />
	<path style="fill:none;stroke:red;stroke-width:1px;stroke-linecap:butt;stroke-linejoin:miter;stroke-opacity:1" d="M 860.914,88.3054 841.739,80.3938 z" id="boundary" inkscape:connector-curvature="0" />
	<circle cx="164.223" cy="76.7297" r="4" fill="#0" id="circle0"/>
	<circle cx="178.725" cy="77.2391" r="4" fill="#0" id="circle1"/>
	<circle cx="187.898" cy="104.483" r="4" fill="#0" id="circle2"/>
	<circle cx="205.76" cy="107.463" r="4" fill="#0" id="circle3"/>
	<circle cx="220.269" cy="111.902" r="4" fill="#0" id="circle4"/>
	<circle cx="235.371" cy="108.872" r="4" fill="#0" id="circle5"/>
	<circle cx="258.423" cy="111.264" r="4" fill="#0" id="circle6"/>
	<circle cx="264.013" cy="102.92" r="4" fill="#0" id="circle7"/>
	<circle cx="291.285" cy="105.557" r="4" fill="#0" id="circle8"/>
	<circle cx="255.645" cy="27.9304" r="4" fill="#0" id="circle9"/>
	<circle cx="274.521" cy="50.2694" r="4" fill="#0" id="circle10"/>
	<circle cx="286.813" cy="60.8405" r="4" fill="#0" id="circle11"/>
	<circle cx="295.289" cy="86.9515" r="4" fill="#0" id="circle12"/>
	<circle cx="150.819" cy="19.0126" r="4" fill="#0" id="circle13"/>
	<circle cx="165.375" cy="16.7455" r="4" fill="#0" id="circle14"/>
	<circle cx="209.476" cy="12.764" r="4" fill="#0" id="circle15"/>
	<circle cx="106.783" cy="18.0915" r="4" fill="#0" id="circle16"/>
	<circle cx="76.6683" cy="22.2425" r="4" fill="#0" id="circle17"/>
	<circle cx="57.4526" cy="30.7107" r="4" fill="#0" id="circle18"/>
	<circle cx="45.3378" cy="46.7231" r="4" fill="#0" id="circle19"/>
	<circle cx="22.7276" cy="85.2307" r="4" fill="#0" id="circle20"/>
	<circle cx="26.8308" cy="124.146" r="4" fill="#0" id="circle21"/>
	<circle cx="51.4505" cy="166.39" r="4" fill="#0" id="circle22"/>
	<circle cx="71.6647" cy="176.852" r="4" fill="#0" id="circle23"/>
	<circle cx="106.188" cy="185.103" r="4" fill="#0" id="circle24"/>
	<circle cx="115.974" cy="208.907" r="4" fill="#0" id="circle25"/>
	<circle cx="145.086" cy="204.348" r="4" fill="#0" id="circle26"/>
	<circle cx="164.665" cy="218.26" r="4" fill="#0" id="circle27"/>
	<circle cx="211.375" cy="247.27" r="4" fill="#0" id="circle28"/>
	<circle cx="197.301" cy="281.895" r="4" fill="#0" id="circle29"/>
	<circle cx="172.252" cy="273.453" r="4" fill="#0" id="circle30"/>
	<circle cx="124.461" cy="270.015" r="4" fill="#0" id="circle31"/>
	<circle cx="115.428" cy="254.262" r="4" fill="#0" id="circle32"/>
	<circle cx="107.262" cy="228.976" r="4" fill="#0" id="circle33"/>
	<circle cx="83.6975" cy="229.414" r="4" fill="#0" id="circle34"/>
	<circle cx="55.1865" cy="242.432" r="4" fill="#0" id="circle35"/>
	<circle cx="11.2547" cy="225.422" r="4" fill="#0" id="circle36"/>
	<circle cx="4" cy="260.867" r="4" fill="#0" id="circle37"/>
	<circle cx="35.1504" cy="296.019" r="4" fill="#0" id="circle38"/>
	<circle cx="57.3812" cy="329.143" r="4" fill="#0" id="circle39"/>
	<circle cx="93.3845" cy="350.797" r="4" fill="#0" id="circle40"/>
	<circle cx="151.791" cy="341.923" r="4" fill="#0" id="circle41"/>
	<circle cx="191.088" cy="353.31" r="4" fill="#0" id="circle42"/>
	<circle cx="247.918" cy="329.811" r="4" fill="#0" id="circle43"/>
	<circle cx="280.92" cy="310.412" r="4" fill="#0" id="circle44"/>
	<circle cx="281.683" cy="287.288" r="4" fill="#0" id="circle45"/>
	<circle cx="293.798" cy="262.454" r="4" fill="#0" id="circle46"/>
	<circle cx="299.787" cy="237.425" r="4" fill="#0" id="circle47"/>
	<circle cx="299.161" cy="210.088" r="4" fill="#0" id="circle48"/>
	<circle cx="282.883" cy="177.018" r="4" fill="#0" id="circle49"/>
	<circle cx="264.864" cy="169.22" r="4" fill="#0" id="circle50"/>
	<circle cx="232.977" cy="142.795" r="4" fill="#0" id="circle51"/>
	<circle cx="233.322" cy="136.203" r="4" fill="#0" id="circle52"/>
	<circle cx="208.304" cy="141.067" r="4" fill="#0" id="circle53"/>
	<circle cx="192.469" cy="138.274" r="4" fill="#0" id="circle54"/>
	<circle cx="172.742" cy="133.288" r="4" fill="#0" id="circle55"/>
	<circle cx="157.566" cy="129.051" r="4" fill="#0" id="circle56"/>
	<circle cx="131.864" cy="122.094" r="4" fill="#0" id="circle57"/>
	<circle cx="113.865" cy="95.5084" r="4" fill="#0" id="circle58"/>
	<circle cx="133.718" cy="66.1153" r="4" fill="#0" id="circle59"/>
	<circle cx="158.771" cy="80.809" r="4" fill="#0" id="circle60"/>
	<circle cx="470.295" cy="88.3832" r="4" fill="#0" id="circle61"/>
	<circle cx="503.076" cy="74.4103" r="4" fill="#0" id="circle62"/>
	<circle cx="543.331" cy="96.1985" r="4" fill="#0" id="circle63"/>
	<circle cx="562.697" cy="120.18" r="4" fill="#0" id="circle64"/>
	<circle cx="447.827" cy="127.445" r="4" fill="#0" id="circle65"/>
	<circle cx="434.412" cy="170.11" r="4" fill="#0" id="circle66"/>
	<circle cx="440.406" cy="205.882" r="4" fill="#0" id="circle67"/>
	<circle cx="460.2" cy="247.529" r="4" fill="#0" id="circle68"/>
	<circle cx="494.917" cy="269.246" r="4" fill="#0" id="circle69"/>
	<circle cx="523.409" cy="267.96" r="4" fill="#0" id="circle70"/>
	<circle cx="546.063" cy="273.876" r="4" fill="#0" id="circle71"/>
	<circle cx="571.617" cy="269.35" r="4" fill="#0" id="circle72"/>
	<circle cx="566.142" cy="241.388" r="4" fill="#0" id="circle73"/>
	<circle cx="570.546" cy="212.849" r="4" fill="#0" id="circle74"/>
	<circle cx="554.625" cy="220.107" r="4" fill="#0" id="circle75"/>
	<circle cx="546.693" cy="231.572" r="4" fill="#0" id="circle76"/>
	<circle cx="509.738" cy="232.746" r="4" fill="#0" id="circle77"/>
	<circle cx="513.147" cy="196.089" r="4" fill="#0" id="circle78"/>
	<circle cx="502.076" cy="152.272" r="4" fill="#0" id="circle79"/>
	<circle cx="532.314" cy="150.643" r="4" fill="#0" id="circle80"/>
	<circle cx="566.795" cy="163.025" r="4" fill="#0" id="circle81"/>
	<circle cx="570.833" cy="162.061" r="4" fill="#0" id="circle82"/>
	<circle cx="601.228" cy="163.695" r="4" fill="#0" id="circle83"/>
	<circle cx="630.071" cy="165.174" r="4" fill="#0" id="circle84"/>
	<circle cx="659.345" cy="164.796" r="4" fill="#0" id="circle85"/>
	<circle cx="675.813" cy="175.289" r="4" fill="#0" id="circle86"/>
	<circle cx="662.118" cy="217.311" r="4" fill="#0" id="circle87"/>
	<circle cx="673.998" cy="242.532" r="4" fill="#0" id="circle88"/>
	<circle cx="658.465" cy="263.261" r="4" fill="#0" id="circle89"/>
	<circle cx="669.939" cy="290.994" r="4" fill="#0" id="circle90"/>
	<circle cx="638.737" cy="312.304" r="4" fill="#0" id="circle91"/>
	<circle cx="600.985" cy="337.374" r="4" fill="#0" id="circle92"/>
	<circle cx="570.194" cy="337.069" r="4" fill="#0" id="circle93"/>
	<circle cx="540.848" cy="335.16" r="4" fill="#0" id="circle94"/>
	<circle cx="492.282" cy="334.577" r="4" fill="#0" id="circle95"/>
	<circle cx="448.787" cy="333.807" r="4" fill="#0" id="circle96"/>
	<circle cx="422.109" cy="318.025" r="4" fill="#0" id="circle97"/>
	<circle cx="375.985" cy="296.589" r="4" fill="#0" id="circle98"/>
	<circle cx="348.518" cy="265.987" r="4" fill="#0" id="circle99"/>
	<circle cx="334.482" cy="235.238" r="4" fill="#0" id="circle100"/>
	<circle cx="327.179" cy="200.673" r="4" fill="#0" id="circle101"/>
	<circle cx="330.595" cy="179.67" r="4" fill="#0" id="circle102"/>
	<circle cx="341.013" cy="138.739" r="4" fill="#0" id="circle103"/>
	<circle cx="331.917" cy="126.221" r="4" fill="#0" id="circle104"/>
	<circle cx="348.709" cy="91.6013" r="4" fill="#0" id="circle105"/>
	<circle cx="369.848" cy="65.3554" r="4" fill="#0" id="circle106"/>
	<circle cx="403.891" cy="38.3792" r="4" fill="#0" id="circle107"/>
	<circle cx="463.389" cy="23.8693" r="4" fill="#0" id="circle108"/>
	<circle cx="521.939" cy="9.63139" r="4" fill="#0" id="circle109"/>
	<circle cx="567.677" cy="9.2573" r="4" fill="#0" id="circle110"/>
	<circle cx="603.166" cy="17.4191" r="4" fill="#0" id="circle111"/>
	<circle cx="636.06" cy="49.9105" r="4" fill="#0" id="circle112"/>
	<circle cx="643.241" cy="85.5136" r="4" fill="#0" id="circle113"/>
	<circle cx="658.732" cy="100.741" r="4" fill="#0" id="circle114"/>
	<circle cx="576.426" cy="116.997" r="4" fill="#0" id="circle115"/>
	<circle cx="609.739" cy="105.818" r="4" fill="#0" id="circle116"/>
	<circle cx="629.903" cy="118.87" r="4" fill="#0" id="circle117"/>
	<circle cx="649.517" cy="100.618" r="4" fill="#0" id="circle118"/>
	<circle cx="700.073" cy="20.8612" r="4" fill="#0" id="circle119"/>
	<circle cx="703.342" cy="61.5764" r="4" fill="#0" id="circle120"/>
	<circle cx="711.79" cy="97.819" r="4" fill="#0" id="circle121"/>
	<circle cx="707.023" cy="134.393" r="4" fill="#0" id="circle122"/>
	<circle cx="708.893" cy="172.844" r="4" fill="#0" id="circle123"/>
	<circle cx="711.719" cy="193.312" r="4" fill="#0" id="circle124"/>
	<circle cx="704.856" cy="225.597" r="4" fill="#0" id="circle125"/>
	<circle cx="713.104" cy="264.58" r="4" fill="#0" id="circle126"/>
	<circle cx="707.677" cy="279.09" r="4" fill="#0" id="circle127"/>
	<circle cx="703.68" cy="310.438" r="4" fill="#0" id="circle128"/>
	<circle cx="703.478" cy="336.727" r="4" fill="#0" id="circle129"/>
	<circle cx="698.257" cy="347.451" r="4" fill="#0" id="circle130"/>
	<circle cx="739.321" cy="356.306" r="4" fill="#0" id="circle131"/>
	<circle cx="769.941" cy="358.337" r="4" fill="#0" id="circle132"/>
	<circle cx="797.772" cy="341.978" r="4" fill="#0" id="circle133"/>
	<circle cx="806.714" cy="358.211" r="4" fill="#0" id="circle134"/>
	<circle cx="818.621" cy="327.508" r="4" fill="#0" id="circle135"/>
	<circle cx="807.498" cy="285.711" r="4" fill="#0" id="circle136"/>
	<circle cx="808.598" cy="250.582" r="4" fill="#0" id="circle137"/>
	<circle cx="807.814" cy="218.035" r="4" fill="#0" id="circle138"/>
	<circle cx="840.735" cy="221.556" r="4" fill="#0" id="circle139"/>
	<circle cx="856.768" cy="223.934" r="4" fill="#0" id="circle140"/>
	<circle cx="892.579" cy="217.142" r="4" fill="#0" id="circle141"/>
	<circle cx="936.896" cy="209.045" r="4" fill="#0" id="circle142"/>
	<circle cx="952.014" cy="181.293" r="4" fill="#0" id="circle143"/>
	<circle cx="978.226" cy="153.292" r="4" fill="#0" id="circle144"/>
	<circle cx="996" cy="118.05" r="4" fill="#0" id="circle145"/>
	<circle cx="987.598" cy="83.6578" r="4" fill="#0" id="circle146"/>
	<circle cx="959.734" cy="39.2817" r="4" fill="#0" id="circle147"/>
	<circle cx="922.941" cy="22.9683" r="4" fill="#0" id="circle148"/>
	<circle cx="868.119" cy="11.3927" r="4" fill="#0" id="circle149"/>
	<circle cx="823.647" cy="4" r="4" fill="#0" id="circle150"/>
	<circle cx="760.645" cy="6.11971" r="4" fill="#0" id="circle151"/>
	<circle cx="810.608" cy="80.3642" r="4" fill="#0" id="circle152"/>
	<circle cx="816.072" cy="104.384" r="4" fill="#0" id="circle153"/>
	<circle cx="800.056" cy="120.578" r="4" fill="#0" id="circle154"/>
	<circle cx="809.839" cy="135.39" r="4" fill="#0" id="circle155"/>
	<circle cx="825.45" cy="146.946" r="4" fill="#0" id="circle156"/>
	<circle cx="849.745" cy="140.282" r="4" fill="#0" id="circle157"/>
	<circle cx="856.17" cy="147.134" r="4" fill="#0" id="circle158"/>
	<circle cx="873.544" cy="130.935" r="4" fill="#0" id="circle159"/>
	<circle cx="879.038" cy="108.374" r="4" fill="#0" id="circle160"/>
	<circle cx="889.747" cy="90.6589" r="4" fill="#0" id="circle161"/>
	<circle cx="860.914" cy="88.3054" r="4" fill="#0" id="circle162"/>
	<circle cx="841.739" cy="80.3938" r="4" fill="#0" id="circle163"/>
	</g>
</svg>