24 257
32 264
34 252
42 265
44 247
52 265
54 244
62 265
63 239
72 265
73 239
82 234
82 265
92 234
92 265
102 229
102 265
112 229
112 265
122 229
122 269
131 224
132 270
140 219
142 270
149 207
152 274
154 192
159 172
159 182
162 275
164 157
169 137
169 147
170 282
177 129
180 285
185 121
189 107
189 290
189 347
194 327
194 337
194 356
194 366
195 298
197 99
199 308
199 318
199 375
202 385
204 395
206 104
209 404
210 114
211 414
214 424
215 123
215 133
215 143
220 432
224 442
225 144
229 451
235 144
236 459
241 468
245 144
249 475
254 484
254 494
255 144
260 502
265 144
267 510
275 144
277 514
285 144
285 520
294 525
295 147
297 535
302 155
302 544
304 597
304 607
306 554
310 162
310 615
311 563
312 589
314 573
316 623
319 167
325 175
326 625
330 184
330 194
335 203
335 213
335 630
339 640
339 650
340 222
340 232
340 242
340 252
340 262
340 272
340 282
340 292
340 302
345 658
348 309
350 590
350 605
350 615
350 625
350 635
355 644
355 654
357 314
360 585
366 319
369 580
374 326
379 577
380 334
387 569
389 339
397 345
397 564
407 349
407 560
414 357
417 560
419 366
425 374
427 559
430 383
437 555
440 384
447 555
448 390
453 399
457 555
462 404
465 414
467 555
473 420
477 555
480 428
487 555
488 434
495 442
497 555
500 451
506 459
507 555
510 469
517 555
520 472
527 480
527 555
535 487
537 555
545 489
547 555
555 492
557 555
565 494
567 555
574 499
577 555
584 499
587 555
594 501
597 555
604 504
607 555
613 509
617 559
623 509
627 560
633 509
637 560
643 510
647 560
652 515
657 559
662 519
667 555
672 519
677 555
682 519
687 555
692 519
697 555
702 519
707 555
712 519
716 550
722 519
725 540
732 519
735 529
