84 67
92 59
94 70
102 59
104 70
111 54
114 70
121 54
124 70
130 49
134 70
140 49
144 70
149 44
154 70
159 42
163 75
167 34
173 75
175 26
182 80
185 24
191 85
195 24
201 85
204 192
204 202
204 212
204 222
205 24
209 182
209 231
209 241
209 251
211 88
214 172
214 260
214 270
215 24
219 95
219 157
219 279
221 289
222 105
224 115
224 125
224 135
224 145
225 27
229 295
232 305
234 32
237 314
239 41
239 324
244 333
245 49
245 180
245 190
245 200
249 342
250 58
250 68
250 78
250 165
250 209
250 219
250 229
255 87
255 97
255 140
255 150
255 238
257 349
259 107
260 117
260 127
260 247
265 256
266 354
271 264
271 363
279 271
279 370
288 375
289 274
295 383
298 269
303 390
308 269
310 398
317 264
320 402
326 259
327 410
336 259
337 414
339 717
345 725
346 255
346 419
349 714
355 725
356 254
356 420
359 714
365 727
366 254
366 423
368 709
375 428
375 730
376 254
378 709
385 432
385 730
386 254
387 704
395 435
395 730
396 254
397 699
402 689
404 440
404 677
404 725
406 254
409 657
409 667
410 695
412 705
414 440
414 627
414 637
414 647
414 722
415 259
415 675
415 685
417 450
419 460
419 617
420 665
420 714
422 470
424 480
424 592
424 602
425 259
425 640
425 650
429 489
429 499
429 509
429 519
429 529
429 539
429 549
429 559
429 569
429 579
430 625
435 259
435 605
435 615
440 455
440 465
440 475
440 485
440 495
440 505
440 515
440 580
440 590
444 264
445 445
445 524
445 534
445 570
450 543
450 553
454 264
454 440
464 266
464 440
470 448
473 271
475 457
482 465
483 274
484 717
490 472
492 279
494 482
494 712
494 722
495 440
497 450
499 491
500 460
501 284
504 435
504 709
504 725
505 469
506 499
510 289
510 478
514 435
514 505
514 707
514 725
515 487
517 515
520 292
520 496
522 524
522 699
524 435
524 725
525 505
526 534
529 297
529 544
529 554
529 564
529 574
529 584
529 594
529 604
529 614
529 624
529 634
530 514
530 691
534 435
534 643
534 653
534 663
534 673
534 722
535 523
539 299
540 575
540 585
542 595
543 530
544 435
544 717
545 540
545 555
545 565
545 605
547 305
547 615
550 625
550 635
550 645
550 655
550 665
550 675
550 685
550 695
554 435
554 715
555 312
558 701
564 317
564 435
564 715
568 705
573 440
574 321
583 326
583 440
590 334
593 440
598 340
602 445
605 348
612 449
613 355
617 365
621 454
625 372
629 460
632 380
637 389
638 465
644 397
647 470
650 405
655 414
657 474
663 420
667 474
670 428
670 438
675 447
675 457
675 467
