109 1287
115 1295
117 1279
122 1269
124 1300
130 1261
133 1305
137 1315
138 1254
147 1249
147 1319
155 1241
155 1325
163 1234
164 1330
172 1229
173 1335
180 1343
181 1224
190 1219
190 1347
199 1212
200 1350
209 1207
209 1355
217 1199
218 1360
227 1194
227 1365
235 1372
237 1194
244 1377
246 1189
254 1380
255 1184
263 1385
264 1177
272 1390
274 1172
281 1395
284 1167
290 1400
294 1162
299 1405
304 1157
308 1410
314 1152
315 1418
322 1144
324 1423
332 1139
332 1430
340 1437
341 1134
347 1445
349 1127
355 1452
359 1122
362 1460
367 1114
367 1469
374 1477
375 1106
379 1486
383 1099
386 1494
387 1089
391 1503
395 1081
399 1510
400 1071
405 1518
408 1064
412 1054
413 1525
420 1046
422 1530
428 1039
431 1535
435 1031
440 1540
445 1026
449 1545
453 1019
458 1550
462 1014
468 1550
472 1009
477 1555
482 1009
487 1555
492 1004
497 1559
502 1004
507 1560
512 1004
517 1560
521 999
527 1560
531 999
537 1560
541 999
546 1565
551 995
556 1565
561 994
566 1565
571 994
576 1565
581 994
586 1565
591 994
596 1565
601 994
606 1565
611 994
616 1565
621 994
626 1565
631 994
634 407
634 417
634 427
634 437
634 447
634 457
634 467
634 477
636 1565
639 387
639 397
639 486
639 496
639 506
639 516
639 777
641 994
644 372
644 525
644 535
644 545
644 752
644 762
644 786
644 796
644 806
646 1565
649 362
649 554
649 564
649 737
649 815
649 2057
649 2067
649 2077
649 2087
649 2097
649 2107
649 2117
651 574
651 994
652 825
654 352
654 584
654 594
654 722
654 835
654 2022
654 2032
654 2042
654 2126
654 2136
654 2146
655 1570
659 342
659 603
659 613
659 623
659 633
659 697
659 707
659 1747
659 1757
659 1992
659 2002
659 2012
659 2155
660 643
660 843
661 994
664 653
664 663
664 673
664 683
664 853
664 1727
664 1737
664 1766
664 1776
664 1967
664 1977
664 2164
665 1570
667 334
669 862
669 1712
669 1785
669 1795
669 1942
669 1952
669 2173
671 994
674 871
674 1702
674 1804
674 1814
674 1912
674 1922
674 1932
674 2182
675 326
675 1570
679 1692
679 1823
679 1833
679 1843
679 1853
679 1863
679 1873
679 1883
679 1893
679 1903
679 2191
681 879
681 994
683 319
684 1682
684 2200
685 1570
686 888
687 309
689 1672
690 898
690 989
690 2208
695 1570
697 309
697 1664
698 905
698 2215
700 989
702 915
702 1654
704 1575
705 2223
706 314
707 1644
710 922
710 989
713 2230
714 1575
714 1632
715 319
717 930
719 2238
720 989
722 939
723 1580
724 1622
725 322
727 2244
729 947
729 1612
730 986
732 1585
734 327
734 956
737 1604
737 2240
739 1593
740 984
741 964
744 329
744 974
746 2235
753 334
755 2230
762 339
765 2225
772 339
775 2225
781 344
785 2220
790 349
795 2220
800 349
805 2220
810 352
814 2215
820 354
824 2215
830 354
834 2215
840 354
844 2215
850 354
854 2215
860 354
864 2215
870 354
874 2215
880 354
884 2215
890 354
894 2215
900 354
903 2220
910 354
912 2215
920 354
922 2215
930 354
932 2215
939 359
941 2210
949 359
950 2205
958 364
960 2205
967 369
969 2200
976 374
978 2195
985 379
987 2189
994 384
995 2180
1002 390
1005 2175
1010 397
1013 2168
1019 402
1020 2160
1027 409
1030 2150
1034 417
1039 2145
1042 424
1047 2139
1049 432
1052 2129
1057 439
1060 449
1060 2120
1068 2113
1070 452
1075 461
1075 2105
1080 2095
1081 469
1088 2088
1089 476
1095 484
1095 2080
1100 493
1103 2073
1108 500
1109 2065
1115 508
1115 2055
1120 517
1123 2048
1129 522
1130 2040
1134 531
1138 2033
1140 539
1145 2025
1148 545
1153 2018
1155 553
1160 2010
1163 560
1170 2005
1172 565
1179 2000
1180 572
1188 579
1188 1995
1197 1990
1198 580
1207 585
1207 1989
1217 589
1217 1984
1226 594
1227 1979
1235 599
1237 1974
1244 604
1245 1965
1252 610
1253 1958
1260 1950
1262 614
1268 1943
1272 609
1274 1935
1277 599
1282 589
1284 1935
1290 581
1290 1943
1298 574
1298 1950
1305 566
1305 1958
1315 561
1315 1962
1322 1970
1325 556
1332 1970
1335 554
1341 1975
1344 549
1350 1980
1353 544
1360 1982
1362 539
1369 1987
1372 534
1377 1994
1382 529
1386 1999
1391 524
1394 2005
1399 517
1400 2013
1407 509
1408 2020
1415 501
1415 2028
1423 494
1423 2035
1427 2045
1429 482
1435 2052
1439 472
1442 2060
1447 464
1450 2067
1455 456
1457 2075
1462 2084
1463 449
1467 439
1469 2092
1477 434
1477 2099
1482 424
1484 2107
1489 2116
1490 416
1498 409
1499 2120
1504 2129
1505 401
1510 2137
1513 394
1517 2145
1520 386
1525 2152
1528 379
1534 2157
1537 374
1542 364
1542 2164
1549 2172
1551 359
1559 352
1559 2175
1565 2183
1569 347
1575 2187
1579 342
1584 2192
1587 334
1594 2195
1597 334
1603 2200
1606 329
1612 2205
1615 324
1622 2205
1625 324
1632 2205
1634 319
1642 2205
1644 319
1652 2205
1654 319
1662 2205
1664 319
1672 2205
1674 321
1682 2205
1684 324
1692 2205
1694 324
1702 2205
1704 324
1712 2205
1714 324
1722 2205
1724 324
1732 2205
1734 324
1742 2205
1743 319
1751 2210
1753 319
1761 2210
1763 319
1770 2215
1772 314
1779 2220
1782 314
1789 2220
1791 309
1798 2225
1801 305
1805 1575
1805 1585
1807 2230
1810 935
1810 945
1810 1594
1811 304
1815 954
1815 1570
1815 1603
1817 2234
1818 928
1819 311
1820 1612
1823 321
1824 959
1825 915
1825 1570
1826 2239
1829 1617
1830 329
1833 908
1833 964
1834 1626
1835 1565
1836 2240
1838 335
1838 898
1840 1634
1843 965
1845 343
1845 885
1845 1565
1845 1643
1846 2240
1850 352
1850 875
1853 969
1853 1650
1854 2232
1855 865
1855 1565
1857 360
1857 1660
1860 660
1860 670
1860 680
1860 690
1860 700
1860 710
1860 720
1860 2220
1862 730
1862 1669
1863 858
1863 970
1865 367
1865 630
1865 640
1865 650
1865 740
1865 750
1865 845
1865 1565
1865 1679
1868 2213
1870 376
1870 605
1870 615
1870 759
1870 769
1870 830
1870 1688
1873 974
1875 385
1875 580
1875 590
1875 778
1875 788
1875 815
1875 1565
1875 2200
1878 1695
1880 394
1880 404
1880 555
1880 565
1880 797
1880 1825
1880 1835
1880 1845
1880 1855
1880 1865
1880 1875
1880 1885
1880 1895
1880 1905
1880 1915
1880 1925
1882 1705
1883 974
1883 2193
1885 413
1885 525
1885 535
1885 545
1885 1560
1885 1715
1885 1810
1885 1934
1885 1944
1885 1954
1888 2183
1890 422
1890 432
1890 442
1890 452
1890 462
1890 472
1890 482
1890 492
1890 502
1890 512
1890 1724
1890 1734
1890 1795
1890 1963
1890 1973
1893 974
1893 2173
1895 1560
1895 1743
1895 1753
1895 1770
1895 1780
1895 1982
1895 1992
1895 2002
1898 2163
1899 2012
1900 2022
1900 2032
1900 2145
1903 974
1904 2042
1905 1560
1905 2052
1905 2062
1905 2072
1905 2082
1905 2092
1905 2102
1905 2112
1905 2122
1905 2132
1913 975
1915 1560
1923 979
1925 1560
1933 979
1935 1560
1943 979
1945 1560
1953 979
1955 1560
1963 979
1965 1560
1973 979
1975 1560
1983 979
1985 1560
1993 979
1995 1560
2003 979
2005 1555
2013 979
2015 1555
2022 984
2025 1555
2032 984
2035 1555
2042 984
2045 1550
2052 984
2055 1550
2061 989
2065 1550
2071 989
2074 1545
2081 989
2084 1542
2090 994
2094 1537
2100 997
2104 1535
2110 999
2112 1529
2119 1004
2122 1524
2129 1006
2130 1515
2135 1014
2138 1508
2145 1017
2145 1500
2150 1490
2152 1025
2158 1483
2160 1032
2165 1470
2167 1040
2173 1463
2175 1047
2178 1453
2180 1056
2185 1065
2185 1445
2190 1074
2193 1438
2195 1083
2200 1430
2203 1090
2210 1098
2210 1425
2218 1105
2218 1418
2225 1113
2228 1413
2233 1120
2235 1405
2240 1128
2245 1400
2250 1132
2255 1395
2258 1139
2265 1390
2267 1144
2274 1385
2276 1149
2283 1380
2285 1154
2292 1375
2294 1159
2301 1370
2302 1165
2310 1365
2312 1169
2320 1360
2321 1174
2329 1355
2330 1179
2338 1350
2340 1182
2347 1344
2348 1189
2357 1194
2357 1339
2366 1199
2367 1334
2375 1204
2375 1325
2384 1209
2385 1320
2392 1215
2394 1315
2402 1219
2402 1309
2409 1227
2412 1304
2419 1231
2420 1295
2425 1239
2428 1288
2435 1242
2435 1280
2442 1250
2443 1273
2445 1260
