339 1277
339 1287
339 1297
339 1307
339 1317
339 1327
339 1337
339 1347
339 1357
339 1367
339 1377
339 1387
339 1397
339 1407
339 1417
339 1427
339 1437
339 1447
339 1457
339 1467
344 1237
344 1247
344 1257
344 1267
344 1476
344 1486
344 1496
344 1506
349 1197
349 1207
349 1217
349 1227
349 1515
349 1525
349 1535
349 1545
354 1167
354 1177
354 1187
354 1554
354 1564
354 1574
354 1584
359 1147
359 1157
359 1593
359 1603
364 1127
364 1137
364 1612
364 1622
369 1107
369 1117
369 1631
369 1641
374 1092
374 1650
374 1660
379 1072
379 1082
379 1669
379 1679
384 1052
384 1062
384 1688
385 1698
389 1037
389 1708
390 1718
394 1022
394 1728
399 1007
399 1737
399 1747
404 997
404 1756
409 982
409 1765
412 1775
414 972
417 1784
419 957
419 1794
424 947
424 1803
429 932
429 1812
434 922
434 1821
434 1831
439 907
439 1840
444 897
444 1849
446 1859
449 887
451 1868
454 877
455 1878
459 867
463 1885
467 859
467 1895
472 849
472 1904
477 839
479 1912
482 829
484 1921
489 817
489 1930
492 1940
497 1949
499 819
504 1957
509 819
509 1966
514 1975
517 1985
519 819
525 1992
528 824
529 2002
537 819
537 2009
541 2019
547 819
549 722
549 2025
554 2034
557 714
557 819
559 725
560 2042
564 702
567 819
567 2050
569 725
572 694
574 2058
577 819
579 682
579 725
579 2067
584 2076
587 674
587 819
589 725
591 2084
595 666
597 819
599 725
599 2090
604 2099
605 664
607 819
609 725
610 2107
615 664
617 819
617 2115
619 725
625 664
625 2122
627 819
629 725
632 2130
635 664
637 819
639 725
640 2137
645 664
647 819
647 2145
649 725
655 664
655 2152
657 819
659 725
662 2160
665 664
667 819
669 725
670 2167
675 664
677 819
677 2175
679 725
685 664
685 2182
687 819
689 725
692 2190
695 664
697 819
698 730
699 552
700 2197
705 560
705 664
707 725
707 819
707 2205
709 547
715 560
715 664
715 2212
716 730
717 539
717 819
724 2217
725 531
725 560
725 664
726 728
727 819
732 2224
733 524
735 560
735 664
736 725
737 814
739 2232
742 519
745 560
745 664
745 730
747 814
747 2239
750 511
754 725
755 560
755 664
755 2245
757 814
758 504
763 730
764 2250
765 560
765 664
767 499
767 814
770 2258
773 730
775 491
775 560
775 664
777 814
780 2262
783 484
783 730
785 560
785 664
787 814
787 2270
792 479
793 730
795 560
795 664
797 814
797 2274
801 474
803 730
805 560
805 664
805 2280
807 814
809 467
813 730
814 2285
815 560
815 664
817 459
817 814
823 730
823 2290
825 560
825 664
827 454
827 809
830 2298
833 730
835 560
835 664
836 814
837 449
840 2302
843 730
845 560
845 664
846 444
846 814
847 2310
853 730
855 439
855 560
855 664
855 809
857 2314
863 730
864 432
865 560
865 662
865 809
865 2320
873 730
874 427
874 2325
875 560
875 662
875 809
883 730
883 2330
884 422
885 560
885 662
885 809
892 2335
893 730
894 417
895 560
895 661
895 809
901 2340
902 409
903 730
905 560
905 659
905 809
910 2345
912 404
913 730
915 560
915 659
915 809
919 2350
922 399
923 730
925 560
925 659
925 806
928 2355
931 394
933 730
935 560
935 659
935 806
937 2360
940 389
942 735
945 560
945 659
945 804
946 2365
949 384
951 730
955 560
955 659
955 804
955 2370
958 379
960 735
964 2375
965 560
965 659
965 804
968 379
969 730
974 2375
975 560
975 657
975 804
977 374
979 732
983 2380
985 560
985 654
985 804
986 369
989 735
992 2385
995 560
995 654
995 804
996 365
999 735
1002 2389
1005 560
1005 654
1005 804
1006 360
1009 735
1011 2394
1015 560
1015 654
1015 804
1016 359
1019 735
1021 2398
1025 354
1025 560
1025 654
1025 804
1029 735
1031 2400
1034 349
1035 560
1035 652
1035 802
1039 735
1040 2405
1043 344
1045 560
1045 649
1045 804
1049 735
1049 2410
1053 344
1054 799
1055 560
1055 649
1059 735
1059 2410
1062 339
1064 799
1065 560
1065 649
1068 2415
1069 735
1071 334
1074 799
1075 560
1075 649
1077 2420
1079 735
1081 330
1084 799
1085 560
1085 647
1087 2424
1089 735
1091 329
1094 799
1095 560
1095 644
1097 2425
1099 735
1101 325
1104 799
1105 560
1105 644
1107 2429
1109 735
1111 324
1114 797
1115 560
1115 644
1117 2430
1119 735
1120 319
1124 799
1125 560
1125 642
1126 2435
1128 740
1130 319
1134 796
1135 560
1135 639
1136 2435
1137 735
1139 314
1144 794
1145 560
1145 639
1145 2440
1146 740
1149 312
1154 794
1155 560
1155 636
1155 2442
1156 740
1159 309
1164 794
1165 560
1165 636
1165 2445
1166 740
1169 307
1174 794
1175 560
1175 634
1175 2447
1176 740
1179 304
1184 794
1185 560
1185 634
1185 2450
1186 740
1188 299
1194 794
1195 560
1195 632
1195 2452
1196 740
1198 299
1204 794
1205 560
1205 629
1205 2455
1206 740
1207 294
1214 792
1215 560
1215 629
1215 2455
1216 740
1217 294
1224 789
1224 2460
1225 560
1225 627
1226 740
1227 294
1234 789
1234 2460
1235 560
1235 624
1236 289
1236 740
1244 789
1244 2460
1245 560
1245 621
1246 289
1246 740
1253 2465
1254 789
1255 560
1255 621
1255 745
1256 289
1263 2465
1264 740
1264 789
1265 560
1265 619
1266 285
1273 2465
1274 742
1274 789
1275 560
1275 616
1276 285
1283 2465
1284 745
1284 786
1285 560
1285 614
1286 284
1292 2470
1294 745
1294 784
1295 560
1295 611
1296 284
1302 2470
1304 745
1304 784
1305 560
1305 609
1306 280
1312 2470
1314 745
1314 784
1315 560
1315 609
1316 279
1322 2470
1324 604
1324 745
1324 784
1325 560
1326 279
1331 2475
1334 604
1334 745
1334 784
1335 560
1336 279
1341 2475
1343 599
1344 745
1344 784
1345 560
1346 279
1351 2475
1353 599
1353 779
1354 747
1355 274
1355 560
1361 2475
1363 599
1363 779
1364 750
1365 274
1365 560
1371 2475
1372 594
1373 779
1374 750
1375 274
1375 560
1381 589
1381 2475
1383 779
1384 750
1385 274
1385 560
1391 589
1391 2478
1393 779
1394 750
1395 274
1395 560
1400 584
1401 2475
1402 774
1404 750
1405 274
1405 560
1410 581
1410 2480
1412 774
1414 752
1415 274
1415 560
1419 2475
1420 579
1422 774
1424 755
1425 274
1425 560
1429 574
1429 2477
1432 774
1434 755
1435 274
1435 560
1439 572
1439 2480
1441 769
1444 755
1445 274
1445 560
1448 2475
1450 569
1451 769
1455 274
1455 560
1456 760
1457 2480
1465 274
1466 2475
1475 274
1476 2475
1485 274
1486 2475
1495 274
1495 2025
1496 2475
1500 2034
1504 279
1505 1895
1506 2475
1508 2028
1510 2038
1514 279
1514 1890
1516 2475
1518 2030
1522 2040
1524 279
1524 1890
1525 2470
1527 2025
1530 1898
1532 2044
1534 279
1535 2470
1536 1890
1536 2030
1541 2049
1543 284
1544 1896
1545 1885
1545 2470
1546 2028
1551 2049
1553 284
1554 1897
1555 1885
1555 2470
1556 2025
1560 2054
1563 284
1564 1899
1564 2465
1565 1885
1565 2030
1570 2054
1573 284
1574 1899
1574 2025
1574 2465
1575 1885
1579 2059
1582 289
1584 1899
1584 2027
1584 2465
1585 1885
1589 2059
1592 289
1594 1880
1594 1897
1594 2030
1594 2462
1598 2064
1602 289
1603 2025
1604 1880
1604 1899
1604 2460
1608 2064
1612 289
1612 2030
1614 1880
1614 1899
1614 2460
1617 2069
1621 294
1622 2029
1624 1880
1624 1899
1624 2460
1627 2069
1631 294
1632 2025
1634 1877
1634 1899
1634 2457
1636 2074
1641 294
1641 2030
1644 1875
1644 1899
1644 2455
1646 2074
1650 299
1650 2025
1654 1875
1654 1899
1654 2452
1656 2074
1660 302
1660 2025
1664 1875
1664 1899
1664 2450
1665 2079
1670 304
1670 2025
1673 2445
1674 1872
1674 1899
1675 2079
1680 307
1680 2025
1683 2445
1684 1870
1684 1899
1685 2082
1690 309
1690 2025
1692 2440
1694 1870
1694 1899
1695 2082
1699 314
1700 2025
1702 2440
1704 1870
1704 1899
1705 2084
1709 314
1710 2025
1711 2435
1714 1870
1714 1899
1715 2087
1718 319
1720 2025
1721 2435
1723 1865
1724 1899
1725 2089
1728 319
1730 2025
1730 2430
1733 1865
1734 1899
1735 2089
1737 324
1740 2025
1740 2430
1743 1865
1744 1899
1745 2089
1747 324
1749 2425
1750 2025
1753 1865
1754 1899
1754 2094
1756 329
1759 2425
1760 2025
1763 1865
1764 1899
1764 2094
1766 329
1768 2420
1770 2025
1773 1863
1773 1904
1774 2094
1775 334
1778 2418
1780 2025
1783 1863
1783 1904
1784 339
1784 2094
1788 2413
1790 2025
1793 1860
1793 1904
1793 2099
1794 341
1798 2408
1800 2025
1803 346
1803 1860
1803 1904
1803 2099
1808 2405
1810 2025
1813 349
1813 1860
1813 1904
1813 2099
1817 2400
1820 2025
1822 354
1823 1860
1823 1904
1823 2099
1826 2395
1830 2025
1831 359
1833 1858
1833 1904
1833 2099
1836 2395
1840 2025
1841 359
1843 1858
1843 1904
1843 2100
1845 2390
1850 364
1850 2025
1853 1855
1853 1904
1853 2100
1854 2385
1859 369
1860 2025
1863 1855
1863 1904
1863 2104
1863 2380
1869 371
1870 2025
1873 1855
1873 1904
1873 2104
1873 2378
1878 376
1880 2025
1883 1855
1883 1904
1883 2104
1883 2373
1888 380
1890 2025
1893 1855
1893 1904
1893 2104
1893 2368
1898 384
1900 2025
1903 1853
1903 1904
1903 2104
1903 2365
1907 389
1910 2025
1912 2359
1913 1853
1913 1904
1913 2105
1916 394
1920 2025
1922 2354
1923 1850
1923 1904
1923 2109
1925 399
1930 2025
1932 2349
1933 1850
1933 1904
1933 2109
1934 404
1940 2025
1940 2340
1942 2104
1943 409
1943 1850
1943 1904
1950 2025
1950 2335
1951 2109
1952 414
1953 1850
1953 1904
1960 2025
1960 2330
1961 419
1961 2109
1963 1850
1963 1904
1969 2325
1970 424
1970 2025
1971 2109
1973 1850
1973 1904
1978 430
1978 2320
1980 2025
1981 2109
1983 1848
1983 1904
1987 435
1987 2314
1990 2025
1991 2109
1993 1850
1993 1904
1995 442
1997 2309
2000 2025
2001 2109
2002 1845
2002 1909
2004 447
2007 2304
2010 2025
2011 2109
2012 454
2012 1845
2012 1904
2017 2299
2020 2025
2021 459
2021 1909
2021 2109
2022 1845
2025 2290
2030 464
2030 2025
2031 1909
2031 2109
2032 1845
2035 2285
2038 470
2040 2025
2041 1909
2041 2109
2042 1845
2044 2280
2047 475
2050 2025
2051 1905
2051 2109
2052 1845
2052 2274
2055 482
2060 2025
2060 2265
2061 1909
2061 2109
2062 1845
2064 487
2070 2025
2070 2260
2071 1909
2071 2109
2072 494
2072 1845
2079 2255
2080 2025
2081 499
2081 1909
2081 2109
2082 1845
2087 2249
2090 504
2090 2025
2091 1909
2091 2109
2092 1845
2095 2240
2098 510
2100 2025
2101 1909
2101 2109
2102 1845
2103 2233
2105 518
2110 2025
2110 2225
2111 1840
2111 1909
2111 2109
2113 525
2120 533
2120 1845
2120 2025
2120 2220
2121 1909
2121 2109
2128 2213
2129 1840
2130 537
2130 2025
2131 1909
2131 2109
2135 2205
2137 545
2139 1842
2140 2025
2141 1909
2141 2105
2143 2198
2145 552
2149 1845
2149 2020
2150 2190
2151 1909
2151 2109
2152 560
2158 1840
2158 2183
2159 2022
2160 567
2161 1909
2161 2109
2165 2175
2167 575
2168 1840
2169 2025
2171 1909
2171 2105
2173 2168
2175 582
2178 1840
2178 2020
2180 2160
2181 1909
2181 2109
2182 590
2187 2025
2188 1840
2188 2153
2190 597
2191 1909
2191 2109
2195 2145
2197 605
2197 2024
2198 1840
2201 1909
2201 2105
2203 2138
2205 612
2207 2020
2208 1840
2210 2130
2211 1909
2211 2109
2212 620
2216 2025
2218 1840
2218 2123
2220 627
2221 1909
2221 2109
2226 2023
2227 635
2228 1840
2231 1909
2235 642
2236 2020
2238 1840
2241 1909
2242 650
2245 2025
2247 659
2248 1840
2251 1909
2254 667
2254 2020
2258 1840
2261 1909
2262 674
2264 2022
2265 684
2268 1840
2271 1909
2273 690
2274 2025
2278 1840
2280 698
2281 1909
2283 2020
2285 707
2288 1840
2291 1909
2292 715
2292 2025
2297 724
2298 1840
2301 1909
2301 2020
2304 732
2308 1840
2309 741
2309 2012
2311 1909
2314 2002
2315 749
2318 1840
2320 758
2320 1990
2321 1909
2325 767
2328 1840
2328 1983
2331 1909
2332 775
2333 1973
2337 784
2338 1840
2340 1960
2341 1909
2344 792
2345 1950
2348 1840
2349 801
2351 1909
2353 811
2353 1943
2358 1840
2358 1933
2360 819
2361 1909
2365 828
2365 1920
2368 1840
2370 837
2375 846
2378 1840
2380 855
2385 864
2388 1840
2390 873
2395 882
2398 1840
2399 892
2404 901
2405 911
2407 1834
2410 920
2412 1824
2415 929
2415 939
2417 1814
2420 948
2422 1804
2425 957
2427 1794
2429 967
2430 1780
2434 976
2435 1765
2438 986
2440 996
2440 1750
2445 1005
2445 1735
2447 1015
2450 1720
2452 1024
2455 1034
2455 1044
2455 1705
2460 1053
2460 1063
2460 1690
2465 1072
2465 1680
2469 1082
2470 1092
2470 1665
2474 1102
2475 1112
2475 1640
2475 1650
2479 1122
2480 1132
2480 1620
2480 1630
2485 1141
2485 1151
2485 1600
2485 1610
2490 1160
2490 1170
2490 1180
2490 1565
2490 1575
2490 1585
2495 1189
2495 1199
2495 1209
2495 1219
2495 1229
2495 1525
2495 1535
2495 1545
2495 1555
2500 1238
2500 1248
2500 1258
2500 1490
2500 1500
2500 1510
2505 1267
2505 1277
2505 1287
2505 1297
2505 1310
2505 1330
2505 1345
2505 1365
2505 1380
2505 1400
2505 1415
2505 1435
2505 1450
2505 1460
2505 1470
2505 1480
2510 1319
2510 1354
2510 1389
2510 1424
