439 2257
447 2249
455 2241
460 2250
463 2234
469 2245
470 2226
478 2219
478 2240
485 2211
487 2235
493 2204
496 2230
500 2196
505 2225
510 2191
515 2181
515 2220
525 2176
525 2215
530 2166
535 2210
540 2161
545 2205
548 2154
555 2146
555 2200
563 2139
565 2195
570 2131
575 2190
578 2124
584 2112
585 2185
594 2107
595 2185
599 2097
604 2180
609 2092
613 2175
614 2082
622 2170
624 2077
629 2067
631 2165
637 2059
640 2160
645 2051
650 2160
653 2044
659 2155
660 2036
668 2029
668 2150
675 2021
678 2148
683 2014
688 2143
690 2006
698 1999
698 2138
704 1987
708 2135
712 1979
717 2130
720 1971
726 2125
728 1964
735 1956
736 2125
743 1949
745 2120
749 1937
755 2115
757 1929
765 1921
765 2110
773 1914
775 2110
780 1906
784 2105
785 1896
793 1889
794 2102
800 1881
804 2100
808 1874
813 2095
814 1862
822 1854
823 2093
830 1846
833 2090
838 1839
842 1829
842 2085
850 1821
852 2084
855 1811
862 2080
863 1804
870 1796
871 2075
875 1786
881 2075
883 1779
890 1771
890 2070
895 1761
900 2070
903 1754
909 1742
909 2065
917 1734
919 2062
924 1722
929 2060
932 1714
939 1702
939 2057
947 1694
949 2055
952 1684
958 2050
960 1676
965 1666
968 2050
973 1659
977 1649
978 2048
985 1641
988 2045
990 1631
997 2040
998 1624
1002 1614
1007 2040
1009 1602
1017 1594
1017 2039
1022 1584
1027 2035
1029 1572
1037 1564
1037 2034
1042 1554
1047 2030
1049 1542
1057 1534
1057 2030
1062 1524
1066 2025
1067 1514
1074 1502
1076 2025
1082 1494
1086 2025
1087 1484
1092 1474
1095 2020
1099 1462
1104 1452
1105 2020
1112 1444
1115 2015
1117 1434
1122 1424
1125 2015
1129 1412
1134 1402
1135 2015
1139 1392
1144 1382
1145 2010
1149 1372
1155 2010
1157 1364
1159 1352
1165 2010
1167 1344
1172 1334
1175 2010
1177 1324
1182 1314
1184 2005
1187 1304
1192 1294
1194 2005
1197 1284
1202 1274
1204 1262
1204 2005
1212 1254
1214 1242
1214 2005
1219 1232
1223 2000
1224 1222
1229 1212
1233 2000
1234 1202
1239 1187
1243 2000
1244 1177
1249 1167
1253 2000
1254 1152
1259 1142
1263 1998
1264 1132
1269 1117
1273 1995
1274 1107
1279 1092
1283 1995
1284 1082
1289 1067
1293 1995
1294 1057
1299 1042
1303 1995
1304 1027
1309 1012
1313 1995
1314 1002
1319 987
1323 1993
1324 972
1329 957
1333 1995
1334 942
1339 922
1339 932
1342 1990
1344 907
1349 892
1352 1990
1354 872
1354 882
1359 857
1362 1990
1364 837
1364 847
1369 817
1369 827
1372 1990
1374 802
1379 777
1379 787
1382 1990
1384 757
1384 767
1389 737
1389 747
1392 1990
1394 712
1394 722
1399 692
1399 702
1402 1990
1404 662
1404 672
1404 682
1409 637
1409 647
1412 1990
1414 607
1414 617
1414 627
1419 577
1419 587
1419 597
1422 1990
1424 547
1424 557
1424 567
1429 507
1429 517
1429 527
1429 537
1432 1990
1439 506
1440 516
1440 526
1442 1990
1443 536
1445 546
1445 556
1445 566
1445 576
1445 586
1450 595
1450 605
1450 615
1452 625
1452 1990
1455 635
1455 645
1455 655
1460 664
1460 674
1460 684
1460 694
1462 1990
1465 703
1465 713
1465 723
1465 733
1470 742
1470 752
1472 1990
1475 761
1475 771
1475 781
1480 790
1480 800
1482 810
1482 1990
1485 820
1485 830
1490 839
1490 849
1492 1990
1495 858
1495 868
1495 878
1500 887
1500 897
1502 1990
1505 906
1505 916
1510 925
1510 935
1512 1990
1515 944
1515 954
1520 963
1520 973
1522 1990
1525 982
1525 992
1530 1001
1530 1011
1532 1990
1535 1020
1537 1030
1540 1040
1541 1995
1545 1049
1545 1059
1550 1068
1551 1993
1555 1077
1555 1087
1559 1097
1560 1107
1561 1995
1565 1116
1570 1125
1570 1135
1571 1995
1575 1144
1580 1153
1580 1163
1581 1995
1585 1172
1589 1182
1591 1995
1594 1191
1595 1201
1600 1210
1601 1995
1602 1220
1607 1229
1610 1239
1610 2000
1615 1248
1620 1257
1620 1267
1620 2000
1625 1276
1630 1285
1630 2000
1635 1294
1640 1303
1640 1313
1640 2000
1645 1322
1650 1331
1650 2000
1655 1340
1659 2005
1660 1349
1665 1358
1669 2005
1670 1367
1674 1377
1675 1387
1679 2005
1682 1395
1685 1405
1689 2005
1690 1414
1695 1423
1699 2005
1700 1432
1705 1441
1708 2010
1710 1450
1715 1459
1718 2010
1720 1468
1725 1477
1727 2015
1729 1487
1735 1495
1737 2015
1740 1504
1745 1513
1747 2015
1750 1522
1755 1531
1757 2019
1760 1540
1765 1549
1767 2020
1770 1558
1775 1567
1777 2020
1782 1575
1787 1584
1787 2024
1790 1594
1797 2025
1798 1600
1802 1610
1807 2025
1810 1617
1814 1627
1816 2030
1820 1635
1825 1644
1826 2030
1830 1653
1836 2033
1838 1660
1842 1670
1846 2035
1850 1677
1854 1687
1856 2038
1862 1694
1865 1704
1866 2040
1873 1710
1876 2043
1877 1720
1885 1727
1886 2045
1890 1736
1896 1744
1896 2048
1904 1751
1906 2050
1910 1759
1915 1768
1916 2053
1923 1775
1926 2055
1927 1785
1935 1792
1936 2058
1942 1800
1946 2060
1947 1809
1954 1817
1956 2063
1962 1824
1966 2065
1969 1832
1974 1841
1975 2070
1980 1849
1985 2070
1988 1855
1994 2075
1995 1863
2000 1872
2004 2075
2009 1877
2013 2080
2014 1886
2020 1894
2022 2085
2028 1900
2032 2085
2035 1908
2041 2090
2043 1915
2050 1923
2051 2093
2058 1930
2061 2095
2062 1940
2070 1947
2070 2100
2077 1955
2080 2102
2085 1962
2090 2105
2092 1970
2099 2110
2100 1977
2107 1985
2109 2110
2115 1992
2118 2115
2122 2000
2127 2120
2132 2004
2135 2014
2137 2124
2145 2017
2146 2129
2152 2025
2156 2130
2160 2032
2165 2135
2167 2040
2174 2140
2175 2047
2182 2055
2184 2140
2190 2062
2193 2145
2199 2067
2202 2150
2207 2074
2212 2154
2214 2082
2221 2159
2222 2089
2229 2097
2231 2160
2239 2101
2240 2165
2245 2109
2249 2170
2253 2115
2258 2175
2260 2123
2267 2180
2268 2129
2277 2134
2277 2184
2284 2142
2287 2185
2292 2149
2296 2190
2301 2154
2305 2195
2309 2161
2314 2200
2315 2169
2323 2205
2324 2174
2332 2180
2332 2210
2340 2187
2342 2214
2349 2192
2351 2219
2357 2199
2361 2223
2366 2204
2370 2228
2374 2211
2380 2219
2380 2232
2389 2224
2389 2237
2397 2230
2399 2240
2407 2234
2408 2245
2415 2253
2425 2249
2426 2259
