399 1387
399 1402
404 1307
404 1317
404 1327
404 1337
404 1347
404 1357
404 1367
404 1377
404 1411
404 1421
404 1431
404 1441
404 1451
404 1461
404 1471
404 1487
409 1262
409 1272
409 1282
409 1292
409 1496
409 1506
409 1516
409 1526
409 1537
414 1232
414 1242
414 1252
414 1546
414 1556
419 1197
419 1207
419 1217
419 1565
419 1575
419 1585
419 1595
424 1177
424 1187
424 1604
424 1614
429 1157
429 1167
429 1623
429 1633
434 1137
434 1147
434 1642
434 1652
439 1122
439 1661
439 1671
444 1102
444 1112
444 1680
444 1690
449 1087
449 1699
451 1709
454 1072
454 1719
459 1057
459 1728
460 1738
464 1047
465 1747
469 1032
469 1757
474 1017
474 1766
474 1776
479 1007
479 1785
484 997
484 1794
489 987
489 1803
490 1813
494 972
495 1822
499 962
499 1832
504 952
504 1841
509 942
509 1850
514 932
514 1859
519 922
519 1868
524 912
524 1877
529 902
529 1886
534 892
534 1895
537 1905
542 884
544 1913
547 874
549 1922
552 864
554 1931
559 852
559 1940
565 1948
567 844
570 1957
572 834
577 1965
579 822
582 1974
587 814
589 1982
592 804
594 1991
599 792
599 2000
605 2008
607 784
610 2017
614 772
617 2025
622 764
625 2032
630 756
632 2040
637 2049
638 749
642 739
644 2057
650 731
652 2064
658 724
659 2072
665 716
667 2079
673 709
674 2087
680 701
682 2094
685 691
686 2104
694 682
694 2110
703 2115
704 672
707 2125
714 667
717 2129
722 659
724 2137
730 651
732 2144
738 644
739 2152
745 636
747 2159
753 629
754 2167
760 621
762 2174
770 616
771 2179
778 609
779 2185
785 601
785 2193
793 594
793 2200
802 589
802 2205
810 2212
811 584
819 577
819 2217
827 569
827 2224
836 2229
837 564
844 2235
846 559
853 2240
854 552
862 2245
864 547
870 2252
872 539
879 2257
882 534
887 2264
892 529
896 2269
901 524
906 2273
910 519
915 2278
919 514
925 2282
928 509
932 2290
937 504
942 2294
946 499
951 2299
955 494
961 2303
964 489
970 2308
973 484
980 2312
982 479
990 2315
992 479
999 2320
1001 474
1008 2325
1010 469
1017 2330
1019 464
1027 2334
1028 459
1037 2335
1038 459
1046 2340
1047 454
1056 2343
1057 449
1065 2348
1067 444
1075 2350
1077 444
1084 2355
1086 439
1094 2355
1096 435
1103 2360
1106 434
1112 2365
1115 429
1122 2365
1125 429
1132 2369
1134 424
1142 2370
1144 422
1151 2375
1154 419
1161 2375
1164 419
1171 2378
1173 414
1181 2380
1183 414
1191 2383
1192 409
1201 2385
1202 409
1211 2385
1212 409
1220 2390
1221 404
1230 2390
1231 404
1240 2390
1241 404
1250 2390
1251 404
1259 2395
1260 399
1269 2395
1270 399
1279 2395
1280 399
1288 2400
1290 396
1298 2400
1300 394
1308 2400
1310 394
1318 2400
1320 394
1327 2405
1330 394
1337 2404
1340 394
1347 2400
1350 394
1356 2405
1360 391
1366 2405
1370 392
1376 2405
1380 389
1386 2405
1389 394
1396 2405
1399 391
1406 2405
1409 389
1416 2405
1418 394
1426 2405
1428 394
1436 2403
1438 394
1446 2400
1448 394
1456 2400
1458 394
1466 2400
1468 394
1476 2400
1478 394
1486 2400
1488 395
1495 2395
1498 399
1505 2395
1508 399
1515 2395
1518 399
1525 2395
1528 399
1535 2390
1537 404
1545 2390
1547 404
1555 2390
1557 404
1565 2385
1567 404
1575 2385
1576 409
1585 2385
1586 409
1595 414
1595 2380
1605 414
1605 2380
1615 417
1615 2375
1625 419
1625 2375
1635 422
1635 2370
1645 424
1645 2370
1655 427
1655 2365
1665 429
1665 2365
1674 434
1674 2360
1684 434
1684 2360
1693 439
1693 2355
1703 440
1703 2353
1713 444
1713 2350
1722 449
1722 2345
1731 454
1731 2340
1741 454
1741 2340
1750 459
1750 2335
1759 2330
1760 462
1769 467
1769 2327
1779 471
1779 2322
1788 476
1789 2317
1798 479
1799 2312
1807 484
1809 2307
1816 489
1819 2305
1825 494
1828 2300
1835 497
1837 2294
1844 502
1847 2289
1852 509
1857 2284
1861 514
1867 2279
1870 519
1877 2274
1880 522
1887 2269
1889 527
1895 2260
1897 534
1905 2255
1906 539
1915 544
1915 2250
1924 549
1924 2245
1932 555
1932 2239
1942 559
1942 2234
1949 567
1950 2225
1957 574
1960 2220
1966 579
1968 2213
1975 584
1978 2208
1983 590
1985 2200
1990 598
1994 2195
2000 602
2002 2189
2007 610
2010 2180
2015 617
2018 2173
2023 624
2025 2165
2032 629
2035 2160
2039 637
2043 2153
2047 644
2050 2145
2054 652
2058 2138
2062 659
2065 2130
2069 667
2073 2123
2077 674
2080 2115
2084 682
2088 2108
2092 689
2095 2100
2099 697
2103 2093
2107 704
2110 2085
2114 712
2118 2078
2122 719
2125 2070
2129 727
2133 2063
2137 734
2140 744
2140 2050
2148 750
2148 2043
2155 758
2155 2035
2163 765
2163 2028
2167 775
2168 2018
2175 782
2175 2010
2180 2000
2182 790
2187 799
2188 1993
2194 807
2195 1980
2199 816
2203 1973
2205 824
2208 1963
2210 833
2215 842
2215 1950
2222 850
2223 1943
2227 859
2228 1933
2230 869
2233 1923
2238 875
2240 1910
2242 885
2245 1900
2247 894
2250 1890
2254 902
2258 1883
2259 911
2263 921
2263 1873
2268 930
2268 1863
2272 940
2273 1853
2277 949
2278 1843
2280 959
2283 1833
2285 968
2288 1823
2290 977
2290 1810
2294 987
2295 1800
2299 996
2300 1790
2303 1006
2305 1016
2305 1775
2310 1025
2310 1765
2315 1034
2315 1044
2315 1750
2320 1053
2320 1735
2325 1062
2325 1072
2325 1720
2330 1081
2330 1705
2333 1091
2335 1101
2335 1690
2340 1110
2340 1120
2340 1670
2340 1680
2345 1129
2345 1139
2345 1655
2350 1148
2350 1158
2350 1635
2350 1645
2355 1167
2355 1177
2355 1610
2355 1620
2359 1187
2360 1197
2360 1590
2360 1600
2364 1207
2365 1217
2365 1227
2365 1240
2365 1555
2365 1565
2365 1575
2370 1249
2370 1259
2370 1269
2370 1279
2370 1520
2370 1530
2370 1540
2375 1288
2375 1298
2375 1308
2375 1475
2375 1485
2375 1495
2375 1505
2380 1317
2380 1327
2380 1337
2380 1347
2380 1357
2380 1367
2380 1377
2380 1387
2380 1397
2380 1407
2380 1417
2380 1427
2380 1437
2380 1447
2380 1457
