404 2252
410 2260
418 2254
419 2265
422 2244
428 2270
430 2236
437 2275
438 2229
445 2221
446 2280
453 2214
456 2283
457 2204
465 2196
466 2280
473 2189
475 2275
480 2181
480 2240
480 2250
480 2260
484 2152
484 2162
489 2132
489 2142
490 2242
497 2124
499 2247
507 2124
507 2254
515 2260
516 2129
524 2265
525 2134
529 2072
529 2082
534 2091
534 2265
535 2137
537 2064
539 2100
542 2110
544 2120
544 2130
544 2265
547 2064
554 2265
557 2064
564 2265
567 2064
573 2270
577 2064
583 2270
584 2012
584 2022
584 2032
587 2059
589 2002
589 2041
593 2270
597 1994
603 2270
606 1989
613 2268
614 1977
620 2260
622 1969
624 1957
628 2253
632 1949
637 1939
638 2250
647 1934
647 2255
654 1917
657 2259
659 1902
664 1892
666 2264
669 1882
676 2268
677 1874
684 2275
685 1866
693 1859
693 2280
700 1851
702 2285
705 1841
710 1831
711 2280
714 1817
719 1802
720 2275
725 2240
725 2250
725 2260
727 1794
732 1784
735 2240
739 1772
744 1762
744 2245
749 1752
750 2253
757 1744
760 2257
765 1736
767 2265
770 1726
775 1716
777 2265
783 1709
784 1692
786 2270
789 1682
794 1672
795 2265
802 1664
805 2265
812 1659
815 2265
822 1654
824 1587
824 2270
829 1577
829 1596
830 1646
834 1605
834 1615
834 2270
837 1569
838 1639
839 1624
844 2270
846 1564
854 2270
856 1564
864 2267
866 1560
872 2259
876 1560
877 2250
886 1555
887 2254
889 1502
889 1512
894 1492
894 1521
894 1542
897 2255
899 1530
902 1484
906 2260
910 1476
915 2265
920 1471
924 2270
928 1464
933 2275
934 1432
934 1442
934 1452
939 1417
942 2280
947 1409
952 1399
952 2284
960 1391
962 2279
968 1384
969 1352
969 1362
969 1372
970 2245
970 2255
970 2265
977 1344
979 2240
982 1334
988 2245
992 1329
997 2250
1002 1324
1005 2257
1011 1319
1014 2262
1019 1267
1019 1277
1019 1287
1019 1307
1024 1257
1024 1296
1024 2265
1032 1249
1034 2265
1039 1237
1044 2265
1049 1227
1054 1167
1054 1177
1054 2265
1059 1157
1059 1186
1059 1217
1064 1195
1064 1205
1064 2265
1067 1149
1070 2250
1075 1141
1078 2243
1083 1134
1085 2235
1092 1129
1095 2235
1100 1121
1104 2230
1108 1114
1112 1104
1114 2230
1119 1087
1124 1007
1124 1017
1124 1027
1124 1037
1124 1047
1124 1057
1124 1067
1124 1077
1124 2230
1129 992
1134 2232
1139 987
1144 2235
1149 982
1154 2235
1159 972
1164 957
1164 2232
1169 947
1172 2224
1174 892
1174 902
1174 932
1175 2195
1175 2205
1177 2215
1179 817
1179 827
1179 872
1179 882
1179 917
1180 2185
1184 836
1184 862
1188 2178
1189 812
1189 845
1198 2175
1199 757
1199 767
1199 777
1199 814
1204 747
1204 786
1208 2175
1209 814
1211 794
1212 739
1216 803
1217 729
1217 2180
1225 721
1226 2185
1235 716
1236 2188
1245 711
1246 2185
1253 704
1254 692
1255 2180
1262 684
1264 694
1264 2175
1269 667
1274 647
1274 657
1274 2175
1282 639
1284 2172
1289 627
1294 617
1294 2170
1299 597
1299 607
1304 587
1304 2170
1309 577
1314 2167
1319 572
1322 2159
1329 562
1330 2150
1338 2143
1339 552
1348 2140
1349 549
1357 555
1358 2140
1365 562
1368 2140
1372 570
1377 579
1378 2140
1380 589
1385 598
1385 2148
1390 607
1390 617
1394 627
1395 2152
1399 636
1403 646
1405 2155
1410 654
1414 2160
1415 663
1423 670
1424 2157
1430 678
1432 2149
1435 687
1435 2115
1435 2125
1435 2135
1439 697
1444 706
1445 2115
1450 714
1454 2110
1460 717
1460 2118
1467 725
1470 2122
1475 732
1477 2130
1479 742
1480 752
1480 762
1486 2135
1487 770
1492 779
1495 2140
1499 787
1505 795
1505 2140
1510 804
1515 813
1515 2135
1520 822
1524 832
1524 2140
1530 840
1534 2140
1535 849
1540 858
1540 895
1542 905
1543 2145
1545 867
1545 877
1547 914
1553 2145
1554 922
1560 930
1563 2145
1565 939
1573 945
1573 2143
1577 955
1580 965
1580 2135
1582 975
1587 984
1589 2130
1590 994
1598 1000
1599 2130
1605 1008
1608 2135
1613 1015
1617 2140
1620 1023
1625 1032
1625 1042
1627 2144
1632 1050
1634 2152
1640 1057
1642 2159
1647 1065
1651 2164
1655 1072
1659 2170
1662 1080
1669 2172
1670 1087
1675 2150
1677 1095
1677 2164
1680 2135
1685 1102
1690 1135
1690 1145
1690 2135
1692 1110
1695 1120
1695 1154
1700 2137
1703 1160
1707 1170
1707 2145
1710 1180
1715 1189
1715 1199
1715 2152
1720 1208
1722 2160
1727 2169
1728 1215
1735 1223
1736 2174
1740 1232
1746 2175
1749 1237
1756 2175
1757 1244
1760 1280
1762 1290
1764 1252
1765 2180
1767 1299
1770 1280
1774 1256
1774 1307
1775 2182
1779 1316
1780 1282
1783 1261
1784 2187
1785 1271
1785 1324
1792 2194
1793 1330
1800 1338
1802 2195
1805 1347
1812 1355
1812 2194
1820 1362
1820 1372
1822 2189
1825 1381
1825 1391
1830 1400
1832 2185
1835 1409
1840 1418
1842 2189
1848 1425
1851 2194
1855 1433
1859 2200
1863 1440
1867 1450
1868 2205
1870 1460
1870 1470
1870 1480
1870 1490
1875 2213
1878 1496
1883 2220
1885 1504
1890 2228
1895 1507
1898 2235
1904 1512
1907 2240
1914 1516
1915 2230
1920 1524
1920 1555
1920 2200
1920 2210
1920 2220
1925 1564
1928 1530
1928 1548
1930 2200
1934 1569
1939 2205
1942 1575
1945 2213
1950 1582
1953 2220
1957 1590
1960 2228
1965 1597
1968 2235
1970 1606
1970 1640
1972 1650
1975 1615
1975 1625
1977 1659
1977 2240
1980 1669
1987 2244
1988 1675
1990 1685
1994 2252
1995 1694
1995 1704
1995 1714
2000 1723
2004 2250
2005 1732
2009 1742
2013 2255
2014 1751
2018 1761
2022 2260
2025 1769
2025 1779
2032 2260
2033 1785
2037 1795
2041 2265
2042 1804
2049 1812
2051 2265
2057 1819
2060 1829
2060 2260
2068 1835
2069 2255
2075 1843
2079 2255
2080 1852
2085 1861
2088 2260
2091 1869
2095 1879
2097 2265
2100 1888
2104 2257
2105 1897
2105 1910
2105 1920
2107 1930
2112 1939
2114 2252
2115 1949
2120 1958
2124 2250
2125 1967
2130 1976
2133 2255
2135 1985
2137 1995
2140 2005
2142 2260
2145 2014
2150 2023
2152 2264
2155 2032
2155 2075
2155 2085
2157 2095
2161 2269
2164 2037
2165 2075
2165 2102
2166 2260
2172 2044
2172 2110
2175 2075
2175 2265
2180 2055
2180 2117
2182 2065
2184 2270
2185 2046
2187 2125
2189 2279
2195 2132
2199 2142
2199 2277
2204 2151
2205 2161
2205 2245
2205 2255
2207 2269
2210 2170
2212 2180
2214 2240
2217 2189
2220 2199
2224 2240
2228 2205
2230 2248
2232 2215
2232 2234
2238 2255
2247 2260
