19 1287
25 1295
29 1284
34 1300
38 1279
43 1305
47 1274
52 1310
55 1266
61 1315
65 1264
71 1318
74 1257
80 1323
84 1254
90 1327
93 1249
99 1332
102 1244
109 1335
111 1239
118 1340
121 1235
127 1345
129 1229
137 1349
139 1227
145 1355
147 1219
155 1357
157 1219
165 1360
166 1214
174 1365
176 1210
183 1370
186 1205
192 1375
196 1200
202 1375
206 1199
211 1380
215 1194
221 1383
225 1191
231 1385
235 1186
240 1390
245 1181
250 1392
255 1179
260 1395
264 1174
269 1400
274 1172
279 1400
284 1169
288 1405
294 1169
298 1405
303 1164
307 1410
312 1159
317 1414
322 1159
327 1415
331 1154
337 1419
341 1154
347 1420
351 1150
356 1425
361 1149
366 1425
370 1144
376 1428
380 1144
386 1430
389 1139
396 1430
399 1139
406 1433
408 1134
416 1435
418 1134
426 1438
428 1134
436 1440
437 1129
446 1440
447 1129
456 1443
457 1124
466 1445
467 1124
476 1445
477 1124
486 1445
487 1119
495 1450
497 1119
505 1450
507 1119
515 1450
517 1119
525 1450
527 1114
535 1452
537 1114
545 1455
547 1114
555 1455
557 1114
565 1455
567 1109
575 1455
577 1109
585 1455
587 1109
595 1455
597 1109
605 1455
607 1109
615 1455
617 1109
624 197
624 207
625 1455
627 1109
629 216
629 226
629 236
629 246
629 256
629 266
629 276
634 199
634 285
634 295
634 305
634 315
634 325
635 1457
637 1109
639 334
639 344
639 354
639 364
642 205
644 373
644 383
644 393
645 1460
647 1109
649 402
649 412
649 422
652 209
654 431
654 441
654 451
654 1455
654 2277
654 2287
654 2297
654 2307
654 2317
654 2327
654 2337
654 2347
654 2357
654 2367
657 1109
659 460
659 470
659 2222
659 2232
659 2242
659 2252
659 2262
661 214
664 479
664 489
664 1455
664 2182
664 2192
664 2202
664 2212
664 2362
667 1109
669 498
669 2152
669 2162
669 2172
670 219
670 508
674 518
674 528
674 1455
674 2122
674 2132
674 2142
674 2357
677 1109
678 225
679 537
679 547
679 2092
679 2102
679 2112
682 2350
684 556
684 1455
684 2072
684 2082
685 233
687 1109
689 565
689 575
689 2047
689 2057
692 585
692 2349
694 595
694 1455
694 2032
695 237
697 1109
699 604
699 2012
699 2022
700 2340
704 242
704 613
704 1455
704 1997
705 623
707 1109
709 633
709 1977
709 1987
709 2335
714 246
714 642
714 1455
714 1962
717 1109
717 2329
719 651
719 1947
720 254
724 660
724 670
724 1455
724 1932
725 2320
727 1109
728 260
729 679
729 1917
734 688
734 1455
734 1907
735 698
735 2315
737 265
737 1109
739 1892
740 707
744 717
744 1455
744 1877
745 272
745 2310
747 1109
749 726
749 1867
753 1450
754 735
754 1857
754 2305
755 274
757 1109
759 744
759 1842
761 754
762 2299
763 280
763 1450
764 1832
766 1114
769 760
769 770
769 1817
770 288
770 2290
773 1450
775 778
776 1114
777 1809
778 294
779 1797
779 2285
780 787
783 1450
784 797
786 1114
787 299
787 1789
787 2279
789 1777
792 804
793 1448
794 307
795 2270
796 814
796 1114
797 1769
799 1757
801 823
802 314
803 1445
803 2263
805 833
806 1114
807 1749
811 319
812 1739
813 840
813 1445
813 2258
815 1119
817 850
817 1729
819 326
820 2250
822 1719
823 1445
824 858
825 334
825 1119
828 2243
829 867
829 1707
832 1440
833 340
834 876
834 1697
835 1119
835 2235
839 885
840 348
842 1440
842 1689
845 893
845 1122
845 2230
849 1672
850 352
852 1439
853 900
853 2223
855 1124
857 360
857 910
857 1664
860 2215
862 1435
864 918
865 367
865 1124
865 1656
868 2208
869 927
869 1642
872 375
872 1435
875 1124
875 2200
877 934
877 1634
880 382
882 1434
884 942
884 1129
885 1626
885 2195
889 387
889 951
889 1612
892 1430
893 2188
894 960
894 1129
897 394
897 1604
900 968
900 2180
902 1429
903 1134
904 402
905 1596
908 975
908 2173
912 409
912 1425
913 1134
913 1589
915 983
915 2165
919 417
919 1577
922 1424
923 990
923 1135
923 2158
927 424
927 1569
930 998
930 2150
932 1420
932 1559
933 1139
934 432
938 1005
938 2143
940 1551
942 439
942 1419
943 1140
944 1013
945 2130
948 1544
949 447
949 1022
952 1415
953 1144
953 2123
954 456
954 1031
955 1536
960 464
960 2115
961 1039
961 1410
962 1149
963 1529
968 470
968 2108
969 1045
970 1521
971 1410
972 1149
975 478
975 1053
975 1511
975 2100
980 1405
981 1154
983 485
983 1060
983 1504
983 2093
990 493
990 1068
990 1400
990 1496
990 2080
991 1154
995 502
998 1075
998 1489
998 2073
1000 1159
1000 1400
1002 510
1005 1481
1005 2065
1007 1080
1009 1395
1010 517
1010 1159
1013 1474
1013 2058
1015 1087
1017 525
1019 1164
1019 1395
1020 1466
1020 2050
1022 1095
1025 532
1025 542
1025 2040
1028 1390
1028 1459
1029 1166
1031 1100
1032 550
1033 2033
1035 1451
1037 1385
1038 2023
1039 1106
1039 1169
1040 557
1043 1444
1045 2015
1046 1114
1047 565
1047 1384
1048 1174
1050 1436
1050 2005
1052 574
1054 1120
1057 1380
1058 1175
1058 1429
1058 1998
1059 582
1060 1128
1064 591
1065 1985
1066 1375
1067 1424
1068 1135
1068 1179
1070 599
1070 1975
1075 608
1075 1370
1077 1140
1077 1184
1077 1419
1078 1968
1080 617
1085 1147
1085 1370
1085 1411
1085 1950
1085 1960
1086 1189
1087 625
1092 634
1092 1155
1093 1363
1093 1404
1093 1943
1095 644
1096 1189
1100 1396
1100 1930
1101 1160
1103 650
1103 1360
1105 1194
1105 1920
1108 1389
1110 658
1110 668
1111 1163
1112 1355
1113 1913
1114 1199
1117 1384
1118 675
1118 1903
1119 1170
1121 1350
1123 1204
1123 1893
1125 683
1125 693
1125 1178
1126 1379
1130 1880
1131 1350
1132 1209
1133 700
1134 1372
1135 710
1135 1182
1135 1870
1139 1342
1140 719
1140 1860
1142 1190
1142 1209
1142 1364
1145 728
1145 1850
1149 1337
1150 737
1150 1840
1151 1214
1152 1194
1152 1359
1155 746
1155 1825
1159 1332
1160 755
1160 1200
1160 1219
1160 1351
1162 765
1163 1818
1165 1805
1168 1344
1169 1205
1169 1330
1170 772
1170 782
1170 1795
1175 791
1178 1788
1180 800
1180 1775
1182 810
1185 820
1185 1760
1190 829
1190 1750
1195 838
1195 1735
1200 847
1200 857
1200 1720
1204 867
1205 1710
1209 876
1210 886
1210 1695
1215 895
1215 1675
1215 1685
1217 905
1220 915
1220 1660
1222 925
1225 1640
1225 1650
1227 934
1230 944
1230 954
1230 1630
1235 963
1235 973
1235 1610
1235 1620
1240 982
1240 992
1240 1585
1240 1595
1245 1001
1245 1011
1245 1021
1245 1560
1245 1570
1250 1030
1250 1040
1250 1535
1250 1545
1252 1050
1255 1060
1255 1070
1255 1505
1255 1515
1255 1525
1257 1080
1260 1090
1260 1100
1260 1110
1260 1470
1260 1480
1260 1490
1262 1120
1265 1130
1265 1140
1265 1150
1265 1415
1265 1425
1265 1435
1265 1445
1265 1455
1270 1395
1270 1405
1275 1154
1279 1107
1279 1117
1279 1127
1279 1137
1280 1395
1284 1062
1284 1072
1284 1082
1284 1092
1284 1405
1284 1415
1284 1425
1284 1435
1284 1445
1289 1027
1289 1037
1289 1047
1289 1454
1289 1464
1289 1474
1291 1484
1294 997
1294 1007
1294 1017
1294 1494
1294 1504
1294 1514
1299 972
1299 982
1299 1523
1299 1533
1300 1543
1304 952
1304 962
1304 1553
1305 1563
1309 932
1309 942
1309 1573
1310 1583
1314 912
1314 922
1314 1593
1315 1603
1319 892
1319 902
1319 1613
1319 1623
1324 877
1324 1632
1324 1642
1329 857
1329 867
1329 1651
1334 842
1334 1660
1334 1670
1339 827
1339 1679
1339 1689
1344 817
1344 1698
1345 1708
1349 802
1350 1717
1354 787
1354 1727
1359 777
1359 1736
1364 762
1364 1745
1364 1755
1369 752
1370 1763
1374 737
1374 1773
1375 1200
1375 1210
1379 1782
1379 1792
1380 1330
1380 1340
1382 729
1384 717
1384 1195
1384 1801
1385 1214
1385 1349
1389 707
1390 1330
1391 1809
1393 1355
1394 697
1394 1192
1394 1819
1395 1214
1399 687
1399 1335
1400 1827
1402 1184
1402 1360
1404 677
1404 1207
1404 1837
1408 1340
1409 667
1409 1846
1410 1175
1410 1367
1414 1202
1414 1855
1417 659
1417 1345
1417 1865
1419 647
1419 1372
1420 1170
1422 1194
1424 1873
1427 639
1427 1349
1427 1379
1428 1163
1429 627
1429 1882
1432 1194
1434 1891
1436 1354
1436 1384
1437 619
1438 1158
1439 1900
1441 1189
1444 602
1444 1391
1444 1909
1445 1150
1446 1355
1449 1918
1450 1184
1450 1399
1452 594
1454 1145
1454 1361
1454 1927
1459 577
1459 1404
1459 1936
1460 1181
1462 1139
1464 1365
1466 1944
1467 569
1468 1174
1469 1406
1470 1130
1471 1953
1473 1370
1475 561
1475 1414
1478 1123
1478 1174
1479 547
1479 1960
1482 1375
1482 1970
1483 1420
1485 1115
1487 539
1487 1169
1489 1978
1490 1428
1492 1375
1493 1108
1494 1987
1495 531
1496 1164
1498 1435
1499 1996
1500 1100
1501 1380
1503 524
1505 1443
1506 1160
1506 2004
1507 514
1508 1093
1511 1383
1512 504
1514 2010
1515 1085
1515 1447
1516 1159
1519 2019
1520 496
1521 1385
1522 1455
1523 1078
1524 2028
1525 486
1525 1154
1529 2037
1530 1070
1530 1390
1530 1462
1533 479
1534 1149
1537 1470
1537 2044
1538 1063
1540 471
1540 1392
1544 1147
1544 2052
1545 1055
1545 1477
1548 464
1550 1395
1552 1485
1552 2059
1553 1048
1554 1144
1555 456
1559 1400
1559 2067
1560 446
1560 1040
1560 1492
1564 1142
1564 2076
1565 436
1567 1500
1568 1033
1569 1400
1571 2084
1573 429
1574 1137
1575 1025
1575 1507
1578 1405
1579 2090
1580 421
1582 1515
1583 1018
1584 1134
1585 2098
1587 1410
1588 414
1590 1010
1590 1522
1593 1129
1593 2105
1595 406
1595 1000
1597 1410
1597 1530
1600 396
1600 2113
1603 993
1603 1129
1605 1537
1605 2122
1607 1410
1610 391
1610 985
1612 1124
1612 1545
1612 2130
1616 1415
1618 384
1618 978
1620 1552
1620 1562
1620 2137
1622 1124
1625 376
1625 965
1626 1415
1627 1570
1627 2145
1632 1119
1633 369
1633 958
1635 1420
1635 1577
1635 2152
1638 948
1640 361
1642 1119
1642 1585
1642 2160
1645 940
1645 1420
1648 354
1650 1592
1650 2167
1651 1114
1653 933
1654 1425
1655 346
1657 1600
1657 2175
1658 923
1660 1610
1661 1114
1663 339
1663 913
1664 1425
1665 1619
1666 2180
1670 331
1670 905
1671 1110
1673 1430
1673 1625
1674 2186
1678 898
1680 326
1680 885
1680 1633
1681 1109
1681 2194
1683 1430
1685 1642
1688 319
1688 878
1689 1652
1689 2200
1691 1105
1693 1430
1695 311
1695 860
1695 870
1695 2208
1697 1659
1701 1104
1702 1435
1703 304
1703 853
1703 2215
1704 1667
1709 1676
1710 296
1710 835
1710 845
1711 1104
1712 1435
1712 2220
1713 1686
1718 828
1720 291
1720 1694
1720 2227
1721 1100
1722 1435
1723 818
1725 1703
1727 2235
1728 284
1728 808
1730 1712
1731 1099
1732 1439
1735 276
1735 795
1735 1721
1735 2242
1740 785
1741 1099
1741 1729
1742 1440
1743 269
1744 2247
1745 775
1745 1739
1750 760
1750 1748
1751 1095
1752 264
1752 1440
1752 2254
1755 1757
1758 753
1759 2262
1760 256
1760 740
1760 1766
1761 1094
1762 1440
1766 1774
1767 2269
1768 249
1768 733
1770 720
1770 1784
1771 1094
1771 1445
1775 710
1775 1793
1776 2274
1777 244
1780 695
1780 1802
1781 1094
1781 1445
1784 1812
1784 2280
1785 236
1788 688
1789 1821
1790 675
1790 1089
1790 2288
1791 1445
1793 229
1793 1831
1795 660
1798 1840
1800 645
1800 1089
1800 2292
1801 1445
1802 224
1802 1850
1805 635
1805 1860
1809 2297
1810 216
1810 620
1810 1089
1810 1869
1811 1445
1815 605
1815 1878
1815 1888
1819 2300
1820 214
1820 590
1820 1089
1820 1897
1821 1445
1824 1907
1825 570
1825 580
1825 2308
1829 207
1829 1916
1830 555
1830 1089
1830 1926
1831 1448
1833 2315
1835 535
1835 545
1835 1935
1837 199
1837 1945
1840 520
1840 1086
1840 1955
1841 1450
1842 2320
1845 495
1845 505
1845 1964
1845 1974
1847 194
1850 475
1850 485
1850 1084
1850 1983
1850 2327
1851 1450
1855 186
1855 445
1855 455
1855 465
1855 1992
1855 2002
1859 2012
1860 420
1860 430
1860 1084
1860 2022
1860 2330
1861 1450
1865 181
1865 390
1865 400
1865 410
1865 2031
1865 2041
1869 2335
1870 355
1870 365
1870 375
1870 1084
1870 2050
1871 1450
1872 2060
1875 176
1875 300
1875 310
1875 320
1875 330
1875 340
1875 2070
1875 2080
1875 2343
1880 185
1880 195
1880 205
1880 215
1880 225
1880 235
1880 245
1880 255
1880 265
1880 275
1880 285
1880 1084
1880 2089
1880 2099
1881 1450
1885 2108
1885 2118
1885 2128
1885 2347
1890 1084
1890 2137
1890 2147
1890 2157
1891 1450
1892 2355
1894 2167
1895 2177
1895 2187
1899 2197
1900 1084
1900 2207
1900 2217
1900 2227
1900 2237
1901 1450
1902 2355
1905 2246
1905 2256
1905 2266
1905 2276
1905 2286
1905 2296
1908 2306
1910 1084
1910 2316
1910 2326
1910 2336
1910 2346
1911 1450
1920 1084
1921 1450
1930 1084
1931 1450
1940 1084
1941 1450
1950 1084
1951 1450
1960 1084
1961 1450
1970 1084
1970 1445
1980 1084
1980 1445
1990 1084
1990 1445
2000 1084
2000 1445
2009 1089
2010 1445
2019 1089
2020 1445
2029 1089
2029 1440
2039 1089
2039 1440
2049 1089
2049 1440
2058 1094
2059 1437
2068 1094
2069 1435
2078 1094
2079 1435
2088 1094
2089 1435
2097 1099
2099 1432
2107 1099
2109 1430
2117 1099
2119 1427
2126 1104
2129 1425
2136 1104
2139 1425
2146 1104
2149 1422
2155 1109
2159 1420
2165 1109
2169 1417
2175 1109
2179 1415
2184 1114
2189 1415
2194 1114
2198 1410
2204 1116
2207 1405
2214 1119
2217 1405
2223 1124
2227 1404
2233 1124
2237 1400
2242 1129
2246 1395
2252 1129
2256 1395
2261 1134
2265 1390
2271 1134
2275 1390
2280 1139
2284 1385
2290 1142
2294 1382
2300 1144
2304 1380
2309 1149
2313 1375
2319 1151
2323 1373
2329 1154
2333 1370
2338 1159
2342 1365
2348 1160
2351 1360
2358 1164
2360 1355
2367 1169
2370 1355
2377 1169
2379 1350
2386 1174
2389 1347
2395 1179
2397 1340
2404 1184
2407 1339
2414 1186
2417 1335
2424 1189
2426 1330
2432 1195
2435 1325
2442 1199
2445 1320
2451 1204
2454 1315
2460 1209
2463 1310
2470 1212
2473 1308
2479 1217
2480 1300
2489 1219
2490 1300
2497 1225
2498 1293
2507 1229
2508 1288
2516 1234
2518 1283
2525 1239
2528 1278
2534 1244
2535 1270
2540 1252
