339 1337
339 1347
339 1357
339 1367
339 1377
339 1387
339 1397
339 1407
339 1417
339 1427
339 1437
339 1447
339 1457
339 1467
344 1476
344 1486
344 1496
344 1506
349 1197
349 1207
349 1334
349 1515
349 1525
349 1535
349 1545
354 1167
354 1177
354 1187
354 1554
354 1564
354 1574
354 1584
355 1215
359 1147
359 1157
359 1334
359 1593
359 1603
364 1127
364 1137
364 1612
364 1622
365 1215
369 1107
369 1117
369 1334
369 1631
369 1641
374 1092
374 1650
374 1660
375 1215
379 1072
379 1082
379 1334
379 1669
379 1679
384 1052
384 1062
384 1688
385 1215
385 1698
389 1037
389 1334
389 1708
390 1718
394 1022
394 1728
395 1215
399 1007
399 1334
399 1737
399 1747
404 997
404 1756
405 1215
409 982
409 1334
409 1765
412 1775
414 972
415 1215
417 1784
419 957
419 1334
419 1794
424 947
424 1803
425 1215
429 932
429 1334
429 1812
434 922
434 1821
434 1831
435 1215
439 907
439 1334
439 1840
444 897
444 1849
445 1215
446 1859
449 887
449 1334
451 1868
454 877
455 1215
455 1878
459 867
459 1334
463 1885
465 1215
467 859
467 1895
469 1334
472 849
472 1904
475 1215
477 839
479 1334
479 1912
482 829
484 1921
485 1215
489 817
489 1332
489 1930
492 1940
495 1215
497 1949
499 819
499 1332
504 1957
505 1215
509 819
509 1332
509 1966
514 1975
515 1215
517 1985
519 819
519 1334
525 1215
525 1992
528 824
529 1331
529 2002
535 1215
537 819
537 2009
539 1331
541 2019
545 1215
547 819
549 722
549 1329
549 2025
554 2034
555 1215
557 714
557 819
559 725
559 1329
560 2042
564 702
565 1215
567 819
567 2050
569 725
569 1329
572 694
574 2058
575 1215
577 819
579 682
579 725
579 1329
579 2067
584 2076
585 1215
587 674
587 819
589 725
589 1329
591 2084
595 666
595 1217
597 819
599 725
599 1329
599 2090
604 2099
605 664
605 1215
607 819
609 725
609 1329
610 2107
614 1220
615 664
617 819
617 2115
619 725
619 1329
623 1215
625 664
625 2122
627 819
629 725
629 1329
632 1220
632 2130
635 664
637 819
637 1335
639 725
640 1345
640 1355
640 1365
640 1375
640 1385
640 1395
640 1405
640 1420
640 2137
642 1219
645 664
645 1429
645 1439
645 1449
645 1459
645 1469
645 1479
645 1489
645 1499
645 1515
647 819
647 2145
649 725
650 1524
650 1534
650 1544
650 1554
650 1564
650 1574
650 1584
650 1605
652 1215
655 664
655 1593
655 1614
655 1624
655 1634
655 1644
655 1654
655 1664
655 1674
655 2152
657 819
659 725
661 1220
662 2160
664 1639
664 1649
664 1659
664 1669
665 664
667 819
669 725
669 1597
669 1607
669 1617
669 1627
670 2167
671 1218
674 1557
674 1567
674 1577
674 1587
675 664
677 819
677 2175
679 725
679 1512
679 1522
679 1532
679 1542
681 1215
684 1472
684 1482
684 1492
684 1502
685 664
685 2182
687 819
689 725
689 1432
689 1442
689 1452
689 1462
690 1220
692 2190
694 1332
694 1342
694 1352
694 1362
694 1377
694 1387
694 1397
694 1407
694 1417
695 664
697 819
698 730
699 552
700 1220
700 2197
704 1329
705 560
705 664
707 725
707 819
707 2205
709 547
710 1220
714 1329
715 560
715 664
715 2212
716 730
717 539
717 819
720 1220
724 1329
724 2217
725 531
725 560
725 664
726 728
727 819
730 1220
732 2224
733 524
734 1329
735 560
735 664
736 725
737 814
739 2232
740 1220
742 519
744 1329
745 560
745 664
745 730
747 814
747 2239
750 511
750 1220
754 725
754 1329
755 560
755 664
755 2245
757 814
758 504
760 1220
763 730
764 1326
764 2250
765 560
765 664
767 499
767 814
770 1220
770 2258
773 730
774 1327
775 491
775 560
775 664
777 814
780 1220
780 2262
783 484
783 730
784 1329
785 560
785 664
787 814
787 2270
790 1220
792 479
793 730
794 1326
795 560
795 664
797 814
797 2274
800 1220
801 474
803 730
804 1327
805 560
805 664
805 2280
807 814
809 467
810 1220
813 730
814 1329
814 2285
815 560
815 664
817 459
817 814
820 1220
823 730
823 1324
823 2290
825 560
825 664
827 454
827 809
830 1220
830 2298
833 730
833 1324
835 560
835 664
836 814
837 449
840 1220
840 2302
843 730
843 1324
845 560
845 664
846 444
846 814
847 2310
850 1220
853 730
853 1324
855 439
855 560
855 664
855 809
857 2314
860 1220
863 730
863 1324
864 432
865 560
865 662
865 809
865 2320
870 1220
873 730
873 1324
874 427
874 2325
875 560
875 662
875 809
880 1220
883 730
883 1324
883 2330
884 422
885 560
885 662
885 809
890 1220
892 2335
893 730
893 1324
894 417
895 560
895 661
895 809
900 1220
901 2340
902 409
903 730
903 1324
905 560
905 659
905 809
910 1220
910 2345
912 404
913 730
913 1324
915 560
915 659
915 809
919 2350
920 1220
922 399
923 730
923 1324
925 560
925 659
925 806
928 2355
930 1220
931 394
933 730
933 1324
935 560
935 659
935 806
937 2360
940 389
940 1222
942 735
943 1324
945 560
945 659
945 804
946 2365
949 384
950 1220
950 1425
951 730
952 1319
955 560
955 659
955 804
955 2370
958 379
959 1225
960 735
960 1425
962 1319
964 2375
965 560
965 659
965 804
965 1434
968 379
968 1220
969 730
970 1425
972 1319
974 2375
975 560
975 657
975 804
975 1434
977 374
977 1225
979 732
980 1425
981 1324
983 2380
985 560
985 654
985 804
985 1434
986 369
987 1224
989 735
990 1425
991 1324
992 2385
995 560
995 654
995 804
995 1434
996 365
997 1220
999 735
1000 1425
1001 1324
1002 2389
1005 560
1005 654
1005 804
1005 1434
1006 360
1006 1225
1009 735
1010 1319
1010 1425
1011 2394
1015 560
1015 654
1015 804
1015 1434
1016 359
1016 1223
1019 735
1020 1319
1020 1425
1021 2398
1024 1439
1025 354
1025 560
1025 654
1025 804
1026 1225
1029 735
1030 1319
1030 1425
1031 2400
1034 349
1034 1439
1035 560
1035 652
1035 802
1036 1225
1039 735
1040 1319
1040 1425
1040 2405
1043 344
1044 1439
1045 560
1045 649
1045 804
1046 1225
1049 735
1049 2410
1050 1319
1050 1425
1053 344
1054 799
1054 1439
1055 560
1055 649
1056 1225
1059 735
1059 2410
1060 1319
1060 1425
1062 339
1064 799
1064 1439
1065 560
1065 649
1066 1225
1068 2415
1069 735
1070 1319
1070 1425
1071 334
1074 799
1074 1439
1075 560
1075 649
1076 1225
1077 2420
1079 735
1080 1319
1080 1425
1081 330
1083 1444
1084 799
1085 560
1085 647
1086 1225
1087 2424
1089 735
1090 1319
1090 1425
1091 329
1092 1439
1094 799
1095 560
1095 644
1096 1225
1097 2425
1099 735
1100 1319
1100 1425
1101 325
1101 1444
1104 799
1105 560
1105 644
1106 1225
1107 2429
1109 735
1110 1319
1110 1425
1111 324
1111 1444
1114 797
1115 560
1115 644
1116 1225
1117 2430
1119 735
1120 319
1120 1319
1120 1425
1121 1444
1124 799
1125 560
1125 642
1126 1225
1126 2435
1128 740
1130 319
1130 1319
1130 1420
1131 1444
1134 796
1135 560
1135 639
1136 1225
1136 2435
1137 735
1139 314
1139 1425
1140 1319
1141 1444
1144 794
1145 560
1145 639
1145 2440
1146 740
1146 1225
1148 1420
1149 312
1150 1319
1151 1444
1154 794
1155 560
1155 636
1155 2442
1156 740
1156 1225
1157 1425
1159 309
1160 1317
1161 1444
1164 794
1165 560
1165 636
1165 2445
1166 740
1166 1225
1167 1424
1169 307
1170 1316
1170 1449
1174 794
1175 560
1175 634
1175 2447
1176 740
1176 1225
1177 1420
1179 304
1180 1319
1180 1446
1184 794
1185 560
1185 634
1185 2450
1186 740
1186 1225
1187 1420
1188 299
1190 1317
1190 1449
1194 794
1195 560
1195 632
1195 2452
1196 740
1196 1225
1197 1420
1198 299
1200 1316
1200 1449
1204 794
1205 560
1205 629
1205 2455
1206 740
1206 1225
1207 294
1207 1420
1210 1314
1210 1449
1214 792
1215 560
1215 629
1215 2455
1216 740
1216 1225
1217 294
1217 1420
1220 1314
1220 1449
1224 789
1224 2460
1225 560
1225 627
1226 740
1226 1225
1227 294
1227 1420
1230 1314
1230 1449
1234 789
1234 2460
1235 560
1235 624
1236 289
1236 740
1236 1225
1237 1420
1240 1314
1240 1449
1244 789
1244 2460
1245 560
1245 621
1245 1230
1246 289
1246 740
1247 1420
1249 1454
1250 1314
1253 2465
1254 789
1254 1225
1255 560
1255 621
1255 745
1256 289
1257 1420
1259 1454
1260 1314
1263 2465
1264 740
1264 789
1264 1227
1265 560
1265 619
1266 285
1267 1420
1269 1454
1270 1175
1270 1185
1270 1195
1270 1205
1270 1215
1270 1314
1273 2465
1274 742
1274 789
1275 560
1275 616
1275 1140
1275 1150
1275 1160
1276 285
1277 1420
1279 1454
1280 1105
1280 1115
1280 1125
1280 1314
1283 2465
1284 745
1284 786
1285 560
1285 614
1285 1070
1285 1080
1285 1090
1286 284
1287 1420
1289 1454
1290 1035
1290 1045
1290 1055
1290 1314
1292 2470
1294 745
1294 784
1295 560
1295 611
1295 1000
1295 1010
1295 1020
1296 284
1297 1420
1299 1454
1300 975
1300 985
1300 1314
1302 2470
1304 745
1304 784
1305 560
1305 609
1306 280
1307 1420
1309 990
1309 1000
1309 1010
1309 1454
1310 1314
1312 2470
1314 745
1314 784
1314 1019
1314 1029
1315 560
1315 609
1316 279
1316 1039
1317 1420
1319 1049
1319 1059
1319 1454
1320 1314
1322 2470
1324 604
1324 745
1324 784
1324 1068
1324 1078
1325 560
1325 1088
1326 279
1327 1420
1329 1098
1329 1108
1329 1454
1330 1314
1331 2475
1334 604
1334 745
1334 784
1334 1117
1334 1127
1334 1137
1335 560
1336 279
1337 1420
1339 1146
1339 1156
1339 1454
1340 1312
1341 2475
1343 599
1344 745
1344 784
1344 1165
1344 1175
1344 1185
1345 560
1346 279
1347 1420
1348 1459
1349 1194
1349 1204
1350 1312
1351 1214
1351 2475
1353 599
1353 779
1354 747
1354 1224
1355 274
1355 560
1357 1420
1358 1459
1360 1311
1361 2475
1362 1230
1363 599
1363 779
1364 750
1365 274
1365 560
1367 1419
1368 1459
1370 1314
1371 2475
1372 594
1372 1230
1373 779
1374 750
1375 274
1375 560
1377 1419
1378 1459
1379 1309
1381 589
1381 2475
1382 1230
1383 779
1384 750
1385 274
1385 560
1387 1415
1388 1459
1389 1309
1391 589
1391 2478
1392 1230
1393 779
1394 750
1395 274
1395 560
1396 1420
1398 1459
1399 1309
1400 584
1401 2475
1402 774
1402 1230
1404 750
1405 274
1405 560
1406 1418
1408 1459
1409 1309
1410 581
1410 2480
1412 774
1412 1230
1414 752
1415 274
1415 560
1416 1415
1418 1459
1419 1309
1419 2475
1420 579
1422 774
1422 1230
1424 755
1425 274
1425 560
1426 1415
1428 1459
1429 574
1429 1309
1429 2477
1432 774
1432 1230
1434 755
1435 274
1435 560
1436 1415
1438 1459
1439 572
1439 1309
1439 2480
1441 769
1442 1230
1444 755
1445 274
1445 560
1446 1415
1448 1459
1448 2475
1449 1309
1450 569
1451 769
1452 1230
1455 274
1455 560
1456 760
1456 1415
1457 2480
1458 1459
1459 1309
1462 1230
1465 274
1466 1415
1466 2475
1467 1464
1469 1309
1472 1230
1475 274
1476 1415
1476 2475
1477 1464
1479 1309
1482 1230
1485 274
1486 1415
1486 2475
1487 1464
1489 1309
1492 1230
1495 274
1495 2025
1496 1415
1496 2475
1497 1464
1499 1307
1500 2034
1502 1230
1504 279
1505 1895
1506 1415
1506 2475
1507 1464
1508 2028
1509 1307
1510 2038
1511 1235
1514 279
1514 1890
1516 1415
1516 2475
1517 1464
1518 2030
1519 1307
1521 1233
1522 2040
1524 279
1524 1890
1525 2470
1526 1415
1527 1464
1527 2025
1529 1309
1530 1898
1531 1230
1532 2044
1534 279
1535 2470
1536 1415
1536 1890
1536 2030
1537 1464
1538 1304
1540 1235
1541 2049
1543 284
1544 1896
1545 1885
1545 2470
1546 1415
1546 2028
1547 1464
1548 1304
1550 1235
1551 2049
1553 284
1554 1897
1555 1885
1555 2470
1556 1415
1556 2025
1557 1464
1558 1304
1560 1235
1560 2054
1563 284
1564 1899
1564 2465
1565 1885
1565 2030
1566 1415
1567 1464
1568 1304
1570 1235
1570 2054
1573 284
1574 1899
1574 2025
1574 2465
1575 1885
1576 1415
1577 1464
1578 1304
1579 2059
1580 1235
1582 289
1584 1899
1584 2027
1584 2465
1585 1885
1586 1415
1587 1464
1588 1304
1589 2059
1590 1235
1592 289
1594 1880
1594 1897
1594 2030
1594 2462
1596 1415
1597 1464
1598 1304
1598 2064
1600 1235
1602 289
1603 2025
1604 1880
1604 1899
1604 2460
1605 1410
1606 1469
1608 1304
1608 2064
1610 1235
1612 289
1612 2030
1614 1415
1614 1880
1614 1899
1614 2460
1616 1469
1617 2069
1618 1304
1620 1235
1621 294
1622 2029
1623 1410
1624 1880
1624 1899
1624 2460
1626 1469
1627 2069
1628 1304
1630 1235
1631 294
1632 1415
1632 2025
1634 1877
1634 1899
1634 2457
1636 1469
1636 2074
1638 1304
1640 1235
1641 294
1641 2030
1642 1414
1644 1875
1644 1899
1644 2455
1646 1469
1646 2074
1648 1304
1650 299
1650 1235
1650 2025
1652 1410
1654 1875
1654 1899
1654 2452
1656 1469
1656 2074
1657 1299
1660 302
1660 1235
1660 2025
1662 1410
1664 1875
1664 1899
1664 2450
1665 2079
1666 1304
1666 1469
1670 304
1670 1235
1670 2025
1672 1410
1673 2445
1674 1872
1674 1899
1675 2079
1676 1304
1676 1469
1680 307
1680 1235
1680 2025
1682 1410
1683 2445
1684 1870
1684 1899
1685 2082
1686 1300
1686 1469
1690 309
1690 1235
1690 2025
1692 1410
1692 2440
1694 1870
1694 1899
1695 2082
1696 1299
1696 1469
1699 314
1700 1235
1700 2025
1702 1410
1702 2440
1704 1870
1704 1899
1705 2084
1706 1299
1706 1469
1709 314
1709 1240
1710 2025
1711 2435
1712 1410
1714 1870
1714 1899
1715 2087
1716 1299
1716 1469
1718 319
1718 1235
1720 2025
1721 2435
1722 1410
1723 1865
1724 1899
1725 2089
1726 1299
1726 1469
1727 1240
1728 319
1730 2025
1730 2430
1732 1410
1733 1865
1734 1899
1735 2089
1736 1299
1736 1469
1737 324
1737 1239
1740 2025
1740 2430
1742 1410
1743 1865
1744 1899
1745 2089
1746 1299
1746 1469
1747 324
1747 1240
1749 2425
1750 2025
1752 1410
1753 1865
1754 1899
1754 2094
1756 329
1756 1299
1756 1469
1757 1240
1759 2425
1760 2025
1762 1410
1763 1865
1764 1899
1764 2094
1766 329
1766 1299
1766 1469
1767 1240
1768 2420
1770 2025
1772 1410
1773 1863
1773 1904
1774 2094
1775 334
1776 1299
1776 1469
1777 1240
1778 2418
1780 2025
1782 1410
1783 1863
1783 1904
1784 339
1784 2094
1786 1299
1786 1469
1787 1240
1788 2413
1790 2025
1792 1410
1793 1860
1793 1904
1793 2099
1794 341
1796 1299
1796 1469
1797 1240
1798 2408
1800 2025
1802 1410
1803 346
1803 1860
1803 1904
1803 2099
1806 1299
1806 1469
1807 1240
1808 2405
1810 2025
1812 1410
1813 349
1813 1860
1813 1904
1813 2099
1815 1294
1816 1469
1817 1240
1817 2400
1820 2025
1822 354
1822 1410
1823 1860
1823 1904
1823 2099
1825 1294
1826 1469
1826 2395
1827 1240
1830 2025
1831 359
1832 1410
1833 1858
1833 1904
1833 2099
1835 1294
1836 1469
1836 2395
1837 1240
1840 2025
1841 359
1841 1405
1843 1858
1843 1904
1843 2100
1845 1294
1845 2390
1846 1469
1847 1240
1850 364
1850 1410
1850 2025
1853 1855
1853 1904
1853 2100
1854 2385
1855 1294
1856 1469
1857 1240
1859 369
1859 1405
1860 2025
1863 1855
1863 1904
1863 2104
1863 2380
1865 1294
1866 1469
1867 1244
1869 371
1869 1407
1870 2025
1873 1855
1873 1904
1873 2104
1873 2378
1875 1294
1876 1469
1877 1240
1878 376
1879 1410
1880 2025
1883 1855
1883 1904
1883 2104
1883 2373
1885 1294
1886 1245
1886 1469
1888 380
1888 1405
1890 2025
1893 1855
1893 1904
1893 2104
1893 2368
1895 1291
1896 1243
1896 1469
1898 384
1898 1405
1900 1479
1900 1489
1900 1499
1900 1509
1900 1519
1900 2025
1903 1853
1903 1904
1903 2104
1903 2365
1905 1294
1905 1528
1905 1538
1905 1550
1906 1240
1907 389
1908 1405
1910 1559
1910 1569
1910 1579
1910 2025
1912 2359
1913 1853
1913 1904
1913 2105
1915 1245
1915 1292
1915 1588
1915 1598
1915 1608
1916 394
1918 1405
1920 1617
1920 1627
1920 1637
1920 1647
1920 2025
1922 2354
1923 1850
1923 1904
1923 2109
1925 399
1925 1245
1925 1291
1925 1656
1925 1666
1925 1676
1928 1405
1930 2025
1932 2349
1933 1850
1933 1904
1933 2109
1934 404
1934 1647
1934 1661
1934 1671
1935 1245
1935 1289
1938 1405
1939 1622
1939 1632
1940 2025
1940 2340
1942 2104
1943 409
1943 1850
1943 1904
1944 1597
1944 1607
1945 1245
1945 1289
1948 1405
1949 1572
1949 1582
1950 2025
1950 2335
1951 2109
1952 414
1953 1850
1953 1904
1954 1542
1954 1552
1954 1562
1955 1245
1955 1289
1958 1405
1959 1522
1959 1532
1960 2025
1960 2330
1961 419
1961 2109
1963 1850
1963 1904
1964 1492
1964 1502
1964 1512
1965 1245
1965 1289
1968 1405
1969 1472
1969 1482
1969 2325
1970 424
1970 2025
1971 2109
1973 1850
1973 1904
1975 1245
1975 1289
1978 430
1978 1405
1978 2320
1979 1469
1980 2025
1981 2109
1983 1848
1983 1904
1985 1245
1985 1289
1987 435
1987 2314
1988 1405
1989 1469
1990 2025
1991 2109
1993 1850
1993 1904
1995 442
1995 1245
1995 1289
1997 2309
1998 1405
1999 1469
2000 2025
2001 2109
2002 1845
2002 1909
2004 447
2005 1247
2005 1289
2007 2304
2008 1405
2009 1469
2010 2025
2011 2109
2012 454
2012 1845
2012 1904
2015 1245
2015 1287
2017 2299
2018 1405
2019 1469
2020 2025
2021 459
2021 1909
2021 2109
2022 1845
2024 1250
2025 1286
2025 2290
2028 1405
2029 1469
2030 464
2030 2025
2031 1909
2031 2109
2032 1845
2034 1250
2035 1284
2035 2285
2038 470
2038 1405
2039 1469
2040 2025
2041 1909
2041 2109
2042 1845
2044 1250
2044 2280
2045 1284
2047 475
2048 1405
2049 1469
2050 2025
2051 1905
2051 2109
2052 1845
2052 2274
2054 1250
2055 482
2055 1284
2058 1405
2059 1469
2060 2025
2060 2265
2061 1909
2061 2109
2062 1845
2064 487
2064 1250
2065 1284
2068 1405
2069 1469
2070 2025
2070 2260
2071 1909
2071 2109
2072 494
2072 1845
2074 1250
2075 1284
2077 1400
2079 1469
2079 2255
2080 2025
2081 499
2081 1909
2081 2109
2082 1845
2084 1250
2085 1284
2086 1405
2087 2249
2089 1469
2090 504
2090 2025
2091 1909
2091 2109
2092 1845
2094 1250
2095 1284
2095 2240
2096 1403
2098 510
2099 1469
2100 2025
2101 1909
2101 2109
2102 1845
2103 1255
2103 2233
2104 1279
2105 518
2106 1400
2109 1469
2110 2025
2110 2225
2111 1840
2111 1909
2111 2109
2112 1250
2113 525
2114 1279
2115 1405
2119 1469
2120 533
2120 1845
2120 2025
2120 2220
2121 1255
2121 1909
2121 2109
2124 1279
2124 1400
2128 2213
2129 1469
2129 1840
2130 537
2130 2025
2131 1255
2131 1909
2131 2109
2134 1279
2134 1400
2135 2205
2137 545
2139 1469
2139 1842
2140 2025
2141 1255
2141 1909
2141 2105
2143 2198
2144 1279
2144 1400
2145 552
2149 1469
2149 1845
2149 2020
2150 2190
2151 1255
2151 1909
2151 2109
2152 560
2154 1279
2154 1400
2158 1840
2158 2183
2159 1469
2159 2022
2160 567
2161 1255
2161 1909
2161 2109
2163 1274
2164 1400
2165 2175
2167 575
2168 1840
2169 1466
2169 2025
2171 1258
2171 1909
2171 2105
2173 1274
2173 2168
2174 1400
2175 582
2178 1840
2178 2020
2179 1466
2180 2160
2181 1260
2181 1909
2181 2109
2182 590
2183 1274
2184 1400
2187 2025
2188 1840
2188 2153
2189 1466
2190 597
2191 1260
2191 1909
2191 2109
2193 1274
2194 1400
2195 2145
2197 605
2197 2024
2198 1840
2199 1467
2201 1260
2201 1909
2201 2105
2203 2138
2204 1400
2205 612
2206 1269
2207 2020
2208 1840
2209 1464
2210 2130
2211 1909
2211 2109
2212 620
2214 1400
2216 1265
2216 2025
2218 1840
2218 2123
2219 1464
2220 627
2221 1909
2221 2109
2224 1400
2226 2023
2227 635
2228 1840
2229 1464
2231 1909
2234 1400
2235 642
2236 2020
2238 1840
2239 1464
2241 1909
2242 650
2244 1400
2245 2025
2247 659
2248 1840
2249 1464
2251 1909
2254 667
2254 1400
2254 2020
2258 1840
2259 1464
2261 1909
2262 674
2264 1400
2264 2022
2265 684
2268 1840
2269 1464
2271 1909
2273 690
2274 1400
2274 2025
2278 1840
2279 1464
2280 698
2281 1909
2283 2020
2284 1400
2285 707
2288 1840
2289 1464
2291 1909
2292 715
2292 2025
2294 1400
2297 724
2298 1840
2299 1464
2301 1909
2301 2020
2304 732
2304 1400
2308 1840
2309 741
2309 1464
2309 2012
2311 1909
2314 1397
2314 2002
2315 749
2318 1840
2319 1464
2320 758
2320 1990
2321 1909
2324 1400
2325 767
2328 1840
2328 1983
2329 1464
2331 1909
2332 775
2333 1395
2333 1973
2337 784
2338 1840
2339 1461
2340 1960
2341 1909
2342 1400
2344 792
2345 1950
2348 1840
2349 801
2349 1459
2351 1909
2352 1399
2353 811
2353 1943
2358 1840
2358 1933
2359 1459
2360 819
2361 1909
2362 1395
2365 828
2365 1920
2368 1840
2369 1459
2370 837
2372 1395
2375 846
2378 1840
2379 1459
2380 855
2382 1395
2385 864
2388 1840
2389 1459
2390 873
2392 1395
2395 882
2398 1840
2399 892
2399 1459
2402 1395
2404 901
2405 911
2407 1834
2409 1459
2410 920
2412 1395
2412 1824
2415 929
2415 939
2417 1814
2419 1459
2420 948
2422 1395
2422 1804
2425 957
2427 1794
2429 967
2429 1457
2430 1780
2432 1395
2434 976
2435 1765
2438 986
2439 1457
2440 996
2440 1750
2442 1395
2445 1005
2445 1735
2447 1015
2449 1454
2450 1720
2452 1024
2452 1395
2455 1034
2455 1044
2455 1705
2459 1454
2460 1053
2460 1063
2460 1690
2462 1395
2465 1072
2465 1680
2469 1082
2469 1454
2470 1092
2470 1665
2472 1395
2474 1102
2475 1112
2475 1640
2475 1650
2479 1122
2479 1454
2480 1132
2480 1620
2480 1630
2482 1395
2485 1141
2485 1151
2485 1600
2485 1610
2489 1454
2490 1160
2490 1170
2490 1180
2490 1565
2490 1575
2490 1585
2492 1395
2495 1189
2495 1199
2495 1209
2495 1219
2495 1229
2495 1525
2495 1535
2495 1545
2495 1555
2499 1454
2500 1238
2500 1248
2500 1258
2500 1485
2500 1495
2500 1505
2500 1515
2502 1395
2505 1267
2505 1277
2505 1287
2505 1297
2505 1310
2505 1330
2505 1345
2505 1365
2505 1380
2505 1462
2505 1472
2510 1319
2510 1354
2510 1389
