459 1242
459 1252
464 1261
464 1271
467 1234
469 1280
472 1290
474 1300
476 1229
479 1309
481 1319
484 1222
484 1329
486 1339
489 1349
492 1214
494 1358
495 1368
499 1378
502 1209
504 1387
504 1397
509 1406
510 1201
514 1415
514 1425
517 1435
519 1445
520 1196
524 1454
526 1464
528 1189
529 1474
534 1483
535 1493
537 1184
539 1503
544 1512
544 1522
545 1176
549 1531
549 1541
554 1550
555 1171
557 1560
559 1570
563 1164
564 1579
566 1589
569 1599
572 1159
574 1608
574 1618
579 1627
579 1637
580 1151
584 1646
588 1144
589 1655
589 1665
594 1674
596 1684
597 1139
599 1694
604 1703
604 1713
605 1131
609 1722
614 1731
614 1741
615 1126
619 1750
619 1760
623 1119
624 1769
626 1779
629 1789
632 1114
634 1798
635 1808
639 1818
640 1106
640 1828
644 1838
648 1099
649 1847
649 1857
654 1866
657 1094
659 1875
659 1885
664 1894
665 1086
666 1904
669 1914
671 1924
675 1081
676 1933
679 1943
680 1953
683 1074
684 1963
689 1972
689 1982
692 1069
694 1991
699 2000
699 2010
700 1061
702 2020
707 2029
709 2039
710 1056
711 2049
714 2059
718 1049
719 2068
720 2078
724 2088
727 1044
729 2097
729 2107
734 2116
734 2126
735 1036
739 2135
742 2145
743 1029
744 2155
749 2164
751 2174
752 1024
754 2184
759 2193
760 1016
760 2203
764 2213
765 2223
770 1011
770 2232
774 2242
774 2252
778 1004
779 2261
784 2270
784 2280
787 999
789 2289
791 2299
794 2309
795 991
799 2318
799 2328
803 984
804 2337
804 2347
809 2356
812 979
814 2365
814 2375
819 2384
820 971
821 2394
826 2403
830 966
836 2405
838 959
846 2405
847 954
855 946
856 2405
865 941
866 2405
873 934
876 2405
882 929
886 2405
890 921
896 2405
898 914
906 2405
907 909
915 901
916 2405
925 896
926 2405
933 889
936 2405
942 884
946 2405
950 876
956 2405
958 869
966 2405
967 864
975 856
976 2405
985 851
986 2405
993 844
996 2405
1002 839
1006 2405
1010 831
1016 2405
1020 826
1026 2405
1028 819
1036 2405
1037 814
1045 806
1046 2405
1053 799
1056 2405
1062 794
1066 2405
1070 786
1076 2405
1080 781
1086 2405
1088 774
1096 2405
1097 769
1105 761
1106 2405
1113 754
1116 2405
1122 749
1126 2405
1130 741
1136 2405
1140 736
1146 2405
1148 729
1156 2405
1157 724
1165 716
1166 2405
1175 711
1176 2405
1183 704
1186 2405
1192 699
1196 2405
1200 691
1206 2405
1208 684
1216 2405
1217 679
1225 671
1226 2405
1235 666
1236 2405
1243 659
1246 2405
1252 654
1256 2405
1260 646
1266 2405
1268 639
1276 2405
1277 634
1285 626
1286 2405
1295 621
1296 2405
1303 614
1306 2405
1312 609
1316 2405
1320 601
1326 2405
1330 596
1336 2405
1338 589
1346 2405
1347 584
1355 576
1356 2405
1363 569
1366 2405
1372 564
1376 2405
1380 556
1386 2405
1390 551
1396 2405
1398 544
1406 2405
1407 539
1415 531
1416 2405
1423 524
1426 2405
1432 529
1436 2405
1441 534
1446 2405
1449 541
1456 2405
1458 546
1465 554
1466 2405
1474 559
1476 2405
1482 565
1486 2405
1490 572
1496 2405
1499 577
1506 2405
1507 584
1516 589
1516 2405
1524 596
1526 2405
1533 601
1536 2405
1540 609
1546 2405
1549 614
1556 2405
1557 620
1565 627
1566 2405
1574 632
1576 2405
1582 639
1586 2405
1591 644
1596 2405
1599 651
1605 659
1606 2405
1615 662
1616 2405
1622 670
1626 2405
1632 674
1636 2405
1639 682
1646 2405
1647 689
1656 694
1656 2405
1665 699
1666 2405
1673 705
1676 2405
1680 713
1686 2405
1690 717
1696 2405
1697 725
1706 2405
1707 729
1714 737
1716 2405
1722 744
1726 2405
1731 749
1736 2405
1739 756
1746 2405
1748 761
1755 769
1756 2405
1764 774
1766 2405
1772 780
1776 2405
1782 784
1786 2405
1789 792
1796 2405
1797 799
1806 804
1806 2405
1814 811
1816 2405
1823 816
1826 2405
1830 824
1836 2405
1839 829
1846 2405
1847 835
1855 842
1856 2405
1864 847
1866 2405
1872 854
1876 2405
1881 859
1886 2405
1889 866
1896 2405
1898 871
1905 879
1906 2405
1914 884
1916 2405
1922 890
1926 2405
1930 897
1936 2405
1939 902
1946 2405
1947 909
1956 914
1956 2405
1964 921
1966 2405
1970 929
1976 2405
1980 932
1986 2405
1988 939
1996 2405
1997 944
2004 952
2006 2405
2014 956
2016 2405
2020 964
2026 2405
2029 969
2030 2390
2035 2375
2037 975
2040 2360
2045 982
2045 2345
2050 2330
2054 987
2055 2315
2060 2295
2060 2305
2062 994
2065 2280
2070 2265
2071 999
2075 2250
2079 1006
2080 2235
2085 1014
2085 2220
2090 2205
2095 1017
2095 2190
2100 2170
2100 2180
2103 1024
2105 2155
2110 2140
2112 1029
2115 2125
2119 1037
2120 2110
2125 2095
2129 1041
2130 2080
2135 1049
2135 2060
2135 2070
2140 2045
2144 1054
2145 2030
2150 2015
2152 1060
2155 2000
2160 1067
2160 1985
2165 1970
2169 1072
2170 1950
2170 1960
2175 1935
2177 1079
2180 1920
2185 1905
2186 1084
2190 1890
2194 1091
2195 1875
2200 1099
2200 1860
2205 1845
2210 1102
2210 1825
2210 1835
2215 1810
2218 1109
2220 1795
2225 1780
2227 1114
2230 1765
2234 1122
2235 1750
2240 1735
2244 1126
2245 1715
2245 1725
2250 1134
2250 1700
2255 1685
2259 1139
2260 1670
2265 1655
2267 1145
2270 1640
2275 1152
2275 1625
2280 1610
2284 1157
2285 1590
2285 1600
2290 1575
2292 1164
2295 1560
2300 1545
2301 1169
2305 1530
2309 1176
2310 1515
2315 1184
2315 1500
2320 1480
2320 1490
2325 1187
2325 1465
2330 1450
2333 1194
2335 1435
2340 1420
2342 1199
2345 1405
2349 1207
2350 1390
2355 1370
2355 1380
2359 1211
2360 1355
2365 1219
2365 1340
2370 1325
2374 1224
2375 1310
2380 1295
2382 1230
2385 1280
2390 1237
2390 1265
2395 1250
