339 150
340 160
342 170
346 180
349 144
352 188
356 198
359 143
361 207
366 216
369 140
372 224
377 233
379 137
383 241
389 135
390 249
394 259
399 133
400 267
405 276
409 131
411 284
416 293
419 134
422 301
428 309
429 134
429 319
437 325
439 134
444 333
449 136
450 341
456 349
459 137
462 357
468 365
469 137
474 373
479 141
480 381
487 389
489 145
493 397
498 150
499 405
505 413
508 152
511 421
517 157
517 429
525 435
526 162
531 443
535 167
537 451
541 461
545 169
550 466
554 174
556 474
561 182
561 483
569 489
571 184
575 497
580 189
581 505
588 195
588 513
595 521
597 200
603 527
605 206
607 537
615 209
615 544
620 218
621 552
629 558
630 221
634 567
638 227
642 574
646 233
648 582
652 241
655 590
662 245
662 598
670 252
670 605
677 613
679 257
684 621
687 264
690 629
695 270
698 636
703 276
706 642
708 285
710 652
716 291
718 658
724 666
725 296
731 674
733 302
737 312
739 681
745 318
745 689
753 695
754 323
759 332
760 703
766 711
767 339
772 719
776 344
780 725
782 352
788 732
790 358
793 741
796 366
801 748
804 373
809 754
814 375
815 762
820 383
822 770
826 391
827 779
835 396
836 784
843 403
843 792
848 412
851 798
858 415
858 806
864 423
865 814
870 431
871 822
878 437
878 830
885 445
886 836
891 845
893 451
900 850
902 456
908 856
910 463
915 472
915 864
921 872
923 479
929 878
931 485
935 886
937 493
943 893
946 498
952 506
952 898
959 514
959 906
965 914
968 519
972 922
977 524
980 929
982 533
986 937
990 539
994 943
998 546
1002 949
1006 552
1010 955
1014 559
1018 961
1022 566
1023 970
1030 573
1033 967
1037 581
1043 963
1045 587
1051 955
1052 595
1058 947
1060 601
1065 939
1069 606
1074 615
1075 934
1081 926
1082 621
1087 915
1090 627
1096 909
1099 632
1104 902
1106 640
1111 649
1112 895
1117 886
1119 655
1125 880
1128 660
1134 668
1134 875
1142 869
1144 672
1150 680
1152 869
1158 687
1162 866
1166 694
1168 874
1172 702
1178 876
1180 709
1186 882
1189 714
1190 892
1195 901
1197 720
1199 911
1206 725
1207 917
1211 734
1214 925
1217 742
1223 930
1225 748
1229 938
1233 754
1234 947
1242 759
1244 950
1247 768
1250 958
1256 773
1259 963
1264 779
1265 971
1272 785
1272 979
1277 794
1280 985
1287 797
1288 991
1296 997
1297 798
1303 806
1306 1001
1308 1011
1311 813
1316 1018
1317 1032
1320 818
1322 1041
1328 824
1330 1047
1335 1056
1336 830
1342 838
1345 1060
1347 847
1351 1068
1357 850
1359 1074
1361 860
1367 1080
1369 866
1375 1086
1377 872
1382 881
1383 1093
1390 1101
1392 885
1398 1107
1401 890
1406 1114
1407 898
1414 1120
1416 903
1420 1128
1424 1138
1426 907
1434 1142
1436 908
1442 1148
1444 915
1450 1154
1452 921
1456 931
1458 1161
1466 935
1466 1167
1470 1177
1472 943
1478 1183
1482 946
1484 1191
1487 955
1490 1199
1492 964
1498 1205
1499 1215
1501 969
1509 1218
1511 973
1518 1223
1519 979
1524 988
1524 1231
1532 995
1532 1237
1538 1003
1540 1243
1546 1251
1547 1008
1554 1257
1555 1014
1561 1022
1563 1262
1569 1028
1571 1269
1576 1278
1577 1034
1582 1043
1582 1286
1590 1292
1592 1046
1596 1300
1597 1055
1601 1309
1606 1060
1611 1313
1615 1065
1620 1074
1620 1318
1626 1326
1628 1081
1633 1334
1637 1086
1639 1342
1641 1096
1647 1348
1649 1102
1653 1356
1657 1109
1661 1362
1664 1117
1669 1369
1673 1122
1678 1374
1681 1128
1684 1382
1687 1136
1694 1385
1695 1142
1695 1399
1701 1407
1703 1148
1711 1154
1711 1408
1711 1418
1717 1162
1721 1422
1727 1166
1730 1427
1733 1174
1738 1433
1741 1180
1745 1441
1750 1185
1751 1449
1756 1193
1759 1455
1762 1201
1769 1457
1770 1207
1777 1215
1779 1460
1785 1221
1789 1459
1793 1227
1799 1461
1800 1235
1807 1455
1808 1241
1813 1250
1815 1446
1821 1257
1825 1442
1827 1265
1833 1435
1836 1270
1839 1427
1843 1278
1849 1423
1850 1286
1857 1415
1858 1292
1865 1300
1865 1406
1870 1309
1873 1399
1878 1387
1879 1314
1884 1378
1885 1322
1890 1368
1892 1330
1895 1353
1897 1343
