198 1976
201 1986
203 1966
209 1993
211 1959
219 1996
220 1953
228 1947
229 1997
237 1941
239 1997
247 1936
249 1999
255 1930
259 2000
263 1923
269 2001
271 1916
279 1909
279 2002
288 1903
289 2002
297 1898
299 2002
306 1892
309 2002
315 1887
319 2003
324 1882
329 2002
333 1876
339 2001
342 1871
349 2002
351 1866
359 2002
360 1860
369 1854
369 2000
378 1848
379 2000
387 1842
389 2000
396 1837
399 2001
405 1832
409 2000
415 1827
419 1999
424 1822
429 1997
433 1817
439 1997
443 1812
449 1996
453 1808
459 1996
462 1802
469 1995
470 1796
479 1791
479 1994
489 1787
489 1994
498 1782
499 1993
508 1778
509 1991
518 1773
519 1990
527 1768
529 1988
537 1764
539 1986
547 1759
549 1985
556 1754
559 1983
566 1750
569 1981
576 1746
579 1980
586 1743
589 1979
596 1739
599 1978
606 1735
609 1977
616 1730
619 1976
626 1726
629 1976
636 1723
639 1975
646 1721
649 1973
656 1717
659 1970
666 1713
669 1968
676 1709
679 1967
686 1705
689 1965
696 1702
699 1963
706 1698
709 1962
716 1694
719 1960
726 1692
729 1957
736 1689
739 1955
746 1687
749 1954
756 1683
759 1952
766 1680
769 1950
776 1676
779 1947
786 1673
789 1945
796 1670
799 1943
806 1667
809 1942
816 1663
819 1940
826 1660
829 1937
836 1657
839 1934
846 1653
849 1931
856 1650
859 1929
866 1647
869 1927
876 1645
879 1925
886 1641
889 1923
896 1638
899 1920
906 1634
909 1917
916 1632
919 1915
926 1629
929 1912
936 1625
939 1910
946 1623
949 1909
956 1620
959 1908
966 1617
969 1904
976 1614
979 1900
986 1611
989 1897
996 1608
999 1895
1006 1605
1009 1892
1016 1601
1019 1889
1026 1598
1029 1887
1036 1595
1039 1884
1046 1592
1049 1881
1056 1589
1059 1878
1066 1585
1069 1876
1076 1582
1079 1872
1086 1579
1089 1869
1096 1576
1099 1867
1106 1573
1109 1864
1116 1570
1119 1861
1126 1567
1129 1859
1136 1564
1139 1856
1146 1561
1149 1854
1156 1557
1159 1851
1166 1554
1169 1848
1176 1551
1179 1845
1186 1548
1189 1842
1196 1545
1199 1840
1206 1541
1209 1837
1216 1537
1219 1834
1226 1534
1229 1832
1236 1531
1239 1829
1246 1529
1249 1827
1256 1526
1259 1825
1266 1523
1269 1822
1276 1520
1279 1818
1286 1517
1289 1815
1296 1514
1299 1813
1306 1510
1309 1810
1316 1507
1319 1807
1326 1504
1329 1804
1336 1501
1339 1801
1346 1498
1349 1798
1356 1494
1359 1796
1366 1491
1369 1793
1376 1487
1379 1790
1386 1484
1389 1788
1396 1481
1399 1785
1406 1478
1409 1782
1416 1475
1419 1779
1426 1471
1429 1777
1436 1468
1439 1775
1446 1466
1449 1772
1456 1464
1459 1768
1466 1461
1469 1766
1476 1457
1479 1764
1486 1454
1489 1761
1496 1451
1499 1758
1506 1448
1509 1755
1516 1444
1519 1752
1526 1441
1529 1748
1536 1438
1539 1746
1546 1435
1549 1744
1556 1432
1559 1741
1566 1429
1569 1739
1576 1425
1579 1736
1586 1422
1589 1733
1596 1419
1599 1730
1606 1416
1609 1727
1616 1413
1619 1724
1626 1410
1629 1722
1636 1407
1639 1720
1646 1404
1649 1717
1656 1401
1659 1714
1666 1397
1669 1712
1676 1394
1679 1709
1686 1390
1689 1705
1696 1387
1699 1702
1706 1383
1709 1700
1716 1379
1719 1697
1726 1376
1729 1695
1736 1373
1739 1693
1746 1370
1749 1690
1756 1366
1759 1687
1766 1363
1769 1683
1776 1360
1779 1680
1786 1357
1789 1678
1796 1354
1799 1675
1806 1351
1809 1672
1816 1348
1819 1669
1826 1344
1829 1666
1836 1341
1839 1663
1846 1338
1849 1661
1856 1335
1859 1658
1866 1332
1869 1655
1876 1329
1879 1653
1886 1326
1889 1651
1896 1323
1899 1647
1906 1320
1909 1644
1916 1317
1919 1641
1926 1314
1929 1638
1936 1312
1939 1635
1946 1308
1949 1633
1956 1305
1959 1629
1966 1302
1967 1622
1974 1524
1975 1615
1976 1299
1982 1530
1985 1612
1986 1296
1995 1607
1996 1293
1996 1519
1999 1529
2001 1509
2003 1601
2006 1290
2008 1524
2012 1596
2016 1293
2022 1598
2026 1297
2032 1598
2036 1293
2042 1598
2046 1291
2052 1597
2056 1295
2062 1595
2065 1300
2072 1593
2074 1305
2082 1589
2084 1309
2092 1585
2094 1313
2102 1319
2102 1582
2112 1323
2112 1580
2122 1325
2122 1578
2132 1326
2132 1576
2142 1329
2142 1573
2152 1332
2152 1572
2162 1333
2162 1570
2172 1334
2172 1568
2182 1334
2182 1565
2192 1334
2192 1561
2202 1336
2202 1558
2212 1336
2212 1554
2222 1334
2222 1553
2232 1333
2232 1549
2242 1334
2242 1547
2252 1333
2252 1545
2262 1332
2262 1542
2272 1330
2272 1539
2282 1328
2282 1536
2292 1325
2292 1533
2302 1322
2302 1530
2312 1319
2312 1527
2322 1316
2322 1525
2332 1314
2332 1522
2342 1311
2342 1519
2351 1306
2352 1516
2361 1301
2362 1515
2371 1297
2372 1513
2381 1292
2382 1510
2390 1287
2392 1507
2400 1285
2402 1504
2410 1282
2412 1502
2420 1278
2422 1499
2430 1276
2432 1496
2439 1271
2442 1495
2448 1266
2452 1492
2457 1261
2462 1489
2467 1256
2472 1486
2477 1253
2482 1484
2487 1250
2492 1481
2497 1246
2502 1478
2507 1241
2512 1477
2516 1236
2522 1475
2525 1231
2532 1472
2535 1228
2542 1470
2545 1226
2552 1468
2555 1222
2562 1466
2564 1217
2572 1464
2573 1212
2582 1461
2583 1209
2592 1459
2593 1206
2602 1201
2602 1456
2611 1196
2612 1453
2621 1194
2622 1450
2630 1189
2632 1449
2640 1186
2642 1446
2650 1183
2652 1444
2660 1179
2662 1441
2670 1175
2672 1438
2680 1171
2682 1436
2690 1166
2692 1433
2700 1162
2702 1431
2710 1159
2712 1428
2720 1156
2722 1427
2730 1153
2732 1424
2740 1151
2742 1421
2750 1148
2752 1418
2760 1144
2762 1416
2770 1140
2772 1414
2780 1137
2782 1411
2790 1134
2792 1408
2800 1131
2802 1406
2810 1128
2812 1404
2820 1126
2822 1402
2830 1121
2832 1399
2840 1117
2842 1396
2850 1116
2852 1394
2860 1115
2862 1391
2870 1115
2872 1389
2880 1113
2882 1387
2890 1108
2892 1385
2900 1103
2902 1382
2910 1102
2912 1379
2920 1102
2922 1377
2930 1103
2932 1375
2940 1103
2942 1373
2950 1099
2952 1369
2960 1095
2962 1366
2970 1095
2972 1364
2980 1095
2982 1361
2990 1095
2992 1358
3000 1093
3002 1356
3010 1092
3012 1355
3020 1091
3022 1353
3030 1089
3032 1349
3040 1088
3042 1346
3050 1088
3052 1344
3060 1088
3062 1342
3070 1085
3072 1341
3080 1083
3082 1339
3090 1082
3092 1335
3100 1081
3102 1332
3110 1078
3112 1329
3120 1074
3122 1325
3130 1072
3132 1322
3140 1074
3142 1321
3150 1074
3152 1320
3160 1073
3162 1317
3170 1072
3172 1313
3180 1071
3182 1311
3190 1070
3192 1309
3200 1068
3202 1306
3210 1065
3212 1305
3220 1063
3222 1302
3230 1064
3232 1299
3240 1065
3242 1297
3250 1064
3252 1295
3260 1063
3262 1292
3270 1060
3272 1289
3280 1056
3282 1287
3290 1055
3292 1285
3300 1054
3302 1282
3310 1051
3312 1280
3318 1227
3320 1048
3322 1276
3326 1233
3330 1047
3332 1274
3340 1045
3342 1272
3350 1042
3352 1270
3360 1037
3362 1266
3369 1032
3372 1264
3379 1027
3382 1262
3389 1025
3392 1260
3399 1021
3402 1257
3409 1017
3412 1253
3419 1013
3422 1250
3429 1009
3432 1249
3438 1004
3442 1247
3446 998
3452 1245
3455 992
3462 1243
3464 986
3472 980
3472 1240
3480 974
3482 1236
3488 967
3492 1233
3496 959
3502 1231
3504 952
3512 946
3512 1228
3519 937
3522 1225
3525 929
3532 921
3532 1223
3540 913
3542 1220
3546 905
3551 896
3552 1217
3556 887
3562 1214
3564 879
3572 1210
3574 876
3582 1207
3584 874
3592 1203
3594 874
3602 1199
3604 875
3612 1196
3614 876
3622 1193
3624 878
3632 1188
3634 881
3642 1183
3643 886
3651 932
3652 942
3652 1179
3653 890
3657 951
3658 924
3661 899
3662 960
3662 1175
3663 913
3670 954
3671 1170
3678 948
3680 1165
3683 988
3686 940
3686 998
3686 1008
3689 1159
3693 984
3694 932
3694 1015
3698 1025
3698 1154
3699 919
3702 979
3706 911
3706 1032
3707 1000
3707 1148
3710 985
3715 1142
3716 910
3716 1005
3716 1035
3718 938
3719 948
3723 918
3723 928
3724 957
3724 1136
3726 1003
3726 1029
3730 965
3731 975
3732 1129
3734 1035
3736 1000
3736 1106
3737 1116
3739 1044
3740 1096
3741 976
3744 1006
3746 1052
3748 1089
3750 971
3753 1011
3756 1056
3757 1083
3760 975
3762 1006
3762 1064
3762 1074
3765 984
3769 994
