192 1881
197 1890
198 1873
204 1865
207 1893
210 1856
216 1848
217 1892
222 1839
227 1890
229 1831
236 1823
237 1889
244 1815
247 1887
251 1807
257 1884
259 1799
266 1791
267 1882
274 1783
277 1881
281 1775
287 1879
289 1767
297 1759
297 1876
305 1751
307 1874
313 1743
317 1872
321 1737
327 1871
329 1730
337 1724
337 1869
345 1718
347 1867
353 1711
357 1866
361 1704
367 1864
369 1698
377 1692
377 1862
386 1686
387 1860
394 1680
397 1858
403 1674
407 1856
411 1668
417 1855
419 1662
427 1656
427 1853
436 1651
437 1851
445 1646
447 1849
454 1641
457 1848
464 1636
467 1846
473 1631
477 1844
482 1626
487 1842
491 1621
497 1840
500 1616
507 1838
510 1612
517 1837
520 1607
527 1835
530 1602
537 1833
540 1597
547 1831
550 1592
557 1830
560 1588
567 1828
570 1584
577 1826
580 1580
587 1825
590 1576
597 1822
600 1573
607 1820
610 1570
617 1818
620 1566
627 1817
630 1563
637 1815
640 1560
647 1814
650 1557
657 1812
660 1553
667 1810
670 1550
677 1808
680 1548
687 1806
690 1545
697 1804
700 1542
707 1802
710 1539
717 1800
720 1537
727 1799
730 1535
737 1797
740 1533
747 1795
750 1530
757 1793
760 1528
767 1791
770 1526
777 1790
780 1524
787 1788
790 1522
797 1786
800 1520
807 1784
810 1517
817 1783
820 1515
827 1781
830 1513
837 1779
840 1511
847 1777
850 1509
857 1775
860 1507
867 1774
870 1505
877 1772
880 1503
887 1770
890 1501
897 1768
900 1499
907 1766
910 1497
917 1764
920 1495
927 1763
930 1493
937 1761
940 1491
947 1759
950 1488
957 1758
960 1486
967 1756
970 1485
977 1754
980 1483
987 1753
990 1481
997 1751
1000 1480
1007 1750
1010 1478
1017 1748
1020 1475
1027 1747
1030 1474
1037 1745
1040 1472
1047 1743
1050 1471
1057 1741
1060 1469
1067 1740
1070 1467
1077 1739
1080 1466
1087 1737
1090 1465
1097 1735
1100 1463
1107 1734
1110 1461
1117 1732
1120 1460
1127 1731
1130 1459
1137 1730
1140 1458
1147 1728
1150 1456
1157 1727
1160 1455
1167 1725
1170 1454
1177 1724
1180 1452
1187 1723
1190 1451
1197 1722
1200 1449
1207 1720
1210 1448
1217 1718
1220 1447
1227 1717
1230 1446
1237 1716
1240 1444
1247 1715
1250 1443
1257 1714
1260 1442
1267 1712
1270 1440
1277 1710
1280 1437
1287 1709
1290 1436
1297 1708
1300 1434
1307 1707
1310 1433
1317 1706
1320 1432
1327 1705
1330 1431
1337 1704
1340 1430
1347 1703
1350 1428
1357 1701
1360 1427
1367 1700
1370 1426
1377 1699
1380 1425
1387 1697
1390 1423
1397 1696
1400 1421
1407 1695
1410 1420
1417 1694
1420 1419
1427 1693
1430 1418
1437 1692
1440 1416
1447 1691
1450 1415
1457 1689
1460 1413
1467 1688
1470 1412
1477 1687
1480 1410
1487 1687
1490 1408
1497 1685
1500 1406
1507 1684
1510 1404
1517 1683
1520 1403
1527 1682
1530 1402
1537 1680
1540 1401
1547 1679
1550 1400
1557 1678
1560 1398
1567 1676
1570 1397
1577 1675
1580 1395
1587 1673
1590 1393
1597 1672
1600 1392
1607 1671
1610 1391
1617 1670
1620 1390
1627 1668
1630 1389
1637 1667
1640 1387
1647 1666
1650 1386
1657 1665
1660 1384
1667 1663
1670 1382
1677 1662
1680 1381
1687 1661
1690 1380
1697 1660
1700 1379
1707 1658
1710 1378
1717 1656
1720 1377
1727 1655
1730 1375
1737 1654
1740 1373
1747 1652
1750 1372
1757 1651
1760 1370
1767 1650
1770 1369
1777 1649
1780 1368
1787 1647
1790 1366
1797 1645
1800 1365
1807 1644
1810 1364
1817 1643
1820 1363
1827 1641
1830 1361
1837 1640
1840 1359
1847 1638
1850 1358
1857 1637
1860 1357
1867 1636
1870 1355
1877 1635
1880 1354
1887 1634
1890 1352
1897 1632
1900 1350
1907 1631
1910 1349
1917 1629
1920 1347
1927 1628
1930 1345
1937 1626
1940 1342
1947 1624
1950 1339
1957 1622
1960 1337
1967 1621
1970 1335
1977 1619
1980 1333
1987 1618
1990 1332
1997 1616
2000 1330
2007 1614
2010 1328
2017 1612
2020 1325
2027 1611
2030 1323
2037 1610
2040 1320
2047 1608
2050 1316
2057 1606
2060 1312
2067 1605
2070 1309
2077 1603
2080 1305
2087 1602
2090 1301
2097 1599
2100 1297
2107 1598
2110 1293
2117 1596
2120 1288
2127 1594
2130 1285
2137 1593
2140 1281
2147 1591
2150 1278
2157 1590
2160 1275
2167 1588
2170 1273
2177 1587
2180 1270
2187 1585
2190 1268
2197 1583
2200 1267
2207 1582
2210 1265
2217 1580
2220 1263
2227 1578
2230 1261
2237 1576
2240 1260
2247 1575
2250 1258
2257 1573
2260 1259
2267 1571
2270 1263
2276 1271
2277 1569
2278 1281
2279 1291
2284 1300
2287 1568
2292 1307
2293 1317
2297 1567
2299 1299
2299 1325
2302 1288
2304 1278
2307 1564
2312 1270
2316 1558
2322 1266
2324 1550
2330 1541
2332 1264
2339 1536
2342 1263
2349 1540
2352 1262
2357 1546
2362 1261
2367 1546
2372 1261
2377 1546
2382 1261
2387 1543
2392 1261
2397 1540
2402 1262
2407 1538
2410 1268
2417 1537
2418 1275
2426 1281
2427 1535
2434 1287
2437 1533
2444 1291
2447 1531
2453 1296
2457 1530
2462 1301
2467 1528
2470 1307
2477 1526
2478 1314
2486 1320
2487 1525
2496 1324
2497 1522
2506 1327
2507 1519
2516 1325
2517 1517
2526 1322
2527 1516
2536 1321
2537 1515
2546 1321
2547 1513
2556 1321
2557 1512
2566 1319
2567 1510
2576 1317
2577 1508
2586 1316
2587 1506
2596 1313
2597 1504
2606 1311
2607 1502
2616 1310
2617 1501
2626 1309
2627 1499
2636 1307
2637 1498
2646 1304
2647 1497
2656 1300
2657 1495
2666 1296
2667 1493
2676 1293
2677 1492
2686 1289
2687 1490
2696 1286
2697 1488
2706 1284
2707 1486
2716 1282
2717 1485
2726 1278
2727 1484
2735 1273
2737 1484
2745 1272
2747 1482
2755 1271
2757 1480
2765 1269
2767 1476
2775 1264
2777 1475
2785 1260
2787 1475
2795 1259
2797 1473
2805 1257
2807 1471
2815 1253
2817 1471
2824 1247
2827 1468
2834 1243
2837 1466
2844 1240
2847 1465
2854 1237
2857 1465
2864 1234
2867 1462
2874 1232
2877 1460
2884 1230
2887 1457
2894 1227
2897 1455
2904 1226
2907 1453
2914 1224
2917 1452
2923 1219
2927 1451
2932 1213
2937 1451
2942 1210
2947 1452
2952 1210
2957 1450
2962 1209
2967 1448
2972 1206
2977 1447
2982 1202
2987 1446
2992 1200
2997 1441
3002 1197
3007 1437
3012 1194
3017 1436
3022 1192
3027 1435
3032 1190
3037 1433
3042 1187
3047 1431
3052 1184
3057 1429
3062 1185
3067 1427
3072 1184
3077 1425
3082 1180
3087 1425
3092 1176
3097 1424
3102 1175
3107 1422
3112 1174
3117 1420
3122 1172
3127 1418
3132 1169
3137 1416
3142 1167
3147 1415
3152 1164
3157 1414
3162 1163
3167 1412
3172 1161
3177 1409
3182 1159
3187 1407
3192 1158
3197 1405
3202 1155
3207 1403
3212 1155
3217 1401
3222 1154
3227 1399
3232 1154
3237 1399
3242 1153
3247 1399
3252 1151
3257 1396
3262 1149
3267 1393
3272 1149
3277 1390
3282 1147
3287 1387
3292 1145
3297 1385
3302 1142
3307 1385
3312 1139
3317 1383
3322 1138
3327 1381
3332 1138
3337 1380
3342 1137
3347 1377
3352 1135
3357 1376
3362 1134
3367 1376
3372 1134
3377 1375
3382 1134
3387 1372
3392 1134
3397 1370
3402 1132
3407 1370
3412 1131
3417 1368
3422 1130
3427 1366
3432 1129
3437 1363
3442 1128
3447 1360
3452 1127
3457 1360
3462 1127
3467 1360
3472 1126
3477 1360
3482 1125
3487 1359
3492 1123
3497 1356
3502 1122
3507 1352
3512 1121
3517 1349
3522 1120
3527 1347
3532 1119
3537 1347
3542 1118
3547 1346
3552 1117
3557 1343
3562 1115
3567 1341
3572 1114
3577 1337
3582 1111
3585 1330
3592 1108
3594 1325
3602 1106
3604 1326
3612 1102
3614 1329
3622 1098
3624 1329
3632 1093
3634 1328
3641 1088
3644 1324
3650 1082
3654 1322
3658 1076
3664 1322
3666 1070
3674 1064
3674 1321
3680 1056
3684 1320
3685 1047
3691 1039
3694 1315
3698 1031
3702 1309
3705 1023
3711 1015
3712 1306
3718 1007
3722 1308
3726 1000
3732 1309
3735 995
3742 1306
3745 995
3751 1301
3755 995
3761 1297
3765 995
3771 1296
3775 996
3781 1294
3785 998
3789 1286
3795 1001
3798 1280
3805 1004
3808 1280
3815 1007
3816 1286
3825 1011
3826 1287
3835 1015
3836 1282
3844 1275
3845 1019
3846 1094
3850 1084
3850 1261
3852 1027
3852 1102
3856 1253
3858 1076
3859 1035
3862 1105
3863 1045
3864 1067
3864 1247
3868 1054
3871 1100
3872 1216
3872 1241
3875 1205
3875 1226
3877 1192
3880 1094
3883 1184
3888 1173
3890 1097
3898 1170
3900 1101
3906 1176
3909 1106
3916 1175
3917 1112
3923 1120
3923 1159
3925 1147
3927 1130
