111 76
112 65
115 86
116 96
119 106
122 66
124 115
128 125
129 135
131 71
134 144
137 154
139 77
143 162
147 83
148 171
154 179
156 88
159 188
164 94
166 196
171 205
173 99
177 213
179 107
184 221
188 231
189 111
196 237
198 116
204 243
206 122
209 252
214 128
216 260
222 268
223 133
231 139
231 273
237 281
240 144
245 288
248 150
253 294
256 156
259 302
264 162
267 308
271 170
275 314
281 173
283 320
289 179
289 328
297 185
298 333
305 341
306 190
313 347
314 196
322 352
324 200
327 361
332 206
336 366
341 211
343 374
349 217
352 379
357 223
362 382
366 228
369 390
376 232
378 395
384 239
386 402
393 244
394 408
400 416
401 251
410 420
411 255
416 428
419 261
425 433
427 267
435 273
435 436
441 444
445 276
449 450
453 282
458 455
463 286
466 461
471 293
475 466
480 298
483 472
489 303
491 479
497 309
499 485
502 318
508 490
512 320
516 496
521 505
522 324
530 330
531 509
539 335
540 514
548 340
548 520
556 526
557 345
564 532
566 350
571 540
574 356
581 543
584 359
588 551
592 365
596 557
600 371
606 561
609 376
614 567
618 381
622 573
626 387
627 582
636 391
636 587
644 397
646 591
652 403
654 597
661 408
662 603
670 413
671 608
678 419
680 613
686 621
688 422
695 626
696 429
703 632
705 434
711 638
714 439
720 643
722 445
728 649
731 450
736 655
740 455
744 662
749 460
753 667
757 466
761 673
767 470
769 679
776 475
777 685
785 480
785 691
793 487
793 697
801 703
803 490
809 709
811 497
819 503
819 713
825 721
828 508
833 727
837 513
842 732
846 518
850 738
855 523
859 743
863 529
865 751
871 535
875 755
878 543
881 763
886 549
891 767
895 554
896 776
903 560
906 780
911 566
915 785
919 572
923 791
928 577
932 796
936 583
940 803
944 589
949 808
953 594
955 816
961 601
963 822
969 607
971 829
978 612
981 833
986 619
991 836
994 625
997 844
1003 630
1005 851
1011 636
1013 857
1019 643
1021 863
1027 649
1029 870
1035 655
1039 873
1044 660
1047 880
1052 667
1055 887
1060 673
1063 894
1068 679
1073 898
1076 685
1078 907
1084 691
1086 913
1092 697
1095 918
1101 702
1105 921
1109 709
1111 929
1118 714
1119 935
1126 720
1128 940
1134 726
1136 947
1142 732
1144 953
1150 739
1152 959
1159 744
1161 964
1167 750
1171 968
1175 756
1181 971
1183 762
1191 769
1191 966
1200 774
1201 965
1208 780
1211 969
1217 785
1219 975
1225 791
1227 982
1233 797
1233 990
1238 999
1240 805
1245 1007
1249 810
1255 1009
1257 816
1265 1010
1266 821
1273 829
1275 1008
1283 832
1285 1008
1289 840
1295 1009
1296 848
1302 856
1305 866
1305 1012
1315 862
1315 1016
1318 872
1324 1021
1325 862
1328 875
1334 1025
1338 874
1341 1033
1347 879
1347 1041
1351 889
1354 1049
1356 898
1362 1056
1364 904
1365 1066
1366 1076
1372 911
1375 1081
1378 919
1383 1087
1387 1097
1388 921
1389 1107
1396 928
1396 1115
1402 1123
1406 931
1407 1132
1412 1141
1416 931
1419 1149
1421 940
1424 1158
1427 948
1431 1166
1436 953
1440 1171
1442 961
1448 969
1448 1177
1454 1185
1457 974
1461 1193
1465 980
1468 1201
1473 987
1477 1206
1478 996
1486 1211
1487 1001
1491 1220
1497 1005
1501 1224
1506 1010
1509 1230
1515 1015
1519 1234
1520 1024
1527 1240
1530 1025
1535 1246
1539 1256
1540 1024
1545 1033
1547 1043
1547 1262
1557 1047
1557 1264
1567 1046
1567 1264
1571 1056
1576 1269
1580 1061
1586 1273
1590 1063
1594 1279
1595 1072
1599 1082
1604 1283
1609 1084
1614 1093
1614 1285
1619 1084
1623 1290
1624 1096
1631 1296
1632 1102
1640 1109
1640 1301
1650 1113
1650 1302
1658 1308
1660 1114
1660 1124
1668 1131
1668 1311
1675 1319
1676 1137
1683 1325
1686 1135
1691 1331
1695 1140
1699 1337
1702 1148
1707 1343
1709 1156
1713 1351
1718 1161
1719 1359
1722 1171
1726 1367
1729 1179
1735 1372
1738 1184
1740 1381
1741 1402
1742 1391
1743 1193
1744 1413
1750 1421
1753 1196
1756 1429
1763 1197
1764 1435
1769 1205
1774 1437
1777 1212
1784 1438
1785 1218
1794 1223
1794 1439
1804 1225
1804 1439
1806 1235
1814 1242
1814 1437
1822 1430
1824 1244
1832 1429
1834 1246
1842 1252
1842 1428
1848 1260
1852 1428
1853 1269
1861 1276
1862 1430
1865 1420
1869 1282
1873 1414
1874 1291
1879 1405
1881 1299
1889 1400
1891 1302
1893 1340
1894 1391
1895 1312
1896 1350
1899 1322
1899 1332
1899 1373
1901 1359
1901 1383
1904 1341
