144 367
144 377
149 317
149 332
149 342
149 352
152 384
154 287
154 302
156 394
159 277
164 400
167 269
170 408
174 257
175 417
182 425
184 247
192 429
194 232
194 242
199 437
204 229
209 440
213 224
218 445
222 219
228 445
231 214
234 202
237 450
244 199
247 454
250 191
256 459
260 186
266 455
270 184
275 460
279 179
284 167
284 455
290 463
294 164
300 460
303 159
304 537
304 577
309 465
309 475
309 497
309 507
309 517
309 546
309 556
309 566
309 586
309 596
309 606
312 485
312 529
313 159
319 602
320 590
322 154
330 146
330 590
335 570
335 580
340 141
345 550
345 560
350 139
355 540
359 134
360 530
365 520
369 132
370 510
378 503
379 134
385 490
388 129
390 480
397 124
398 473
405 460
407 124
410 450
416 119
420 450
426 115
430 450
436 119
440 445
446 119
450 445
456 115
459 440
466 114
468 435
476 114
478 433
485 109
485 425
493 115
495 420
503 114
505 420
512 109
514 415
521 114
523 410
530 109
533 408
540 112
540 395
549 390
550 114
559 387
560 114
569 382
570 114
577 374
579 119
585 365
589 119
594 360
598 124
602 354
608 125
610 345
613 134
620 335
622 139
628 328
630 145
635 320
638 151
643 160
645 310
650 300
652 165
655 285
657 174
663 278
664 182
665 265
670 190
670 210
670 230
670 240
670 250
672 200
675 219
