69 102
69 112
69 122
69 132
69 142
69 152
69 162
69 172
69 182
69 192
69 202
69 212
69 222
69 232
69 242
69 252
69 262
69 272
69 282
69 292
79 99
79 295
79 305
79 315
79 325
79 335
79 345
79 355
79 365
79 375
79 385
79 395
79 405
79 415
88 420
89 99
98 420
99 99
108 420
109 99
109 472
115 91
115 480
117 464
118 420
125 89
125 456
125 475
128 420
133 449
135 89
135 470
138 420
139 437
144 428
145 89
145 465
155 89
155 465
165 89
165 455
175 89
175 450
185 89
185 450
195 89
195 440
205 89
205 440
214 435
215 89
224 432
225 89
232 425
235 89
242 424
245 89
252 420
255 89
262 420
265 89
270 410
275 89
280 410
285 89
290 410
295 89
300 410
305 89
310 410
315 89
320 410
324 84
330 410
334 84
340 410
344 84
350 410
354 84
360 410
364 84
370 410
374 84
380 405
384 84
390 405
394 84
400 405
404 84
410 405
414 84
420 405
424 84
430 405
434 84
440 405
444 84
450 405
454 84
460 405
464 84
470 405
474 84
480 405
484 84
490 405
494 84
500 405
504 84
510 405
514 84
520 405
524 84
530 76
530 405
540 77
540 405
544 87
545 97
545 107
545 117
545 127
545 137
545 147
545 157
545 167
545 177
545 187
545 197
545 207
545 217
545 227
550 405
552 235
555 245
555 255
555 265
555 275
555 285
555 295
555 305
555 315
555 325
555 335
555 345
555 355
555 365
555 375
555 385
555 395
