59 142
59 152
64 132
64 161
64 171
64 181
64 191
64 201
64 211
64 221
64 231
64 241
64 251
64 261
64 271
64 281
64 291
64 301
64 311
64 321
64 331
69 340
74 122
78 345
82 114
82 355
91 109
91 360
99 102
100 365
104 375
109 99
113 380
119 97
123 380
129 94
133 380
139 94
143 380
149 94
150 388
159 94
159 393
160 403
169 94
169 408
170 418
175 427
179 94
184 432
184 442
189 94
190 450
199 94
200 450
205 435
209 94
213 428
219 94
219 420
229 94
229 417
234 407
239 94
239 397
247 389
249 94
255 380
259 94
260 365
269 87
270 365
279 84
280 365
289 84
290 365
299 84
300 365
309 84
310 365
319 84
320 365
329 84
330 365
339 84
340 365
349 84
350 365
359 84
360 365
369 84
370 365
379 84
380 365
389 84
389 360
399 84
399 360
409 84
409 360
419 84
419 360
429 84
429 360
439 84
439 360
449 84
449 360
459 84
459 360
465 92
469 360
475 94
479 360
485 92
489 360
495 94
498 355
505 97
508 355
510 106
518 353
520 109
523 343
525 118
530 127
530 137
530 147
530 157
530 167
530 177
530 187
530 197
530 207
530 217
530 227
530 237
530 247
530 330
539 252
540 262
540 272
540 282
540 292
540 302
540 312
540 322
