44 137
50 145
54 132
54 155
54 165
54 175
54 185
54 195
54 205
54 215
54 225
54 235
54 245
54 255
54 265
54 275
54 285
54 295
54 305
54 315
54 325
54 335
54 345
59 354
59 364
59 374
59 384
59 394
59 404
59 414
64 129
67 420
74 129
77 420
84 129
87 420
94 129
97 420
104 129
107 420
114 129
117 420
124 129
127 420
134 129
137 420
139 430
144 129
148 435
152 445
154 129
161 450
164 129
164 460
170 121
170 468
179 473
180 119
184 482
184 492
190 119
192 499
200 119
202 494
207 485
210 119
215 470
220 119
224 465
230 119
232 459
235 445
240 119
245 435
250 119
250 420
260 119
260 415
270 119
270 415
280 119
280 415
290 119
290 415
300 119
300 415
310 119
310 415
320 119
320 415
330 119
330 415
340 119
340 415
350 119
350 415
360 119
360 415
370 119
370 415
379 114
380 415
389 114
390 415
399 114
400 415
409 114
410 415
419 114
420 415
429 114
430 415
435 405
439 114
445 405
449 114
455 405
459 114
465 405
469 114
475 405
479 114
485 405
489 114
495 405
499 114
505 405
509 114
515 405
519 114
525 405
529 116
530 126
530 136
530 146
530 156
530 166
530 176
530 186
530 196
530 206
530 216
530 226
530 236
530 246
530 256
530 266
530 276
530 286
535 295
535 305
535 315
535 325
535 335
535 345
535 355
535 365
535 375
535 385
535 395
