259 312
259 322
264 331
267 304
269 340
274 349
277 304
280 357
287 304
287 365
294 373
297 304
299 382
304 391
307 304
309 400
314 409
317 304
320 417
327 304
327 425
334 433
335 443
337 304
343 450
344 552
344 562
347 304
349 458
349 571
352 544
354 467
354 580
357 304
359 476
359 589
362 544
365 597
366 309
366 484
369 607
372 544
374 490
375 314
377 614
379 499
381 549
384 622
385 314
385 507
389 631
391 549
392 515
394 640
395 317
400 522
400 554
400 648
405 319
407 530
408 655
409 540
410 554
415 322
415 663
419 559
424 197
424 207
424 217
424 227
424 237
424 247
424 257
424 267
424 277
424 287
424 327
424 668
429 162
429 172
429 182
429 296
429 306
429 316
429 677
434 137
434 147
437 684
442 129
446 689
449 827
449 837
452 124
454 695
454 846
457 819
459 855
462 124
463 700
465 863
466 814
470 708
472 124
473 870
475 717
476 814
477 880
479 727
482 124
484 736
484 888
486 814
489 745
489 897
492 124
494 906
495 753
495 819
501 914
502 124
503 760
505 822
507 770
509 780
509 920
509 930
512 119
514 827
515 788
515 938
522 119
523 795
523 945
524 829
527 805
529 953
532 119
532 814
534 824
534 962
535 834
539 971
542 114
546 979
551 988
552 114
559 995
562 114
564 1004
569 1013
571 109
574 1022
581 109
582 1029
589 1037
589 1047
590 104
594 1056
600 104
601 1064
606 1073
610 104
610 1083
615 1092
619 1102
620 104
624 1111
624 1121
629 1130
629 1140
629 1157
629 1167
629 1177
629 1187
630 101
637 1194
640 99
647 1194
650 96
655 1165
655 1175
655 1185
660 94
660 1145
660 1155
665 1130
669 89
670 1120
678 1113
679 89
683 1103
685 1090
689 87
693 1083
698 1073
699 84
705 1060
709 86
710 1050
715 94
718 1043
720 103
720 113
720 123
720 133
720 143
720 153
720 163
720 173
720 183
720 193
720 203
720 213
720 223
720 233
720 243
720 253
720 263
720 273
720 283
720 293
720 303
720 313
720 323
720 333
725 1030
730 334
733 1023
738 1013
739 329
745 1005
748 324
753 998
758 324
760 980
760 990
767 319
768 973
773 963
777 319
780 955
785 945
786 314
793 938
796 314
800 820
800 830
800 840
800 925
805 805
805 870
806 314
808 918
810 795
810 839
815 775
815 785
815 910
816 314
819 834
820 570
820 755
820 765
820 900
825 560
826 314
828 748
828 893
829 834
830 545
830 571
830 735
833 883
835 725
836 314
838 538
838 829
840 569
840 715
840 875
845 309
845 525
845 700
845 865
848 829
849 564
850 680
850 690
850 855
853 518
855 309
855 670
857 834
858 508
858 559
858 848
863 663
865 309
865 495
865 650
867 554
870 635
873 488
875 309
875 625
877 549
880 470
880 480
880 615
885 309
885 605
887 544
888 463
890 595
893 453
895 306
897 544
898 588
900 445
903 578
905 304
905 435
907 544
908 568
910 415
910 425
914 552
915 301
918 408
925 299
925 400
930 390
935 296
938 383
943 373
945 294
945 320
948 363
955 291
955 355
963 348
965 289
970 335
975 289
978 328
985 292
985 315
990 301
