64 717
64 707
69 697
69 687
69 677
74 662
74 652
79 637
84 622
89 607
94 592
99 582
104 572
109 562
114 552
119 542
127 534
132 524
137 514
145 506
150 496
158 489
164 477
172 469
180 461
188 454
195 446
203 439
210 431
218 424
225 416
235 411
243 404
252 399
260 391
268 384
277 379
286 374
295 369
304 362
314 357
324 352
334 347
344 342
354 337
364 334
373 329
382 324
392 324
401 319
411 315
421 314
430 309
440 309
449 304
459 304
468 299
478 299
488 299
480 285
470 283
463 275
454 270
446 264
437 259
429 252
422 244
417 235
414 225
406 218
401 209
394 201
389 192
385 182
377 175
374 165
369 156
364 147
364 137
364 127
364 117
364 107
364 97
372 89
381 84
391 84
401 84
410 89
419 94
429 96
438 101
448 105
455 113
465 117
473 124
482 129
489 137
497 144
504 152
512 159
521 164
529 171
535 179
540 188
545 197
552 205
560 212
560 222
565 231
565 241
565 251
565 261
574 256
575 246
580 236
588 229
592 219
597 209
599 197
607 189
615 181
620 171
628 164
637 159
645 151
655 146
665 141
675 139
684 134
693 129
703 129
713 129
723 129
733 129
743 129
756 129
750 137
740 140
730 140
721 145
711 145
702 150
692 154
682 159
674 165
668 173
658 178
650 185
645 195
638 203
633 213
625 220
620 235
620 245
615 260
615 270
615 280
620 289
630 289
640 292
650 294
660 294
670 294
680 297
690 299
700 299
710 302
720 304
730 307
740 309
750 312
760 314
769 319
779 321
789 324
798 329
807 334
817 334
826 339
835 344
844 349
853 354
862 359
871 364
880 369
889 374
897 380
907 384
914 392
922 399
931 404
939 411
948 416
955 424
963 430
970 438
978 445
985 453
993 460
1000 468
1008 475
1012 485
1020 492
1025 501
1031 509
1039 516
1043 526
1048 535
1055 543
1060 552
1064 562
1069 571
1073 581
1078 590
1080 600
1085 609
1085 619
1090 628
1095 637
1095 647
1100 656
1100 666
1103 676
1105 686
1105 696
1108 706
1110 716
1110 726
1110 736
1110 746
1110 756
1110 766
1110 776
1110 786
1105 800
1105 810
1105 820
1100 830
1100 840
1095 855
1090 870
1085 885
1080 900
1078 913
1073 923
1068 933
1063 943
1058 953
1053 963
1045 970
1040 980
1033 993
1025 1000
1018 1013
1010 1020
1003 1033
995 1040
988 1048
980 1055
973 1063
965 1070
958 1078
950 1085
940 1090
932 1099
924 1105
915 1110
907 1119
897 1124
888 1130
879 1135
870 1140
860 1145
851 1150
842 1155
833 1160
824 1165
815 1170
805 1170
795 1175
785 1180
776 1185
766 1185
757 1190
747 1194
737 1195
727 1199
717 1200
707 1204
697 1205
687 1205
677 1209
667 1210
657 1210
647 1210
637 1214
627 1215
617 1215
607 1215
597 1215
587 1215
577 1215
567 1215
557 1215
547 1215
537 1215
528 1210
518 1210
508 1210
498 1210
489 1205
479 1205
469 1205
460 1200
450 1200
441 1195
431 1195
422 1190
412 1190
403 1185
394 1180
384 1180
375 1175
366 1170
356 1168
346 1164
337 1159
327 1155
318 1150
309 1145
301 1138
291 1134
282 1129
274 1122
265 1117
257 1110
248 1105
240 1098
234 1090
224 1087
217 1079
209 1072
202 1064
194 1057
187 1049
179 1042
172 1034
164 1027
160 1017
152 1010
149 1000
141 994
134 986
129 977
125 967
119 959
114 950
109 941
104 932
100 922
95 913
94 903
89 894
86 884
84 874
79 865
77 855
74 845
74 835
69 826
69 816
69 806
64 797
64 787
64 777
64 767
64 757
64 747
64 737
64 727
