92 138
92 128
97 119
105 113
114 108
124 104
133 99
143 96
153 92
163 90
173 87
179 79
188 74
196 68
202 56
212 54
221 59
227 67
235 74
244 79
249 88
259 92
269 94
279 98
289 102
299 106
308 111
316 117
322 125
323 135
319 146
315 156
315 166
322 174
332 174
342 174
352 176
362 180
370 186
379 191
387 197
395 204
403 210
411 216
416 225
425 230
435 230
445 230
455 229
464 224
474 222
484 218
494 216
504 214
514 213
524 212
534 210
540 202
550 196
560 192
568 186
578 186
586 192
594 198
604 201
611 209
621 212
631 212
641 214
651 216
661 218
671 222
681 226
691 230
698 238
701 256
695 264
693 278
693 288
691 304
693 314
694 324
699 333
695 348
694 363
684 360
682 350
684 334
676 327
666 327
656 331
646 335
639 327
629 325
619 328
610 333
601 338
591 342
581 345
571 345
561 343
551 339
541 335
533 329
523 325
513 325
505 332
495 333
485 329
475 327
465 328
463 346
461 361
451 362
449 352
448 342
446 332
441 323
431 323
421 323
411 323
401 323
391 323
381 323
371 323
361 323
351 323
341 323
331 323
321 324
321 334
319 348
314 362
308 354
308 344
306 332
301 323
291 323
281 323
271 323
261 323
251 323
241 323
231 323
221 323
211 323
201 323
191 323
181 323
171 323
161 323
151 323
141 323
131 323
121 321
111 322
111 332
109 348
106 363
98 356
96 332
94 322
94 312
92 302
92 292
92 282
92 272
94 260
94 250
94 240
96 222
98 208
98 198
98 188
98 178
98 168
98 158
96 148
