102 298
104 308
104 318
106 328
106 338
106 348
108 358
118 361
119 342
120 323
130 321
140 321
150 321
160 321
170 321
180 321
190 321
200 321
210 321
220 321
230 321
240 321
250 321
260 321
270 321
280 321
290 321
300 321
310 321
320 321
330 321
340 321
350 321
354 331
358 341
356 352
361 361
371 360
369 346
371 331
370 321
380 321
390 321
392 331
392 341
402 363
409 346
411 336
416 327
426 327
436 329
446 333
456 331
464 325
474 323
484 326
493 331
503 335
513 339
523 343
533 345
543 345
553 343
563 341
573 336
583 332
592 327
602 325
612 325
621 330
630 335
639 330
649 327
659 327
669 327
674 344
674 354
680 362
684 349
688 333
683 324
681 314
681 304
681 294
683 276
683 266
691 258
692 244
685 236
677 230
667 226
657 222
647 220
637 218
627 216
617 215
607 212
597 212
587 210
577 207
568 202
560 196
551 191
542 186
532 188
524 194
514 198
504 202
496 208
486 210
476 212
466 212
456 214
446 216
436 218
426 214
418 207
410 201
402 194
394 188
385 183
376 178
366 178
363 168
363 158
367 148
373 140
373 130
368 121
360 115
351 110
341 106
331 102
321 100
311 96
301 94
291 92
282 87
276 79
266 75
257 70
250 62
244 54
234 54
226 62
218 72
208 76
200 82
194 90
184 92
174 94
164 96
154 100
144 104
134 106
124 110
115 116
107 123
102 132
104 142
108 152
108 162
110 172
110 182
110 192
110 202
108 218
106 234
104 250
104 260
104 270
104 280
