132 138
132 128
138 120
147 115
156 110
166 106
176 104
186 100
196 98
206 96
216 94
226 92
236 90
242 82
252 78
262 74
271 69
279 61
287 54
297 56
303 64
309 72
319 76
329 80
337 86
346 91
356 92
366 95
376 97
386 100
396 102
406 104
416 108
426 112
434 118
442 124
445 134
443 144
435 152
435 162
434 179
441 187
449 194
457 200
466 194
475 189
485 186
495 190
505 194
514 199
524 202
532 208
542 210
552 212
562 212
572 214
582 216
592 216
602 218
612 219
622 222
632 224
642 228
651 233
659 239
665 247
663 258
655 266
655 276
653 290
653 300
653 310
655 320
658 330
656 349
656 361
646 360
644 350
646 338
642 328
632 327
622 327
612 327
602 331
592 333
582 331
574 325
564 323
554 325
544 329
534 333
524 337
514 341
504 343
494 345
484 345
474 345
464 343
454 339
444 337
441 347
437 361
432 352
432 342
429 332
420 327
410 324
400 325
390 329
381 335
371 331
361 329
351 327
341 327
331 328
329 344
329 354
321 363
316 354
314 340
314 330
309 321
299 321
289 321
279 321
269 321
259 321
249 321
239 321
229 321
219 321
209 321
199 321
189 321
179 321
169 321
159 321
149 322
149 332
147 346
145 361
136 356
134 346
134 336
134 326
132 316
132 306
132 296
132 286
132 276
132 266
134 252
134 242
136 230
138 214
140 198
140 188
140 178
138 168
138 158
136 148
