112 250
112 240
118 232
126 226
134 218
144 216
152 206
158 198
162 188
172 191
177 200
182 209
191 214
201 218
209 224
217 230
225 236
235 236
245 236
255 236
265 234
275 234
285 234
295 234
305 234
315 234
325 234
335 234
345 234
355 234
365 234
375 234
385 234
395 234
405 234
415 234
425 232
434 224
442 214
448 206
456 198
464 192
473 187
483 184
493 180
503 178
513 178
523 180
533 182
542 176
550 170
560 166
570 164
580 166
584 156
583 146
580 136
580 126
584 116
592 108
598 100
606 94
608 84
614 76
619 67
620 56
629 61
635 69
639 79
643 89
652 94
661 99
669 106
675 114
680 123
681 133
681 143
681 153
679 166
679 176
679 186
679 196
679 206
680 216
681 226
681 236
681 246
682 256
683 266
683 276
683 286
683 296
681 314
679 326
677 336
677 346
676 359
666 341
666 331
663 321
653 321
643 321
633 321
623 321
613 321
603 321
593 324
590 337
590 359
580 358
583 348
580 338
581 321
571 321
561 321
551 321
541 321
531 321
521 321
511 321
501 321
491 321
481 321
471 321
461 321
451 321
441 321
431 321
421 321
411 321
401 321
391 321
381 321
371 321
361 321
351 321
341 321
331 321
321 321
311 321
301 321
291 321
281 321
271 321
261 321
251 321
241 321
231 321
221 322
219 336
219 352
210 347
206 337
204 327
194 332
189 323
181 330
173 340
164 345
156 339
150 331
141 326
134 334
126 327
123 338
123 348
122 359
113 346
112 336
116 326
116 316
116 300
116 290
116 280
116 270
113 260
