100 256
100 246
106 238
116 234
124 228
134 226
144 224
154 222
164 218
174 216
184 216
194 216
204 214
214 210
222 204
232 200
240 194
250 190
260 192
269 197
278 202
288 204
295 212
305 214
315 216
325 216
335 218
345 218
355 222
365 223
373 216
380 206
390 202
396 194
405 189
414 184
424 182
434 180
436 170
435 160
434 150
427 142
424 132
429 123
437 117
446 110
456 108
466 104
476 100
486 98
496 96
506 94
516 90
522 82
530 76
540 74
546 64
551 55
561 54
568 62
573 71
582 76
592 79
599 87
609 90
619 94
629 96
639 98
649 102
659 106
669 110
679 114
687 120
694 128
695 138
691 148
691 158
687 176
687 186
687 196
687 206
691 216
691 226
693 236
693 246
694 256
695 266
695 276
695 286
695 296
695 306
693 324
693 334
693 344
684 361
684 351
682 341
678 321
668 321
658 321
648 321
638 321
628 321
618 321
608 321
598 321
588 321
578 321
568 321
558 321
548 321
538 321
528 321
518 321
508 321
498 321
488 321
478 321
468 321
458 321
448 321
440 327
436 337
429 350
426 340
428 329
421 321
411 321
401 322
401 332
399 346
390 358
387 348
386 338
384 328
374 327
364 327
354 331
344 333
335 328
326 323
316 325
306 329
296 331
286 335
278 341
268 343
258 345
248 345
238 343
228 340
219 335
209 331
199 328
190 323
180 323
172 329
162 333
152 330
142 328
132 327
122 327
114 335
113 352
104 360
105 346
104 336
108 326
110 314
110 304
110 294
110 284
108 274
107 264
