24 152
24 142
32 134
39 122
44 112
49 102
57 94
64 77
69 62
74 52
82 44
92 39
102 39
112 39
122 39
132 39
141 44
150 49
160 52
164 62
174 66
175 76
178 86
180 96
180 106
180 116
183 126
185 136
185 146
185 156
185 166
180 175
180 185
180 195
173 203
168 213
163 223
155 230
150 240
150 250
143 258
135 265
133 283
128 293
123 303
115 310
115 320
115 330
110 340
110 350
120 354
130 354
136 345
139 327
144 312
149 297
154 282
162 274
167 264
177 264
182 254
190 246
200 241
210 239
219 234
229 234
239 234
249 234
259 234
269 234
279 234
289 234
299 234
309 234
319 234
329 234
339 234
349 236
358 241
368 244
377 249
387 249
396 254
404 261
414 264
424 266
430 274
440 277
447 285
455 292
462 300
472 304
481 309
489 316
495 324
504 329
512 335
522 339
529 347
537 354
547 354
554 362
564 366
573 371
580 379
590 382
599 387
607 394
616 399
625 404
635 404
644 409
654 409
662 415
665 425
670 434
662 445
653 440
644 445
634 445
625 450
625 460
630 469
635 478
637 494
628 500
620 493
614 485
604 485
596 478
586 474
577 469
572 460
562 460
552 460
547 469
537 474
529 467
520 462
510 458
501 453
495 445
485 445
475 445
465 445
455 445
445 445
435 445
425 450
415 450
405 450
395 455
385 460
375 460
366 465
357 470
348 475
338 475
329 480
320 485
310 485
310 495
310 505
310 515
310 525
310 535
310 545
310 555
310 565
310 575
310 585
310 595
310 605
310 615
315 624
315 634
323 640
319 657
309 660
300 655
294 647
299 631
299 621
299 611
299 601
299 591
294 582
294 572
294 562
294 552
294 542
290 532
285 523
284 513
284 503
280 493
273 485
265 478
264 468
257 460
248 455
239 450
230 445
222 439
212 435
203 430
193 430
184 435
175 440
165 440
155 440
146 445
136 445
127 440
117 440
108 435
100 428
94 420
89 411
84 402
75 397
69 389
64 380
59 371
54 362
54 352
54 342
54 332
59 317
64 307
69 297
74 287
82 279
89 267
94 257
99 247
107 239
112 229
120 221
125 211
130 201
134 187
139 172
144 158
144 148
144 138
144 128
144 118
138 110
128 113
118 118
110 125
100 130
90 130
80 140
75 150
70 165
65 175
65 185
65 195
65 205
65 215
59 227
49 225
41 219
39 209
34 200
34 190
29 181
24 172
24 162
