90 110
86 122
94 129
104 129
114 131
124 130
134 129
144 125
152 119
162 116
162 126
163 136
164 146
164 156
164 166
164 176
164 186
164 196
165 206
166 216
168 226
168 236
170 246
172 256
172 266
177 275
187 275
197 275
207 275
217 273
227 273
222 264
209 262
199 260
197 250
197 240
195 230
193 220
193 210
191 200
191 190
191 180
193 170
197 152
201 134
203 124
205 114
207 102
211 90
216 81
224 87
226 97
228 107
236 113
246 115
256 111
261 102
264 88
263 78
263 68
273 69
282 74
291 79
298 87
306 94
314 84
308 76
303 67
298 58
295 48
287 42
277 38
267 38
257 41
249 49
241 58
239 48
234 39
226 32
218 26
208 22
198 20
188 20
178 20
168 24
158 28
150 34
142 40
134 48
128 56
120 64
114 72
106 80
100 90
94 100
