74 110
70 122
78 129
88 129
98 128
108 130
118 129
128 125
138 123
146 115
156 113
162 121
162 131
162 141
162 151
162 161
162 171
162 181
162 191
162 201
164 211
166 221
168 231
168 241
170 251
172 261
172 271
182 275
192 275
202 275
212 273
223 273
218 264
208 262
198 262
192 254
191 244
189 234
187 224
185 214
185 204
183 194
185 184
185 174
189 158
193 142
195 132
199 120
199 110
201 96
206 87
214 79
224 78
228 88
230 98
234 108
242 114
252 115
262 111
269 102
271 83
270 73
275 64
283 70
293 73
302 78
310 84
318 91
328 95
327 82
320 74
314 66
309 57
306 47
298 41
288 38
278 38
268 40
259 45
253 53
247 61
243 51
238 42
232 34
224 28
214 24
204 22
194 20
184 20
174 20
164 24
154 28
144 32
136 38
128 44
120 52
112 60
104 68
96 76
90 84
84 92
79 101
