29 227
24 237
30 245
38 238
45 230
55 220
63 213
70 205
78 198
88 193
98 188
105 180
115 175
125 170
135 165
145 165
154 160
164 160
174 160
183 165
193 165
200 173
204 183
204 193
204 203
199 212
199 222
204 231
204 241
209 250
209 260
212 270
217 279
219 289
224 298
229 307
234 316
239 325
244 334
250 342
257 350
265 357
272 365
280 372
287 380
295 387
304 392
312 399
319 407
329 410
338 415
347 420
357 424
364 432
369 441
374 450
380 458
388 465
389 475
394 484
394 494
389 507
389 517
384 527
379 542
374 557
369 572
369 582
364 592
357 609
347 614
337 619
337 634
347 635
357 634
365 625
373 618
380 610
385 600
385 590
385 580
385 570
390 555
395 545
395 535
400 525
405 510
410 500
410 490
408 480
400 473
400 463
395 454
390 445
390 435
399 430
408 435
418 435
427 440
437 440
447 440
457 440
467 440
475 447
482 455
484 465
484 475
484 485
484 495
489 504
494 513
494 523
494 533
495 543
499 553
499 563
499 573
494 582
490 596
482 604
477 614
469 622
469 632
479 635
489 635
497 629
502 619
505 600
510 590
510 580
515 562
514 552
510 542
509 532
505 522
505 512
505 502
500 493
500 483
500 473
500 463
500 453
495 444
490 435
499 430
509 427
514 417
522 410
532 409
542 405
551 400
560 395
570 395
579 390
588 385
598 385
607 380
617 380
626 375
635 370
645 370
654 365
664 365
672 359
682 355
692 355
701 350
705 340
705 330
700 317
690 314
680 314
670 314
660 314
650 314
640 314
630 314
621 309
611 309
602 304
592 304
583 299
574 294
565 289
555 289
548 281
539 276
529 274
520 269
510 267
502 260
493 255
483 254
474 249
465 244
455 244
446 239
436 239
426 239
417 234
407 234
397 234
387 234
377 234
367 234
357 234
347 234
337 234
328 229
318 225
308 224
298 221
289 216
281 209
275 201
275 191
270 182
270 172
269 162
265 152
265 142
260 133
260 123
255 114
249 106
241 99
232 94
222 94
212 94
202 94
192 94
182 99
174 107
169 122
162 134
152 139
142 144
132 149
122 154
112 159
102 164
93 169
85 176
77 184
68 189
60 196
53 204
45 211
37 219
