66 128
66 118
70 108
75 99
80 90
86 82
94 74
102 66
110 58
118 50
126 42
134 36
143 31
152 26
162 22
172 20
182 20
192 20
202 22
212 24
222 28
230 34
237 42
242 51
245 61
253 53
259 45
268 40
278 38
288 38
298 41
306 47
311 56
315 66
322 74
328 82
330 95
320 91
312 84
304 78
294 75
285 70
276 65
270 73
271 83
271 96
267 106
259 113
249 115
239 113
231 106
228 96
226 86
221 77
211 80
203 88
197 96
195 110
195 120
191 134
187 150
183 166
181 176
181 186
181 196
181 206
183 216
184 226
185 236
187 246
189 256
197 262
207 262
218 264
213 273
203 275
193 275
183 275
173 274
170 264
170 254
168 244
166 234
164 224
164 214
162 204
160 194
160 184
162 171
162 161
160 151
160 141
160 131
160 121
154 113
144 115
136 121
126 123
116 127
106 131
96 129
86 127
76 131
