409 522
409 512
417 504
426 499
436 495
446 490
456 485
464 477
472 469
481 464
490 459
499 452
507 444
517 439
526 434
534 427
539 409
534 400
526 393
521 384
519 374
516 364
514 354
509 345
504 336
499 327
499 317
499 307
507 299
516 294
526 294
536 294
546 294
556 294
566 294
576 294
586 294
596 294
606 294
616 294
626 294
636 294
646 294
656 294
665 289
675 289
685 289
695 289
705 289
715 289
724 294
734 296
743 301
753 305
762 310
770 317
779 322
789 326
798 331
808 335
817 340
827 344
837 344
847 344
857 344
867 344
877 344
886 339
896 339
906 339
916 339
926 335
936 334
946 334
956 334
966 330
976 329
986 329
996 329
1005 324
1015 324
1025 324
1035 324
1045 324
1054 319
1064 319
1073 314
1083 314
1093 314
1103 314
1112 309
1122 309
1132 309
1142 309
1151 314
1159 321
1165 329
1175 332
1184 337
1194 341
1203 346
1213 350
1222 355
1230 362
1240 364
1250 367
1259 372
1269 376
1279 379
1289 379
1298 374
1307 369
1317 369
1326 364
1336 360
1346 359
1356 355
1366 350
1376 349
1386 349
1395 344
1405 341
1415 339
1424 334
1434 334
1444 336
1448 346
1455 354
1460 363
1465 372
1472 380
1477 389
1480 399
1485 408
1480 425
1475 435
1468 448
1460 455
1453 463
1448 473
1440 480
1433 488
1425 495
1418 503
1410 510
1403 518
1395 525
1388 533
1380 540
1373 548
1365 555
1367 565
1375 572
1379 582
1384 591
1385 601
1390 610
1395 619
1400 628
1405 637
1410 646
1414 657
1409 667
1399 670
1390 675
1380 675
1370 675
1360 675
1350 680
1340 680
1330 680
1320 680
1310 680
1300 680
1290 680
1280 680
1270 680
1260 680
1250 680
1240 680
1231 685
1221 685
1211 684
1202 679
1192 675
1185 667
1175 663
1168 655
1160 648
1154 640
1144 636
1136 630
1126 630
1117 625
1107 625
1098 620
1088 620
1078 620
1068 620
1058 620
1048 620
1038 620
1028 620
1018 620
1008 620
998 620
988 620
978 620
968 620
958 620
948 620
938 620
928 620
918 623
908 625
898 628
888 630
879 635
869 635
859 635
849 635
839 635
829 635
819 635
809 635
799 635
789 635
779 635
769 635
759 635
749 635
739 635
730 630
721 625
711 623
701 620
692 615
683 610
674 605
664 601
656 595
647 590
638 585
628 585
618 585
609 580
599 580
590 575
580 575
570 575
560 575
550 575
540 575
530 575
520 575
510 575
500 575
490 575
480 575
471 580
461 580
451 580
441 580
431 580
421 579
414 571
409 562
409 552
409 542
409 532
