164 147
164 137
169 127
174 117
182 109
191 104
199 97
207 89
209 72
209 62
209 52
214 42
219 32
229 29
239 29
249 29
259 27
269 24
279 24
289 24
299 26
305 34
315 37
324 42
334 44
344 46
354 49
364 51
374 54
384 54
394 54
404 54
414 54
424 54
434 54
444 54
454 54
464 54
474 54
484 54
494 54
503 49
513 49
523 49
532 44
542 44
552 44
562 44
571 49
579 56
585 64
595 64
605 64
615 64
625 64
635 64
645 64
655 64
665 64
675 64
683 70
690 78
695 87
695 97
699 107
698 123
693 133
683 138
675 145
665 150
660 160
655 170
660 179
660 189
660 199
660 209
655 220
647 230
637 230
627 234
617 235
607 235
597 235
587 235
577 235
567 235
558 230
550 223
544 215
536 209
527 204
517 200
508 195
499 190
489 190
479 190
469 190
459 190
449 190
439 190
429 190
419 190
410 195
400 195
390 195
380 200
370 200
360 200
350 200
340 200
330 200
320 200
310 197
300 193
294 185
286 179
281 170
272 165
262 165
252 165
242 165
232 165
222 165
212 165
202 165
192 165
182 165
172 164
164 157
