24 237
24 227
29 217
37 209
42 199
47 189
55 181
63 174
73 174
82 169
92 169
100 161
105 151
109 132
114 117
119 107
124 97
132 89
139 77
149 72
159 69
167 75
170 85
170 95
175 104
175 114
175 124
173 143
168 153
160 160
160 170
170 174
179 169
189 169
199 169
209 169
218 164
228 164
238 164
247 159
257 159
259 142
259 132
264 122
264 112
264 102
264 92
274 89
284 89
294 89
303 94
313 94
323 95
325 105
325 115
325 125
325 135
325 145
327 155
337 159
346 164
354 171
363 176
373 180
380 188
390 192
397 200
405 207
409 217
417 224
424 232
430 240
432 250
437 259
440 269
440 279
435 290
435 300
435 310
440 319
450 322
457 330
460 340
460 350
452 359
443 365
433 368
423 370
413 370
403 373
395 380
389 395
380 400
370 400
360 400
350 400
340 400
330 400
320 405
325 414
325 424
325 434
315 445
305 445
295 445
285 445
275 445
265 443
264 433
260 423
259 413
252 405
242 405
232 405
222 409
212 410
202 410
192 410
182 410
172 410
162 410
152 410
142 409
134 402
134 392
142 384
151 379
159 372
164 362
164 352
159 343
153 335
145 328
138 320
129 315
119 311
114 302
105 297
95 293
86 288
76 285
66 283
56 280
46 278
36 274
29 266
24 257
24 247
