189 642
189 632
197 624
202 614
204 602
209 592
209 582
209 572
209 562
214 552
219 542
227 534
237 529
245 521
253 514
262 509
270 501
280 496
288 489
295 481
303 474
310 466
318 459
324 446
324 436
319 427
319 417
327 409
332 399
337 389
345 381
349 362
349 352
357 344
365 336
373 329
380 321
390 319
399 314
409 312
419 309
429 309
439 309
449 309
459 309
469 307
479 304
489 304
499 306
508 311
515 319
524 324
534 324
544 322
554 321
563 326
570 334
575 343
580 352
590 354
598 360
600 370
602 380
610 387
610 397
610 407
617 415
625 422
625 432
625 442
625 452
620 465
620 475
615 490
615 500
610 510
605 520
605 530
605 540
600 555
595 565
588 573
580 580
573 588
565 595
560 610
552 624
544 630
535 635
537 645
535 655
535 665
535 675
540 684
548 690
555 698
565 696
573 689
582 684
589 672
594 662
599 652
604 642
612 634
622 629
624 617
629 607
637 599
647 599
654 587
654 577
662 569
670 561
678 554
687 549
694 537
702 529
712 524
722 519
727 509
735 501
738 485
730 478
724 470
714 467
707 459
699 452
694 443
691 433
681 430
672 425
669 415
664 406
664 396
664 386
659 377
664 362
664 352
664 342
664 332
664 322
669 312
674 297
679 287
687 279
694 267
699 257
707 249
715 241
725 239
734 232
742 224
752 219
762 214
772 209
782 209
791 204
800 199
810 199
820 196
830 197
839 202
849 204
859 204
869 204
879 204
889 204
899 206
909 209
918 214
927 219
936 224
946 224
956 220
964 214
973 209
982 204
992 204
1002 199
1012 199
1022 199
1032 199
1042 199
1052 199
1061 204
1071 204
1081 204
1091 204
1101 204
1110 209
1120 212
1130 214
1139 219
1148 224
1158 225
1167 230
1177 234
1186 239
1194 246
1200 254
1208 260
1212 270
1215 280
1220 289
1225 298
1230 307
1230 317
1235 326
1238 336
1245 344
1245 354
1250 363
1250 373
1245 385
1238 393
1230 400
1225 410
1217 424
1212 434
1203 440
1193 443
1185 450
1180 460
1180 470
1185 479
1194 484
1204 486
1213 491
1223 495
1233 499
1242 504
1249 512
1257 519
1266 524
1275 529
1285 532
1292 540
1300 547
1307 555
1315 562
1322 570
1332 574
1341 579
1349 586
1355 594
1363 600
1367 610
1372 619
1379 627
1380 637
1380 647
1385 656
1388 666
1390 676
1390 686
1395 695
1395 705
1395 715
1395 725
1395 735
1390 745
1392 755
1395 765
1390 775
1390 785
1390 795
1390 805
1392 815
1395 825
1397 835
1400 845
1405 854
1413 860
1420 868
1430 869
1439 862
1444 852
1452 844
1460 836
1468 829
1477 824
1487 819
1497 819
1507 819
1516 824
1526 824
1536 824
1545 829
1554 834
1562 840
1570 847
1574 857
1582 864
1585 874
1585 884
1590 893
1590 903
1585 915
1578 923
1570 930
1570 940
1562 949
1554 955
1545 960
1536 965
1527 970
1518 975
1508 975
1498 975
1489 970
1479 970
1470 965
1462 959
1452 955
1443 950
1433 950
1424 945
1414 942
1405 937
1397 930
1390 922
1382 915
1379 905
1371 898
1366 889
1362 879
1357 870
1350 862
1340 860
1335 870
1330 880
1325 895
1320 910
1320 920
1320 930
1320 940
1322 950
1327 959
1334 967
1342 974
1351 979
1359 986
1365 994
1373 1000
1380 1008
1388 1015
1392 1025
1400 1032
1407 1040
1415 1047
1419 1057
1425 1065
1430 1074
1430 1084
1435 1093
1435 1103
1430 1115
1430 1125
1430 1135
1425 1145
1418 1153
1410 1160
1410 1170
1412 1180
1415 1190
1410 1200
1410 1210
1415 1219
1415 1229
1420 1238
1420 1248
1420 1258
1420 1268
1425 1277
1425 1287
1425 1297
1425 1307
1425 1317
1425 1327
1425 1337
1425 1347
1425 1357
1430 1366
1430 1376
1433 1386
1438 1395
1440 1405
1445 1414
1450 1423
1458 1430
1460 1440
1465 1449
1465 1459
1473 1465
1475 1475
1477 1485
1480 1495
1480 1505
1480 1515
1478 1533
1470 1540
1460 1540
1450 1540
1440 1545
1431 1550
1422 1555
1413 1560
1404 1565
1394 1565
1385 1570
1375 1570
1366 1575
1357 1580
1347 1584
1337 1585
1327 1585
1317 1585
1307 1585
1298 1580
1288 1580
1279 1575
1271 1569
1264 1561
1259 1552
1259 1542
1264 1532
1269 1522
1274 1512
1282 1504
1287 1494
1295 1486
1305 1481
1313 1474
1320 1466
1328 1459
1334 1447
1339 1437
1344 1422
1349 1405
1349 1395
1349 1385
1344 1376
1344 1366
1344 1356
1344 1346
1339 1337
1339 1327
1334 1318
1334 1308
1330 1298
1329 1288
1324 1279
1324 1269
1321 1259
1319 1249
1316 1239
1312 1229
1307 1220
1300 1212
1292 1205
1283 1200
1274 1195
1266 1188
1261 1179
1259 1169
1254 1160
1254 1150
1252 1140
1245 1132
1235 1128
1229 1120
1219 1116
1211 1110
1202 1105
1195 1097
1187 1090
1180 1082
1172 1075
1168 1065
1160 1058
1154 1050
1152 1040
1148 1030
1138 1028
1130 1035
1123 1043
1115 1050
1110 1060
1110 1070
1110 1080
1110 1090
1110 1100
1110 1110
1110 1120
1110 1130
1110 1140
1112 1150
1115 1160
1115 1170
1120 1179
1120 1189
1120 1199
1113 1208
1105 1215
1100 1225
1095 1235
1088 1243
1080 1250
1073 1258
1065 1265
1058 1278
1050 1285
1045 1300
1040 1310
1035 1325
1030 1335
1025 1345
1018 1358
1013 1368
1008 1378
1003 1388
998 1398
990 1405
985 1415
980 1425
975 1435
970 1445
970 1455
963 1468
955 1475
945 1475
935 1473
929 1465
924 1456
919 1447
924 1437
929 1422
934 1407
939 1392
944 1382
944 1372
949 1357
954 1342
959 1327
964 1312
969 1302
974 1287
979 1273
976 1263
966 1259
959 1251
954 1242
954 1232
959 1222
959 1212
964 1200
962 1190
955 1182
949 1174
944 1165
936 1159
932 1149
924 1142
919 1133
914 1124
912 1114
907 1105
904 1095
902 1085
899 1075
897 1065
894 1055
894 1045
885 1040
875 1040
865 1040
855 1040
845 1040
835 1040
825 1045
825 1055
825 1065
830 1074
830 1084
830 1094
830 1104
830 1120
830 1130
825 1145
825 1155
825 1165
830 1174
830 1184
830 1194
825 1205
825 1215
827 1225
830 1235
832 1245
835 1255
837 1265
840 1275
842 1285
845 1295
847 1305
850 1315
855 1324
855 1334
855 1344
860 1353
860 1363
860 1373
865 1382
865 1392
870 1401
870 1411
875 1420
877 1430
880 1440
885 1449
885 1459
890 1468
890 1478
890 1488
895 1497
895 1507
899 1517
900 1527
905 1536
910 1545
915 1554
915 1564
920 1573
920 1583
925 1592
929 1602
930 1612
929 1627
921 1635
912 1640
903 1645
893 1648
883 1650
873 1650
863 1650
854 1655
844 1655
834 1655
824 1655
814 1655
804 1655
794 1655
784 1655
774 1652
765 1647
757 1640
748 1635
740 1628
733 1620
724 1615
719 1606
714 1597
719 1587
719 1577
719 1567
719 1557
724 1547
732 1539
742 1539
752 1539
762 1539
770 1531
778 1524
785 1516
793 1509
800 1501
804 1487
809 1472
814 1455
809 1446
809 1436
804 1427
804 1417
804 1407
799 1398
799 1388
794 1379
794 1369
794 1359
789 1350
789 1340
789 1330
784 1321
784 1311
779 1302
779 1292
779 1282
774 1273
769 1264
769 1254
769 1244
769 1234
769 1224
764 1215
755 1210
747 1204
737 1200
730 1192
724 1184
719 1175
709 1171
704 1162
699 1153
694 1144
691 1134
687 1124
682 1115
678 1105
669 1100
660 1105
650 1110
643 1118
635 1125
630 1135
625 1150
623 1168
615 1175
608 1183
600 1190
600 1200
592 1209
584 1215
575 1220
568 1228
560 1235
553 1248
545 1255
540 1265
540 1275
535 1285
530 1300
525 1315
525 1325
520 1335
515 1345
510 1355
505 1370
500 1380
500 1390
495 1400
490 1415
485 1425
480 1435
475 1450
470 1460
463 1473
455 1480
455 1490
455 1500
455 1510
460 1519
453 1533
445 1540
445 1550
443 1563
435 1570
430 1580
425 1595
418 1610
408 1613
398 1615
388 1615
378 1615
368 1615
358 1618
348 1620
338 1620
328 1620
318 1620
308 1620
298 1620
288 1620
279 1625
269 1625
261 1619
254 1611
249 1602
254 1592
254 1582
254 1572
254 1562
262 1554
272 1554
280 1546
288 1539
297 1534
307 1529
316 1524
326 1524
335 1519
344 1514
353 1509
362 1504
372 1499
380 1491
388 1484
392 1474
399 1462
407 1454
412 1444
414 1427
422 1419
424 1407
424 1397
429 1382
434 1372
439 1362
439 1352
444 1342
449 1332
454 1322
454 1312
454 1302
459 1292
459 1282
459 1272
459 1262
464 1252
464 1242
464 1232
469 1222
474 1204
469 1195
468 1185
460 1178
454 1170
449 1161
444 1152
452 1144
459 1127
467 1119
469 1107
477 1099
479 1084
474 1075
474 1065
469 1056
469 1046
464 1037
464 1027
460 1017
450 1015
440 1012
434 1004
429 995
421 989
412 984
404 977
399 968
394 959
389 950
384 941
379 932
374 923
367 915
364 905
359 896
354 887
354 877
354 867
359 856
359 846
354 837
354 827
354 817
359 806
354 797
354 787
354 777
362 769
364 757
364 747
364 737
369 727
377 719
379 705
374 696
374 686
369 677
369 667
369 657
365 647
355 645
348 653
338 658
330 665
320 665
313 673
305 680
296 685
287 690
277 690
268 685
260 678
254 670
244 670
234 670
224 670
214 670
204 667
197 659
189 652
