304 1052
304 1042
309 1027
309 1017
309 1007
314 997
319 987
327 979
335 971
343 964
352 959
360 951
365 941
373 934
377 924
382 914
390 906
395 896
403 889
412 884
420 876
428 869
437 864
446 859
455 854
464 849
473 844
482 839
489 827
494 816
494 806
489 797
489 787
489 777
489 767
489 757
489 747
494 737
494 727
494 717
499 702
499 692
504 682
509 672
517 664
525 656
533 649
540 641
548 634
557 629
567 629
576 624
586 624
596 624
605 629
615 632
622 640
630 647
637 655
640 665
645 674
650 683
650 693
650 703
650 713
650 723
655 732
662 740
672 744
680 736
688 729
689 717
694 702
699 692
704 677
709 667
714 652
719 642
719 632
724 622
729 612
734 597
739 587
747 579
754 567
762 559
770 551
780 549
789 544
799 544
808 539
818 539
828 539
838 539
848 540
855 548
863 555
872 560
880 567
887 575
890 585
895 594
895 604
900 613
905 622
905 632
905 642
905 652
905 662
905 672
905 690
905 700
907 710
910 720
910 730
910 740
915 749
915 759
915 769
920 778
928 785
938 789
948 789
958 789
967 784
977 779
985 771
993 764
1002 759
1010 751
1018 744
1025 736
1033 729
1037 719
1039 707
1044 697
1044 687
1049 672
1054 662
1059 653
1055 643
1049 635
1041 629
1034 621
1029 612
1029 602
1034 592
1042 584
1050 576
1060 574
1070 574
1079 567
1084 557
1089 542
1089 532
1089 522
1089 512
1089 502
1094 485
1089 476
1084 467
1079 458
1075 448
1069 440
1059 437
1052 429
1049 412
1054 401
1049 392
1049 382
1049 372
1049 362
1049 352
1057 344
1062 334
1067 324
1072 314
1080 306
1088 299
1089 287
1094 272
1094 262
1094 252
1099 242
1099 232
1104 217
1109 202
1114 192
1119 182
1127 174
1132 164
1139 152
1147 144
1155 136
1163 129
1170 121
1180 119
1190 119
1200 122
1209 127
1219 129
1228 124
1238 125
1247 130
1255 137
1259 147
1265 155
1265 170
1265 180
1270 189
1270 199
1270 209
1265 220
1260 230
1260 240
1255 255
1250 265
1250 275
1255 284
1264 289
1273 294
1283 295
1290 303
1298 310
1305 318
1315 319
1325 319
1335 319
1344 324
1354 324
1364 324
1374 322
1384 319
1393 314
1403 314
1413 314
1422 309
1431 314
1441 314
1450 319
1460 322
1469 327
1475 335
1480 344
1490 344
1500 344
1508 350
1512 360
1520 367
1515 385
1515 395
1517 405
1520 415
1520 425
1515 440
1508 453
1500 460
1500 470
1495 480
1488 493
1480 500
1473 513
1465 520
1456 525
1447 520
1437 520
1427 520
1418 525
1409 520
1399 520
1389 520
1379 520
1369 520
1360 515
1351 510
1342 505
1333 500
1323 503
1315 510
1308 518
1300 525
1300 535
1302 545
1305 555
1307 565
1315 572
1319 582
1320 592
1320 602
1325 611
1320 620
1320 630
1320 640
1320 650
1325 659
1325 669
1320 680
1320 690
1315 700
1310 710
1305 725
1305 735
1305 745
1298 758
1290 765
1285 775
1278 783
1270 790
1263 798
1255 805
1248 818
1238 823
1230 830
1223 838
1215 845
1208 858
1198 860
1188 863
1180 870
1170 875
1160 880
1153 893
1148 903
1140 910
1130 915
1125 925
1125 935
1125 945
1125 955
1125 965
1125 975
1125 985
1120 1000
1120 1010
1120 1020
1115 1030
1115 1040
1110 1050
1105 1065
1100 1075
1100 1085
1095 1100
1095 1110
1088 1123
1080 1130
1075 1140
1075 1150
1075 1160
1073 1173
1065 1180
1058 1188
1050 1195
1043 1203
1035 1210
1030 1220
1030 1230
1025 1245
1023 1258
1018 1268
1010 1275
1000 1275
993 1283
985 1290
980 1300
973 1308
965 1315
958 1323
950 1330
945 1340
940 1350
940 1360
940 1370
940 1380
940 1390
940 1400
940 1410
940 1420
940 1430
940 1440
945 1449
945 1459
945 1469
945 1479
945 1489
950 1498
960 1499
969 1504
977 1510
985 1517
994 1522
1002 1529
1011 1534
1019 1541
1028 1546
1035 1554
1040 1563
1045 1572
1049 1582
1055 1590
1053 1608
1043 1613
1033 1615
1023 1618
1013 1620
1003 1620
994 1615
984 1615
974 1615
964 1615
955 1610
945 1610
935 1610
925 1610
915 1610
905 1610
896 1605
887 1600
877 1600
867 1600
857 1600
847 1600
840 1592
832 1585
829 1575
829 1565
824 1556
824 1546
819 1537
819 1527
819 1517
824 1507
829 1496
824 1487
824 1477
824 1467
829 1452
834 1437
839 1427
844 1412
844 1402
849 1387
849 1377
849 1367
849 1357
849 1347
849 1332
844 1323
844 1313
837 1305
830 1297
820 1295
812 1289
807 1280
804 1270
795 1265
785 1265
778 1273
773 1283
765 1290
758 1303
750 1310
743 1318
735 1325
727 1339
718 1345
709 1350
700 1355
693 1363
685 1370
675 1375
665 1380
655 1385
645 1385
638 1393
630 1400
625 1415
620 1430
620 1440
615 1455
615 1465
615 1475
615 1485
617 1495
625 1502
633 1509
642 1514
651 1519
660 1524
669 1529
679 1529
689 1531
698 1536
705 1544
713 1550
720 1558
728 1565
735 1573
730 1585
722 1594
717 1604
709 1612
699 1610
689 1610
679 1610
669 1610
659 1610
649 1610
640 1615
631 1610
621 1610
611 1610
601 1610
591 1610
581 1610
571 1609
562 1604
552 1600
543 1595
534 1590
524 1590
516 1583
506 1579
499 1571
494 1562
494 1552
494 1542
499 1532
504 1522
504 1512
509 1502
509 1492
509 1482
509 1472
514 1462
519 1452
527 1444
529 1427
529 1417
529 1407
529 1397
534 1384
534 1374
534 1364
529 1355
527 1345
520 1337
510 1333
504 1325
496 1318
486 1314
477 1309
469 1302
465 1292
460 1283
454 1275
446 1269
439 1261
439 1251
434 1242
434 1232
427 1224
419 1217
414 1208
408 1200
400 1193
396 1183
391 1174
389 1164
389 1154
389 1144
389 1134
387 1124
382 1115
379 1105
379 1095
379 1085
377 1075
370 1067
360 1065
355 1080
355 1090
350 1100
350 1110
350 1120
350 1130
352 1140
355 1150
355 1160
357 1170
360 1180
360 1190
354 1207
344 1210
334 1207
330 1197
324 1189
321 1179
319 1169
319 1159
314 1150
314 1140
314 1130
309 1121
309 1111
309 1101
304 1092
304 1082
304 1072
304 1062
