54 162
54 152
64 142
72 134
77 124
86 119
91 110
101 109
110 104
119 99
125 91
133 84
140 76
145 66
154 57
164 52
174 47
184 42
189 32
197 24
207 19
217 19
227 19
236 24
244 31
248 41
250 51
253 61
263 65
265 75
270 84
280 87
280 97
280 107
280 120
280 135
282 145
280 155
280 165
282 175
275 185
270 195
265 205
260 220
250 230
250 240
252 250
262 254
270 246
275 236
280 226
288 219
292 209
297 199
304 182
309 172
317 164
322 154
330 146
338 139
347 134
356 129
366 129
376 129
385 134
395 137
404 142
409 151
413 161
418 170
420 185
420 200
420 210
420 220
430 224
436 215
441 205
449 197
459 192
469 187
477 179
487 179
496 184
504 191
510 199
515 208
523 215
527 225
532 234
539 242
544 251
545 261
551 269
559 276
563 286
565 296
570 305
575 314
575 324
575 340
580 349
580 359
580 369
575 380
580 389
580 399
575 410
575 420
575 435
577 445
580 455
582 465
590 472
590 490
590 500
590 510
585 525
575 530
565 527
559 519
554 510
549 501
549 477
554 467
559 451
559 441
559 431
554 395
545 400
540 410
535 420
528 428
520 435
513 448
505 455
498 463
493 473
488 483
480 490
480 500
480 510
480 520
480 530
480 540
480 550
485 559
485 569
490 578
485 595
475 605
465 605
455 610
445 610
435 610
425 610
415 608
408 600
399 605
390 600
380 603
374 595
364 592
364 582
364 572
372 564
382 559
389 547
397 539
402 529
404 512
404 502
404 480
400 470
391 475
381 475
371 475
361 473
351 470
341 468
331 469
322 464
312 460
303 455
294 450
285 455
285 465
285 475
280 485
280 500
280 510
280 520
285 529
280 540
285 549
285 559
290 568
290 580
295 589
295 599
290 610
281 615
272 620
262 624
252 624
242 625
232 625
222 625
215 617
207 610
197 610
188 605
178 605
169 600
164 591
167 574
176 569
186 569
196 565
204 557
214 552
222 544
224 527
224 512
224 502
224 492
220 482
212 475
203 480
193 480
183 480
175 473
169 465
160 460
150 458
143 450
135 443
129 435
127 425
119 419
114 410
109 401
109 380
101 374
97 364
94 332
99 322
99 312
99 302
104 292
114 280
109 271
112 254
119 242
124 227
129 217
134 205
125 200
119 212
111 220
102 215
93 220
83 220
74 215
66 209
64 199
62 189
54 182
54 172
