204 432
204 422
209 412
214 402
219 392
227 384
232 374
240 366
248 359
255 351
265 349
274 344
284 342
294 337
304 334
314 334
323 329
333 329
342 324
352 319
362 314
369 304
366 294
359 286
359 276
354 267
359 252
359 242
359 232
367 224
375 216
385 211
390 201
398 194
407 189
417 189
427 184
436 179
445 174
455 174
465 174
475 174
484 179
492 185
502 189
511 184
521 180
531 179
541 179
550 174
559 179
567 185
575 192
585 191
595 186
605 184
614 179
624 179
634 181
644 184
653 189
662 194
669 202
674 211
678 221
680 231
685 240
680 250
675 260
673 273
665 280
660 290
660 300
665 309
670 318
670 328
675 337
675 347
680 356
680 366
680 376
685 385
690 394
688 413
680 420
680 430
682 440
690 447
694 457
700 465
705 474
710 483
710 493
710 503
710 513
710 523
705 540
705 550
700 560
700 570
705 579
705 589
698 603
690 610
690 620
690 630
692 640
700 647
710 649
720 649
729 644
739 644
749 644
759 644
769 642
779 639
788 634
797 629
807 629
817 629
825 621
833 614
839 602
847 594
852 584
857 574
859 559
857 549
849 542
842 534
834 527
834 517
842 509
852 504
845 490
835 490
825 490
815 490
805 490
795 487
785 483
779 475
771 469
764 461
759 452
759 442
767 434
776 429
786 429
796 425
806 420
814 412
814 402
814 392
814 382
814 372
819 357
819 347
819 337
819 327
824 312
829 297
834 282
842 274
847 264
855 256
865 251
873 244
882 239
891 234
900 229
910 226
920 224
930 221
938 214
948 214
957 209
967 204
977 204
987 204
997 204
1007 204
1016 209
1026 209
1035 214
1045 217
1055 219
1065 222
1072 230
1082 234
1089 242
1097 249
1104 257
1112 264
1121 269
1129 276
1133 286
1140 294
1145 303
1150 312
1154 322
1155 332
1155 342
1160 351
1160 361
1155 375
1155 385
1150 395
1150 405
1150 415
1145 425
1147 435
1152 444
1159 452
1165 460
1170 469
1178 475
1180 490
1180 500
1173 508
1165 515
1158 523
1150 530
1145 540
1145 550
1147 560
1155 567
1163 574
1173 574
1183 574
1192 569
1202 569
1212 569
1222 564
1232 564
1233 550
1223 550
1214 545
1204 542
1199 533
1192 525
1189 515
1189 505
1194 492
1202 484
1211 479
1219 472
1227 464
1232 454
1234 436
1234 426
1234 416
1234 406
1229 397
1229 387
1229 377
1229 367
1229 357
1234 347
1234 337
1239 322
1239 312
1247 304
1257 299
1259 282
1264 272
1269 262
1277 254
1285 246
1293 239
1302 234
1311 229
1320 224
1329 219
1338 214
1348 214
1358 214
1367 209
1377 209
1387 209
1397 209
1406 214
1416 214
1425 219
1435 219
1445 222
1454 227
1464 231
1470 239
1478 245
1485 253
1490 262
1490 272
1497 280
1502 289
1505 299
1505 309
1510 318
1515 327
1522 335
1527 344
1534 352
1535 362
1540 371
1540 381
1543 391
1545 401
1545 411
1545 421
1540 430
1540 440
1535 450
1535 460
1540 469
1545 478
1553 485
1560 493
1568 500
1570 510
1567 524
1559 530
1550 535
1550 545
1550 555
1545 565
1545 575
1545 585
1550 594
1555 603
1563 610
1570 618
1575 627
1582 635
1587 644
1594 652
1600 660
1605 669
1605 679
1610 688
1618 695
1625 703
1630 712
1637 720
1645 727
1650 736
1656 744
1664 751
1668 761
1673 770
1680 778
1688 785
1695 793
1703 800
1707 810
1715 817
1720 826
1723 836
1728 845
1732 855
1737 864
1740 874
1740 884
1745 893
1745 903
1750 912
1750 922
1750 932
1750 942
1750 952
1755 961
1758 971
1765 979
1765 989
1770 998
1770 1008
1770 1018
1775 1027
1775 1037
1780 1046
1775 1055
1775 1065
1775 1075
1775 1085
1775 1095
1770 1105
1765 1115
1758 1128
1753 1138
1745 1145
1738 1158
1730 1165
1720 1165
1710 1170
1700 1175
1690 1175
1681 1180
1671 1178
1661 1175
1652 1170
1642 1170
1635 1162
1627 1155
1624 1145
1619 1136
1614 1127
1614 1117
1614 1107
1614 1097
1614 1087
1614 1077
1614 1067
1614 1057
1614 1047
1619 1032
1627 1024
1629 1007
1637 999
1645 991
1653 984
1662 979
1671 974
1679 967
1684 952
1689 940
1684 931
1684 921
1684 911
1684 901
1684 891
1684 881
1684 871
1679 862
1672 854
1667 845
1663 835
1655 828
1649 820
1641 814
1632 809
1624 802
1615 797
1607 790
1598 785
1588 785
1579 780
1570 785
1570 795
1565 810
1560 820
1558 833
1550 840
1550 850
1543 858
1535 865
1528 873
1520 880
1513 888
1505 895
1505 905
1510 914
1515 923
1523 930
1527 940
1535 947
1539 957
1547 964
1556 969
1566 969
1576 969
1586 969
1595 974
1603 980
1600 995
1600 1005
1595 1015
1590 1025
1590 1035
1585 1045
1585 1055
1585 1065
1585 1075
1585 1085
1585 1095
1585 1105
1585 1115
1585 1125
1585 1135
1590 1144
1590 1154
1595 1163
1600 1172
1600 1182
1605 1191
1608 1201
1610 1211
1610 1221
1615 1230
1615 1240
1615 1250
1615 1260
1615 1270
1615 1280
1615 1290
1615 1300
1615 1310
1615 1320
1615 1330
1615 1340
1615 1350
1615 1360
1617 1370
1620 1380
1622 1390
1625 1400
1630 1409
1635 1418
1635 1428
1640 1437
1644 1447
1649 1456
1650 1466
1656 1474
1655 1485
1650 1500
1650 1510
1645 1520
1637 1534
1629 1540
1620 1545
1610 1550
1603 1558
1593 1563
1585 1570
1576 1575
1566 1575
1556 1575
1546 1575
1537 1570
1527 1570
1517 1574
1509 1580
1499 1577
1490 1572
1482 1565
1473 1560
1464 1555
1456 1549
1449 1541
1444 1532
1444 1522
1444 1512
1444 1502
1444 1492
1444 1482
1452 1474
1460 1466
1470 1461
1480 1459
1490 1459
1499 1452
1507 1444
1516 1439
1524 1432
1534 1427
1542 1419
1550 1411
1554 1398
1549 1389
1546 1379
1544 1369
1539 1360
1539 1350
1539 1340
1539 1330
1539 1320
1537 1310
1534 1300
1532 1290
1529 1280
1529 1270
1529 1260
1529 1250
1529 1240
1529 1230
1529 1220
1529 1210
1529 1200
1529 1190
1529 1180
1529 1170
1524 1161
1524 1151
1519 1142
1514 1133
1511 1123
1501 1120
1492 1125
1482 1124
1472 1120
1462 1120
1452 1120
1442 1119
1432 1115
1425 1107
1415 1105
1406 1110
1397 1115
1387 1115
1377 1115
1368 1120
1358 1123
1350 1130
1343 1138
1335 1145
1330 1155
1325 1170
1320 1185
1315 1200
1310 1215
1305 1230
1305 1240
1300 1250
1295 1265
1290 1280
1290 1290
1285 1300
1285 1310
1280 1325
1280 1335
1275 1350
1270 1365
1270 1375
1265 1385
1265 1395
1265 1405
1270 1414
1275 1423
1280 1432
1284 1442
1285 1452
1285 1462
1285 1472
1280 1485
1275 1495
1268 1508
1260 1515
1253 1523
1245 1530
1238 1538
1230 1545
1220 1550
1210 1555
1203 1563
1193 1568
1183 1570
1173 1570
1165 1563
1159 1555
1151 1548
1146 1539
1142 1529
1137 1520
1134 1510
1129 1501
1124 1492
1124 1482
1124 1472
1124 1462
1132 1454
1141 1449
1150 1444
1159 1439
1168 1434
1177 1429
1187 1424
1197 1419
1199 1407
1207 1399
1209 1387
1214 1372
1219 1357
1224 1347
1224 1337
1229 1322
1229 1312
1234 1297
1239 1282
1244 1267
1249 1257
1254 1242
1259 1227
1264 1212
1269 1197
1274 1182
1279 1167
1284 1157
1284 1147
1289 1138
1289 1128
1289 1118
1283 1110
1274 1105
1264 1105
1254 1105
1244 1105
1234 1101
1229 1092
1229 1082
1229 1072
1237 1064
1247 1059
1257 1054
1252 1040
1242 1040
1232 1044
1222 1045
1212 1045
1202 1049
1192 1050
1182 1050
1172 1054
1162 1055
1152 1055
1142 1055
1133 1050
1123 1050
1113 1053
1103 1055
1094 1050
1084 1050
1074 1050
1065 1055
1067 1065
1072 1074
1079 1082
1080 1092
1080 1102
1075 1115
1067 1124
1059 1130
1049 1130
1039 1130
1029 1130
1023 1138
1015 1145
1010 1155
1012 1165
1017 1174
1020 1184
1025 1193
1025 1203
1025 1213
1030 1222
1030 1232
1030 1242
1034 1252
1035 1262
1035 1272
1040 1281
1040 1291
1040 1301
1045 1310
1045 1320
1047 1330
1050 1340
1052 1350
1060 1357
1060 1367
1060 1377
1060 1387
1060 1397
1060 1407
1064 1417
1065 1427
1065 1437
1065 1447
1065 1457
1069 1467
1070 1477
1070 1487
1070 1497
1070 1507
1070 1517
1075 1526
1075 1536
1075 1546
1070 1555
1070 1565
1068 1578
1063 1588
1058 1598
1050 1605
1040 1610
1033 1618
1025 1625
1015 1630
1008 1638
998 1640
988 1640
979 1645
969 1645
959 1645
949 1645
940 1640
930 1640
922 1634
914 1627
909 1618
903 1610
894 1605
885 1600
877 1594
869 1587
862 1579
854 1572
854 1562
854 1552
862 1544
870 1536
878 1529
882 1519
890 1511
898 1504
908 1504
918 1504
927 1499
936 1494
945 1489
955 1489
965 1486
973 1479
979 1467
987 1459
995 1451
999 1436
999 1426
999 1416
999 1406
994 1397
994 1387
994 1377
989 1368
989 1358
989 1348
989 1338
989 1328
985 1318
984 1308
984 1298
980 1288
979 1278
979 1268
975 1258
974 1248
974 1238
970 1228
969 1218
969 1208
969 1198
963 1190
954 1185
944 1185
935 1180
925 1178
919 1170
909 1170
900 1175
890 1172
880 1170
871 1165
861 1165
852 1170
843 1175
833 1175
823 1178
815 1185
815 1195
813 1213
808 1223
803 1233
798 1243
793 1253
788 1263
780 1270
775 1285
770 1295
765 1310
760 1320
755 1330
750 1345
745 1355
740 1365
735 1375
730 1385
725 1400
720 1410
715 1420
710 1435
705 1445
700 1455
695 1465
690 1475
685 1485
680 1495
680 1505
680 1515
680 1525
680 1535
677 1549
668 1555
658 1558
648 1563
640 1570
630 1570
620 1570
610 1575
600 1575
590 1575
580 1575
570 1580
561 1585
551 1585
542 1580
532 1580
523 1575
514 1570
504 1567
495 1562
487 1555
477 1554
467 1550
458 1545
450 1538
444 1530
439 1521
434 1512
434 1502
434 1492
439 1477
447 1469
457 1464
465 1456
473 1449
482 1444
491 1439
501 1439
510 1444
520 1444
530 1444
540 1444
550 1444
559 1449
569 1449
579 1447
589 1444
599 1444
609 1442
614 1432
614 1422
619 1407
619 1397
624 1382
624 1372
629 1362
634 1352
642 1344
647 1334
652 1324
654 1312
662 1304
669 1292
677 1284
682 1274
687 1264
689 1252
694 1242
699 1232
707 1224
712 1214
714 1202
722 1194
724 1182
729 1172
734 1162
734 1152
739 1143
732 1135
722 1135
712 1134
704 1127
699 1118
695 1108
691 1098
686 1089
679 1081
674 1072
674 1062
674 1052
682 1044
690 1036
700 1031
708 1024
717 1019
719 1004
716 994
709 986
701 980
692 975
685 967
677 960
673 950
665 943
658 935
650 928
643 920
634 915
625 910
615 908
609 900
599 897
592 889
584 882
577 874
569 867
562 859
554 852
547 844
539 837
532 829
527 820
523 810
515 803
509 795
501 789
499 779
494 770
494 760
494 750
493 740
485 733
478 725
468 725
458 725
449 720
439 720
430 715
420 712
412 705
402 704
392 700
383 695
374 690
366 684
357 679
347 675
337 674
329 667
324 658
319 649
314 640
314 630
309 621
304 612
304 602
304 592
304 582
304 572
309 557
314 547
319 534
314 525
305 530
298 538
288 540
278 540
268 540
260 533
254 525
245 520
235 518
229 510
221 504
214 496
209 487
214 470
214 460
209 451
204 442
