324 997
327 1014
334 1022
344 1025
353 1030
363 1028
373 1023
380 1010
385 1000
395 1000
405 1000
415 1000
424 1005
424 1015
424 1025
429 1034
429 1044
431 1054
434 1064
434 1074
434 1084
434 1094
434 1104
434 1114
434 1124
434 1134
434 1144
432 1154
424 1162
419 1172
414 1182
409 1197
404 1207
404 1217
404 1227
404 1237
409 1246
416 1254
426 1255
435 1250
443 1243
448 1233
453 1223
455 1210
455 1200
460 1190
465 1180
470 1170
479 1165
489 1165
499 1165
509 1165
518 1160
528 1160
538 1160
548 1160
558 1160
568 1160
578 1160
588 1160
598 1160
608 1160
618 1160
628 1160
637 1165
644 1173
644 1183
644 1193
639 1207
634 1217
634 1227
634 1237
642 1244
650 1250
660 1250
670 1250
680 1250
690 1245
698 1238
703 1228
707 1215
705 1205
705 1195
705 1185
705 1175
705 1165
715 1165
725 1165
735 1165
745 1165
755 1165
759 1175
759 1185
759 1195
759 1205
759 1215
759 1225
759 1235
764 1244
769 1253
774 1262
779 1271
786 1279
796 1283
805 1288
815 1292
825 1295
835 1295
844 1300
853 1305
863 1305
873 1305
882 1300
891 1295
899 1287
904 1277
909 1267
915 1255
920 1240
920 1230
920 1220
920 1210
920 1200
920 1190
920 1180
920 1170
920 1160
920 1150
920 1140
920 1130
920 1120
920 1110
920 1100
930 1100
940 1100
950 1100
960 1100
970 1100
980 1100
989 1105
994 1114
999 1123
1004 1132
1009 1141
1009 1151
1009 1161
1014 1170
1014 1180
1020 1188
1028 1195
1038 1195
1048 1195
1058 1195
1068 1195
1078 1195
1088 1195
1098 1195
1107 1200
1115 1207
1122 1215
1124 1225
1129 1234
1129 1244
1134 1253
1139 1262
1145 1270
1154 1275
1163 1280
1173 1280
1183 1280
1192 1285
1202 1289
1211 1294
1221 1295
1231 1298
1241 1300
1250 1305
1260 1305
1270 1305
1280 1305
1290 1305
1300 1305
1309 1300
1317 1294
1327 1289
1335 1280
1343 1273
1348 1263
1350 1253
1350 1243
1350 1233
1350 1223
1350 1213
1350 1203
1350 1193
1345 1184
1345 1174
1340 1165
1335 1156
1330 1147
1325 1138
1318 1130
1310 1124
1305 1115
1305 1105
1305 1095
1305 1085
1305 1075
1305 1065
1305 1055
1305 1045
1305 1035
1305 1025
1299 1017
1292 1009
1282 1009
1272 1009
1262 1009
1252 1009
1242 1009
1232 1009
1222 1005
1215 997
1210 988
1205 979
1198 971
1195 961
1190 952
1183 944
1174 939
1164 939
1154 936
1144 937
1134 942
1129 952
1124 962
1119 972
1114 982
1114 992
1114 1002
1114 1012
1105 1019
1095 1019
1086 1024
1077 1029
1068 1034
1060 1041
1055 1051
1049 1059
1039 1059
1029 1059
1019 1059
1009 1059
1000 1054
993 1046
984 1041
976 1034
970 1026
965 1017
960 1008
955 999
950 990
945 981
945 971
945 961
945 951
945 941
940 932
940 922
940 912
935 903
928 895
920 888
915 879
909 871
899 869
889 872
884 882
879 892
874 902
874 912
874 922
874 932
874 942
870 959
861 964
852 969
844 977
839 987
834 997
834 1007
834 1017
834 1027
834 1037
834 1047
834 1057
834 1067
824 1074
815 1079
805 1081
795 1086
785 1089
775 1089
765 1089
755 1089
745 1089
735 1085
730 1076
730 1066
725 1057
725 1047
724 1037
720 1027
715 1018
710 1009
701 1004
692 999
682 999
673 994
663 990
653 989
643 989
633 989
623 989
613 989
603 989
593 989
583 989
573 989
563 989
553 989
543 989
533 989
523 989
513 989
504 984
494 984
485 979
479 971
471 964
465 956
460 947
455 938
448 930
440 923
433 915
425 909
416 904
406 904
397 899
388 904
380 911
375 921
367 929
362 939
357 949
349 957
344 967
339 977
332 989
