724 987
724 977
729 967
737 959
745 951
750 941
758 934
765 926
775 921
785 919
794 914
804 916
813 921
818 930
825 938
833 945
840 953
848 960
855 968
863 975
872 980
882 984
891 989
901 989
910 994
920 994
930 994
940 994
950 994
960 994
970 994
980 994
990 994
1000 994
1009 999
1019 999
1029 999
1039 999
1049 999
1059 999
1069 999
1079 999
1089 999
1098 1004
1107 1009
1110 1019
1118 1025
1122 1035
1127 1044
1130 1054
1135 1063
1135 1073
1140 1082
1140 1092
1140 1102
1140 1112
1144 1122
1149 1131
1159 1134
1169 1127
1174 1112
1174 1102
1174 1092
1174 1082
1179 1072
1187 1064
1192 1054
1197 1044
1204 1032
1209 1022
1214 1007
1219 997
1227 989
1236 984
1245 979
1255 976
1265 974
1275 974
1285 974
1294 961
1294 951
1294 941
1294 931
1294 921
1294 911
1289 902
1289 892
1289 882
1297 874
1307 874
1314 882
1319 891
1323 901
1330 909
1338 915
1345 923
1350 932
1355 941
1358 951
1360 961
1365 970
1370 979
1370 989
1375 998
1375 1008
1375 1018
1380 1027
1384 1037
1389 1046
1393 1056
1398 1065
1400 1075
1405 1084
1415 1084
1425 1084
1435 1081
1439 1067
1439 1057
1447 1049
1454 1032
1459 1022
1467 1014
1476 1009
1484 997
1484 987
1484 977
1489 967
1489 957
1497 949
1506 944
1516 944
1526 944
1535 949
1545 952
1555 954
1564 959
1574 959
1584 961
1593 966
1603 970
1612 975
1617 984
1626 989
1636 989
1646 989
1655 994
1665 997
1672 1005
1680 1012
1689 1017
1699 1019
1707 1025
1715 1032
1715 1042
1715 1052
1715 1062
1715 1072
1715 1082
1715 1092
1715 1102
1720 1111
1726 1119
1734 1126
1740 1134
1745 1143
1755 1147
1755 1157
1755 1167
1755 1177
1755 1187
1755 1197
1755 1207
1755 1217
1755 1227
1755 1237
1755 1247
1755 1257
1748 1273
1740 1280
1735 1290
1728 1298
1720 1305
1712 1315
1703 1320
1693 1323
1683 1328
1673 1333
1663 1338
1653 1340
1643 1340
1633 1340
1623 1340
1614 1335
1606 1329
1602 1319
1594 1312
1589 1303
1584 1294
1579 1285
1569 1285
1559 1285
1549 1285
1540 1280
1531 1275
1522 1270
1515 1262
1509 1254
1504 1245
1499 1236
1494 1227
1490 1217
1482 1210
1472 1210
1462 1210
1452 1210
1442 1210
1432 1210
1422 1210
1412 1210
1402 1210
1395 1202
1389 1194
1384 1185
1384 1175
1379 1166
1379 1156
1379 1146
1379 1136
1374 1127
1370 1117
1360 1115
1350 1115
1340 1115
1330 1115
1320 1115
1310 1115
1305 1125
1305 1135
1305 1145
1310 1154
1318 1160
1322 1170
1330 1177
1335 1186
1340 1195
1340 1205
1340 1215
1340 1225
1340 1235
1340 1245
1335 1260
1328 1268
1320 1275
1312 1284
1302 1289
1294 1295
1285 1300
1275 1300
1265 1300
1255 1300
1245 1300
1235 1300
1225 1300
1215 1298
1206 1293
1201 1284
1199 1274
1194 1265
1194 1255
1189 1246
1189 1236
1189 1226
1184 1217
1184 1207
1184 1197
1179 1188
1173 1180
1163 1180
1153 1180
1144 1175
1134 1172
1125 1167
1115 1165
1115 1175
1115 1185
1115 1195
1115 1205
1115 1215
1115 1225
1115 1235
1120 1244
1120 1254
1120 1264
1112 1274
1104 1280
1095 1285
1085 1285
1075 1290
1065 1290
1055 1290
1045 1290
1035 1290
1025 1290
1015 1290
1007 1284
999 1277
999 1267
999 1257
1004 1247
1012 1239
1022 1234
1029 1226
1029 1216
1029 1206
1029 1196
1029 1186
1029 1176
1029 1166
1029 1156
1024 1147
1019 1138
1012 1130
1002 1130
992 1130
982 1130
972 1130
962 1130
952 1130
942 1134
933 1140
923 1143
913 1148
905 1155
903 1168
898 1178
890 1185
890 1195
885 1210
880 1225
877 1244
872 1254
867 1264
859 1272
849 1277
839 1280
829 1276
829 1249
829 1239
829 1229
829 1219
829 1209
829 1199
829 1189
829 1179
829 1169
829 1159
829 1149
829 1139
829 1129
827 1119
819 1112
815 1102
807 1095
800 1087
795 1078
794 1068
789 1059
789 1049
784 1040
782 1030
779 1020
777 1010
774 1000
774 990
765 995
760 1005
755 1020
750 1030
740 1033
734 1025
729 1016
729 1006
724 997
