24 647
24 657
29 666
36 674
46 678
55 683
65 685
75 685
85 685
93 678
103 673
108 663
115 655
125 655
135 655
145 650
150 640
150 630
155 615
160 605
168 598
178 595
188 595
197 600
205 607
214 612
224 615
234 617
244 620
250 628
249 642
249 652
249 662
248 679
240 686
232 694
222 694
212 699
204 707
204 717
212 724
220 730
230 730
240 730
250 730
259 725
265 715
270 705
270 695
275 685
280 675
288 668
293 658
300 650
309 655
307 669
302 679
294 687
299 700
302 710
312 710
322 710
332 709
342 704
347 694
350 675
355 665
360 655
360 645
360 635
360 625
360 615
365 600
370 585
375 575
385 570
395 570
404 575
409 584
415 592
419 602
424 611
429 620
435 628
443 635
447 645
444 662
444 672
444 687
439 699
431 705
421 709
411 709
402 714
394 722
394 732
402 739
412 740
422 740
432 740
442 740
452 740
462 739
470 730
478 723
485 715
490 705
495 695
500 685
500 675
505 666
505 656
505 646
500 637
495 628
490 619
485 610
485 600
485 590
490 580
500 580
506 588
510 598
514 608
515 618
519 628
524 637
524 647
524 657
524 667
524 677
519 687
514 702
504 707
507 724
515 730
525 730
535 730
545 725
553 718
560 705
560 695
560 685
565 670
565 660
570 648
570 638
570 628
565 619
562 609
557 600
555 590
555 580
560 570
565 555
570 540
575 530
580 520
580 510
580 500
585 490
585 480
585 470
585 460
585 450
585 440
585 430
593 423
595 410
605 410
615 412
625 415
635 415
644 420
654 420
664 420
674 420
684 420
694 420
704 420
714 420
724 420
734 420
744 420
754 420
763 415
772 410
781 405
789 397
797 389
805 380
813 373
820 365
828 358
830 345
835 335
840 320
845 310
845 300
845 290
845 280
845 270
845 260
845 250
845 240
842 230
840 220
840 210
835 201
830 192
829 182
825 172
820 163
815 154
815 144
815 134
806 129
797 134
789 142
789 152
789 162
789 172
789 182
789 192
794 201
799 210
802 220
804 230
809 239
809 249
809 259
809 269
809 279
804 297
799 307
794 317
789 327
783 339
775 346
767 354
757 359
748 364
739 369
729 369
719 369
709 369
699 366
689 364
679 362
669 362
662 354
652 354
642 350
633 345
623 341
614 336
604 334
595 329
585 329
575 327
565 324
559 316
549 312
540 307
532 300
524 294
514 294
504 294
494 294
484 294
474 294
464 294
454 294
444 294
434 297
424 302
414 307
404 312
395 319
385 321
375 326
365 331
357 339
347 339
339 347
329 352
321 364
312 369
303 374
295 381
285 386
277 394
267 399
257 399
247 399
238 404
229 409
219 409
209 412
199 422
194 432
187 444
179 452
175 466
168 474
160 481
153 489
145 496
137 504
128 509
120 516
110 521
103 529
93 526
84 521
74 519
65 514
55 516
49 524
39 521
29 522
32 539
39 547
47 554
44 572
44 582
44 592
39 602
39 612
39 622
32 639
