69 177
64 187
69 196
74 205
77 215
87 219
96 224
106 225
116 225
125 220
135 220
144 225
154 225
163 230
169 238
177 245
184 253
189 262
189 272
194 281
201 289
209 295
212 305
219 313
224 322
224 332
229 341
239 345
239 355
244 364
244 374
244 384
244 394
244 404
244 414
244 424
241 434
231 434
222 429
214 437
209 452
215 460
225 460
235 460
245 460
255 455
264 450
270 435
270 425
270 415
270 405
275 390
280 375
284 385
284 395
287 405
289 415
289 425
289 435
289 445
285 456
278 464
269 469
259 472
259 482
259 492
269 495
279 497
289 495
299 492
305 480
310 470
310 460
315 450
325 440
325 430
325 420
325 410
330 400
335 390
340 380
340 370
345 355
345 345
355 340
355 330
360 320
370 320
380 320
390 320
399 315
409 315
419 315
429 315
439 315
449 315
459 315
469 315
469 325
475 333
483 340
487 350
489 360
498 365
492 374
484 382
478 394
469 399
459 399
449 402
449 412
455 420
464 425
474 422
484 417
489 407
499 402
507 394
515 380
524 375
533 370
534 380
534 390
529 407
519 412
509 422
499 432
504 441
509 450
519 450
529 450
535 440
543 433
548 423
558 418
563 408
568 398
570 380
572 370
570 360
570 350
570 340
570 330
575 320
575 310
580 300
580 290
590 280
590 270
590 260
599 255
599 265
602 275
604 285
613 290
614 300
619 309
625 317
629 327
639 330
648 335
657 340
660 329
657 319
647 315
643 305
635 298
635 288
630 279
625 270
625 260
622 250
620 240
617 230
613 220
605 214
605 204
599 196
591 189
582 184
577 175
570 167
560 164
550 164
541 159
531 159
521 159
512 154
502 154
492 154
482 154
472 154
463 159
453 159
443 159
433 159
424 164
414 164
404 164
394 164
384 164
374 164
364 164
354 164
344 164
334 164
324 164
314 167
304 169
294 169
285 164
275 164
266 159
256 159
247 154
239 147
230 142
222 135
215 127
205 124
199 116
191 109
182 104
172 104
163 99
155 92
148 84
139 79
130 74
124 66
114 67
112 79
102 75
94 69
92 79
99 87
99 97
104 106
96 115
91 124
82 129
74 137
74 147
74 157
74 167
