24 262
24 252
29 242
34 232
42 224
50 216
58 209
59 197
64 183
57 175
53 165
45 158
39 150
34 141
34 131
29 122
29 112
34 102
39 92
47 84
56 79
64 72
74 67
84 62
94 59
103 64
113 64
123 64
132 69
141 74
150 79
160 82
167 90
175 97
179 107
180 117
180 127
180 137
180 147
180 157
175 170
170 180
170 190
172 200
177 209
180 219
185 228
185 238
190 247
194 257
195 267
195 277
195 287
199 297
204 306
208 316
213 325
215 335
220 344
225 353
230 362
237 370
245 377
250 386
245 400
247 410
247 424
237 429
228 435
219 440
210 445
203 453
195 460
185 465
180 475
180 485
180 495
175 505
170 520
170 530
165 545
165 555
165 565
160 575
155 590
160 599
168 605
175 613
185 617
195 619
204 624
210 632
204 647
196 655
186 655
177 660
167 660
157 660
147 660
137 660
127 660
117 660
108 655
98 655
88 655
79 650
74 641
69 632
69 622
74 610
74 600
74 590
69 581
69 571
64 562
64 552
69 537
74 522
79 507
79 497
79 487
72 479
64 472
57 464
52 455
49 445
49 435
44 426
44 416
44 406
39 397
39 387
44 372
49 358
49 348
49 338
44 329
44 319
41 309
39 299
34 290
34 280
29 271
