24 267
24 257
29 247
34 237
42 229
52 224
60 216
64 206
64 196
59 187
55 177
47 170
44 160
39 151
34 142
34 132
39 117
44 107
52 99
60 91
68 84
77 79
87 79
97 79
107 79
117 79
127 79
136 84
145 89
155 89
164 94
172 100
177 109
180 119
185 128
185 138
185 148
185 158
185 168
185 178
180 195
175 205
175 215
177 225
182 234
189 242
190 252
194 262
195 272
200 281
195 295
197 305
200 315
205 324
210 333
210 343
210 353
215 362
219 372
220 382
225 391
228 401
230 411
230 421
228 433
220 440
215 450
213 468
208 478
200 485
200 495
200 505
200 515
195 525
190 535
190 545
185 560
180 575
175 585
170 600
175 609
183 615
190 623
198 629
208 630
217 635
225 642
225 652
217 659
207 664
198 670
188 673
178 675
168 675
158 675
148 675
138 675
128 675
119 670
109 670
99 667
92 659
87 650
84 640
84 630
84 620
84 610
84 600
79 591
79 581
74 572
74 562
79 547
84 532
84 522
84 512
84 502
77 494
69 487
62 479
54 472
54 462
50 452
44 444
44 434
44 424
44 414
39 405
37 395
34 385
34 375
34 365
29 356
29 346
29 336
29 326
29 316
24 307
24 297
24 287
24 277
