189 527
189 517
194 507
199 497
207 489
212 479
221 474
230 469
239 462
244 452
249 441
249 431
244 422
237 414
229 407
224 398
217 390
214 380
209 371
204 362
204 352
204 342
204 332
204 322
209 312
214 302
222 294
230 286
238 279
247 274
256 269
266 265
276 264
286 264
296 264
306 264
316 264
326 264
335 269
345 269
354 274
364 276
370 284
380 287
387 295
395 302
400 311
405 320
410 329
410 339
410 349
410 359
410 369
410 379
410 389
415 398
410 410
405 420
400 430
400 440
395 450
397 460
402 469
409 477
417 484
420 494
425 503
425 513
425 523
430 532
434 542
435 552
430 570
430 580
430 590
435 599
440 608
445 617
445 627
449 637
450 647
454 657
455 667
460 676
463 686
465 696
465 706
470 715
475 724
475 734
475 744
470 755
464 765
455 770
450 780
450 790
450 800
445 810
438 818
430 825
430 835
432 845
435 855
435 865
433 878
428 888
420 895
415 905
415 915
410 930
410 940
405 950
400 960
395 975
390 985
390 995
392 1005
400 1012
408 1019
417 1024
426 1029
436 1029
446 1029
455 1034
463 1040
467 1050
465 1065
458 1073
448 1075
438 1075
429 1080
420 1085
411 1090
402 1095
392 1095
382 1095
372 1095
362 1095
352 1095
342 1095
332 1095
323 1090
313 1090
304 1085
294 1085
284 1082
277 1074
269 1067
269 1057
269 1047
274 1032
279 1014
274 1005
272 995
269 985
264 976
264 966
259 957
259 947
259 937
259 927
264 912
269 897
274 887
274 877
274 867
274 857
267 849
259 842
250 837
244 829
239 820
234 811
229 802
229 792
229 782
224 773
224 763
220 753
219 743
219 733
219 723
219 713
214 704
209 695
207 685
204 675
204 665
199 656
199 646
194 637
194 627
199 615
199 605
199 595
199 585
194 576
189 567
189 557
189 547
189 537
