494 1047
494 1037
499 1027
507 1019
516 1014
526 1014
534 1021
540 1029
545 1038
550 1047
557 1055
567 1059
577 1059
587 1059
596 1054
605 1049
614 1044
623 1039
632 1034
642 1029
652 1029
662 1029
671 1024
681 1020
691 1019
701 1019
704 1007
704 997
695 990
685 990
675 990
665 990
655 987
645 985
635 985
626 980
616 980
606 980
596 980
587 975
577 975
567 975
557 975
547 974
537 970
528 965
520 958
514 950
509 941
509 931
504 922
504 912
504 902
504 892
504 882
504 872
504 862
504 852
509 837
509 827
509 817
514 802
519 792
519 782
524 767
529 752
534 742
542 734
547 724
552 714
560 706
568 699
577 694
584 682
592 674
600 666
608 659
615 651
623 644
629 632
639 627
647 619
655 611
663 604
672 599
682 599
691 594
700 589
710 589
720 589
730 586
740 584
750 584
760 584
770 584
780 584
790 584
800 584
810 584
820 584
829 579
839 577
849 574
859 574
869 574
879 574
885 566
890 556
894 537
885 532
875 530
867 524
864 507
874 500
874 490
872 480
862 480
852 480
843 475
834 470
824 467
824 457
832 449
842 444
852 439
861 434
870 429
880 426
890 421
900 419
910 416
920 414
930 411
940 406
950 404
960 404
970 404
980 407
980 420
972 429
963 435
954 440
945 445
935 450
925 455
915 460
915 470
923 476
930 484
935 493
928 508
920 515
922 525
927 534
930 544
940 544
950 544
960 544
970 544
979 539
989 539
999 539
1009 539
1019 539
1029 539
1039 539
1049 539
1059 539
1069 541
1078 546
1085 554
1094 559
1102 565
1112 569
1122 569
1132 569
1142 569
1152 569
1162 569
1172 569
1182 569
1191 574
1199 581
1200 591
1200 601
1195 615
1195 625
1193 643
1188 653
1180 660
1170 665
1161 670
1151 670
1141 670
1125 670
1133 676
1146 679
1156 679
1175 674
1185 674
1195 674
1205 674
1215 674
1225 674
1235 674
1245 674
1255 674
1265 674
1275 674
1285 674
1295 674
1305 674
1315 674
1325 671
1335 669
1345 669
1355 669
1364 664
1374 664
1384 664
1394 664
1404 664
1414 664
1424 664
1433 659
1443 659
1453 659
1463 659
1473 659
1483 659
1492 654
1502 654
1512 654
1522 654
1532 654
1541 659
1545 670
1540 680
1533 693
1525 700
1516 705
1507 710
1498 715
1489 720
1480 725
1471 730
1462 735
1452 735
1443 740
1434 745
1425 750
1415 750
1406 755
1397 760
1388 765
1379 770
1370 775
1361 780
1351 780
1342 785
1332 789
1322 790
1313 795
1304 800
1294 800
1284 802
1274 805
1265 810
1255 810
1245 810
1235 815
1225 815
1215 820
1205 820
1195 825
1185 830
1185 840
1185 850
1195 854
1205 854
1215 857
1224 862
1229 871
1230 881
1230 891
1230 901
1230 911
1236 919
1238 933
1230 940
1220 940
1210 940
1200 940
1190 940
1180 940
1170 940
1160 940
1150 940
1140 940
1131 945
1121 945
1111 945
1101 945
1091 945
1082 950
1072 950
1062 950
1053 955
1043 955
1033 955
1024 960
1014 960
1005 965
995 965
985 970
975 970
965 970
965 980
965 990
965 1000
965 1010
960 1025
954 1035
945 1040
935 1040
925 1040
915 1040
905 1040
895 1040
885 1040
875 1040
865 1040
855 1045
845 1045
835 1045
825 1045
815 1050
805 1050
795 1050
785 1055
775 1055
765 1055
755 1060
745 1060
736 1065
726 1065
716 1065
707 1070
697 1070
687 1074
677 1075
667 1075
658 1080
648 1080
638 1080
628 1080
618 1080
608 1080
598 1080
588 1080
578 1080
568 1080
558 1080
548 1080
538 1080
529 1075
519 1075
510 1070
502 1064
494 1057
