29 407
29 397
34 387
42 379
52 379
61 374
65 384
65 394
75 394
85 391
93 384
102 389
112 384
122 379
125 362
115 358
106 353
96 353
86 350
76 350
66 350
56 349
52 339
44 322
44 312
44 302
44 292
44 282
44 272
44 262
44 252
49 237
54 222
59 207
59 197
64 187
74 177
82 169
91 164
96 155
106 154
111 145
121 140
131 135
141 135
151 134
161 130
171 129
180 124
189 129
198 124
208 124
217 119
227 114
237 114
239 98
232 90
229 80
229 70
219 70
209 67
209 57
209 47
219 44
229 44
239 44
248 39
257 34
267 34
276 29
284 36
278 50
269 55
260 60
260 70
262 80
270 87
274 97
279 106
285 114
295 114
305 114
315 114
325 114
334 119
337 109
347 104
354 112
360 120
368 126
378 130
383 139
392 144
400 150
395 165
390 175
380 180
370 180
375 189
385 192
395 189
404 184
414 184
424 184
434 184
444 184
454 184
464 181
474 179
483 174
493 174
503 174
512 169
522 169
531 164
541 160
551 160
561 159
570 164
575 173
567 189
559 197
549 202
539 205
530 210
520 210
510 210
501 215
492 220
482 220
473 225
464 230
455 235
448 243
440 250
433 258
423 263
413 263
405 270
410 279
420 279
430 279
439 284
449 284
455 292
460 301
465 310
465 320
460 335
451 345
442 350
432 354
422 355
412 355
402 355
392 355
383 360
373 360
363 360
353 360
343 360
333 360
323 360
313 360
303 360
293 360
283 360
273 360
264 365
258 373
253 383
243 385
233 388
223 390
213 390
203 390
194 395
184 395
174 397
164 400
154 400
144 400
134 400
124 400
115 405
106 410
96 410
86 410
76 410
66 410
56 410
47 415
37 414
