504 1037
504 1027
512 1019
521 1014
531 1014
540 1019
548 1025
555 1033
565 1034
575 1034
585 1034
595 1031
605 1029
615 1029
625 1029
635 1029
645 1029
654 1024
663 1019
673 1019
683 1019
692 1014
701 1009
704 997
709 984
709 974
704 965
694 965
684 965
675 960
666 955
656 955
647 950
637 950
627 949
617 945
607 945
597 945
587 944
577 940
567 940
557 940
547 940
537 940
528 935
519 930
514 921
509 912
509 902
509 892
509 882
509 872
509 862
514 847
514 837
514 827
514 817
519 807
519 797
524 782
524 772
524 762
529 752
534 737
534 727
539 717
544 702
549 692
557 684
564 672
572 664
580 656
588 649
595 641
603 634
610 626
618 619
625 611
633 604
642 599
652 594
662 589
672 584
682 579
691 574
700 569
710 569
719 564
728 559
738 559
748 559
758 559
768 559
778 559
788 559
798 559
808 559
817 554
827 554
837 554
846 549
856 549
866 545
876 544
886 544
889 525
880 520
872 514
864 507
864 497
872 489
874 473
867 465
858 460
848 460
839 455
829 455
819 451
819 432
827 424
837 419
847 419
857 419
867 419
877 419
886 414
895 409
904 404
914 404
924 404
934 404
944 406
950 414
952 424
944 432
934 437
924 440
915 445
905 445
905 455
905 465
905 475
913 481
923 485
925 500
925 510
925 520
930 529
940 529
950 529
959 524
969 524
979 526
989 529
999 531
1009 534
1019 534
1028 539
1038 539
1048 539
1058 539
1068 539
1078 539
1087 544
1095 550
1100 559
1110 559
1120 559
1130 559
1140 559
1150 559
1159 564
1168 569
1175 577
1180 586
1180 596
1180 606
1175 615
1166 625
1157 630
1147 634
1137 635
1127 635
1118 640
1109 645
1100 650
1102 660
1110 667
1118 674
1127 679
1137 674
1147 674
1157 674
1167 674
1176 669
1186 669
1196 669
1206 669
1215 664
1225 664
1235 661
1245 659
1255 659
1264 654
1273 649
1283 649
1292 644
1302 644
1312 644
1322 644
1332 644
1342 644
1352 644
1362 644
1372 644
1382 644
1392 644
1402 644
1412 644
1422 644
1432 644
1442 644
1452 644
1462 644
1471 649
1475 665
1470 675
1463 683
1455 690
1446 695
1437 700
1427 704
1417 705
1408 710
1398 710
1388 713
1378 715
1369 720
1360 725
1351 730
1342 735
1333 740
1324 745
1315 750
1305 755
1298 763
1290 770
1280 775
1271 780
1262 785
1253 790
1244 795
1234 797
1224 802
1214 805
1204 805
1195 810
1185 810
1175 810
1175 820
1175 830
1180 839
1190 839
1200 839
1210 839
1218 845
1225 853
1225 863
1225 873
1233 880
1240 888
1240 905
1230 915
1220 920
1210 920
1200 920
1190 920
1180 925
1171 930
1161 930
1152 935
1142 939
1132 940
1122 944
1112 945
1102 945
1093 950
1083 950
1073 950
1063 950
1053 950
1043 950
1033 950
1023 950
1013 950
1003 950
993 950
983 950
973 950
963 950
953 950
943 953
935 960
935 970
935 980
935 990
930 1005
922 1015
913 1020
904 1025
895 1030
886 1035
876 1035
867 1040
857 1040
848 1045
838 1045
829 1050
819 1050
809 1050
800 1055
790 1055
780 1055
770 1060
760 1060
750 1065
740 1065
730 1065
721 1070
711 1070
701 1070
691 1070
681 1070
671 1070
661 1070
651 1070
641 1070
631 1070
621 1070
611 1070
601 1070
591 1070
581 1070
571 1070
561 1070
551 1070
541 1070
532 1065
523 1060
514 1055
509 1046
