249 957
249 947
254 937
262 929
270 921
280 916
290 914
300 914
309 907
309 897
309 887
309 877
309 867
309 857
314 842
319 832
324 822
332 814
341 809
351 809
359 802
367 794
376 789
385 784
394 772
394 762
399 752
407 744
415 736
425 731
435 726
443 719
453 719
460 711
468 704
475 696
483 689
492 684
497 674
505 666
513 659
522 654
530 646
538 639
547 634
556 629
566 629
576 629
585 634
595 637
603 644
613 644
623 644
633 644
643 644
653 644
663 644
673 644
683 644
693 644
703 644
713 644
723 644
733 644
743 644
753 644
763 644
773 644
783 644
792 639
802 639
812 639
822 639
832 639
842 639
852 639
862 639
872 639
882 639
892 639
902 639
912 639
922 639
932 639
941 644
951 644
961 644
964 632
964 622
964 612
969 600
969 590
969 580
969 570
969 560
969 550
969 540
969 530
969 520
969 510
969 500
969 490
969 480
969 470
969 460
959 460
957 449
967 449
976 444
986 444
996 440
1006 439
1016 439
1026 439
1036 439
1046 439
1056 439
1066 439
1076 439
1086 439
1096 439
1106 439
1116 439
1126 439
1136 439
1146 439
1156 439
1166 439
1176 439
1186 439
1196 439
1206 439
1216 439
1226 439
1236 439
1246 439
1256 439
1266 439
1276 439
1286 439
1296 439
1306 439
1316 439
1326 439
1336 439
1346 439
1356 439
1366 439
1376 439
1386 439
1396 439
1406 439
1416 439
1426 439
1436 439
1446 439
1456 439
1466 439
1476 439
1486 439
1495 444
1505 444
1515 444
1525 444
1535 444
1545 444
1555 444
1565 444
1575 444
1585 444
1594 449
1604 449
1614 449
1624 449
1634 449
1644 449
1654 451
1664 454
1674 454
1683 459
1693 459
1703 460
1713 464
1723 465
1732 470
1740 477
1747 485
1755 492
1760 501
1766 509
1770 519
1770 529
1770 539
1775 548
1775 558
1775 568
1775 578
1775 588
1775 598
1775 608
1775 618
1775 628
1770 640
1770 650
1765 660
1770 669
1779 674
1789 676
1798 681
1805 689
1815 692
1825 694
1834 699
1843 704
1852 709
1861 714
1870 719
1880 722
1889 727
1899 731
1908 736
1918 740
1925 748
1933 754
1942 759
1951 764
1960 769
1969 774
1978 779
1987 774
1997 774
2004 762
2012 754
2017 744
2027 739
2037 734
2047 734
2056 729
2065 734
2074 739
2082 745
2090 752
2095 761
2100 770
2105 779
2113 785
2117 795
2120 805
2120 815
2122 825
2125 835
2127 845
2132 854
2135 864
2135 874
2135 884
2140 893
2140 903
2140 913
2140 923
2140 933
2140 943
2145 952
2145 962
2140 980
2135 995
2127 1004
2118 1010
2109 1015
2099 1015
2089 1015
2079 1015
2069 1015
2059 1015
2050 1010
2050 1020
2045 1035
2040 1050
2035 1060
2028 1073
2023 1083
2018 1093
2010 1100
2003 1108
1995 1115
1986 1120
1977 1125
1969 1132
1959 1137
1949 1140
1940 1145
1930 1145
1920 1145
1910 1150
1900 1150
1890 1147
1880 1145
1870 1145
1861 1140
1851 1138
1841 1135
1832 1130
1823 1125
1815 1118
1806 1113
1800 1105
1792 1099
1787 1090
1780 1082
1774 1074
1769 1065
1769 1055
1760 1050
1753 1058
1745 1065
1735 1070
1725 1075
1715 1075
1705 1080
1695 1080
1685 1085
1675 1085
1665 1085
1655 1085
1645 1085
1635 1085
1625 1085
1615 1085
1606 1080
1597 1075
1587 1075
1578 1070
1570 1063
1564 1055
1554 1052
1547 1044
1537 1040
1527 1040
1517 1040
1507 1040
1497 1040
1487 1040
1477 1040
1467 1040
1457 1040
1447 1040
1437 1040
1427 1040
1417 1040
1407 1040
1397 1040
1387 1040
1377 1040
1367 1040
1357 1040
1347 1040
1337 1040
1327 1040
1317 1040
1307 1040
1297 1040
1288 1035
1278 1035
1268 1035
1258 1035
1248 1035
1238 1035
1228 1035
1218 1035
1208 1035
1198 1035
1188 1035
1178 1035
1168 1035
1158 1035
1148 1035
1138 1035
1128 1035
1118 1035
1108 1035
1098 1035
1088 1035
1078 1035
1068 1035
1058 1035
1048 1035
1038 1035
1028 1035
1018 1035
1008 1035
998 1035
989 1040
979 1040
969 1040
959 1040
949 1040
939 1040
929 1040
919 1040
909 1040
899 1040
889 1040
879 1040
869 1040
860 1035
850 1035
840 1035
830 1035
820 1035
810 1035
800 1035
790 1035
780 1035
770 1035
765 1050
760 1065
755 1075
750 1085
743 1098
735 1105
728 1113
723 1123
713 1128
705 1135
696 1140
687 1145
678 1150
669 1155
659 1157
649 1160
639 1160
629 1162
619 1165
610 1160
600 1160
590 1160
580 1160
570 1158
561 1153
551 1150
542 1145
533 1140
524 1135
516 1129
509 1121
501 1115
492 1110
482 1110
472 1110
463 1105
453 1105
443 1105
434 1100
425 1095
415 1095
405 1093
396 1088
386 1085
377 1080
369 1073
360 1068
353 1060
345 1053
339 1045
331 1038
326 1029
322 1019
312 1015
302 1015
292 1015
282 1015
273 1010
265 1003
259 995
254 986
249 977
249 967
