24 181
27 164
36 159
39 142
44 127
54 124
63 119
67 109
76 104
84 97
94 87
102 79
112 79
122 79
132 79
142 79
152 79
162 79
172 79
182 79
192 79
202 79
212 79
222 79
232 74
234 56
234 46
234 36
239 22
249 21
259 21
269 21
279 21
289 21
299 21
309 21
319 21
329 21
339 21
349 21
359 21
369 22
379 22
389 22
399 24
409 22
419 24
429 24
439 24
449 24
459 24
469 26
479 26
488 31
495 39
500 48
500 60
500 70
500 80
502 90
507 99
514 107
524 111
530 119
539 114
548 109
557 104
566 109
570 119
575 128
575 138
580 147
580 157
580 167
584 177
579 187
569 190
559 190
553 198
545 205
537 219
528 225
518 225
508 225
498 225
489 220
479 217
474 208
468 200
459 205
450 210
440 210
430 210
421 205
411 203
405 195
395 197
385 195
375 197
365 195
355 195
345 195
335 195
325 195
315 195
305 195
295 195
285 195
275 195
265 195
255 195
245 195
235 195
225 197
215 195
205 197
195 195
185 197
175 195
170 205
165 215
157 224
149 230
139 232
129 230
119 230
109 230
101 224
92 219
82 215
72 214
62 210
54 203
45 198
39 190
29 190
