49 142
49 132
59 129
68 124
77 119
85 111
93 104
97 94
102 84
111 79
121 74
126 65
116 65
106 64
97 59
99 49
109 49
119 49
129 49
139 49
149 49
159 49
167 55
172 64
181 69
189 76
198 81
208 85
218 89
227 94
237 94
246 99
256 99
266 99
276 99
286 99
296 99
306 99
316 99
326 99
336 99
346 99
356 99
366 99
376 99
386 99
396 99
406 99
415 94
425 94
435 94
444 89
454 89
464 89
474 89
483 84
493 84
502 79
512 79
521 84
530 89
535 98
543 105
545 115
550 124
550 134
550 144
550 154
550 164
545 180
545 190
540 205
545 214
550 223
550 233
550 243
550 253
545 270
545 280
540 295
540 305
540 315
540 325
540 340
540 350
535 360
529 370
519 370
509 366
504 357
509 347
514 337
519 323
519 313
519 303
519 293
514 284
509 275
500 280
494 295
485 300
485 310
480 320
480 330
472 339
462 340
452 339
452 324
459 312
464 302
460 285
450 285
441 280
432 285
422 289
412 289
402 285
392 289
382 290
373 285
363 285
354 280
344 280
334 280
325 285
325 295
325 305
320 315
315 330
315 340
315 350
315 360
310 375
310 385
308 398
300 405
290 405
280 405
274 397
274 387
282 379
287 369
289 357
289 347
292 330
289 320
289 310
289 300
285 290
280 305
280 315
280 325
280 335
278 348
270 355
267 369
259 375
249 375
240 370
234 362
244 352
252 344
254 332
259 315
259 305
257 295
248 290
239 285
231 279
224 271
224 261
219 252
215 242
207 235
204 225
196 219
189 211
184 202
177 194
169 187
162 179
152 175
142 175
133 170
123 170
113 170
103 170
93 170
83 170
73 170
64 165
55 160
49 152
