159 297
159 287
164 277
172 269
174 257
182 249
191 254
195 264
200 273
205 282
205 292
205 302
205 312
210 321
210 331
213 341
215 351
215 361
220 370
222 380
225 390
230 399
238 405
244 395
244 385
244 375
244 365
239 356
239 346
239 336
234 327
234 317
234 307
239 292
239 282
239 272
244 257
244 247
249 232
254 222
254 212
259 202
259 192
267 184
277 179
282 169
292 169
300 175
305 184
310 193
305 205
300 220
300 230
300 240
300 250
300 260
295 275
295 285
295 295
295 305
297 315
300 325
300 335
300 345
305 354
309 340
309 330
309 311
309 301
305 291
309 275
309 265
314 247
319 238
319 228
319 218
319 208
319 198
324 182
329 167
334 157
342 149
350 141
358 134
368 135
375 143
380 152
385 161
385 171
380 185
380 195
380 205
380 215
375 230
375 240
370 255
370 265
365 280
365 290
365 300
367 310
370 320
370 330
372 340
377 349
380 359
390 356
395 346
399 327
404 317
404 307
404 297
404 287
404 277
404 267
404 257
409 242
409 232
414 222
414 212
414 202
419 187
419 177
427 169
436 164
444 157
452 164
455 174
460 183
465 192
470 201
470 211
470 221
470 231
470 241
470 251
470 261
470 271
470 281
465 295
465 305
465 315
465 325
465 335
465 345
460 360
460 370
460 380
460 390
460 400
465 409
465 419
465 429
470 438
470 448
470 458
470 468
470 478
470 488
475 497
475 507
485 506
490 496
495 486
499 467
504 457
504 447
509 437
509 427
509 417
514 402
514 392
514 382
522 374
527 364
537 359
547 359
555 365
560 374
565 383
565 393
565 403
565 413
565 423
565 433
570 442
570 452
565 465
560 480
555 490
555 500
550 515
545 530
545 540
540 550
540 560
535 575
535 585
528 593
520 600
515 610
510 620
503 633
495 640
490 650
483 663
478 673
470 680
470 690
460 695
450 700
443 708
438 718
430 725
428 743
418 745
408 745
398 745
388 745
378 745
368 745
358 745
348 745
338 745
328 745
318 745
308 745
298 745
288 745
278 745
269 750
259 750
249 750
239 750
229 750
224 732
229 717
231 699
229 689
226 679
224 669
219 660
214 651
214 641
214 631
214 621
209 612
209 602
204 593
204 583
200 573
199 563
199 553
199 543
199 533
199 523
199 513
195 503
194 493
194 483
194 473
194 463
189 454
189 444
186 434
184 424
179 415
177 405
174 395
172 385
169 375
169 365
169 355
164 346
164 336
164 326
164 316
164 306
