19 262
19 252
29 249
39 249
49 249
59 249
69 251
79 254
89 254
99 254
104 237
112 229
122 224
124 212
134 207
142 199
150 191
154 180
154 170
154 160
149 151
144 142
144 132
144 122
144 112
149 97
157 89
165 81
173 74
183 75
193 79
202 74
212 74
221 79
229 86
230 96
230 106
230 116
230 126
235 135
230 145
230 155
230 165
240 169
250 169
260 166
270 161
280 156
288 149
298 149
307 144
317 144
326 139
336 139
346 139
356 139
366 139
376 139
385 144
395 144
405 144
414 149
424 151
433 156
443 159
452 164
461 169
470 174
479 179
487 185
492 194
499 202
505 210
510 219
515 228
520 237
525 246
535 249
545 249
555 249
565 249
575 249
585 252
595 254
605 254
615 257
615 267
615 277
615 287
613 303
603 308
593 310
583 310
573 310
564 305
555 310
545 310
550 319
555 328
550 345
550 355
543 363
535 370
525 375
515 380
505 380
496 385
486 385
477 390
468 395
459 400
449 400
440 405
431 410
421 410
411 410
402 415
392 415
382 415
372 415
362 415
352 415
342 414
332 410
329 400
328 390
318 390
309 395
299 395
289 395
280 400
270 400
260 405
252 414
242 419
232 420
223 425
214 420
204 417
204 407
212 399
222 394
232 394
239 385
237 375
233 365
224 360
214 357
205 352
197 345
187 345
178 340
169 335
159 337
149 342
139 342
132 334
124 327
115 322
107 315
98 310
88 308
78 310
68 310
59 305
49 305
39 305
29 305
19 302
19 292
19 282
19 272
