27 1269
27 1284
36 1289
46 1293
54 1300
63 1305
72 1310
81 1315
91 1318
100 1323
110 1325
119 1330
128 1335
137 1340
147 1340
156 1345
166 1345
176 1345
185 1350
195 1350
204 1355
214 1355
223 1360
233 1360
243 1360
252 1365
262 1365
272 1365
282 1369
292 1370
302 1370
311 1375
321 1375
331 1375
341 1375
351 1378
361 1380
371 1380
381 1380
391 1380
400 1385
410 1385
420 1387
430 1385
439 1390
449 1390
459 1390
469 1390
479 1390
488 1395
498 1395
508 1395
517 1400
527 1400
537 1400
547 1400
557 1404
567 1405
577 1405
587 1405
596 1410
605 1405
614 1410
624 1410
634 1412
644 1415
654 1415
664 1415
674 1415
684 1415
693 1420
703 1420
713 1420
723 1420
732 1425
741 1420
750 1425
760 1425
770 1425
780 1425
790 1425
800 1425
808 1434
800 1441
792 1449
783 1454
775 1461
767 1469
758 1474
750 1481
742 1489
732 1494
727 1504
718 1509
710 1516
702 1524
693 1529
685 1536
678 1544
670 1551
662 1559
654 1567
644 1572
635 1581
628 1589
620 1596
613 1604
605 1611
598 1619
590 1626
580 1631
572 1639
564 1647
555 1656
548 1664
540 1671
530 1676
525 1686
515 1691
508 1699
500 1706
493 1714
485 1721
478 1729
470 1736
463 1744
455 1751
445 1756
437 1764
429 1772
419 1777
419 1787
411 1794
402 1799
397 1809
388 1814
380 1821
373 1829
365 1836
357 1844
349 1852
344 1864
336 1870
331 1879
322 1884
317 1894
309 1902
305 1916
297 1924
292 1934
284 1942
279 1952
274 1962
269 1972
267 1984
259 1992
254 2007
260 2015
270 2010
280 2005
290 2005
300 2000
310 2000
319 1995
329 1995
337 1989
347 1985
357 1984
367 1979
377 1974
387 1970
396 1965
405 1960
415 1955
424 1950
434 1947
444 1942
452 1935
461 1930
470 1925
480 1925
489 1920
495 1910
505 1905
515 1905
523 1898
530 1890
540 1885
550 1880
560 1875
568 1868
578 1865
587 1860
596 1855
604 1847
614 1845
622 1839
630 1830
640 1830
648 1823
655 1815
665 1810
675 1805
684 1800
694 1797
702 1790
711 1785
720 1780
728 1773
738 1768
748 1763
758 1758
765 1750
775 1745
784 1740
794 1737
802 1729
812 1724
822 1719
830 1710
840 1705
850 1700
860 1695
868 1688
878 1683
888 1678
895 1670
905 1665
915 1660
923 1653
933 1648
943 1643
950 1635
958 1628
968 1623
978 1618
985 1610
993 1603
1000 1595
1010 1590
1020 1585
1028 1578
1038 1573
1044 1565
1052 1559
1060 1550
1068 1543
1078 1538
1084 1530
1092 1524
1102 1520
1102 1530
1094 1537
1089 1552
1084 1562
1079 1577
1074 1587
1069 1597
1064 1607
1064 1617
1059 1627
1054 1642
1049 1657
1044 1667
1044 1677
1039 1687
1034 1697
1034 1707
1029 1717
1029 1727
1024 1737
1019 1747
1019 1757
1014 1767
1014 1777
1009 1792
1004 1802
1004 1812
999 1827
994 1842
994 1852
994 1862
989 1872
984 1882
984 1892
979 1907
979 1917
974 1932
974 1942
969 1957
969 1967
964 1977
964 1987
959 2002
954 2012
949 2027
949 2037
944 2047
944 2057
939 2067
939 2077
939 2087
939 2097
934 2107
934 2117
929 2127
929 2137
924 2147
924 2157
919 2167
919 2177
914 2187
914 2197
909 2207
909 2217
904 2232
904 2242
899 2252
899 2262
894 2272
894 2282
894 2306
889 2322
889 2332
889 2342
884 2352
884 2362
884 2372
879 2382
884 2391
884 2401
884 2411
879 2427
884 2436
884 2446
884 2456
884 2466
894 2467
900 2455
910 2450
918 2443
925 2435
933 2428
940 2420
945 2410
953 2403
960 2395
968 2388
973 2378
978 2368
988 2363
993 2353
998 2343
1003 2333
1010 2320
1015 2310
1023 2303
1028 2293
1035 2280
1040 2265
1045 2255
1053 2248
1055 2235
1060 2225
1065 2215
1070 2205
1075 2195
1080 2185
1085 2175
1093 2168
1098 2158
1100 2145
1105 2130
1113 2123
1115 2110
1120 2100
1125 2090
1133 2083
1135 2070
1140 2060
1148 2053
1150 2035
1155 2025
1163 2018
1165 2005
1170 1995
1178 1988
1180 1975
1188 1968
1190 1955
1195 1945
1200 1935
1205 1925
1210 1910
1218 1903
1220 1890
1225 1875
1233 1868
1238 1858
1240 1845
1248 1838
1250 1820
1255 1810
1260 1800
1265 1790
1270 1775
1279 1770
1284 1779
1286 1789
1291 1798
1295 1808
1300 1817
1304 1827
1304 1837
1312 1844
1314 1854
1319 1863
1324 1872
1329 1881
1334 1890
1334 1900
1340 1908
1344 1918
1349 1927
1354 1936
1359 1945
1362 1955
1364 1965
1369 1974
1374 1983
1375 1993
1384 1998
1389 2007
1389 2017
1394 2026
1399 2035
1404 2044
1406 2054
1411 2063
1415 2073
1420 2082
1424 2092
1429 2101
1434 2110
1439 2119
1444 2128
1449 2137
1449 2147
1454 2156
1459 2165
1465 2173
1469 2183
1474 2192
1479 2201
1484 2210
1487 2220
1492 2229
1496 2239
1501 2248
1505 2258
1509 2268
1514 2277
1519 2286
1524 2295
1530 2303
1535 2312
1539 2322
1547 2329
1551 2339
1556 2348
1560 2358
1568 2365
1575 2373
1580 2382
1584 2392
1594 2395
1597 2405
1605 2412
1609 2422
1617 2429
1624 2437
1632 2444
1639 2452
1649 2455
1652 2465
1660 2472
1665 2457
1665 2447
1665 2437
1665 2427
1665 2417
1665 2407
1665 2397
1665 2387
1665 2377
1665 2367
1664 2357
1660 2347
1660 2337
1659 2327
1655 2317
1655 2307
1655 2297
1655 2287
1654 2277
1650 2267
1650 2257
1645 2248
1645 2238
1640 2229
1640 2219
1640 2209
1635 2200
1635 2190
1630 2181
1630 2171
1625 2162
1625 2152
1620 2143
1620 2133
1615 2124
1615 2114
1615 2104
1610 2095
1610 2085
1610 2075
1610 2065
1605 2056
1605 2046
1600 2037
1600 2027
1599 2017
1595 2007
1590 1998
1585 1989
1585 1979
1585 1969
1580 1960
1580 1950
1577 1940
1575 1930
1575 1920
1570 1911
1570 1901
1568 1891
1565 1881
1560 1872
1560 1862
1560 1852
1555 1843
1555 1833
1550 1824
1550 1814
1545 1805
1545 1795
1540 1786
1540 1776
1539 1766
1534 1757
1530 1747
1529 1737
1525 1727
1524 1717
1520 1707
1519 1697
1515 1687
1510 1678
1510 1668
1505 1659
1500 1650
1497 1640
1495 1630
1490 1621
1490 1611
1485 1602
1480 1593
1475 1584
1475 1574
1470 1565
1465 1556
1460 1547
1460 1537
1452 1530
1450 1520
1460 1522
1469 1527
1477 1534
1484 1542
1492 1549
1499 1557
1509 1560
1515 1568
1523 1575
1530 1583
1538 1590
1547 1595
1557 1599
1564 1607
1574 1610
1580 1618
1588 1625
1597 1630
1605 1637
1612 1645
1622 1649
1631 1654
1639 1660
1648 1665
1657 1670
1665 1677
1674 1682
1682 1689
1691 1694
1701 1698
1709 1704
1717 1710
1727 1714
1736 1719
1744 1725
1753 1730
1762 1735
1770 1742
1779 1747
1789 1750
1798 1755
1805 1763
1815 1767
1824 1772
1830 1780
1840 1782
1847 1790
1857 1794
1867 1795
1875 1802
1882 1810
1892 1810
1897 1819
1907 1820
1915 1827
1924 1832
1934 1835
1940 1843
1950 1847
1957 1855
1967 1855
1975 1862
1982 1870
1992 1874
2002 1875
2010 1882
2017 1890
2027 1894
2036 1899
2044 1905
2053 1910
2062 1915
2072 1919
2081 1924
2091 1928
2099 1935
2108 1940
2117 1945
2126 1950
2135 1955
2144 1960
2154 1960
2163 1965
2170 1973
2180 1975
2189 1980
2199 1980
2208 1985
2217 1990
2226 1995
2236 1995
2244 2001
2254 2005
2264 2005
2274 2005
2280 2013
2290 2010
2287 2000
2285 1990
2280 1981
2275 1972
2270 1963
2265 1954
2260 1945
2255 1936
2250 1927
2242 1920
2235 1912
2234 1902
2230 1892
2220 1888
2215 1879
2208 1871
2200 1865
2194 1857
2187 1849
2182 1840
2174 1834
2165 1829
2162 1819
2153 1814
2148 1805
2140 1799
2134 1791
2126 1784
2117 1779
2112 1770
2105 1762
2097 1755
2090 1747
2080 1743
2073 1735
2065 1729
2058 1721
2050 1715
2044 1707
2035 1702
2029 1694
2020 1689
2016 1679
2007 1674
2002 1665
1995 1657
1985 1653
1978 1645
1970 1639
1964 1631
1956 1624
1947 1619
1942 1610
1934 1604
1928 1596
1920 1590
1914 1582
1905 1577
1898 1569
1890 1563
1883 1555
1875 1548
1868 1540
1860 1534
1854 1526
1844 1522
1837 1514
1829 1507
1822 1499
1813 1494
1805 1487
1799 1479
1790 1474
1784 1466
1776 1459
1767 1454
1759 1447
1752 1439
1742 1435
1740 1425
1750 1425
1760 1425
1770 1425
1780 1420
1789 1425
1799 1425
1808 1420
1818 1420
1828 1420
1838 1420
1848 1418
1858 1418
1868 1415
1878 1415
1888 1415
1898 1415
1907 1410
1917 1410
1927 1410
1936 1405
1946 1405
1956 1405
1966 1405
1975 1400
1985 1400
1995 1400
2005 1400
2015 1395
2025 1395
2035 1395
2045 1390
2055 1390
2065 1390
2075 1385
2085 1387
2095 1387
2105 1385
2115 1385
2124 1380
2134 1382
2144 1380
2154 1377
2164 1375
2174 1375
2184 1375
2194 1375
2204 1375
2214 1372
2224 1370
2233 1365
2242 1370
2251 1365
2261 1365
2271 1365
2280 1360
2290 1355
2300 1355
2310 1355
2320 1355
2330 1350
2340 1350
2349 1345
2359 1345
2369 1345
2379 1342
2389 1340
2398 1335
2408 1335
2417 1330
2426 1325
2436 1325
2445 1320
2454 1315
2464 1312
2474 1307
2482 1300
2492 1299
2502 1294
2510 1285
2520 1274
2514 1266
2504 1264
2494 1262
2485 1257
2475 1254
2466 1249
2456 1249
2447 1244
2437 1244
2428 1239
2418 1239
2408 1239
2399 1234
2389 1234
2379 1231
2369 1229
2359 1229
2349 1229
2340 1224
2330 1224
2320 1224
2310 1224
2301 1219
2291 1219
2281 1219
2272 1214
2263 1219
2253 1219
2244 1214
2234 1214
2224 1214
2214 1214
2205 1209
2195 1209
2185 1209
2175 1209
2165 1209
2155 1209
2146 1204
2136 1204
2126 1204
2116 1204
2106 1204
2096 1204
2087 1199
2077 1199
2067 1199
2057 1199
2047 1199
2037 1199
2028 1194
2018 1195
2008 1194
1998 1194
1988 1194
1978 1194
1968 1194
1958 1190
1948 1189
1938 1189
1928 1189
1918 1189
1908 1189
1899 1184
1889 1184
1879 1184
1869 1184
1859 1184
1849 1181
1839 1182
1829 1184
1820 1179
1810 1179
1800 1179
1790 1179
1780 1179
1770 1179
1760 1179
1750 1177
1740 1179
1730 1179
1720 1179
1710 1179
1700 1179
1690 1179
1680 1179
1670 1179
1660 1179
1650 1179
1640 1181
1630 1181
1620 1184
1610 1184
1600 1184
1590 1184
1580 1187
1570 1189
1565 1180
1574 1175
1582 1169
1592 1164
1600 1155
1610 1155
1618 1148
1628 1143
1634 1135
1644 1132
1654 1127
1662 1119
1672 1114
1680 1105
1689 1100
1697 1094
1705 1085
1714 1080
1723 1075
1730 1065
1739 1060
1747 1054
1755 1045
1765 1040
1774 1035
1782 1029
1787 1020
1796 1015
1804 1007
1812 1000
1821 995
1829 987
1837 979
1847 974
1855 960
1865 955
1873 948
1883 943
1888 933
1895 925
1905 920
1913 913
1920 905
1928 898
1938 893
1945 880
1955 875
1965 870
1970 860
1978 853
1985 845
1995 840
2003 833
2010 825
2018 818
2028 813
2035 805
2043 798
2050 790
2059 785
2067 779
2075 765
2085 760
2093 753
2103 748
2110 740
2118 733
2125 725
2133 718
2143 713
2150 700
2159 695
2167 689
2175 680
2180 670
2188 663
2195 655
2205 645
2213 638
2220 630
2230 620
2238 613
2245 605
2250 590
2260 585
2260 575
2270 570
2275 560
2280 545
2288 535
2280 529
2270 529
2261 534
2251 534
2241 534
2231 534
2222 539
2213 544
2203 544
2194 549
2184 549
2175 554
2165 556
2155 559
2145 561
2135 564
2126 569
2117 574
2107 574
2098 579
2090 586
2083 594
2073 594
2064 599
2055 604
2045 606
2035 611
2025 616
2015 621
2008 629
1999 634
1990 639
1980 641
1970 646
1960 651
1950 656
1943 664
1934 669
1924 672
1916 679
1906 680
1900 689
1891 694
1882 699
1872 699
1862 704
1857 714
1847 714
1839 722
1830 729
1820 731
1810 736
1803 744
1793 744
1785 751
1778 759
1768 759
1760 766
1750 771
1743 779
1733 779
1725 786
1715 791
1705 796
1697 804
1687 804
1679 812
1670 819
1660 821
1652 829
1642 834
1634 842
1624 847
1614 852
1604 857
1596 864
1587 869
1578 874
1570 881
1560 880
1565 865
1570 855
1570 845
1575 835
1575 825
1580 810
1585 800
1585 790
1585 780
1590 765
1595 755
1595 745
1600 730
1600 720
1605 705
1605 695
1610 680
1610 670
1615 655
1615 645
1620 635
1620 625
1620 615
1620 605
1625 595
1625 585
1630 575
1630 565
1635 550
1635 540
1635 525
1640 515
1640 505
1645 495
1645 485
1650 470
1655 459
1650 450
1655 440
1655 430
1660 420
1660 410
1665 395
1665 385
1665 375
1670 365
1670 355
1675 345
1675 335
1675 325
1675 315
1680 305
1680 295
1680 280
1680 270
1682 260
1680 250
1680 240
1685 223
1685 213
1685 203
1685 193
1685 183
1685 173
1685 163
1680 154
1680 144
1675 135
1675 125
1675 111
1670 102
1670 92
1670 82
1660 81
1653 89
1645 96
1640 106
1632 114
1627 124
1622 134
1612 139
1607 149
1600 167
1592 174
1587 184
1582 194
1574 202
1572 219
1564 227
1557 239
1549 247
1547 264
1542 274
1534 282
1532 294
1527 304
1519 312
1519 322
1514 332
1509 342
1504 352
1499 362
1499 372
1494 382
1489 392
1484 402
1479 412
1477 429
1472 439
1467 449
1459 457
1459 467
1454 477
1449 487
1444 502
1439 512
1434 522
1429 532
1429 542
1424 552
1419 562
1417 574
1409 582
1404 597
1399 607
1399 617
1394 627
1387 644
1379 652
1374 667
1372 684
1364 692
1359 707
1354 722
1349 737
1344 747
1344 757
1339 767
1337 779
1329 787
1329 797
1324 807
1319 817
1319 827
1317 839
1309 847
1309 857
1304 872
1299 882
1299 892
1294 902
1294 912
1294 922
1289 932
1284 947
1284 957
1282 969
1277 979
1272 970
1270 960
1270 950
1265 941
1265 931
1263 921
1260 911
1258 901
1255 891
1254 881
1249 872
1245 862
1245 852
1240 843
1235 834
1235 824
1232 814
1227 805
1225 795
1222 785
1215 777
1214 767
1210 757
1210 747
1205 738
1200 729
1197 719
1192 710
1190 700
1188 690
1180 683
1175 674
1175 664
1172 654
1167 645
1160 637
1159 627
1155 617
1154 607
1147 599
1142 590
1140 580
1135 571
1130 562
1125 553
1120 544
1120 534
1120 524
1114 516
1109 507
1105 497
1105 487
1097 480
1095 470
1090 461
1085 452
1085 442
1080 433
1075 424
1072 414
1067 405
1063 395
1058 386
1055 376
1050 367
1049 357
1045 347
1040 338
1035 329
1030 320
1030 310
1024 302
1020 292
1015 283
1010 274
1005 265
1000 256
1000 246
995 237
985 234
982 224
977 215
975 205
970 196
965 187
960 178
955 169
948 161
945 151
940 142
930 139
926 129
920 121
915 112
907 105
903 95
895 89
889 81
879 82
879 92
874 102
874 112
869 122
869 137
869 147
864 157
864 167
864 191
864 201
859 212
864 221
864 231
864 241
864 252
864 262
869 271
864 282
864 292
869 301
869 311
874 320
874 341
874 351
879 360
879 370
879 382
884 391
884 401
889 410
889 420
892 430
894 440
894 450
894 460
899 469
899 479
904 488
904 498
909 507
909 517
909 532
914 541
914 551
919 560
919 570
924 579
924 589
929 598
929 608
929 618
929 628
934 637
934 647
934 657
939 666
939 676
944 685
944 695
947 705
949 715
949 725
954 734
954 744
956 754
961 763
964 773
964 783
969 792
969 802
969 812
974 821
979 830
979 840
984 849
984 859
986 869
989 879
979 877
972 869
962 865
954 859
945 854
936 849
927 844
919 837
910 832
900 829
894 821
884 817
877 809
867 805
858 800
848 796
839 791
831 784
822 779
813 774
803 770
795 764
785 762
778 754
768 750
760 744
751 739
742 734
733 729
724 724
714 722
707 714
698 709
688 705
680 699
671 694
662 689
652 685
643 680
635 674
626 669
617 664
608 659
598 655
590 648
583 640
573 639
564 634
555 629
546 624
537 619
527 615
519 609
510 604
501 599
492 594
482 594
473 589
464 584
455 579
445 577
439 569
430 564
420 564
411 559
401 559
392 554
382 554
373 549
363 549
354 544
344 544
334 544
325 539
316 534
306 534
296 534
287 529
277 529
267 529
264 546
269 555
274 564
280 572
284 582
294 585
294 595
297 605
307 609
314 617
319 626
329 630
332 640
340 647
347 655
355 662
359 672
367 679
375 685
384 690
387 700
396 705
404 711
411 719
419 725
425 733
433 740
442 745
450 752
459 757
464 766
474 770
480 778
488 785
495 793
503 800
512 805
520 812
529 817
534 826
544 830
550 838
558 845
567 850
572 859
579 867
589 870
598 875
602 885
611 890
619 896
626 904
634 910
640 918
650 922
657 930
665 937
672 945
681 950
689 956
696 964
704 970
710 978
718 985
725 993
735 997
742 1005
752 1009
759 1017
767 1024
774 1032
784 1035
790 1043
798 1050
807 1055
816 1060
821 1069
829 1075
838 1080
847 1085
855 1092
862 1100
872 1104
879 1112
889 1115
895 1123
903 1130
913 1130
920 1138
930 1142
937 1150
946 1155
956 1158
964 1165
973 1170
982 1175
981 1185
971 1184
961 1184
951 1184
941 1184
931 1180
921 1179
911 1179
901 1179
891 1179
881 1179
871 1179
861 1179
851 1179
841 1179
831 1179
821 1179
812 1174
802 1174
793 1179
783 1179
773 1179
763 1179
753 1179
743 1179
733 1179
724 1184
715 1179
705 1179
695 1181
685 1184
675 1184
665 1184
655 1184
645 1184
636 1189
626 1189
616 1185
606 1189
596 1189
586 1189
576 1189
566 1190
556 1194
546 1194
536 1194
526 1194
516 1194
506 1194
497 1199
487 1199
477 1199
467 1199
457 1199
447 1199
438 1204
428 1204
419 1199
409 1202
399 1204
389 1204
379 1204
369 1206
359 1206
349 1204
339 1207
329 1209
319 1209
310 1214
300 1214
290 1212
280 1214
270 1214
260 1214
250 1214
241 1219
231 1219
221 1220
211 1224
201 1224
191 1224
181 1225
171 1229
161 1229
151 1230
141 1234
131 1235
121 1239
111 1239
102 1244
92 1244
83 1249
73 1249
64 1254
55 1259
46 1264
36 1264
