429 2267
424 2277
429 2286
439 2285
449 2285
459 2285
469 2285
479 2285
489 2282
499 2282
509 2282
519 2280
529 2280
539 2280
549 2277
559 2277
569 2275
579 2275
589 2275
599 2275
608 2270
618 2270
628 2270
638 2270
648 2268
658 2268
668 2265
678 2265
688 2265
697 2260
707 2260
717 2260
727 2260
736 2255
746 2255
756 2255
766 2255
775 2250
785 2250
795 2250
805 2250
815 2250
824 2245
834 2245
844 2245
854 2245
863 2240
873 2240
883 2240
893 2240
902 2235
912 2235
922 2235
932 2235
942 2234
952 2234
962 2230
972 2230
982 2230
991 2225
1001 2225
1011 2225
1021 2225
1031 2225
1041 2225
1051 2223
1061 2220
1071 2220
1081 2220
1091 2220
1100 2215
1110 2215
1120 2215
1130 2215
1140 2215
1150 2215
1160 2215
1170 2210
1179 2215
1185 2223
1193 2230
1202 2235
1210 2242
1217 2250
1227 2254
1236 2259
1244 2265
1253 2270
1262 2275
1271 2280
1280 2285
1290 2287
1299 2292
1309 2295
1318 2300
1328 2300
1337 2305
1347 2305
1357 2309
1367 2310
1377 2310
1387 2314
1397 2315
1407 2315
1417 2315
1427 2315
1437 2315
1447 2315
1457 2315
1467 2315
1477 2315
1487 2315
1497 2314
1507 2314
1517 2314
1527 2310
1536 2305
1546 2305
1556 2305
1566 2303
1576 2300
1585 2295
1595 2290
1605 2285
1615 2285
1624 2280
1633 2275
1642 2269
1652 2264
1662 2259
1670 2250
1680 2245
1688 2238
1698 2233
1705 2225
1714 2220
1724 2220
1734 2220
1743 2225
1752 2220
1761 2225
1771 2225
1781 2225
1791 2228
1801 2228
1811 2230
1821 2230
1831 2230
1841 2233
1851 2233
1861 2235
1871 2235
1881 2235
1891 2235
1900 2240
1910 2240
1920 2240
1930 2240
1939 2245
1949 2245
1959 2245
1969 2245
1978 2250
1988 2250
1998 2250
2008 2250
2018 2250
2027 2255
2037 2255
2047 2255
2057 2255
2066 2260
2076 2260
2086 2260
2096 2263
2106 2265
2116 2265
2126 2265
2136 2268
2146 2268
2156 2270
2166 2270
2176 2270
2186 2270
2195 2275
2205 2275
2215 2275
2225 2275
2235 2275
2244 2280
2254 2280
2264 2280
2274 2280
2284 2280
2294 2280
2303 2285
2313 2285
2323 2285
2333 2285
2343 2285
2353 2285
2362 2290
2372 2289
2382 2289
2392 2285
2401 2290
2411 2290
2421 2290
2420 2274
2416 2264
2410 2256
2405 2247
2400 2238
2395 2229
2389 2221
2384 2212
2380 2202
2372 2195
2368 2185
2360 2178
2355 2169
2350 2160
2344 2152
2340 2142
2335 2133
2328 2125
2320 2118
2315 2109
2312 2099
2304 2092
2300 2082
2295 2073
2288 2065
2280 2058
2275 2049
2270 2040
2264 2032
2260 2022
2252 2015
2248 2005
2240 1999
2237 1989
2229 1982
2225 1972
2217 1965
2213 1955
2205 1949
2201 1939
2195 1931
2190 1922
2182 1915
2178 1905
2170 1899
2166 1889
2160 1881
2155 1872
2147 1865
2143 1855
2135 1848
2130 1839
2127 1829
2119 1822
2115 1812
2107 1805
2103 1795
2095 1789
2090 1780
2084 1772
2080 1762
2072 1755
2068 1745
2060 1738
2055 1729
2050 1720
2044 1712
2040 1702
2032 1695
2025 1687
2020 1678
2015 1669
2009 1661
2004 1652
2000 1642
1992 1635
1988 1625
1980 1618
1975 1609
1969 1601
1964 1592
1960 1582
1952 1575
1948 1565
1940 1559
1936 1549
1930 1541
1925 1532
1920 1523
1915 1514
1909 1506
1904 1497
1897 1489
1892 1480
1888 1470
1880 1464
1876 1454
1870 1446
1865 1437
1860 1428
1855 1419
1848 1411
1844 1401
1839 1392
1832 1384
1827 1375
1823 1365
1815 1358
1810 1349
1806 1339
1800 1331
1795 1322
1790 1313
1785 1304
1780 1295
1774 1287
1770 1277
1765 1268
1760 1259
1755 1250
1749 1242
1745 1232
1740 1223
1735 1214
1728 1206
1724 1196
1719 1187
1712 1179
1702 1179
1692 1179
1682 1179
1672 1179
1663 1174
1653 1174
1643 1170
1633 1169
1623 1166
1614 1161
1604 1157
1595 1152
1585 1149
1578 1141
1569 1136
1561 1129
1552 1124
1547 1115
1538 1110
1530 1104
1527 1094
1519 1087
1512 1079
1507 1070
1503 1060
1498 1051
1494 1041
1489 1032
1485 1022
1485 1012
1480 1003
1480 993
1475 984
1475 974
1475 964
1470 955
1470 945
1470 935
1470 925
1470 915
1470 905
1475 895
1475 885
1475 875
1480 865
1480 855
1485 840
1490 825
1495 815
1500 805
1505 790
1510 772
1505 763
1505 753
1500 744
1500 734
1500 724
1495 715
1495 705
1495 695
1490 686
1490 676
1490 666
1485 657
1485 647
1484 637
1480 627
1480 617
1475 608
1475 598
1475 588
1475 578
1470 569
1470 559
1465 550
1465 536
1465 526
1460 517
1460 507
1459 497
1455 487
1455 477
1454 467
1450 457
1450 447
1449 437
1445 427
1445 417
1445 407
1440 398
1440 388
1440 378
1435 369
1435 359
1430 350
1430 339
1430 329
1427 319
1419 312
1414 322
1414 332
1409 342
1404 357
1404 367
1399 377
1399 387
1394 397
1389 412
1389 422
1384 432
1384 442
1379 452
1374 467
1374 477
1369 487
1369 497
1364 507
1364 517
1359 527
1359 537
1354 547
1354 557
1349 567
1344 582
1339 597
1339 607
1334 617
1334 627
1329 637
1329 647
1324 657
1324 667
1319 677
1314 692
1314 702
1309 712
1304 727
1304 737
1299 747
1299 757
1294 767
1289 782
1284 797
1284 807
1279 817
1279 827
1274 837
1269 852
1264 867
1264 877
1259 887
1259 897
1254 907
1249 922
1244 937
1244 947
1239 957
1234 972
1234 982
1239 991
1244 1000
1247 1010
1249 1020
1252 1030
1254 1040
1254 1050
1254 1060
1254 1077
1254 1087
1254 1097
1254 1107
1249 1117
1249 1127
1244 1137
1239 1152
1234 1167
1227 1179
1219 1187
1213 1199
1205 1206
1197 1214
1189 1222
1179 1227
1171 1234
1161 1235
1151 1239
1141 1240
1131 1240
1121 1244
1111 1244
1102 1239
1092 1239
1087 1249
1079 1257
1074 1267
1067 1279
1062 1289
1057 1299
1052 1309
1044 1317
1039 1327
1034 1337
1029 1347
1014 1367
1012 1379
1004 1387
997 1399
992 1409
987 1419
979 1427
972 1439
967 1449
962 1459
954 1467
949 1477
942 1489
937 1499
932 1509
924 1517
917 1529
912 1539
907 1549
899 1557
892 1569
887 1579
879 1587
872 1599
867 1609
862 1619
854 1627
847 1639
842 1649
837 1659
829 1667
822 1679
814 1687
807 1699
802 1709
794 1717
787 1729
782 1739
777 1749
769 1757
757 1774
752 1784
747 1794
739 1802
732 1814
724 1822
719 1832
712 1844
704 1852
697 1864
692 1874
684 1882
677 1894
672 1904
664 1912
657 1924
649 1932
644 1942
637 1954
629 1962
622 1974
617 1984
609 1992
602 2004
597 2014
589 2022
582 2034
574 2042
569 2052
562 2064
554 2072
549 2082
542 2094
534 2102
529 2112
522 2124
514 2132
509 2142
502 2154
494 2162
489 2172
482 2184
478 2194
470 2201
465 2211
460 2221
452 2229
447 2239
442 2249
437 2259
