514 717
514 707
524 704
534 706
544 709
554 706
549 697
542 689
534 682
527 674
519 667
519 657
524 647
532 639
534 621
534 611
529 602
529 592
529 582
529 570
529 560
524 551
519 542
519 532
529 526
529 516
524 507
524 497
524 487
532 479
542 479
551 484
560 489
568 495
575 503
585 507
593 514
603 515
613 514
623 514
632 509
642 504
652 504
662 499
671 504
681 504
690 509
700 509
710 509
719 504
729 506
738 511
745 519
754 524
763 529
773 529
774 517
774 507
774 497
774 487
782 479
792 479
801 484
809 491
818 496
825 504
834 509
843 514
852 519
861 514
871 510
881 509
890 504
900 504
909 499
918 504
928 504
937 509
947 509
957 509
966 504
975 509
985 512
993 519
1002 524
1011 529
1021 529
1024 516
1019 507
1019 497
1019 487
1027 479
1037 479
1046 484
1055 489
1063 495
1070 503
1080 507
1088 514
1098 515
1108 514
1118 514
1127 509
1137 504
1147 504
1157 499
1166 504
1176 504
1185 509
1195 509
1205 509
1214 504
1224 506
1233 511
1240 519
1249 524
1258 529
1268 529
1269 517
1269 507
1269 497
1269 487
1277 479
1287 479
1296 484
1304 491
1313 496
1320 504
1329 509
1338 514
1347 519
1356 514
1366 510
1376 509
1385 504
1395 504
1404 499
1413 504
1423 504
1432 509
1442 509
1452 509
1461 504
1470 509
1480 512
1488 519
1497 524
1506 529
1516 529
1519 516
1514 507
1514 497
1514 487
1522 479
1532 479
1541 484
1550 489
1558 495
1565 503
1575 507
1583 514
1593 515
1603 514
1613 514
1622 509
1632 504
1642 504
1652 499
1661 504
1671 504
1680 509
1690 509
1700 509
1709 504
1719 506
1728 511
1735 519
1744 524
1753 529
1763 529
1764 517
1764 507
1764 497
1764 487
1772 479
1782 479
1791 484
1799 491
1808 496
1815 504
1824 509
1833 514
1842 519
1851 514
1861 510
1871 509
1880 504
1890 504
1899 499
1908 504
1918 504
1927 509
1937 509
1947 509
1956 504
1965 509
1975 512
1983 519
1992 524
2001 529
2011 529
2014 516
2009 507
2009 497
2009 487
2017 479
2027 479
2036 484
2045 489
2053 495
2060 503
2070 507
2078 514
2088 515
2098 514
2108 514
2117 509
2127 504
2137 504
2147 499
2156 504
2166 504
2175 509
2185 509
2195 509
2204 504
2214 506
2223 511
2230 519
2239 524
2248 529
2258 529
2259 517
2259 507
2259 497
2259 487
2267 479
2277 479
2286 484
2294 491
2303 496
2310 504
2319 509
2328 514
2337 519
2346 514
2356 510
2366 509
2370 519
2378 525
2380 540
2375 550
2375 560
2375 570
2375 580
2380 589
2380 599
2375 615
2375 625
2380 634
2380 644
2385 653
2390 662
2395 671
2395 681
2400 690
2400 700
2395 715
2388 723
2378 728
2370 735
2365 745
2367 755
2372 764
2379 772
2380 785
2375 795
2375 805
2375 815
2375 825
2377 835
2380 845
2375 860
2375 870
2377 880
2380 890
2385 899
2390 908
2395 917
2395 927
2400 936
2400 946
2395 960
2388 970
2379 975
2370 980
2365 990
2367 1000
2370 1010
2375 1019
2380 1028
2375 1045
2375 1055
2375 1065
2375 1075
2380 1084
2380 1094
2375 1110
2375 1120
2380 1129
2380 1139
2385 1148
2390 1157
2395 1166
2395 1176
2400 1185
2400 1195
2395 1210
2388 1218
2378 1223
2370 1230
2365 1240
2367 1250
2372 1259
2379 1267
2380 1280
2375 1290
2375 1300
2375 1310
2375 1320
2377 1330
2380 1340
2375 1355
2375 1365
2377 1375
2380 1385
2385 1394
2390 1403
2395 1412
2395 1422
2400 1431
2400 1441
2395 1455
2388 1465
2379 1470
2370 1475
2365 1485
2367 1495
2370 1505
2375 1514
2380 1523
2375 1540
2375 1550
2375 1560
2375 1570
2380 1579
2380 1589
2375 1605
2375 1615
2380 1624
2380 1634
2385 1643
2390 1652
2395 1661
2395 1671
2400 1680
2400 1690
2395 1705
2388 1713
2378 1718
2370 1725
2365 1735
2367 1745
2372 1754
2379 1762
2380 1775
2375 1785
2375 1795
2375 1805
2375 1815
2377 1825
2380 1835
2375 1850
2375 1860
2377 1870
2380 1880
2385 1889
2390 1898
2395 1907
2395 1917
2400 1926
2400 1936
2395 1950
2388 1960
2379 1965
2370 1970
2365 1980
2367 1990
2370 2000
2375 2009
2380 2018
2375 2035
2375 2045
2375 2055
2375 2065
2380 2074
2380 2084
2375 2100
2375 2110
2380 2119
2380 2129
2385 2138
2390 2147
2395 2156
2395 2166
2400 2175
2400 2185
2395 2200
2388 2208
2378 2213
2370 2220
2365 2230
2367 2240
2372 2249
2379 2257
2380 2270
2375 2280
2375 2290
2375 2300
2375 2310
2377 2320
2380 2330
2375 2345
2375 2355
2377 2365
2375 2375
2375 2385
2370 2400
2362 2409
2352 2410
2343 2405
2333 2405
2324 2400
2315 2395
2305 2395
2295 2395
2285 2395
2275 2395
2265 2395
2255 2395
2245 2395
2235 2395
2227 2404
2219 2410
2209 2410
2199 2410
2189 2410
2180 2405
2170 2403
2164 2395
2154 2391
2149 2382
2140 2377
2130 2375
2125 2390
2124 2402
2116 2410
2106 2410
2096 2408
2086 2404
2077 2399
2067 2395
2057 2395
2047 2395
2037 2395
2027 2395
2017 2395
2007 2395
1997 2395
1987 2395
1979 2402
1971 2410
1961 2410
1951 2410
1941 2408
1931 2405
1922 2400
1913 2395
1905 2388
1899 2380
1890 2375
1880 2375
1880 2385
1875 2400
1867 2409
1857 2410
1848 2405
1838 2405
1829 2400
1820 2395
1810 2395
1800 2395
1790 2395
1780 2395
1770 2395
1760 2395
1750 2395
1740 2395
1732 2404
1724 2410
1714 2410
1704 2410
1694 2410
1685 2405
1675 2403
1669 2395
1659 2391
1654 2382
1645 2377
1635 2375
1630 2390
1629 2402
1621 2410
1611 2410
1601 2408
1591 2404
1582 2399
1572 2395
1562 2395
1552 2395
1542 2395
1532 2395
1522 2395
1512 2395
1502 2395
1492 2395
1484 2402
1476 2410
1466 2410
1456 2410
1446 2408
1436 2405
1427 2400
1418 2395
1410 2388
1404 2380
1395 2375
1385 2375
1385 2385
1380 2400
1372 2409
1362 2410
1353 2405
1343 2405
1334 2400
1325 2395
1315 2395
1305 2395
1295 2395
1285 2395
1275 2395
1265 2395
1255 2395
1245 2395
1237 2404
1229 2410
1219 2410
1209 2410
1199 2410
1190 2405
1180 2403
1174 2395
1164 2391
1159 2382
1150 2377
1140 2375
1135 2390
1134 2402
1126 2410
1116 2410
1106 2408
1096 2404
1087 2399
1077 2395
1067 2395
1057 2395
1047 2395
1037 2395
1027 2395
1017 2395
1007 2395
997 2395
989 2402
981 2410
971 2410
961 2410
951 2408
941 2405
932 2400
923 2395
915 2388
909 2380
900 2375
890 2375
890 2385
885 2400
877 2409
867 2410
858 2405
848 2405
839 2400
830 2395
820 2395
810 2395
800 2395
790 2395
780 2395
770 2395
760 2395
750 2395
742 2404
734 2410
724 2410
714 2410
704 2410
695 2405
685 2403
679 2395
669 2391
664 2382
655 2377
645 2375
640 2390
640 2400
632 2409
622 2410
612 2410
603 2405
594 2400
585 2395
575 2395
565 2395
555 2395
545 2395
535 2395
525 2395
519 2387
527 2379
532 2369
534 2356
534 2346
529 2337
529 2327
529 2317
529 2300
527 2290
524 2280
519 2271
514 2262
514 2252
519 2241
519 2231
514 2222
514 2212
514 2202
514 2192
524 2189
534 2191
544 2194
554 2191
549 2182
542 2174
534 2167
527 2159
519 2152
519 2142
524 2132
532 2124
534 2106
534 2096
529 2087
529 2077
529 2067
529 2050
527 2040
524 2030
519 2021
514 2012
514 2002
519 1991
519 1981
514 1972
514 1962
514 1952
514 1942
524 1939
533 1944
542 1949
552 1940
549 1930
541 1923
531 1919
524 1911
519 1902
519 1892
527 1884
532 1874
534 1861
534 1851
529 1842
529 1832
529 1822
529 1805
527 1795
524 1785
519 1776
514 1767
514 1757
519 1746
519 1736
514 1727
514 1717
514 1707
514 1697
524 1694
534 1696
544 1699
554 1696
549 1687
542 1679
534 1672
527 1664
519 1657
519 1647
524 1637
532 1629
534 1611
534 1601
529 1592
529 1582
529 1572
529 1555
527 1545
524 1535
519 1526
514 1517
514 1507
519 1496
519 1486
514 1477
514 1467
514 1457
514 1447
524 1444
533 1449
542 1454
552 1445
549 1435
541 1428
531 1424
524 1416
519 1407
519 1397
527 1389
532 1379
534 1366
534 1356
529 1347
529 1337
529 1327
529 1310
527 1300
524 1290
519 1281
514 1272
514 1262
519 1251
519 1241
514 1232
514 1222
514 1212
514 1202
524 1199
534 1201
544 1204
554 1201
549 1192
542 1184
534 1177
527 1169
519 1162
519 1152
524 1142
532 1134
534 1116
534 1106
529 1097
529 1087
529 1077
529 1060
527 1050
524 1040
519 1031
514 1022
514 1012
519 1001
519 991
514 982
514 972
514 962
514 952
524 949
533 954
542 959
552 950
549 940
541 933
531 929
524 921
519 912
519 902
527 894
532 884
534 871
534 861
529 852
529 842
529 832
529 815
527 805
524 795
519 786
514 777
514 767
519 756
519 746
514 737
514 727
