479 1172
479 1162
489 1161
499 1164
509 1164
518 1169
528 1170
538 1174
548 1175
558 1179
568 1179
577 1184
587 1184
596 1189
606 1189
615 1194
625 1194
634 1199
644 1199
653 1204
663 1204
672 1209
682 1209
691 1214
701 1214
710 1219
720 1219
730 1222
740 1224
750 1227
760 1229
770 1232
780 1234
790 1237
800 1239
810 1242
820 1244
830 1247
840 1249
850 1252
860 1254
870 1257
880 1259
889 1264
899 1264
908 1269
918 1269
927 1274
937 1274
946 1279
956 1279
965 1284
975 1284
985 1287
995 1289
1005 1292
1015 1294
1025 1297
1035 1299
1045 1302
1055 1304
1065 1307
1075 1309
1085 1312
1095 1314
1105 1317
1115 1319
1125 1322
1132 1314
1137 1304
1142 1294
1147 1284
1152 1274
1159 1262
1167 1254
1175 1246
1183 1239
1189 1227
1197 1219
1207 1214
1215 1206
1225 1201
1233 1194
1242 1189
1252 1184
1262 1179
1272 1174
1282 1174
1291 1169
1301 1169
1310 1158
1309 1148
1309 1138
1304 1129
1304 1119
1299 1110
1299 1100
1297 1090
1294 1080
1294 1070
1289 1061
1289 1051
1284 1042
1284 1032
1284 1022
1279 1013
1279 1003
1275 993
1274 983
1270 973
1269 963
1269 953
1264 944
1264 934
1261 924
1259 914
1256 904
1254 894
1254 884
1249 875
1249 865
1247 855
1244 845
1244 835
1239 826
1239 816
1234 807
1234 797
1234 787
1229 778
1229 768
1224 759
1224 749
1221 739
1219 729
1219 719
1214 710
1214 700
1212 690
1209 680
1207 670
1204 660
1204 650
1199 641
1199 631
1199 621
1194 612
1194 602
1189 593
1189 583
1185 573
1184 563
1184 553
1179 544
1179 534
1174 525
1174 515
1174 505
1169 496
1169 486
1164 477
1164 467
1174 464
1184 464
1194 464
1204 464
1214 464
1224 464
1234 464
1244 464
1254 464
1264 464
1274 464
1284 464
1294 464
1304 464
1314 464
1324 464
1334 464
1344 464
1354 464
1364 464
1374 464
1384 464
1394 464
1404 464
1414 464
1424 464
1434 464
1444 464
1454 464
1464 464
1474 464
1484 464
1494 464
1504 464
1514 464
1524 464
1534 464
1544 464
1554 464
1564 464
1574 464
1584 464
1594 464
1604 464
1614 464
1624 466
1620 480
1615 495
1615 505
1610 515
1610 525
1605 535
1600 550
1600 560
1595 570
1590 585
1590 595
1585 605
1580 620
1580 630
1575 640
1570 655
1570 665
1565 675
1560 690
1560 700
1555 710
1550 725
1550 735
1545 745
1545 755
1540 765
1535 780
1535 790
1530 800
1525 815
1525 825
1520 835
1515 850
1515 860
1510 870
1505 885
1505 895
1500 905
1495 920
1495 930
1490 940
1485 955
1485 965
1480 975
1480 985
1475 995
1470 1010
1470 1020
1465 1030
1460 1045
1460 1055
1455 1065
1450 1080
1450 1090
1445 1100
1440 1115
1440 1125
1435 1135
1430 1150
1430 1160
1425 1170
1435 1174
1444 1179
1453 1184
1462 1189
1471 1194
1480 1199
1489 1204
1497 1210
1505 1217
1513 1224
1520 1232
1527 1240
1535 1247
1542 1255
1550 1262
1554 1272
1560 1280
1565 1289
1570 1298
1575 1307
1579 1317
1580 1327
1590 1329
1600 1326
1610 1324
1620 1321
1630 1319
1640 1316
1650 1314
1660 1311
1670 1309
1680 1306
1690 1304
1700 1304
1709 1299
1719 1299
1728 1294
1738 1294
1747 1289
1757 1289
1767 1284
1777 1284
1787 1279
1797 1279
1807 1279
1816 1274
1826 1274
1835 1269
1845 1269
1854 1264
1864 1264
1873 1259
1883 1259
1892 1254
1902 1254
1912 1254
1921 1249
1931 1249
1940 1244
1950 1244
1959 1239
1969 1239
1978 1234
1988 1234
1998 1234
2007 1229
2017 1229
2026 1224
2036 1224
2045 1219
2055 1219
2064 1214
2074 1214
2084 1212
2094 1209
2104 1207
2114 1204
2124 1202
2134 1199
2144 1197
2154 1194
2164 1194
2173 1189
2183 1189
2192 1184
2202 1184
2212 1179
2222 1179
2232 1174
2242 1174
2252 1174
2261 1169
2271 1169
2280 1164
2290 1164
2299 1159
2309 1161
2310 1171
2310 1181
2310 1191
2310 1201
2310 1211
2310 1221
2310 1231
2310 1241
2310 1251
2310 1261
2310 1271
2310 1281
2310 1291
2310 1301
2310 1311
2310 1321
2310 1331
2310 1341
2310 1351
2310 1361
2310 1371
2310 1381
2310 1391
2310 1401
2310 1411
2310 1421
2310 1431
2310 1441
2310 1451
2310 1461
2310 1471
2310 1481
2310 1491
2310 1501
2310 1511
2310 1521
2310 1531
2310 1541
2310 1551
2310 1561
2310 1571
2310 1581
2310 1591
2310 1601
2310 1611
2308 1623
2300 1630
2291 1625
2281 1625
2272 1620
2262 1619
2252 1615
2242 1614
2232 1610
2222 1609
2212 1605
2202 1604
2192 1600
2182 1599
2172 1595
2162 1594
2152 1590
2142 1589
2132 1585
2122 1584
2112 1580
2102 1580
2093 1575
2083 1575
2074 1570
2064 1570
2055 1565
2045 1565
2036 1560
2026 1560
2017 1555
2007 1554
1997 1550
1987 1549
1977 1545
1967 1544
1957 1540
1947 1539
1937 1535
1927 1534
1917 1530
1907 1529
1897 1525
1887 1524
1877 1520
1867 1519
1857 1515
1847 1515
1838 1510
1828 1510
1819 1505
1809 1505
1800 1500
1790 1500
1781 1495
1771 1495
1762 1490
1752 1489
1742 1485
1732 1484
1722 1480
1712 1479
1702 1475
1692 1474
1682 1470
1672 1469
1662 1465
1652 1464
1642 1460
1632 1459
1622 1455
1612 1455
1603 1450
1594 1445
1585 1450
1580 1465
1575 1480
1570 1490
1568 1503
1563 1513
1555 1520
1550 1530
1543 1538
1538 1548
1530 1555
1523 1563
1515 1570
1507 1579
1499 1585
1490 1590
1482 1599
1472 1604
1463 1610
1454 1615
1445 1620
1435 1620
1435 1630
1437 1640
1440 1650
1442 1660
1445 1670
1447 1680
1450 1690
1455 1699
1455 1709
1460 1718
1460 1728
1465 1737
1465 1747
1470 1756
1470 1766
1475 1775
1477 1785
1480 1795
1482 1805
1485 1815
1487 1825
1490 1835
1495 1844
1495 1854
1500 1863
1500 1873
1505 1882
1505 1892
1510 1901
1510 1911
1515 1920
1517 1930
1520 1940
1522 1950
1525 1960
1530 1969
1530 1979
1535 1988
1535 1998
1540 2007
1540 2017
1545 2026
1545 2036
1550 2045
1550 2055
1555 2064
1555 2074
1560 2083
1560 2093
1565 2102
1569 2112
1570 2122
1574 2132
1575 2142
1579 2152
1580 2162
1585 2171
1585 2181
1590 2190
1590 2200
1595 2209
1595 2219
1600 2228
1600 2238
1605 2247
1609 2257
1610 2267
1614 2277
1615 2287
1619 2297
1620 2307
1624 2322
1614 2325
1604 2325
1594 2325
1584 2325
1574 2325
1564 2325
1554 2325
1544 2325
1534 2325
1524 2325
1514 2325
1504 2325
1494 2325
1484 2325
1474 2325
1464 2325
1454 2325
1444 2325
1434 2325
1424 2325
1414 2325
1404 2325
1394 2325
1384 2325
1374 2325
1364 2325
1354 2325
1344 2325
1334 2325
1324 2325
1314 2325
1304 2325
1294 2325
1284 2325
1274 2325
1264 2325
1254 2325
1244 2325
1234 2325
1224 2325
1214 2325
1204 2325
1194 2325
1184 2325
1174 2325
1164 2322
1164 2312
1169 2302
1169 2292
1169 2282
1174 2267
1174 2257
1179 2247
1179 2237
1184 2222
1184 2212
1189 2197
1189 2187
1194 2177
1194 2167
1199 2157
1199 2147
1199 2137
1204 2127
1204 2117
1209 2102
1209 2092
1214 2077
1214 2067
1219 2057
1219 2047
1224 2037
1224 2027
1224 2017
1229 2007
1229 1997
1234 1982
1234 1972
1239 1957
1239 1947
1244 1937
1244 1927
1249 1912
1249 1902
1254 1887
1254 1877
1259 1862
1259 1852
1264 1842
1264 1832
1269 1817
1269 1807
1274 1792
1274 1782
1279 1767
1279 1757
1284 1747
1284 1737
1289 1722
1289 1712
1294 1697
1294 1687
1299 1672
1299 1662
1304 1652
1304 1642
1305 1630
1295 1630
1286 1625
1276 1624
1267 1619
1257 1615
1248 1610
1239 1605
1231 1599
1222 1594
1214 1587
1205 1582
1197 1575
1190 1567
1182 1560
1175 1552
1169 1544
1164 1535
1156 1528
1151 1519
1147 1509
1139 1502
1139 1492
1134 1483
1129 1474
1126 1464
1117 1459
1107 1460
1097 1464
1087 1465
1077 1469
1067 1470
1058 1475
1048 1475
1039 1480
1029 1480
1020 1485
1010 1485
1000 1490
990 1490
981 1495
971 1495
962 1500
952 1504
942 1505
932 1509
922 1510
912 1514
902 1515
893 1520
883 1520
874 1525
864 1525
855 1530
845 1530
836 1535
826 1535
817 1540
807 1540
798 1545
788 1548
778 1550
768 1553
758 1555
748 1558
738 1560
729 1565
719 1565
710 1570
700 1570
691 1575
681 1575
672 1580
662 1580
653 1585
643 1585
634 1590
624 1590
615 1595
605 1595
595 1600
585 1600
576 1605
566 1605
557 1610
547 1614
537 1615
527 1619
517 1620
507 1624
497 1625
487 1629
479 1622
479 1612
479 1602
479 1592
479 1582
479 1572
479 1562
479 1552
479 1542
479 1532
479 1522
479 1512
479 1502
479 1492
479 1482
479 1472
479 1462
479 1452
479 1442
479 1432
479 1422
479 1412
479 1402
479 1392
479 1382
479 1372
479 1362
479 1352
479 1342
479 1332
479 1322
479 1312
479 1302
479 1292
479 1282
479 1272
479 1262
479 1252
479 1242
479 1232
479 1222
479 1212
479 1202
479 1192
479 1182
