30 165
24 157
34 152
44 149
54 147
64 144
74 144
83 139
93 139
103 139
113 140
120 148
128 155
135 163
135 173
135 183
135 193
135 203
135 213
135 223
130 235
130 245
130 255
130 265
130 275
130 285
135 294
135 304
140 313
140 323
145 332
152 340
160 347
170 349
179 354
189 354
199 354
209 354
219 354
229 354
239 354
249 354
259 354
268 349
278 349
288 349
298 349
308 349
318 349
328 349
337 344
347 344
357 344
367 344
377 344
387 344
397 344
406 349
416 349
425 354
435 357
445 359
454 364
464 366
474 369
483 374
493 375
503 379
513 379
523 379
533 379
543 379
553 379
563 379
573 379
583 379
593 379
602 374
612 374
622 369
632 369
642 364
652 364
661 359
671 355
681 354
690 349
700 346
710 341
720 336
730 331
740 326
750 321
760 319
769 314
779 314
789 312
799 309
809 309
819 309
828 304
838 304
847 309
857 309
867 309
876 314
885 319
895 319
906 324
907 335
898 330
889 335
880 330
870 330
860 330
850 330
840 330
830 330
820 330
810 330
800 335
791 340
781 340
772 345
763 350
754 355
745 360
736 365
727 370
719 377
709 380
700 385
692 394
682 399
672 404
664 410
655 415
645 420
637 429
627 434
619 440
610 445
600 450
592 459
582 464
574 470
565 475
556 480
547 485
537 489
527 494
517 499
507 500
497 500
487 500
477 504
467 509
459 515
449 517
439 520
430 525
420 525
425 534
434 539
443 544
452 549
461 554
469 561
478 566
485 574
494 579
503 584
512 589
521 594
530 599
540 602
545 611
550 620
550 630
550 640
550 650
545 660
545 670
545 680
545 690
540 705
540 715
540 725
545 734
545 744
550 753
558 759
567 764
576 769
586 769
584 785
574 785
565 780
555 778
549 770
539 767
532 759
524 752
524 742
529 732
529 722
529 712
529 702
529 692
529 682
529 672
529 662
529 652
529 642
524 633
517 625
510 617
502 610
495 602
485 600
476 595
467 590
458 585
449 580
439 577
430 572
420 568
411 563
401 559
392 554
382 550
373 545
364 540
355 535
345 535
345 545
353 551
355 561
360 570
360 580
362 590
365 600
367 610
370 620
375 629
380 638
385 647
389 657
388 673
380 680
373 688
368 698
360 705
353 713
345 720
335 725
328 733
323 743
315 750
308 758
300 765
295 775
286 785
277 790
267 794
257 795
248 800
239 795
230 790
224 782
234 779
244 777
254 774
264 772
274 767
282 759
292 754
299 742
307 734
315 726
323 719
329 707
337 699
342 689
350 681
354 667
359 656
359 646
354 637
354 627
347 619
342 610
335 602
330 593
324 585
319 576
314 567
309 558
305 548
299 540
299 530
299 520
295 510
285 507
275 503
269 495
259 492
250 487
240 485
240 495
235 510
227 519
217 524
207 525
197 525
188 530
178 530
168 530
158 530
148 530
139 535
130 540
135 549
143 555
150 563
158 570
165 578
170 587
163 595
154 590
145 585
136 580
127 575
123 565
113 568
105 575
98 583
93 593
85 600
79 592
79 582
84 567
92 559
97 549
107 544
115 536
123 529
132 524
142 519
152 514
162 514
170 506
180 501
188 494
194 483
189 474
184 465
179 456
174 447
167 439
159 432
154 423
147 415
143 405
135 398
129 390
124 381
119 372
112 364
107 355
104 345
99 336
99 326
99 316
94 307
94 297
94 287
94 277
99 262
99 252
99 242
104 224
104 214
104 204
99 195
94 186
86 180
76 178
66 175
56 175
46 175
36 173
