104 277
104 267
109 257
117 249
122 239
130 231
135 221
143 214
147 204
155 196
160 186
165 176
173 169
182 164
190 156
198 149
208 149
217 144
227 144
237 144
247 139
254 126
254 116
249 107
249 97
254 82
262 74
270 66
278 59
287 54
297 54
306 59
315 64
320 73
328 80
330 90
335 99
335 109
330 120
330 130
335 139
335 149
345 149
355 149
365 149
375 149
384 154
392 160
400 167
407 175
415 182
422 190
430 197
434 207
439 216
445 224
450 233
460 234
470 234
480 234
490 237
497 245
489 255
479 257
469 262
459 265
450 260
440 257
430 253
424 245
416 239
409 231
404 222
397 214
389 207
380 202
370 200
360 205
360 215
360 225
355 240
355 250
350 265
350 275
345 290
345 300
340 310
340 320
340 330
342 340
345 350
350 359
350 369
355 378
363 385
367 395
375 402
379 412
387 419
390 429
398 435
402 445
410 452
415 461
420 470
425 479
430 488
438 495
442 505
447 514
454 522
455 532
460 541
460 551
451 560
441 559
434 551
426 545
417 540
414 530
404 526
399 517
392 509
384 502
380 492
372 485
365 477
360 468
354 460
346 454
339 446
334 437
327 429
319 422
315 412
307 405
298 400
288 403
280 410
273 418
268 428
260 435
255 445
248 453
240 460
233 473
225 480
218 493
210 500
205 515
205 525
205 535
210 544
210 554
202 569
192 570
183 565
174 560
169 551
164 542
164 532
164 522
164 512
164 502
164 492
169 482
174 472
179 462
184 452
192 444
197 434
202 424
209 412
217 404
222 394
229 382
234 372
239 357
244 347
249 330
249 320
249 310
244 301
244 291
239 282
239 272
234 263
230 253
229 243
224 234
221 224
217 214
207 210
197 214
189 220
180 225
175 235
168 243
160 250
152 259
144 265
135 270
127 279
119 287
109 286
