19 882
19 872
27 864
29 852
39 847
44 832
52 824
59 812
59 802
59 792
67 784
76 779
84 767
92 759
99 747
104 737
109 727
114 717
122 709
127 699
132 689
134 677
142 669
144 657
149 647
154 632
159 617
164 602
164 592
169 582
174 572
174 562
174 552
174 542
179 527
179 517
184 502
184 492
184 482
184 472
189 462
189 452
189 442
189 432
194 417
194 407
194 397
199 386
199 376
194 367
194 357
194 347
194 337
199 322
204 312
204 302
209 287
214 277
219 262
227 254
232 244
240 236
248 229
252 219
260 211
268 204
274 187
282 179
287 169
292 159
299 147
304 137
309 127
317 119
322 109
330 101
338 94
347 89
355 81
365 76
375 74
384 69
393 64
403 64
413 64
423 64
433 64
443 64
453 64
463 64
473 64
483 64
492 59
502 59
512 54
520 46
530 44
540 44
550 44
560 44
570 44
580 44
590 44
600 44
610 44
620 44
630 44
640 44
650 44
660 44
670 44
680 44
689 49
699 51
709 54
718 59
727 64
736 69
744 76
753 81
760 89
760 99
765 108
775 112
783 119
793 119
803 119
810 111
820 109
830 109
839 104
849 104
858 99
868 99
875 91
885 89
895 89
905 86
915 84
925 84
935 84
945 84
955 84
964 89
974 89
980 97
990 99
999 104
1009 106
1018 111
1024 119
1032 125
1042 129
1045 139
1054 144
1063 149
1072 154
1075 164
1085 167
1092 175
1097 184
1106 189
1114 196
1120 204
1125 213
1135 217
1140 226
1146 234
1155 239
1160 248
1165 257
1174 262
1180 270
1185 279
1190 288
1195 297
1202 305
1205 315
1210 324
1218 330
1222 340
1230 347
1230 357
1237 365
1245 372
1250 381
1253 391
1255 401
1260 410
1265 419
1265 429
1265 439
1265 449
1270 458
1270 468
1278 475
1280 485
1285 494
1285 504
1290 513
1295 522
1295 532
1299 542
1300 552
1304 562
1309 571
1310 581
1315 590
1315 600
1317 610
1320 620
1322 630
1325 640
1325 650
1327 660
1330 670
1335 679
1335 689
1335 699
1335 709
1335 719
1335 729
1340 738
1340 748
1340 758
1345 767
1345 777
1345 787
1345 797
1350 806
1355 815
1357 825
1365 832
1370 841
1376 849
1384 856
1385 866
1390 875
1392 885
1402 889
1409 897
1415 905
1415 915
1415 925
1414 937
1409 947
1399 950
1389 947
1379 950
1370 955
1360 953
1354 945
1354 935
1354 925
1354 915
1354 905
1354 895
1352 885
1349 875
1349 865
1348 855
1340 848
1334 840
1329 831
1324 822
1324 812
1319 803
1319 793
1319 783
1314 774
1314 764
1314 754
1314 744
1309 735
1309 725
1309 715
1309 705
1309 695
1304 686
1304 676
1299 667
1299 657
1299 647
1294 638
1294 628
1294 618
1289 609
1286 599
1284 589
1279 580
1279 570
1270 545
1270 555
1270 565
1270 575
1265 585
1265 595
1265 605
1265 615
1265 625
1265 635
1263 648
1255 655
1250 670
1250 680
1245 690
1240 700
1235 715
1235 725
1235 735
1230 745
1230 755
1230 765
1230 775
1230 785
1230 795
1230 805
1230 815
1230 825
1230 835
1230 845
1235 854
1235 864
1240 873
1240 883
1240 893
1240 903
1240 913
1240 923
1240 933
1245 942
1245 952
1245 962
1250 971
1250 981
1255 990
1255 1000
1257 1010
1260 1020
1265 1029
1265 1039
1270 1048
1270 1058
1275 1067
1279 1077
1284 1086
1288 1096
1290 1106
1293 1116
1295 1126
1290 1140
1290 1150
1290 1160
1290 1170
1290 1180
1288 1198
1280 1205
1275 1215
1268 1223
1263 1233
1253 1238
1243 1240
1233 1243
1225 1250
1216 1260
1206 1260
1196 1260
1186 1260
1176 1258
1171 1249
1164 1241
1159 1232
1159 1222
1159 1212
1159 1202
1167 1194
1172 1185
1169 1175
1169 1165
1167 1155
1164 1145
1159 1136
1159 1126
1159 1116
1154 1107
1154 1097
1154 1087
1149 1078
1149 1068
1144 1059
1144 1049
1139 1040
1139 1030
1134 1021
1129 1012
1122 1004
1117 995
1113 985
1104 980
1095 975
1095 985
1090 995
1085 1010
1085 1020
1085 1030
1085 1040
1085 1050
1080 1060
1075 1075
1075 1085
1075 1095
1075 1105
1075 1115
1075 1125
1075 1135
1075 1145
1075 1155
1075 1165
1075 1175
1075 1185
1075 1195
1070 1205
1068 1218
1060 1225
1059 1237
1049 1240
1039 1240
1029 1240
1019 1240
1009 1240
999 1240
989 1240
979 1240
970 1245
960 1245
950 1242
940 1240
930 1238
924 1230
919 1221
914 1212
914 1202
919 1187
919 1177
927 1169
929 1157
937 1149
942 1139
951 1134
954 1117
959 1107
959 1097
959 1087
964 1077
964 1067
964 1057
964 1047
964 1037
964 1027
964 1017
964 1007
964 997
964 987
964 977
964 967
964 957
964 944
962 934
952 930
949 920
940 915
930 915
920 915
910 915
900 915
890 915
880 915
870 915
860 915
850 915
840 915
830 915
820 915
815 930
810 940
810 950
805 965
805 975
805 985
805 995
805 1005
805 1015
807 1025
810 1035
810 1045
810 1055
810 1065
810 1075
810 1085
810 1095
810 1105
805 1115
800 1130
800 1140
795 1155
790 1170
790 1180
790 1190
790 1200
790 1210
783 1218
775 1225
771 1235
761 1235
751 1233
745 1225
735 1235
725 1235
715 1235
705 1235
695 1233
689 1225
680 1220
672 1214
667 1205
664 1195
659 1186
659 1176
659 1166
659 1156
654 1147
654 1137
654 1127
659 1117
667 1109
674 1095
674 1085
674 1075
674 1065
674 1055
674 1045
674 1035
672 1025
669 1015
664 1006
664 996
659 987
655 977
649 969
646 959
644 949
644 939
639 930
629 930
620 935
620 945
620 955
620 965
622 975
627 984
630 994
630 1004
630 1014
625 1030
625 1040
625 1050
625 1060
625 1070
630 1079
630 1089
635 1098
635 1108
640 1117
640 1127
640 1137
640 1147
640 1157
640 1167
640 1177
647 1185
650 1195
650 1205
650 1215
643 1223
638 1233
630 1240
621 1245
612 1250
607 1259
597 1264
587 1269
577 1270
569 1277
559 1280
550 1285
540 1285
530 1285
520 1285
510 1283
509 1273
503 1265
495 1258
491 1248
486 1239
479 1231
479 1221
474 1212
474 1202
474 1192
474 1182
474 1172
479 1155
479 1145
479 1135
477 1125
474 1115
474 1105
474 1095
469 1086
469 1076
469 1066
464 1057
460 1047
455 1038
454 1028
454 1018
451 1008
446 999
444 989
441 979
439 969
436 959
434 949
431 939
429 929
426 919
424 909
424 899
421 889
419 879
416 869
414 859
414 849
414 839
414 829
414 819
414 809
414 799
414 789
409 780
409 770
409 760
409 750
409 740
409 730
409 720
409 710
409 700
400 695
395 710
390 720
390 730
385 740
383 753
375 760
373 773
365 780
360 790
355 800
347 809
339 817
331 825
322 830
313 835
303 838
293 843
285 850
280 865
280 875
275 890
275 900
275 910
270 920
270 930
270 940
270 950
270 960
270 970
270 980
270 990
270 1000
270 1010
270 1020
270 1030
270 1040
275 1049
280 1058
280 1068
280 1078
285 1087
285 1097
285 1107
285 1117
285 1127
285 1137
283 1148
275 1155
265 1155
257 1164
249 1170
239 1170
230 1175
220 1172
212 1165
204 1159
204 1149
201 1139
199 1129
199 1119
199 1109
199 1099
196 1089
194 1079
194 1069
194 1059
194 1049
194 1039
194 1029
194 1019
194 1009
189 1000
189 990
189 980
189 970
184 961
184 951
184 941
179 932
179 922
179 912
179 902
179 892
179 882
179 872
172 864
167 855
157 854
149 847
149 837
149 827
159 824
169 824
179 822
179 812
179 799
179 789
179 779
179 769
174 760
170 745
165 755
155 760
153 773
148 783
140 790
135 800
128 808
123 818
115 825
107 834
102 844
94 850
85 855
77 869
67 874
62 884
53 890
44 895
35 900
25 900
19 892
