24 87
24 77
29 67
29 57
34 47
42 39
50 31
58 24
67 19
77 19
85 25
85 35
85 45
79 55
73 63
65 70
67 80
70 90
75 99
80 108
85 117
93 124
102 129
111 134
121 134
131 134
140 139
150 139
159 134
169 134
179 134
188 129
198 129
208 129
217 124
227 124
236 129
244 136
250 144
258 150
267 155
277 159
287 159
297 159
307 159
317 159
326 164
336 164
345 169
354 174
363 179
370 187
370 197
379 202
389 204
399 204
409 204
419 204
429 204
438 209
448 209
457 214
466 219
475 224
483 230
490 238
495 247
504 252
509 261
515 269
523 275
530 283
535 292
542 300
550 307
550 317
555 326
555 336
555 346
555 356
550 365
548 378
540 385
535 395
525 400
530 409
535 418
543 425
547 435
555 442
559 452
567 459
574 467
579 476
585 484
585 494
585 504
585 514
590 523
590 533
595 542
593 553
585 560
576 565
566 565
557 570
547 570
537 570
527 569
517 565
507 564
499 557
499 547
499 537
504 527
512 519
514 503
508 495
499 490
490 485
480 482
472 475
463 470
454 465
445 470
440 485
440 495
440 505
435 515
430 525
430 535
430 545
423 558
413 563
403 565
393 565
383 565
373 565
364 560
359 551
359 527
359 517
364 507
364 497
364 487
369 477
369 467
374 452
377 435
367 435
358 430
348 430
338 430
329 425
320 420
320 430
320 440
325 449
325 459
325 469
330 478
330 488
335 497
339 507
340 517
340 527
340 537
340 547
340 557
340 567
345 576
345 586
337 594
327 595
317 599
307 600
297 600
287 600
277 600
268 595
259 590
249 587
249 577
249 567
257 559
262 549
267 539
264 526
259 517
259 507
254 498
254 488
251 478
245 470
240 480
235 495
230 505
225 520
225 530
227 540
230 550
230 560
224 570
215 575
206 580
196 580
186 580
176 580
166 580
156 580
146 579
139 571
134 562
134 552
139 542
147 534
154 517
159 507
159 497
159 487
164 472
169 457
174 442
179 427
184 417
184 407
189 392
194 381
194 371
194 361
194 351
189 342
194 327
194 317
198 300
190 293
184 285
174 282
167 274
159 267
154 258
147 250
138 245
129 240
119 240
109 240
100 235
92 229
87 220
78 215
69 210
61 204
54 196
49 187
59 186
69 189
78 180
69 175
61 169
54 161
49 152
44 143
37 135
34 125
29 116
29 106
29 96
