224 807
224 797
232 789
237 779
245 771
253 764
262 759
272 759
282 759
292 759
302 759
307 750
304 740
304 730
299 721
299 711
299 701
294 692
294 682
294 672
294 662
294 652
294 642
294 632
294 622
294 612
294 602
294 592
294 582
294 572
294 562
294 552
294 542
294 532
294 522
299 507
304 497
304 487
309 477
314 462
319 452
319 442
324 427
324 417
329 407
329 397
329 387
334 377
334 367
334 357
339 342
344 332
349 322
354 312
359 302
367 294
374 282
382 274
390 266
395 256
400 246
408 239
415 231
423 224
430 216
438 209
445 201
453 194
460 186
468 179
475 171
483 164
490 156
498 149
505 141
513 134
522 129
530 121
540 116
550 111
560 106
570 104
579 99
589 99
599 97
609 94
619 94
629 94
639 94
649 94
659 94
669 94
679 94
689 96
699 99
709 101
718 106
728 109
737 114
746 119
756 119
765 124
775 124
784 129
793 134
802 139
809 147
819 151
825 159
833 165
837 175
847 179
855 171
863 164
872 159
882 154
892 154
901 149
910 144
920 144
930 144
940 144
950 144
960 147
970 149
980 152
989 157
999 161
1005 169
1014 174
1022 180
1030 187
1035 196
1041 204
1049 211
1053 221
1060 229
1065 238
1070 247
1075 256
1081 264
1085 274
1090 283
1095 292
1095 302
1095 312
1100 321
1100 331
1100 341
1100 351
1105 360
1105 370
1105 380
1105 390
1105 400
1105 410
1105 420
1105 430
1105 440
1105 450
1105 460
1100 470
1100 480
1100 490
1100 500
1100 510
1100 520
1100 530
1100 540
1100 550
1100 560
1100 570
1102 580
1105 590
1105 600
1105 610
1105 620
1105 630
1105 640
1105 650
1105 660
1105 670
1110 679
1110 689
1115 698
1123 704
1133 704
1143 705
1147 715
1155 722
1150 740
1150 750
1150 760
1145 770
1145 780
1145 790
1140 805
1140 815
1140 825
1140 835
1140 845
1140 855
1140 865
1140 875
1140 885
1140 895
1135 905
1135 915
1135 925
1130 940
1130 950
1128 963
1120 970
1115 980
1110 990
1100 1000
1095 1010
1085 1010
1075 1010
1065 1010
1065 1020
1065 1030
1065 1040
1065 1050
1060 1065
1060 1075
1055 1090
1055 1100
1050 1115
1048 1128
1043 1138
1035 1145
1033 1158
1028 1168
1020 1175
1015 1185
1010 1200
1010 1210
1010 1220
1010 1230
1010 1240
1010 1250
1010 1260
1010 1270
1010 1280
1010 1290
1010 1300
1005 1315
1005 1325
1000 1335
998 1348
990 1355
988 1373
983 1383
975 1390
970 1400
963 1413
958 1423
950 1430
943 1443
935 1450
930 1460
923 1468
918 1478
910 1485
903 1493
895 1500
888 1510
879 1515
873 1523
865 1530
855 1535
845 1540
835 1545
828 1553
820 1560
811 1565
802 1570
792 1574
782 1579
772 1580
764 1587
754 1590
744 1592
734 1595
725 1600
715 1600
705 1600
695 1597
685 1593
679 1585
670 1580
660 1578
653 1570
644 1565
636 1559
627 1554
619 1547
612 1539
602 1535
593 1530
585 1523
578 1515
570 1508
564 1500
555 1495
547 1489
539 1482
532 1474
524 1467
517 1459
509 1452
502 1444
494 1437
487 1429
479 1422
472 1414
467 1405
464 1395
459 1386
454 1377
454 1367
454 1357
454 1347
454 1337
454 1327
454 1317
454 1307
459 1292
459 1282
464 1264
459 1255
450 1250
442 1244
437 1235
428 1230
420 1223
416 1213
411 1204
404 1196
399 1187
395 1177
389 1169
386 1159
384 1149
384 1139
384 1129
384 1119
384 1109
384 1099
384 1089
384 1079
382 1069
372 1065
365 1057
355 1053
349 1045
341 1039
337 1029
329 1022
324 1013
317 1005
310 997
305 988
304 978
299 969
296 959
294 949
289 940
284 931
279 922
272 914
264 907
260 897
252 890
248 880
240 873
234 865
229 856
229 846
224 837
224 827
224 817
