249 817
249 807
254 797
262 789
267 779
272 769
281 774
290 779
300 782
309 787
319 789
321 778
316 769
312 759
307 750
304 740
304 730
299 721
299 711
299 701
294 692
294 682
294 672
294 662
294 652
294 642
294 632
294 622
294 612
294 602
294 592
294 582
294 572
294 562
294 552
294 542
294 532
294 522
299 507
304 497
304 487
309 477
314 462
319 452
319 442
324 427
329 417
334 407
334 397
342 389
347 379
352 369
359 357
367 349
375 341
380 331
388 324
394 312
402 304
410 296
418 289
425 281
433 274
440 266
448 259
455 251
463 244
467 234
475 226
483 219
490 211
495 201
503 194
510 186
518 179
525 171
533 164
539 152
547 144
557 144
567 144
577 144
586 139
594 132
604 132
614 127
624 122
634 119
643 114
653 114
662 109
672 109
682 109
692 109
702 109
711 114
721 114
731 114
740 119
750 119
760 122
770 124
780 127
789 132
797 139
806 144
815 149
823 155
830 163
835 172
843 179
853 179
862 174
871 169
881 169
891 169
901 169
911 169
920 174
930 174
939 179
947 185
955 192
963 199
973 200
982 205
990 212
997 220
1005 227
1014 232
1020 240
1025 249
1030 258
1035 267
1042 275
1047 284
1054 292
1055 302
1060 311
1063 321
1068 330
1075 338
1080 347
1084 357
1085 367
1090 376
1096 384
1100 394
1100 404
1100 414
1100 424
1100 434
1100 444
1100 454
1100 464
1100 474
1100 484
1100 494
1100 504
1100 514
1100 524
1100 534
1100 544
1100 554
1100 564
1100 574
1105 583
1105 593
1105 603
1105 613
1105 623
1105 633
1105 643
1105 653
1105 663
1105 673
1110 682
1110 692
1115 701
1125 704
1135 704
1145 707
1149 717
1155 725
1150 740
1150 750
1150 760
1145 770
1145 780
1145 790
1140 805
1140 815
1140 825
1140 835
1140 845
1140 855
1140 865
1140 875
1140 885
1140 895
1135 905
1135 915
1135 925
1130 940
1130 950
1128 963
1120 970
1115 980
1110 990
1100 1000
1095 1010
1085 1010
1075 1010
1065 1010
1065 1020
1065 1030
1065 1040
1065 1050
1060 1065
1060 1075
1055 1090
1055 1100
1050 1115
1048 1128
1043 1138
1035 1145
1033 1158
1028 1168
1020 1175
1015 1185
1010 1200
1010 1210
1010 1220
1010 1230
1010 1240
1010 1250
1010 1260
1010 1270
1010 1280
1010 1290
1010 1300
1005 1315
1005 1325
1000 1335
998 1348
990 1355
988 1373
983 1383
975 1390
970 1400
963 1413
958 1423
950 1430
943 1443
935 1450
930 1460
923 1468
918 1478
910 1485
903 1493
895 1500
888 1510
879 1515
873 1523
865 1530
855 1535
845 1540
835 1545
828 1553
820 1560
811 1565
802 1570
792 1574
782 1579
772 1580
764 1587
754 1590
744 1592
734 1595
725 1600
715 1600
705 1600
695 1597
685 1593
679 1585
670 1580
660 1578
653 1570
644 1565
636 1559
627 1554
619 1547
612 1539
602 1535
593 1530
585 1523
578 1515
570 1508
564 1500
555 1495
547 1489
539 1482
532 1474
524 1467
517 1459
509 1452
502 1444
494 1437
487 1429
479 1422
472 1414
467 1405
464 1395
459 1386
454 1377
454 1367
454 1357
454 1347
454 1337
454 1327
454 1317
454 1307
459 1292
459 1282
464 1265
459 1256
451 1250
442 1245
438 1235
429 1230
421 1223
416 1214
412 1204
404 1197
400 1187
395 1178
389 1170
387 1160
384 1150
384 1140
384 1130
384 1120
384 1110
384 1100
384 1090
384 1080
384 1070
375 1065
367 1059
357 1055
350 1047
342 1040
338 1030
330 1023
324 1015
320 1005
314 997
309 988
304 979
301 969
299 959
296 949
294 939
289 930
284 921
284 911
279 902
274 893
270 883
269 873
264 864
261 854
254 846
254 836
249 827
