74 327
74 317
79 307
87 299
96 294
106 294
109 276
104 267
104 257
104 247
104 237
104 227
104 217
104 207
104 197
109 187
114 172
114 162
119 147
119 137
124 122
129 112
134 102
142 94
150 86
158 79
162 69
172 64
180 56
188 49
195 41
203 34
212 29
222 24
232 24
242 24
252 24
262 24
272 24
281 29
290 34
300 34
310 34
318 40
325 48
333 54
342 49
352 44
362 44
372 44
382 44
391 49
400 54
408 60
415 68
423 75
427 85
430 95
435 104
440 113
440 123
445 132
450 141
450 151
453 161
455 171
455 181
455 191
455 201
455 211
455 221
455 231
455 241
455 251
455 261
455 271
461 279
465 289
470 298
470 308
468 323
463 333
455 340
455 350
450 365
448 383
440 390
430 400
420 405
420 415
420 425
420 435
415 445
410 455
405 465
400 475
400 485
400 495
400 505
400 515
400 525
398 538
390 545
383 553
375 560
368 573
358 578
350 585
340 590
333 598
323 603
315 610
307 619
299 625
289 627
279 630
269 627
262 619
254 612
247 604
239 597
235 587
227 580
220 572
212 565
203 560
195 553
189 545
181 539
174 531
174 510
172 500
165 492
157 485
154 475
149 466
144 457
139 448
139 438
139 428
135 418
129 410
121 404
114 396
109 387
109 377
104 368
98 360
90 353
84 345
79 336
