159 197
162 214
169 222
177 229
186 234
196 235
205 230
215 225
223 218
233 215
229 227
224 237
217 249
209 257
204 272
199 287
199 311
199 321
204 330
214 330
209 372
214 381
209 392
203 404
195 411
187 419
179 427
174 437
169 447
169 457
169 467
174 476
179 485
185 493
190 502
197 510
206 515
216 515
224 507
234 505
239 514
239 524
244 533
249 542
254 551
261 559
269 565
275 573
283 580
292 585
302 589
312 590
321 595
331 595
341 595
351 598
361 595
371 595
381 595
390 590
400 585
410 580
418 573
428 568
435 560
443 553
448 543
453 533
458 523
460 505
460 495
460 485
465 475
465 465
470 450
475 435
480 425
480 415
480 405
485 390
485 380
485 370
485 360
485 350
485 340
480 331
480 321
479 311
474 302
470 292
462 285
458 275
450 269
445 260
445 250
454 245
463 250
470 258
478 265
485 273
493 280
500 288
508 295
515 303
523 310
532 315
542 315
552 319
562 315
571 310
580 305
580 295
578 285
570 279
563 271
559 261
550 256
545 247
537 240
530 232
520 229
514 221
506 214
497 209
488 204
480 198
473 190
465 184
465 174
465 164
460 155
455 146
450 137
445 128
438 120
430 113
423 105
415 99
406 94
397 89
388 84
379 79
369 79
360 74
350 74
340 76
330 79
320 81
310 84
301 89
292 94
283 99
275 106
267 114
257 119
252 129
247 139
239 147
230 154
220 156
210 159
201 164
192 169
183 174
175 181
167 189
