184 76
192 63
199 71
205 79
212 68
216 58
221 49
231 48
241 43
247 35
253 27
261 21
269 27
271 37
273 47
278 56
288 60
296 66
305 71
313 77
315 87
319 97
317 114
311 128
303 134
295 140
287 146
289 156
291 166
286 182
278 175
272 167
268 157
259 152
253 160
247 168
239 178
229 182
228 172
232 160
239 150
231 144
222 149
212 146
210 136
202 130
194 137
184 138
184 128
184 118
186 106
186 96
184 86
