4 152
4 142
9 132
17 124
25 116
35 111
43 104
53 104
60 96
70 94
78 100
88 104
98 105
108 109
117 114
127 114
136 119
146 119
156 119
166 120
174 107
179 92
187 84
197 79
207 74
217 74
227 69
237 69
246 64
256 60
266 59
276 55
286 50
296 45
306 44
316 44
325 39
335 39
345 36
355 34
365 31
375 29
385 29
395 29
404 24
414 24
424 24
434 24
443 19
453 19
463 19
473 19
482 14
492 14
502 14
512 14
522 14
532 9
542 9
552 9
562 9
572 9
582 4
592 4
602 4
612 4
622 4
632 4
641 9
650 14
660 17
667 25
675 32
680 41
690 44
700 44
710 44
720 44
730 44
740 44
750 44
760 44
770 44
780 44
790 44
800 44
810 47
820 49
830 52
840 54
844 36
839 27
839 17
849 16
850 26
855 35
860 44
860 54
868 60
878 64
888 64
897 69
907 69
917 69
927 69
936 74
946 74
956 74
965 79
975 79
985 82
994 77
1002 69
1011 64
1015 74
1024 67
1030 75
1023 83
1015 90
1015 100
1020 109
1020 119
1020 129
1015 140
1020 149
1029 154
1037 160
1032 170
1023 165
1014 160
1004 160
995 165
985 165
975 165
965 170
955 170
945 170
935 175
925 175
915 180
906 185
897 190
887 190
878 195
868 195
859 200
850 205
845 215
840 230
835 240
830 250
822 264
812 269
804 262
799 272
779 287
779 277
784 267
792 259
797 249
794 234
794 224
792 214
782 210
772 210
762 210
753 215
743 215
733 215
723 215
713 215
703 215
693 215
683 215
673 215
663 215
654 210
644 210
634 210
624 210
614 210
604 210
595 215
595 225
589 240
580 245
570 245
560 245
550 245
540 245
530 245
520 245
510 245
500 245
490 245
480 245
470 245
461 240
451 240
441 240
431 240
421 240
411 240
401 240
391 240
381 240
371 240
361 238
351 235
341 235
331 235
321 235
311 235
301 235
291 235
282 230
272 230
262 230
253 225
243 225
234 220
224 220
214 220
205 215
195 215
186 210
177 205
174 195
173 185
163 188
153 190
143 193
133 195
124 200
114 200
105 205
95 205
86 210
76 210
67 215
57 215
47 215
38 210
29 205
21 198
16 189
9 181
9 171
4 162
