102 132
110 139
120 139
130 135
138 129
147 124
155 118
165 117
166 127
170 137
174 147
184 149
194 149
204 145
214 141
224 143
234 143
244 143
254 145
256 156
256 176
264 182
274 177
284 173
290 181
300 181
308 175
313 166
317 152
326 147
336 143
346 139
356 135
366 131
375 126
383 116
391 108
397 93
389 87
380 82
372 76
364 70
354 68
344 64
334 60
324 57
314 54
309 45
303 37
298 28
292 20
282 22
272 26
262 30
253 37
243 40
235 47
227 55
217 52
207 48
197 47
188 52
180 60
172 68
167 77
159 84
150 79
141 74
131 70
122 65
112 62
102 64
104 74
106 84
108 94
108 104
106 118
