194 74
194 64
204 65
209 74
216 64
220 52
228 46
238 40
244 30
252 22
260 28
262 38
263 48
269 56
279 60
286 68
295 73
301 81
301 91
303 101
303 111
299 122
293 132
287 140
277 144
279 154
282 164
284 174
275 180
270 171
264 163
260 153
251 148
245 158
239 166
232 175
225 183
220 174
224 164
228 147
218 148
212 140
202 139
194 132
194 122
194 112
196 94
194 84
