94 132
102 139
112 139
122 135
131 130
140 125
148 119
158 117
162 127
166 137
170 147
180 149
190 149
200 147
208 141
218 142
228 143
238 143
248 145
258 145
258 158
258 168
260 178
269 183
279 178
289 179
299 182
307 176
313 168
318 159
321 148
331 147
341 143
351 139
361 135
371 131
381 126
389 118
395 110
403 102
403 91
394 86
386 80
377 75
368 70
358 67
348 64
338 60
328 56
318 54
313 45
306 37
301 28
294 20
284 22
274 26
264 28
256 34
247 39
237 44
229 51
219 54
209 50
199 46
189 49
181 55
173 63
167 71
161 79
151 84
143 78
133 74
124 69
114 65
104 62
94 66
96 76
99 86
100 96
100 106
98 120
