90 102
88 92
97 87
106 82
115 77
124 72
134 68
144 64
154 60
164 58
174 56
184 48
184 38
193 33
198 22
208 23
218 27
228 29
238 33
247 38
257 40
265 46
273 52
283 53
293 49
303 46
313 50
322 55
329 63
337 70
342 79
351 84
361 79
370 74
380 70
390 66
400 64
410 63
411 73
407 84
405 94
405 104
407 114
409 124
407 139
397 139
387 135
377 131
368 126
359 121
349 117
341 124
338 137
333 146
323 149
313 149
303 147
294 142
284 141
274 143
264 143
254 145
244 145
234 145
237 155
239 165
234 179
224 181
214 177
205 182
195 179
187 172
182 163
178 153
170 147
160 145
150 141
140 137
130 134
120 131
112 125
105 117
97 110
