88 132
96 139
106 139
116 135
126 131
134 125
142 119
152 117
158 125
162 135
166 145
176 149
186 149
196 147
206 143
216 141
226 143
236 143
246 144
256 145
267 145
262 154
262 164
262 174
270 181
280 179
290 180
300 181
308 175
315 166
320 157
324 147
334 147
344 143
354 139
364 135
374 133
383 128
391 122
399 114
405 106
412 91
403 86
394 81
384 77
375 72
365 68
355 64
345 60
335 58
325 56
316 51
309 37
304 28
298 20
288 22
278 26
268 29
258 32
250 38
241 43
232 48
224 56
214 52
204 48
194 46
185 51
177 57
169 65
161 73
156 82
146 83
137 78
127 74
118 69
108 65
98 62
88 64
90 74
92 84
94 94
94 104
92 118
