24 42
24 32
34 29
44 29
54 31
63 36
73 40
83 44
92 49
102 49
111 54
119 61
128 66
138 70
145 78
155 82
164 87
172 94
179 102
187 109
196 114
204 121
210 129
218 135
225 143
235 144
245 141
255 139
265 139
275 136
285 137
290 150
290 160
285 170
285 180
285 190
280 200
282 210
287 219
294 227
299 236
305 244
313 250
320 258
325 267
332 275
340 282
344 292
352 299
359 307
367 314
370 324
370 334
375 343
383 350
392 355
402 359
411 364
420 369
430 369
440 369
449 374
459 376
468 381
475 389
467 404
457 405
447 405
438 410
428 410
418 413
410 420
410 430
410 440
405 450
404 462
399 472
389 470
384 461
379 452
374 443
371 433
366 424
364 414
359 405
359 395
354 386
349 377
342 369
332 369
324 377
314 380
304 382
294 387
284 387
279 378
279 368
279 358
274 349
274 339
269 330
259 327
252 319
242 315
235 307
225 303
219 295
210 290
200 290
202 300
199 312
194 322
184 325
174 325
164 322
157 314
149 307
149 297
154 287
159 272
164 255
160 245
152 239
144 232
137 224
129 217
122 209
117 200
110 192
105 183
98 175
90 168
84 160
76 154
72 144
64 137
60 127
55 118
51 108
46 99
42 89
37 80
34 70
29 61
24 52
