19 207
19 197
24 187
34 182
34 172
42 164
52 144
57 134
64 122
74 117
82 109
91 104
99 97
107 89
117 84
124 76
124 66
119 57
129 47
139 42
149 37
159 32
169 29
179 27
187 19
196 24
206 20
216 19
226 19
236 19
246 19
256 19
266 19
276 19
286 19
295 24
305 24
315 24
325 24
333 30
343 34
353 34
360 42
370 44
380 47
388 54
398 55
405 63
413 69
420 77
430 79
438 85
443 94
452 99
460 105
465 114
473 120
480 128
488 135
495 145
490 160
483 168
475 175
468 183
460 190
450 190
455 199
468 196
478 199
487 194
495 186
505 186
513 179
522 174
532 174
542 169
552 164
561 159
571 160
579 154
588 159
597 154
607 154
617 154
626 159
630 170
620 170
610 170
603 178
593 183
585 190
580 200
575 210
575 220
570 230
570 240
570 250
575 259
575 269
580 278
585 287
592 295
602 299
611 304
620 309
626 320
616 320
606 320
596 320
587 315
577 315
570 307
560 307
550 305
542 299
532 295
523 290
514 285
504 285
495 280
485 277
475 273
468 265
459 270
450 265
440 265
442 275
450 282
459 287
467 294
470 304
478 310
478 323
470 330
460 330
452 339
444 345
434 347
424 350
415 355
407 364
397 365
387 365
379 372
369 375
359 375
350 380
340 380
330 385
320 385
310 385
300 385
290 385
282 379
272 379
262 379
252 375
242 374
232 370
222 369
212 365
205 357
195 355
197 365
200 375
200 392
192 385
184 392
174 391
169 382
162 374
157 365
154 355
153 345
145 338
139 330
137 320
128 315
118 315
109 310
101 304
96 295
87 290
80 282
72 275
62 275
59 265
49 262
42 254
34 247
27 239
19 217
