24 167
24 157
32 149
40 141
48 134
57 129
67 129
76 134
86 134
95 139
105 139
115 139
125 139
135 139
144 144
154 146
164 149
174 149
184 149
194 149
204 149
213 144
222 139
230 131
238 124
245 116
249 102
249 92
257 84
265 76
275 71
283 64
292 59
300 51
310 46
320 41
330 36
340 31
348 24
358 24
368 24
378 24
388 24
398 24
408 24
418 24
428 24
438 24
447 29
457 29
467 29
477 29
487 29
497 29
507 29
517 29
527 29
536 34
545 39
555 39
564 44
574 46
583 51
590 59
600 62
609 67
617 74
624 82
632 89
639 97
644 106
650 114
658 120
667 125
675 132
683 139
690 147
697 155
695 170
688 183
678 188
670 195
660 200
652 209
642 210
633 215
624 220
615 225
608 233
600 240
592 254
582 255
573 250
564 255
555 260
553 278
545 285
538 293
528 298
518 303
508 305
499 310
490 315
480 315
470 315
460 315
450 315
440 315
430 315
420 315
410 315
400 315
390 315
380 313
374 305
364 302
357 294
347 290
338 285
330 278
321 273
311 270
301 270
292 265
282 265
273 260
264 255
255 250
247 244
239 237
234 228
227 220
220 212
212 205
203 200
194 195
185 200
175 200
165 205
155 210
145 210
135 210
125 215
115 215
105 215
96 220
87 225
77 225
67 225
57 225
48 220
40 213
34 205
29 196
24 187
24 177
