29 517
29 527
39 525
44 534
54 532
62 524
69 532
79 527
80 515
85 505
93 498
100 485
108 478
115 470
125 465
135 460
140 450
148 443
158 438
168 433
178 428
188 423
198 418
208 413
218 408
225 395
235 395
243 388
250 380
258 373
268 370
277 364
282 355
292 355
302 355
309 363
314 372
319 381
326 389
329 399
335 407
342 415
351 420
361 420
371 420
380 415
385 405
390 393
390 383
383 375
375 369
369 361
364 352
357 344
352 335
343 330
335 324
330 315
340 305
345 295
355 295
364 290
370 280
375 270
383 263
390 255
398 248
404 240
410 225
415 215
420 205
428 198
433 188
438 178
445 165
450 155
458 148
468 143
475 130
483 123
493 120
500 105
510 100
519 95
528 90
538 81
530 75
540 64
530 63
525 54
515 54
534 44
524 42
514 44
505 39
503 29
494 34
484 37
474 39
465 44
455 46
445 49
436 54
426 55
421 64
412 69
402 69
392 74
383 79
375 86
365 91
355 96
345 101
337 109
332 119
324 127
322 144
317 154
309 162
307 174
299 182
291 194
282 199
278 209
269 214
259 217
249 222
240 227
230 224
223 216
214 211
204 209
194 209
189 221
194 230
194 240
197 250
205 257
208 274
200 281
194 289
186 295
176 299
167 304
157 304
147 309
137 309
128 314
118 314
110 321
102 329
94 337
89 352
84 362
77 374
69 382
64 392
64 402
54 407
49 417
44 432
39 447
39 457
34 467
34 477
29 487
34 496
34 506
