29 467
39 470
48 465
39 487
39 497
49 492
54 501
59 512
64 502
72 495
69 511
79 512
84 502
94 500
97 510
104 497
114 497
124 492
132 484
140 475
148 468
158 463
165 455
174 450
183 445
192 440
201 435
210 430
220 425
229 420
237 414
245 405
255 400
263 393
268 383
275 375
280 365
288 358
293 348
299 340
303 350
309 358
314 367
319 376
324 385
329 394
335 402
342 410
349 402
357 395
366 390
374 382
382 374
390 365
398 358
403 348
403 335
395 329
386 324
377 319
369 312
360 307
350 304
345 295
355 290
364 285
372 279
382 274
390 265
399 260
407 254
412 244
420 235
428 228
433 218
440 205
448 198
453 188
455 175
463 168
470 160
478 153
484 145
492 139
500 130
500 120
510 114
505 105
515 105
510 90
520 85
524 74
515 69
522 54
513 59
505 52
499 44
490 49
480 45
483 29
475 36
465 35
467 24
457 29
448 34
440 41
430 46
422 54
413 59
405 66
395 71
387 79
378 84
370 91
362 99
353 104
345 111
337 119
333 129
325 136
318 144
310 151
305 161
298 169
290 176
285 186
277 194
269 202
261 209
252 214
242 210
233 205
223 204
214 199
209 211
209 221
214 230
217 240
215 251
208 259
200 266
193 274
185 281
177 289
168 294
160 301
150 306
143 314
135 321
125 326
118 334
110 341
102 349
98 359
90 366
83 374
75 381
70 391
63 399
55 406
50 416
42 424
37 434
32 444
24 452
34 455
