84 162
84 152
94 149
103 144
113 144
123 144
132 139
142 139
152 139
161 134
171 134
181 134
190 129
200 129
210 126
220 124
230 127
240 129
245 138
250 147
255 156
261 164
265 174
274 179
283 184
293 184
303 184
312 179
322 179
332 174
342 174
352 174
362 169
372 169
382 169
392 164
402 164
412 164
421 159
431 159
441 159
450 154
460 154
470 154
479 149
489 149
499 147
509 144
519 144
529 142
539 139
549 139
559 137
569 134
579 134
588 129
592 119
602 119
612 119
621 124
625 134
625 144
625 154
630 163
630 173
627 190
617 194
607 194
602 185
592 185
583 190
573 190
563 193
553 195
543 195
533 198
523 200
513 200
503 203
493 205
483 205
474 210
464 210
454 210
445 215
435 215
425 215
416 220
406 220
396 220
387 225
377 225
367 225
358 230
348 230
338 230
329 235
319 235
309 237
299 242
289 245
280 250
280 260
275 270
275 280
270 290
268 308
260 315
257 334
252 344
242 345
232 345
223 350
213 350
203 350
194 355
184 355
174 357
164 360
154 360
144 362
134 365
124 361
127 344
137 344
147 339
157 339
167 339
176 334
186 334
196 334
205 329
215 329
225 329
234 324
240 316
249 307
249 297
249 287
254 276
254 266
255 255
246 260
236 260
226 260
217 265
207 265
197 265
188 270
178 270
168 270
159 275
149 275
139 277
129 280
119 280
109 277
109 267
119 262
129 259
138 254
148 254
158 254
167 249
177 249
187 249
197 244
207 244
217 244
226 239
236 239
246 239
254 214
249 205
247 195
238 200
228 200
218 203
208 205
198 205
188 208
178 210
168 210
158 213
148 215
138 215
129 220
119 220
109 220
99 217
99 207
107 199
117 199
127 199
136 194
146 194
156 194
165 189
175 189
185 189
194 184
204 184
214 182
224 179
234 171
229 162
224 153
217 145
208 150
198 150
188 150
179 155
169 155
159 155
150 160
140 160
130 160
120 165
110 165
100 165
90 170
