19 22
22 39
32 40
42 40
52 40
62 40
72 40
82 40
92 40
102 44
112 44
122 45
131 50
140 55
146 63
155 68
163 75
170 83
178 90
185 98
193 105
194 115
193 125
183 121
174 116
164 114
154 114
144 114
135 109
125 109
115 109
106 104
96 104
87 99
77 99
67 99
57 99
47 99
37 99
29 107
34 116
44 120
54 120
64 120
74 120
84 120
93 125
103 125
113 125
122 130
132 130
141 135
151 135
161 135
170 140
179 145
187 154
179 162
169 167
159 169
149 169
139 171
129 174
119 177
109 177
99 179
89 179
79 182
69 182
59 182
49 182
39 182
29 187
29 197
39 200
49 200
59 202
69 205
79 202
89 205
98 200
108 200
117 195
126 200
135 195
145 195
155 190
165 190
175 185
185 180
189 190
180 196
175 206
165 211
159 219
151 225
141 230
131 234
122 239
112 239
102 239
92 244
82 244
72 244
62 244
52 244
42 244
32 244
24 252
29 261
39 265
48 270
57 265
67 265
76 270
86 268
96 265
106 265
115 260
125 260
135 255
145 250
155 245
165 240
173 233
183 228
190 220
195 210
203 203
210 190
215 175
220 160
230 160
240 160
250 160
260 160
270 160
280 160
289 165
299 165
309 165
319 165
329 165
338 170
348 170
357 175
367 174
377 175
387 179
397 179
407 180
417 184
427 184
437 185
447 185
457 185
467 185
477 185
487 184
497 184
507 180
517 180
526 175
534 181
541 189
551 185
555 175
555 162
545 159
535 159
525 159
515 159
505 159
495 159
486 164
476 164
466 164
456 164
446 164
436 164
426 164
416 164
407 159
397 159
387 159
378 154
369 149
359 149
349 146
339 146
329 144
319 144
309 144
299 144
289 144
280 139
270 139
260 139
250 139
240 139
230 139
220 135
220 125
220 115
215 106
210 97
203 89
198 80
190 74
184 66
174 62
167 54
159 47
150 42
143 34
134 29
125 24
115 24
106 19
96 15
86 15
76 15
66 15
56 15
46 19
36 19
27 14
