19 202
24 215
27 225
36 220
46 220
56 220
66 220
76 220
86 220
96 220
106 220
116 220
126 220
136 220
146 220
156 220
166 220
176 220
185 215
185 205
185 195
185 185
190 175
190 165
200 165
210 165
220 165
229 170
238 165
247 170
257 174
267 174
277 175
287 175
297 175
307 179
317 175
326 180
336 183
346 180
354 186
364 185
374 185
383 190
393 190
402 195
412 194
422 195
432 195
441 200
451 200
461 200
471 200
481 200
491 200
500 195
510 195
520 190
530 190
538 183
543 173
548 163
553 153
555 141
555 131
550 122
540 119
534 111
524 109
515 104
506 99
497 94
487 94
478 89
469 84
459 81
449 81
439 79
429 76
419 74
410 69
401 74
392 69
382 69
372 69
362 69
352 69
342 69
332 69
322 69
312 69
303 74
293 74
283 74
273 74
263 74
254 79
245 74
235 77
225 74
215 74
205 74
200 65
205 48
205 38
200 29
190 27
180 29
170 27
160 27
150 24
140 24
130 24
120 24
111 19
101 19
91 19
82 14
72 14
62 14
52 14
42 14
32 14
24 22
24 32
30 40
40 42
50 40
60 40
70 40
80 40
89 45
99 45
109 45
119 47
129 50
139 50
149 50
159 50
169 50
179 50
179 60
174 72
174 82
164 89
154 87
144 86
134 84
124 81
114 81
104 81
94 79
84 79
74 79
64 79
54 79
44 79
34 79
24 82
24 92
30 100
40 102
50 102
60 105
70 105
80 100
89 105
99 105
109 105
118 110
127 105
136 110
146 110
156 110
166 110
169 120
169 132
163 144
153 144
144 139
134 141
124 141
114 141
104 139
94 139
84 136
74 139
64 139
54 139
44 139
34 139
24 142
24 152
30 160
40 160
50 160
60 160
70 160
80 160
90 162
100 165
110 165
120 165
130 165
140 165
150 167
160 165
164 175
161 190
156 199
146 199
137 194
127 194
117 194
107 194
97 194
87 194
77 194
67 194
57 194
47 194
37 194
27 194
