19 226
22 209
32 204
41 209
51 205
61 209
71 209
81 209
91 209
100 214
110 211
120 214
130 217
139 222
149 219
158 214
167 209
177 204
184 193
181 183
171 180
162 175
152 175
143 170
133 170
124 165
115 170
105 170
95 170
86 165
76 169
69 161
64 152
74 147
84 146
94 146
104 146
116 144
126 144
136 144
145 149
155 152
165 154
170 163
180 162
189 157
188 145
178 145
169 140
159 140
150 135
140 132
130 130
120 130
111 135
101 135
91 133
81 134
74 126
79 112
89 111
99 114
108 109
118 109
128 109
138 109
147 114
157 114
166 119
176 119
185 124
195 124
201 115
200 100
190 100
180 100
170 100
160 100
151 95
141 95
131 95
122 90
112 90
102 90
92 89
84 82
84 72
92 64
101 69
111 69
121 69
130 74
140 74
150 77
160 79
170 79
180 77
190 79
200 79
201 63
196 54
191 45
181 45
171 48
161 45
151 43
141 40
131 40
121 40
111 40
101 40
91 40
81 40
71 40
62 35
52 39
44 32
44 22
54 17
64 17
74 17
84 19
94 17
104 17
114 19
124 19
134 19
144 19
153 24
162 19
171 24
181 24
191 24
200 29
208 35
215 43
220 52
225 61
230 70
230 80
225 90
225 100
225 110
235 114
244 119
254 119
264 121
274 121
284 124
293 129
303 129
312 134
322 134
332 134
341 139
350 144
360 147
370 147
380 149
389 154
399 154
409 156
419 159
428 164
437 169
447 169
457 169
466 174
475 179
485 179
495 182
504 187
514 191
524 194
533 199
542 204
552 204
555 214
555 224
547 234
539 240
530 235
521 230
511 228
501 225
491 224
482 219
472 215
462 215
453 210
444 205
434 205
425 200
415 197
405 195
395 192
385 190
376 185
367 180
357 180
348 175
338 175
329 170
319 170
310 165
300 162
290 160
281 155
271 155
261 155
252 150
243 145
233 145
224 140
215 145
210 155
210 165
205 175
205 185
200 200
192 214
187 224
177 229
167 234
158 240
148 240
138 240
129 235
119 235
109 235
99 235
89 232
79 230
69 230
59 230
49 230
39 230
29 227
