884 437
884 427
889 412
889 402
889 392
889 382
894 372
894 362
894 352
899 337
899 327
899 317
904 302
904 292
909 277
909 267
909 257
909 247
909 237
909 227
909 217
914 202
914 192
914 182
919 167
919 157
919 147
919 137
924 127
932 119
941 114
950 109
960 109
969 114
977 120
985 127
989 137
990 147
990 157
990 167
990 177
990 187
990 197
990 207
990 217
990 227
994 237
995 247
995 257
995 267
995 277
995 287
995 297
995 307
990 320
990 330
990 340
990 350
990 360
990 370
990 380
990 390
990 400
990 410
990 420
985 430
980 440
980 450
980 460
980 470
980 480
980 490
980 500
980 510
982 520
985 530
985 540
985 550
985 560
985 570
985 580
985 590
985 600
987 610
990 620
995 629
1000 638
1000 648
1008 655
1015 663
1020 672
1027 680
1032 689
1035 699
1043 705
1047 715
1052 724
1055 734
1060 743
1065 752
1072 760
1080 767
1087 775
1097 779
1104 787
1112 794
1115 804
1125 807
1134 812
1142 819
1151 824
1161 824
1159 812
1154 803
1149 794
1144 785
1139 776
1134 767
1130 757
1125 748
1124 738
1119 729
1117 719
1112 710
1109 700
1109 690
1104 681
1104 671
1104 661
1099 652
1099 642
1099 632
1099 622
1099 612
1099 602
1099 592
1099 582
1099 572
1099 562
1094 553
1094 543
1094 533
1089 524
1089 514
1089 504
1089 494
1086 484
1084 474
1084 464
1084 454
1084 444
1084 434
1084 424
1084 414
1084 404
1084 394
1084 384
1084 374
1084 364
1084 354
1079 345
1079 335
1079 325
1079 315
1079 305
1079 295
1079 285
1079 275
1079 265
1079 255
1079 245
1079 235
1079 225
1079 215
1079 205
1074 196
1074 186
1069 177
1069 167
1074 157
1082 149
1090 141
1095 131
1103 124
1110 116
1120 111
1130 109
1140 109
1150 112
1159 117
1167 124
1170 134
1175 143
1180 152
1180 162
1184 172
1185 182
1185 192
1180 210
1180 220
1180 230
1175 240
1175 250
1175 260
1175 270
1175 280
1175 290
1175 300
1175 310
1175 320
1175 330
1175 340
1170 355
1170 365
1170 375
1170 385
1170 395
1170 405
1170 415
1170 425
1170 435
1170 445
1170 455
1170 465
1170 475
1170 485
1170 495
1170 505
1170 515
1170 525
1170 535
1170 545
1170 555
1170 565
1170 575
1170 585
1175 594
1175 604
1180 613
1180 623
1185 632
1185 642
1190 651
1190 661
1190 671
1195 680
1195 690
1197 700
1200 710
1200 720
1205 729
1205 739
1210 748
1210 758
1215 767
1220 776
1223 786
1230 794
1240 791
1248 784
1255 776
1259 762
1264 752
1272 744
1274 727
1279 712
1284 697
1289 687
1294 677
1299 662
1299 652
1299 642
1299 632
1299 622
1304 612
1309 597
1309 587
1309 577
1309 567
1314 557
1319 542
1319 532
1319 522
1324 507
1324 497
1324 487
1329 477
1334 467
1334 457
1334 447
1339 432
1339 422
1339 412
1339 402
1344 387
1344 377
1344 367
1344 357
1349 342
1349 332
1349 322
1354 312
1354 302
1354 292
1354 282
1354 272
1354 262
1354 252
1359 237
1359 227
1364 212
1369 202
1374 187
1379 172
1384 162
1389 152
1397 144
1406 139
1415 134
1425 134
1434 139
1442 145
1450 152
1455 161
1460 170
1460 180
1460 190
1460 200
1460 210
1460 220
1460 230
1460 240
1460 250
1460 260
1460 270
1460 280
1460 290
1460 300
1460 310
1460 320
1460 330
1465 339
1465 349
1465 359
1465 369
1465 379
1465 389
1465 399
1465 409
1465 419
1465 429
1465 439
1460 455
1460 465
1460 475
1460 485
1460 495
1455 510
1455 520
1450 535
1445 550
1445 560
1440 570
1435 585
1430 595
1428 608
1423 618
1418 628
1410 635
1408 653
1403 663
1395 670
1395 680
1390 690
1385 700
1380 715
1380 725
1375 740
1370 755
1370 765
1365 775
1365 785
1360 800
1360 810
1360 820
1360 830
1370 834
1379 829
1389 829
1399 827
1404 817
1409 807
1417 799
1426 794
1431 785
1439 777
1447 769
1457 764
1462 754
1470 746
1478 739
1485 731
1493 724
1499 712
1507 704
1515 696
1520 686
1525 676
1533 669
1537 659
1544 647
1549 637
1554 627
1559 617
1564 607
1569 597
1574 582
1579 572
1584 562
1584 552
1589 542
1594 532
1594 522
1599 512
1604 502
1604 492
1609 482
1617 474
1614 462
1614 452
1619 442
1624 432
1624 422
1629 412
1634 402
1634 392
1639 382
1644 372
1644 362
1649 352
1654 342
1654 332
1659 322
1664 312
1664 302
1669 292
1669 282
1674 266
1674 256
1674 246
1674 236
1669 227
1669 217
1669 207
1669 197
1669 187
1669 177
1669 167
1674 157
1682 149
1691 144
1700 139
1710 139
1719 144
1727 150
1735 157
1740 166
1745 175
1745 185
1750 194
1750 204
1750 214
1750 224
1750 234
1750 244
1745 255
1745 265
1745 275
1745 285
1745 295
1745 305
1745 315
1745 325
1740 335
1735 350
1730 365
1730 375
1725 390
1720 405
1715 420
1710 435
1705 450
1700 460
1695 475
1690 485
1685 495
1683 513
1678 523
1670 530
1665 540
1660 555
1660 565
1655 575
1650 585
1645 600
1640 610
1635 620
1630 630
1625 640
1620 650
1615 665
1610 675
1605 685
1598 698
1593 708
1588 718
1580 725
1573 738
1565 745
1560 755
1555 765
1550 775
1543 783
1538 793
1530 800
1525 810
1518 818
1513 828
1505 835
1495 840
1485 845
1477 854
1469 860
1460 865
1455 875
1447 884
1438 890
1429 895
1419 895
1410 900
1400 900
1390 900
1380 905
1370 905
1370 915
1370 925
1370 935
1370 945
1370 955
1370 965
1370 975
1365 990
1365 1000
1360 1010
1360 1020
1360 1030
1355 1040
1355 1050
1355 1060
1350 1070
1350 1080
1350 1090
1345 1105
1345 1115
1340 1130
1340 1140
1335 1155
1335 1165
1335 1175
1330 1190
1330 1200
1325 1215
1325 1225
1320 1240
1320 1250
1320 1260
1315 1270
1315 1280
1310 1290
1305 1305
1305 1315
1300 1330
1295 1340
1290 1355
1285 1365
1280 1380
1280 1390
1275 1400
1275 1410
1275 1420
1270 1430
1265 1440
1265 1450
1265 1460
1265 1470
1265 1480
1265 1490
1260 1500
1260 1510
1260 1520
1260 1530
1260 1540
1260 1550
1255 1560
1255 1570
1255 1580
1255 1590
1255 1600
1255 1610
1255 1620
1255 1630
1255 1640
1255 1650
1255 1660
1255 1670
1255 1680
1257 1690
1260 1700
1260 1710
1260 1720
1260 1730
1260 1740
1260 1750
1260 1760
1262 1770
1265 1780
1265 1790
1265 1800
1265 1810
1265 1820
1265 1830
1265 1840
1260 1850
1260 1860
1260 1870
1260 1880
1260 1890
1260 1900
1260 1910
1260 1920
1260 1930
1260 1940
1255 1950
1255 1960
1255 1970
1255 1980
1255 1990
1250 2005
1250 2015
1250 2025
1250 2035
1250 2045
1245 2055
1245 2065
1245 2075
1245 2085
1240 2095
1240 2105
1240 2115
1235 2125
1235 2135
1235 2145
1235 2155
1235 2165
1230 2180
1230 2190
1230 2200
1230 2210
1230 2220
1225 2235
1225 2245
1220 2255
1220 2265
1215 2280
1213 2293
1208 2303
1203 2313
1198 2323
1193 2333
1185 2340
1178 2348
1168 2353
1158 2355
1149 2350
1139 2347
1130 2342
1122 2335
1119 2325
1114 2316
1109 2307
1104 2298
1099 2289
1099 2279
1094 2270
1094 2260
1089 2251
1089 2241
1089 2231
1089 2221
1084 2212
1084 2202
1084 2192
1084 2182
1084 2172
1084 2162
1084 2152
1084 2142
1084 2132
1084 2122
1089 2107
1089 2097
1089 2087
1089 2077
1089 2067
1089 2057
1089 2047
1089 2037
1089 2027
1089 2017
1089 2007
1089 1997
1089 1987
1089 1977
1089 1967
1089 1957
1089 1947
1089 1937
1089 1927
1089 1917
1089 1907
1089 1897
1089 1887
1089 1877
1089 1867
1089 1857
1089 1847
1089 1837
1089 1827
1089 1817
1089 1807
1089 1797
1089 1787
1089 1777
1089 1767
1094 1757
1094 1747
1094 1737
1094 1727
1094 1717
1094 1707
1094 1697
1094 1687
1094 1677
1094 1667
1094 1657
1094 1647
1099 1632
1099 1622
1099 1612
1099 1602
1104 1592
1104 1582
1104 1572
1109 1557
1114 1547
1119 1537
1119 1527
1124 1517
1124 1507
1129 1492
1134 1477
1134 1467
1139 1457
1139 1447
1139 1437
1144 1422
1144 1412
1149 1402
1149 1392
1154 1377
1154 1367
1159 1357
1159 1347
1164 1337
1164 1327
1164 1317
1169 1299
1169 1289
1169 1279
1169 1269
1169 1259
1169 1249
1169 1239
1169 1229
1169 1219
1169 1209
1169 1199
1169 1189
1169 1179
1169 1169
1169 1159
1169 1149
1169 1139
1169 1129
1169 1119
1169 1109
1169 1099
1169 1089
1169 1079
1169 1069
1169 1059
1169 1049
1169 1039
1169 1029
1169 1019
1164 1010
1164 1000
1164 990
1164 980
1164 970
1164 960
1164 950
1164 940
1164 930
1164 920
1164 910
1164 900
1155 895
1145 895
1136 890
1127 885
1118 880
1109 875
1099 871
1091 865
1082 860
1075 852
1067 845
1060 837
1050 833
1044 825
1034 822
1027 814
1019 807
1012 799
1007 790
1000 782
995 773
988 765
979 760
970 765
960 770
950 775
940 772
930 768
924 760
919 751
914 742
914 732
919 721
914 712
909 703
909 693
904 684
901 674
899 664
894 655
894 645
894 635
889 626
889 616
889 606
889 596
884 587
884 577
884 567
884 557
884 547
884 537
884 527
884 517
884 507
884 497
884 487
884 477
884 467
884 457
884 447
