34 312
34 302
39 292
47 284
56 279
65 274
74 267
84 262
94 257
104 252
114 247
122 239
129 227
137 219
147 214
157 209
167 209
176 204
186 200
196 195
206 194
216 190
226 189
236 189
246 189
256 189
259 177
259 167
259 157
259 147
264 138
264 128
255 123
246 118
236 114
229 106
224 97
234 92
244 87
254 84
264 82
269 67
269 57
269 47
269 37
269 27
279 24
289 24
299 26
300 36
295 45
295 55
295 65
300 74
309 79
319 79
329 79
339 81
349 84
359 86
365 94
360 105
350 110
340 110
330 115
320 115
310 120
310 130
310 140
310 150
310 160
310 170
310 180
312 190
317 199
326 204
336 204
345 209
355 209
365 209
375 209
385 209
394 214
403 219
412 224
421 229
430 234
435 243
445 244
455 244
465 247
474 252
482 259
491 264
495 274
504 279
510 287
518 294
525 302
530 311
535 320
530 335
525 345
520 355
510 360
505 370
495 375
485 375
475 380
465 385
455 385
446 390
437 395
428 400
418 400
408 400
399 405
389 405
380 410
370 410
360 410
350 410
340 410
330 410
320 410
311 415
301 415
291 415
281 415
271 415
261 415
251 415
241 415
231 415
221 415
211 415
201 413
191 410
181 408
171 405
161 405
151 403
141 400
131 399
122 394
112 390
102 390
93 385
84 380
74 380
66 373
60 365
52 359
47 350
44 340
39 331
34 322
