424 992
424 982
429 972
437 964
445 956
453 949
460 941
465 931
475 926
485 921
493 914
502 909
510 901
518 894
527 889
536 884
545 879
554 872
562 864
572 859
582 854
591 849
600 844
609 837
614 822
619 812
624 802
634 797
642 789
652 784
662 784
671 779
681 779
690 774
700 771
710 769
720 766
730 764
739 759
749 759
759 757
769 754
779 752
789 749
798 744
808 744
818 744
828 744
837 739
847 739
852 729
857 719
864 710
864 700
864 690
864 680
864 670
864 660
864 650
864 640
864 630
864 620
864 610
864 600
864 590
855 585
845 585
835 585
825 585
815 585
805 585
795 585
787 579
779 572
779 562
779 552
784 542
794 537
804 532
814 529
823 524
833 524
842 519
852 519
862 519
872 514
882 514
892 509
899 497
899 487
899 477
899 467
899 457
899 447
899 437
899 427
904 417
914 412
924 409
933 404
942 409
949 417
950 427
950 437
950 447
950 457
954 467
955 477
955 487
960 496
963 506
968 515
975 523
985 524
995 524
1004 519
1014 521
1024 524
1034 524
1044 524
1053 529
1060 537
1065 546
1060 560
1052 570
1043 575
1033 575
1023 575
1013 575
1003 575
994 580
984 580
974 580
965 585
965 595
965 605
965 615
965 625
965 635
965 645
965 655
965 665
965 675
965 685
965 695
965 705
965 715
965 725
970 734
975 743
983 750
993 754
1003 754
1013 755
1023 759
1033 759
1043 760
1053 764
1063 765
1073 769
1083 769
1093 770
1103 774
1113 774
1123 774
1133 774
1143 774
1153 774
1163 774
1173 774
1183 774
1193 774
1203 774
1212 779
1221 784
1229 791
1230 801
1230 811
1230 821
1230 831
1230 841
1230 851
1230 861
1236 869
1245 874
1255 877
1264 882
1274 886
1283 891
1293 894
1302 899
1312 899
1322 899
1332 899
1342 899
1351 904
1361 904
1370 909
1380 912
1389 917
1395 925
1400 934
1405 943
1413 950
1417 960
1420 970
1420 980
1415 990
1413 1003
1408 1013
1400 1020
1395 1030
1390 1040
1385 1050
1375 1055
1367 1064
1359 1070
1350 1075
1342 1084
1332 1089
1322 1094
1312 1099
1302 1100
1293 1105
1284 1110
1275 1115
1265 1115
1255 1120
1246 1125
1237 1130
1228 1135
1219 1140
1210 1145
1201 1150
1191 1150
1182 1155
1173 1160
1163 1160
1153 1160
1143 1160
1133 1160
1123 1160
1113 1160
1103 1160
1093 1160
1083 1160
1073 1160
1063 1160
1053 1160
1043 1160
1033 1160
1023 1160
1014 1155
1004 1155
994 1155
984 1155
974 1155
964 1155
954 1155
944 1155
934 1155
924 1155
914 1155
904 1155
894 1155
884 1155
875 1150
865 1150
855 1150
845 1150
835 1150
825 1150
816 1145
806 1145
796 1145
786 1145
776 1145
766 1143
756 1140
746 1140
736 1138
726 1135
716 1135
706 1135
697 1130
687 1130
677 1130
667 1130
658 1125
648 1125
639 1120
629 1120
619 1120
609 1120
600 1115
590 1115
581 1110
571 1110
561 1108
551 1105
541 1105
531 1103
521 1100
512 1095
502 1095
493 1090
484 1085
476 1079
469 1071
464 1062
459 1053
452 1045
445 1037
439 1029
434 1020
429 1011
424 1002
