24 37
24 27
34 24
44 24
54 24
64 24
74 24
84 24
94 24
104 24
114 24
124 24
134 24
144 24
154 24
164 24
174 24
184 24
194 24
204 24
214 24
224 24
234 24
244 24
254 24
264 24
274 24
284 24
294 24
304 24
314 24
324 24
334 24
344 24
354 24
364 24
374 24
384 24
394 24
404 26
405 36
405 46
400 55
400 65
398 78
393 88
385 95
380 105
373 118
365 125
358 133
350 140
340 140
330 145
322 154
314 160
308 168
303 178
295 185
288 198
280 205
280 215
280 225
280 235
280 245
280 255
280 265
280 275
280 285
280 295
280 305
280 315
280 325
280 335
280 345
280 355
280 365
280 375
280 385
280 395
280 405
285 414
293 420
302 425
312 429
321 434
330 439
340 442
349 447
359 449
368 454
377 459
386 464
395 469
405 469
414 474
415 485
405 485
395 485
385 485
375 485
365 485
355 485
345 485
335 485
325 485
315 485
305 485
295 485
285 485
275 485
265 485
255 485
245 485
235 485
225 485
215 485
205 485
195 485
185 485
175 485
165 485
155 485
145 485
135 485
125 485
115 485
105 485
95 485
85 485
75 485
65 485
55 485
49 477
59 474
68 469
77 464
87 464
96 459
105 454
115 451
125 449
135 446
145 444
154 439
163 434
173 434
182 429
191 424
201 420
209 413
209 403
209 393
209 383
205 373
204 363
204 353
204 343
204 333
204 323
204 313
204 303
200 293
199 283
199 273
199 263
199 253
199 243
199 233
199 223
195 213
186 208
176 205
166 205
156 204
147 199
137 195
128 190
118 190
108 190
99 185
90 180
82 174
72 170
65 162
57 155
48 150
40 143
34 135
29 126
29 116
29 106
24 97
24 87
24 77
24 67
24 57
24 47
