24 260
24 250
28 238
34 228
40 220
44 206
41 196
38 186
38 176
44 168
52 162
62 160
72 156
74 142
74 132
74 122
74 112
74 102
74 92
76 74
76 64
75 54
68 46
68 36
68 26
76 20
86 19
91 30
91 40
89 54
89 64
89 74
89 84
89 94
89 104
90 114
91 124
91 134
91 144
91 154
91 164
93 174
100 182
110 180
116 172
124 178
122 193
117 202
117 212
122 221
128 229
133 238
135 248
135 264
130 277
124 285
116 291
106 295
96 297
86 299
76 299
66 299
56 296
46 292
38 286
32 278
26 270
