70 244
70 234
72 224
72 214
73 202
72 192
72 182
72 172
74 158
74 148
74 138
76 126
76 116
76 106
76 96
76 86
76 76
76 66
76 56
78 46
80 36
84 24
92 18
93 30
88 42
86 52
85 71
85 81
85 91
85 101
85 111
85 121
85 131
85 141
89 151
99 154
109 158
113 168
115 178
113 196
113 206
114 216
115 226
116 236
117 246
117 256
117 266
115 278
113 288
103 299
93 301
83 299
74 294
72 284
70 274
70 264
70 254
