22 256
22 246
26 236
32 226
38 216
39 198
35 188
34 178
39 169
47 163
57 160
67 159
73 151
74 132
74 122
74 112
74 102
74 92
76 74
76 64
75 54
68 46
66 36
66 26
74 20
84 19
89 30
91 40
89 52
89 62
89 72
89 82
90 92
91 102
91 112
91 122
91 132
91 142
91 152
91 162
92 172
98 180
108 176
118 172
123 181
119 196
115 206
118 216
123 225
129 233
133 243
135 253
131 272
125 280
119 288
110 293
100 297
90 299
80 301
70 299
60 298
50 295
41 290
33 284
26 276
22 266
