159 267
159 257
164 247
172 239
180 231
188 224
194 212
199 202
204 192
212 184
221 179
230 174
240 171
249 162
254 152
259 142
269 139
278 134
287 139
296 144
305 149
315 152
320 161
318 178
310 185
303 193
295 200
290 210
290 220
295 229
305 232
313 239
322 244
329 252
337 259
344 267
352 274
361 279
369 286
378 291
385 299
394 304
402 310
410 317
417 325
427 329
434 337
442 344
451 349
459 356
468 361
475 369
484 374
492 380
500 387
508 394
517 399
524 407
532 414
540 420
548 426
555 434
563 440
570 448
578 454
587 459
594 467
602 474
610 480
615 489
624 494
630 502
639 507
640 517
632 524
622 525
612 525
602 525
593 520
584 515
579 506
571 500
562 495
554 488
548 480
539 475
520 462
512 455
509 445
500 440
490 438
481 433
475 425
467 419
459 412
452 404
442 400
433 395
425 388
418 380
409 375
399 371
391 365
382 360
375 352
367 345
358 340
350 333
343 325
335 318
328 310
320 303
314 295
304 292
297 284
287 280
280 272
270 268
264 260
255 265
250 275
243 283
235 290
228 298
220 305
211 300
201 298
191 294
182 289
174 282
167 274
