174 162
174 152
182 144
190 136
198 130
207 135
217 139
226 144
234 151
240 159
245 168
253 175
260 183
268 190
275 198
283 205
290 213
298 220
305 228
313 235
317 245
325 252
332 260
340 267
347 275
355 282
359 292
367 299
374 307
379 316
385 324
393 330
397 340
405 347
412 355
420 362
427 370
435 377
442 385
450 392
457 400
465 407
472 415
482 419
492 419
497 409
499 392
499 382
499 372
499 362
507 354
514 362
524 366
533 371
538 380
540 390
540 400
540 410
540 420
540 430
540 440
535 450
528 463
520 470
512 479
502 484
493 490
484 495
475 500
465 500
460 510
453 518
445 525
436 530
426 530
417 525
414 515
409 506
409 496
404 487
412 479
422 479
431 474
439 467
439 455
434 446
429 437
422 429
414 422
407 414
399 407
394 398
388 390
380 383
373 375
365 368
358 360
350 353
343 345
335 338
328 330
320 323
313 315
305 308
298 300
290 293
283 285
275 278
268 270
260 263
253 255
245 248
239 240
231 234
224 226
219 217
212 209
204 202
197 194
189 187
182 179
174 172
