60 64
66 81
76 81
81 72
87 62
95 54
100 63
100 73
105 82
108 92
108 102
110 112
110 122
110 132
110 142
110 152
110 162
106 172
102 182
100 196
100 206
100 216
100 226
100 236
100 246
100 256
100 266
100 276
100 286
100 296
100 306
100 316
100 326
98 342
98 352
96 362
106 365
116 365
126 365
136 365
146 365
149 351
147 341
147 331
147 321
147 311
147 301
147 291
147 281
147 271
147 261
147 251
147 241
147 231
147 221
147 211
145 201
145 191
144 181
139 172
137 162
137 152
137 142
137 132
137 122
137 112
137 102
139 88
143 74
147 56
149 46
159 45
167 51
177 50
183 35
181 25
172 20
162 20
152 24
142 20
132 20
122 20
112 20
102 20
92 24
84 30
76 38
70 46
65 55
