56 38
56 28
62 20
72 20
82 24
92 20
102 20
112 20
122 20
132 20
142 20
150 26
158 33
165 41
171 49
176 58
179 68
179 81
169 81
160 76
155 67
149 59
139 62
135 74
131 90
131 100
129 110
129 120
129 130
129 140
129 150
129 160
131 170
135 180
137 190
139 200
139 210
139 220
139 230
139 240
139 250
139 260
139 270
139 280
139 290
139 300
139 310
139 320
139 330
141 340
141 350
140 365
130 365
120 365
110 365
100 365
90 362
90 352
92 342
92 332
92 322
92 312
92 302
92 292
92 282
92 272
92 262
92 252
92 242
92 232
92 222
92 212
94 194
94 184
98 174
102 156
102 146
102 136
102 126
102 116
102 106
100 96
99 86
96 76
92 66
92 56
90 46
80 45
71 51
61 47
