99 307
99 297
104 287
112 279
119 267
119 257
119 247
119 237
124 227
134 217
139 207
144 197
149 187
157 179
164 167
174 164
183 169
192 174
201 179
211 179
221 179
229 186
230 196
225 205
225 215
220 225
215 235
210 245
215 254
223 260
232 265
242 269
251 274
261 274
269 281
279 284
288 289
298 290
308 294
317 299
326 304
335 309
345 309
354 314
364 314
373 319
382 324
391 329
400 334
409 339
419 341
425 349
435 349
443 355
453 359
463 359
472 364
481 369
490 374
500 377
509 382
519 384
528 389
537 394
546 399
556 399
565 404
575 404
580 413
580 423
580 433
573 443
565 450
555 450
545 450
536 445
526 445
517 450
507 450
497 450
487 450
477 450
467 450
457 450
447 449
442 440
435 432
427 425
418 420
410 413
403 405
394 400
384 396
376 390
367 385
358 380
350 373
341 368
335 360
325 357
315 353
309 345
299 342
290 337
282 330
273 325
264 320
255 315
245 315
235 312
225 308
219 300
209 297
200 292
190 290
180 290
175 305
170 320
162 329
153 335
144 330
134 326
126 320
116 319
107 314
