70 66
68 76
77 81
87 81
97 81
106 86
108 96
109 106
110 116
110 126
110 136
110 146
110 156
106 172
102 182
100 200
100 210
100 220
100 230
100 240
100 250
100 260
100 270
100 280
100 290
100 300
100 310
100 320
100 330
100 340
98 356
103 365
113 365
123 365
133 365
143 365
145 350
145 340
145 330
145 320
145 310
145 300
145 290
145 280
145 270
145 260
145 250
145 240
145 230
145 220
145 210
145 200
143 190
141 180
137 170
135 160
135 150
135 140
135 130
135 120
135 110
137 100
137 90
141 74
145 64
145 54
155 51
165 48
171 35
167 25
158 20
148 20
138 20
128 20
118 20
108 20
98 20
90 28
84 36
79 45
74 54
