66 58
62 72
67 81
77 81
87 80
91 70
96 61
101 73
106 82
108 92
108 102
109 112
110 122
110 132
110 142
108 160
104 178
100 188
100 198
100 208
100 218
100 228
100 238
100 248
100 258
100 268
100 278
100 288
100 298
100 308
100 318
100 328
98 344
96 362
106 365
116 365
126 365
136 365
146 365
147 352
145 342
145 332
145 322
145 312
145 302
145 292
145 282
145 272
145 262
145 252
145 242
145 232
145 222
145 212
145 202
145 192
142 182
139 172
137 162
135 152
135 142
135 132
135 122
135 112
137 100
137 90
141 74
145 64
147 48
157 51
167 51
175 42
177 30
172 21
162 20
152 22
142 20
132 20
122 20
112 20
102 20
92 24
84 32
76 40
71 49
