64 317
64 307
72 299
77 289
87 284
97 279
107 274
117 269
127 269
136 264
146 264
155 259
165 256
175 254
184 249
194 249
204 249
213 244
223 244
233 244
243 244
252 239
262 239
272 239
282 234
292 229
302 229
312 224
322 224
331 219
340 214
349 207
357 199
365 191
369 177
374 167
374 157
372 140
365 132
355 128
346 123
336 119
327 114
317 110
308 105
299 100
289 97
282 89
272 85
268 75
259 70
254 61
249 52
249 42
254 27
264 24
274 24
283 29
292 34
302 34
311 39
321 39
331 39
340 44
350 47
358 54
367 59
376 64
386 64
395 69
404 74
414 74
423 79
433 80
442 85
452 89
459 97
469 99
477 105
487 109
496 114
505 119
515 122
525 124
534 129
544 129
553 134
563 134
573 134
583 134
593 134
603 134
612 129
622 129
625 139
625 149
625 159
625 169
625 179
625 189
625 199
625 209
625 219
625 229
625 239
625 249
625 259
625 269
625 279
625 289
625 299
625 309
625 319
625 329
620 345
615 355
607 364
602 374
594 380
585 385
578 393
568 398
558 403
548 408
538 413
528 418
518 423
510 430
500 435
490 440
483 453
475 460
468 473
463 483
455 490
450 500
443 508
435 515
428 528
420 535
413 548
405 555
398 563
390 570
380 575
371 580
361 584
352 579
344 572
344 562
349 552
357 544
362 534
369 522
377 514
385 506
393 499
397 489
402 479
407 469
412 459
417 449
419 430
410 425
400 422
390 420
380 425
371 430
361 430
352 435
343 440
334 445
325 450
316 455
307 460
298 465
289 470
280 475
270 475
260 480
250 485
241 490
232 495
223 500
214 505
204 505
195 510
185 510
175 515
165 515
157 509
149 502
149 492
149 482
157 474
167 469
175 461
185 456
195 451
205 446
215 444
224 439
233 434
242 429
252 424
261 419
270 414
279 409
288 404
298 404
307 399
316 394
325 389
330 377
320 375
310 380
300 380
290 385
280 390
271 395
261 395
252 400
243 405
234 410
225 415
215 415
206 420
196 420
187 425
177 429
167 430
158 435
149 440
140 445
130 445
120 450
110 455
100 455
92 449
84 442
84 432
84 422
92 414
100 406
110 401
118 394
127 389
137 384
147 379
157 374
167 369
177 364
186 359
196 355
206 350
216 349
226 345
236 344
245 339
255 336
265 334
275 331
285 326
294 319
291 309
282 304
272 300
263 305
253 305
243 305
233 305
223 305
214 310
204 310
194 312
184 315
174 315
164 317
154 320
144 320
135 325
125 325
115 330
106 335
96 335
86 335
76 334
69 326
