24 132
24 122
29 112
29 102
34 92
39 82
44 72
49 62
54 52
62 44
71 39
80 34
89 29
98 24
108 24
118 24
128 24
138 24
148 24
158 24
167 29
176 34
185 39
195 42
204 47
214 51
220 59
228 65
235 73
243 80
247 90
252 99
255 109
260 118
265 127
270 136
275 145
280 154
285 163
295 161
300 151
305 141
310 131
318 124
322 114
327 104
332 94
337 84
345 76
353 69
360 61
365 51
375 46
385 41
395 36
405 34
415 34
425 34
435 34
445 34
454 39
463 44
473 44
482 49
489 57
497 64
506 69
515 74
523 80
527 90
535 97
535 107
540 116
545 125
545 135
550 144
550 154
550 164
550 174
550 184
550 194
550 204
545 215
540 230
538 248
533 258
528 268
520 275
513 288
505 295
500 305
493 313
485 320
478 333
468 338
460 345
453 353
445 360
435 365
425 370
417 379
409 385
400 390
390 395
380 400
370 405
360 410
350 415
343 423
335 430
325 435
315 440
308 448
300 455
290 455
282 449
274 442
269 433
260 428
254 420
246 413
236 409
229 401
221 395
212 390
208 380
199 375
191 369
182 364
174 357
174 347
174 337
174 327
179 314
179 304
179 294
179 284
179 274
174 265
164 265
154 265
144 265
134 265
124 267
114 270
104 270
94 270
84 270
74 267
65 262
59 254
54 245
46 239
42 229
37 220
34 210
29 201
29 191
24 182
24 172
24 162
24 152
24 142
