24 127
24 117
29 107
34 97
34 87
39 77
47 69
54 57
59 47
69 42
77 34
86 29
96 29
105 24
115 24
125 24
135 24
145 24
155 24
165 27
174 32
184 36
193 41
203 45
212 50
217 59
220 69
220 79
220 89
220 99
220 109
220 119
220 129
225 138
230 147
234 157
244 161
254 164
264 164
274 164
283 169
293 169
303 169
312 164
321 159
331 159
341 155
351 150
356 140
359 122
364 107
364 97
364 87
364 77
369 67
374 57
379 47
389 42
399 37
409 34
419 34
429 34
439 34
449 36
458 41
468 45
477 50
487 54
496 59
505 64
510 73
518 79
527 84
534 92
539 101
540 111
543 121
545 131
550 140
550 150
550 160
550 170
550 180
550 190
550 200
545 210
545 220
540 230
535 245
535 255
530 265
523 273
515 280
510 290
503 303
495 310
488 318
480 325
473 338
463 343
455 350
448 358
438 363
430 370
420 375
413 383
403 388
393 393
385 400
375 405
365 410
355 415
345 420
335 425
325 430
318 443
308 448
298 453
288 455
280 448
274 440
266 434
259 426
251 420
242 415
239 405
229 402
222 394
212 390
205 382
197 375
188 370
180 363
173 355
164 350
156 344
149 336
141 330
132 325
125 317
117 310
110 302
102 295
95 287
87 280
78 275
70 268
63 260
55 253
51 243
46 234
42 224
37 215
34 205
29 196
29 186
24 177
24 167
24 157
24 147
24 137
