169 567
169 557
174 542
179 527
184 512
189 497
194 487
199 472
204 457
209 442
214 432
219 417
224 407
232 399
237 389
247 384
255 376
263 369
267 359
275 351
283 344
290 336
298 329
307 324
315 316
323 309
332 304
342 299
351 294
360 289
369 284
378 279
387 274
397 274
406 269
415 264
425 261
435 256
445 254
454 249
464 247
474 244
484 242
494 239
503 234
513 234
522 229
532 229
542 229
552 224
562 224
572 224
581 219
591 219
601 219
611 219
621 219
630 214
640 214
650 214
660 214
670 214
680 214
690 214
700 217
710 219
720 219
729 224
739 224
748 229
757 234
767 234
776 239
785 244
793 250
802 255
810 262
817 270
825 277
832 285
840 292
847 300
852 309
855 319
863 325
865 335
870 344
875 353
875 363
880 372
884 382
885 392
889 402
894 411
895 421
898 431
903 440
907 450
912 459
919 467
929 471
938 476
948 479
958 479
967 484
974 492
984 496
993 501
999 509
1008 514
1018 514
1027 509
1037 504
1047 499
1057 499
1067 499
1077 499
1087 499
1097 499
1107 499
1117 499
1127 499
1137 499
1147 499
1157 499
1167 499
1177 499
1187 499
1197 499
1207 499
1217 499
1227 499
1237 499
1247 499
1257 499
1267 499
1277 499
1287 499
1297 499
1307 499
1317 499
1327 499
1337 499
1347 499
1357 499
1366 494
1376 494
1386 494
1396 494
1406 494
1416 494
1426 494
1435 499
1445 499
1455 502
1464 507
1474 511
1484 514
1494 516
1504 519
1514 519
1524 519
1534 519
1544 519
1554 519
1564 519
1574 519
1584 519
1594 519
1603 524
1613 524
1622 529
1632 529
1642 529
1652 529
1662 529
1672 529
1681 534
1690 539
1700 539
1709 544
1719 544
1729 544
1739 544
1748 539
1758 539
1768 539
1778 539
1788 539
1797 534
1807 534
1816 529
1826 529
1836 529
1845 524
1855 524
1864 519
1874 519
1883 524
1893 525
1900 533
1910 534
1919 539
1927 545
1937 549
1944 557
1952 564
1959 572
1967 579
1974 587
1982 594
1985 604
1987 614
1979 622
1971 630
1961 630
1952 635
1942 639
1934 645
1925 650
1915 655
1905 660
1896 665
1887 670
1878 675
1869 680
1859 680
1849 680
1840 675
1831 670
1821 668
1811 665
1801 665
1791 665
1781 665
1771 665
1761 665
1752 660
1742 660
1732 660
1723 655
1713 655
1703 658
1693 663
1683 665
1673 665
1663 668
1653 670
1643 673
1633 675
1623 675
1613 675
1603 678
1593 683
1583 685
1573 685
1563 688
1553 690
1543 690
1533 690
1523 690
1513 690
1503 690
1493 690
1483 690
1473 693
1463 698
1453 703
1443 708
1435 715
1425 715
1415 715
1405 715
1395 715
1385 715
1375 715
1366 720
1356 720
1346 720
1336 720
1326 720
1316 720
1306 720
1296 720
1286 720
1276 720
1266 720
1256 720
1246 720
1236 720
1226 720
1216 720
1206 720
1196 720
1187 725
1177 725
1167 725
1157 725
1147 725
1137 725
1127 725
1117 725
1107 725
1097 725
1087 725
1077 725
1067 725
1057 725
1047 725
1037 725
1027 725
1017 725
1007 725
997 725
988 730
978 730
968 730
958 730
948 730
938 730
928 730
919 735
910 740
905 750
905 760
905 770
900 785
900 795
895 810
895 820
890 835
885 845
885 855
880 870
875 880
870 890
865 900
860 910
855 920
848 933
840 940
835 950
828 958
820 965
812 974
804 982
796 990
786 990
777 995
768 1000
759 1005
750 1010
740 1010
730 1015
720 1015
711 1020
701 1020
691 1020
681 1020
671 1020
661 1020
651 1020
641 1020
631 1020
621 1020
611 1020
601 1020
592 1015
582 1015
572 1015
562 1014
552 1010
542 1010
532 1009
522 1005
512 1004
502 1000
492 999
482 995
472 994
462 990
452 990
443 985
433 985
424 980
415 975
405 972
395 968
386 963
376 959
367 954
359 947
350 942
340 938
334 930
325 925
317 919
309 912
302 904
294 897
287 889
279 882
272 874
264 867
257 859
249 852
245 842
240 833
234 825
229 816
224 807
220 797
215 788
214 778
209 769
204 760
202 750
198 740
190 733
189 723
184 714
184 704
179 695
179 685
174 676
174 666
169 657
169 647
169 637
169 627
169 617
169 607
169 597
169 587
169 577
