249 772
249 762
254 747
254 737
254 727
254 717
254 707
254 697
259 682
259 672
259 662
259 652
259 642
259 632
264 622
264 612
264 602
264 592
264 582
269 567
269 557
274 547
274 537
279 522
279 512
284 497
284 487
289 477
289 467
294 452
299 437
304 422
309 412
317 404
322 394
330 386
338 379
345 371
355 369
365 369
374 364
384 364
394 364
404 364
414 362
424 359
434 359
444 359
453 354
463 354
473 354
482 349
492 349
502 349
512 349
522 349
532 349
542 349
552 344
562 344
572 344
582 344
592 344
602 344
611 339
621 339
631 339
641 339
651 339
660 334
670 334
680 334
690 334
700 331
710 329
720 329
730 329
740 329
750 329
760 329
770 329
780 329
790 329
800 329
810 329
820 332
830 334
840 337
850 339
859 344
867 350
872 359
879 367
884 376
890 384
895 393
900 402
907 410
912 419
915 429
920 438
920 448
925 457
925 467
925 477
930 486
933 496
935 506
940 515
942 525
947 534
950 544
955 553
955 563
960 572
960 582
967 590
975 597
985 599
995 599
1004 604
1014 604
1024 606
1034 609
1044 609
1053 614
1062 619
1071 624
1080 629
1090 632
1099 637
1109 639
1119 639
1129 639
1139 639
1149 639
1159 639
1169 639
1179 639
1189 639
1199 639
1209 639
1219 639
1229 639
1239 639
1249 639
1259 639
1269 639
1279 639
1289 639
1299 639
1309 639
1319 639
1329 639
1339 639
1349 639
1359 639
1369 639
1379 639
1389 639
1399 639
1409 639
1419 639
1428 644
1438 644
1448 644
1458 644
1468 644
1477 649
1487 649
1497 649
1507 649
1517 649
1527 649
1537 649
1547 649
1557 649
1567 649
1577 649
1587 649
1597 649
1607 649
1617 649
1627 649
1637 649
1647 649
1657 649
1667 649
1677 649
1687 649
1696 654
1706 654
1715 659
1725 659
1735 662
1745 664
1755 664
1764 669
1774 669
1783 674
1793 675
1802 680
1810 687
1819 692
1825 700
1830 709
1835 718
1835 728
1835 738
1840 747
1840 757
1844 767
1845 777
1845 787
1845 797
1845 807
1840 820
1835 835
1830 845
1825 860
1818 868
1808 873
1798 875
1789 880
1779 880
1770 885
1760 885
1751 890
1741 890
1732 885
1722 885
1712 885
1702 885
1692 884
1682 880
1672 880
1662 880
1653 885
1643 888
1633 893
1623 895
1613 895
1603 895
1593 895
1584 890
1574 890
1564 890
1554 890
1544 890
1534 890
1524 890
1514 890
1504 890
1494 890
1484 890
1475 885
1465 885
1455 885
1445 885
1435 885
1425 885
1415 885
1405 885
1395 885
1385 885
1375 885
1365 885
1355 885
1345 885
1335 885
1325 885
1315 885
1305 885
1295 885
1285 885
1275 885
1265 885
1255 885
1245 885
1235 885
1225 885
1215 885
1205 885
1195 885
1185 885
1175 885
1165 885
1155 885
1145 885
1135 885
1125 885
1115 885
1105 885
1095 885
1085 885
1075 885
1068 893
1063 903
1055 910
1045 915
1035 915
1025 915
1015 915
1005 915
995 915
985 915
975 915
965 915
955 920
948 928
940 935
933 943
925 950
920 960
915 975
910 990
910 1000
905 1010
900 1025
895 1040
895 1050
890 1060
885 1070
878 1083
870 1090
863 1103
855 1110
850 1120
843 1128
835 1135
825 1135
815 1140
805 1140
795 1145
785 1145
775 1145
766 1150
757 1145
747 1145
737 1145
727 1144
717 1140
707 1140
697 1140
688 1135
678 1135
668 1135
659 1130
649 1130
639 1130
630 1125
620 1125
610 1125
600 1122
590 1120
580 1120
570 1117
560 1115
550 1115
540 1112
530 1110
520 1110
510 1107
500 1105
490 1105
480 1102
470 1100
460 1100
451 1095
441 1095
431 1095
422 1090
412 1090
402 1090
393 1085
383 1085
373 1085
364 1080
354 1080
344 1080
335 1075
325 1073
316 1068
306 1064
297 1059
289 1052
280 1047
275 1038
274 1028
269 1019
269 1009
269 999
264 990
264 980
264 970
262 960
259 950
259 940
259 930
254 921
254 911
254 901
249 892
249 882
249 872
249 862
249 852
249 842
249 832
249 822
249 812
249 802
249 792
249 782
