274 712
274 702
279 692
279 682
279 672
284 657
284 647
289 637
289 627
289 617
294 602
294 592
299 577
299 567
304 552
304 542
309 527
314 517
322 509
330 501
338 494
342 484
350 476
358 469
362 459
370 451
378 444
385 436
393 429
400 421
408 414
417 409
425 401
433 394
440 386
450 381
458 374
467 369
476 364
485 359
494 354
503 349
513 349
522 344
532 339
542 339
552 334
562 334
572 329
582 329
592 329
601 334
611 334
620 339
630 339
640 339
649 344
659 344
669 346
679 349
689 349
698 354
708 355
717 360
727 364
736 369
745 374
754 379
762 385
772 389
779 397
789 401
795 409
804 414
812 420
822 424
829 432
837 439
846 444
854 451
860 459
870 462
877 470
885 477
890 486
896 494
900 504
905 513
913 520
917 530
922 539
929 547
934 556
940 564
950 567
960 569
970 569
979 562
987 554
995 546
1000 536
1010 531
1018 524
1027 519
1037 519
1047 519
1057 519
1067 519
1076 524
1084 531
1090 539
1095 548
1100 557
1105 566
1105 576
1105 586
1110 595
1120 599
1130 599
1140 596
1150 594
1160 594
1170 594
1180 594
1190 594
1200 594
1210 594
1220 597
1230 599
1240 599
1250 599
1260 599
1270 602
1280 604
1290 604
1300 604
1310 604
1320 604
1329 609
1339 609
1349 609
1359 609
1369 609
1379 611
1389 614
1399 614
1409 614
1419 614
1429 614
1439 614
1449 614
1459 614
1469 614
1479 614
1489 614
1499 614
1509 614
1519 614
1529 614
1539 614
1549 614
1559 614
1569 614
1579 614
1589 614
1599 614
1609 614
1619 614
1629 614
1639 614
1649 614
1659 614
1669 614
1679 614
1689 614
1699 614
1709 614
1719 614
1729 616
1739 619
1748 624
1757 629
1766 634
1775 639
1783 645
1790 653
1798 660
1805 668
1813 675
1820 683
1828 690
1835 698
1840 707
1840 717
1840 727
1840 737
1840 747
1835 765
1835 775
1835 785
1830 795
1823 808
1818 818
1808 823
1800 830
1790 835
1783 843
1773 848
1763 853
1753 858
1743 863
1733 868
1723 870
1714 875
1704 877
1694 880
1684 880
1674 880
1664 880
1654 880
1644 880
1634 880
1625 875
1615 875
1605 875
1595 875
1585 875
1575 875
1565 875
1555 875
1545 875
1535 875
1525 875
1515 875
1505 875
1495 875
1485 875
1475 875
1465 875
1455 872
1445 870
1435 870
1425 870
1415 870
1405 870
1395 870
1385 870
1376 865
1366 865
1356 865
1346 865
1336 865
1326 865
1316 865
1306 863
1296 860
1286 860
1276 860
1266 860
1256 860
1246 860
1236 860
1227 855
1217 855
1207 855
1197 855
1187 855
1177 855
1167 855
1157 855
1148 850
1138 850
1128 850
1118 850
1108 850
1099 855
1090 860
1085 870
1080 880
1075 890
1067 904
1059 910
1050 915
1040 915
1030 915
1020 915
1010 913
1001 908
991 904
984 896
979 887
972 879
964 872
955 867
945 865
935 865
925 870
918 878
910 885
905 895
898 903
890 910
883 918
875 925
865 930
858 938
850 945
840 950
833 958
825 965
818 973
808 978
800 985
792 994
782 999
772 1004
762 1005
752 1009
742 1010
733 1015
723 1015
714 1020
704 1020
695 1025
685 1025
675 1030
665 1030
655 1035
645 1035
636 1040
626 1040
617 1035
607 1035
597 1035
587 1035
577 1035
568 1030
558 1030
548 1030
538 1030
529 1025
519 1025
510 1020
500 1020
491 1015
481 1014
472 1009
464 1002
455 997
447 990
440 982
432 975
425 967
417 960
408 955
400 948
393 940
385 933
378 925
370 918
363 910
355 903
348 895
340 888
334 880
326 874
322 864
317 855
314 845
309 836
304 827
300 817
295 808
294 798
289 789
284 780
284 770
284 760
279 751
279 741
279 731
279 721
