620 346
619 336
624 326
633 331
640 339
648 346
656 353
662 361
668 369
676 375
684 382
690 390
698 396
705 404
713 411
719 419
727 425
735 431
741 439
749 446
757 453
764 461
772 468
780 475
787 483
795 489
803 496
809 504
817 510
823 518
831 524
839 530
847 536
855 543
862 551
870 558
878 564
885 572
893 578
901 584
909 591
917 597
923 605
931 611
940 616
948 622
956 629
965 634
972 642
980 648
988 654
996 660
1002 668
1010 674
1017 682
1025 688
1033 695
1040 703
1047 711
1055 717
1061 725
1069 731
1077 738
1083 746
1091 752
1098 760
1106 766
1115 771
1120 780
1128 786
1136 793
1142 801
1148 809
1150 819
1160 821
1170 823
1178 829
1187 834
1196 839
1202 847
1210 854
1218 861
1225 869
1233 875
1241 881
1247 889
1255 895
1262 903
1271 908
1277 916
1285 923
1293 930
1301 937
1306 946
1314 952
1322 958
1328 966
1336 973
1342 981
1350 987
1359 992
1359 1002
1367 1008
1376 1013
1379 1023
1387 1030
1393 1038
1400 1046
1406 1054
1413 1062
1420 1070
1428 1076
1434 1084
1442 1091
1447 1100
1455 1106
1460 1115
1466 1123
1474 1130
1482 1136
1487 1145
1493 1153
1500 1161
1509 1166
1517 1173
1521 1183
1529 1192
1532 1202
1529 1214
1521 1222
1511 1227
1501 1228
1491 1228
1481 1227
1471 1227
1461 1225
1451 1221
1441 1217
1432 1212
1424 1206
1416 1199
1407 1194
1399 1188
1391 1181
1383 1175
1375 1168
1366 1163
1359 1155
1352 1147
1345 1139
1340 1130
1334 1122
1324 1119
1322 1109
1316 1101
1308 1095
1303 1086
1296 1078
1290 1070
1284 1062
1277 1054
1270 1046
1262 1040
1257 1031
1251 1023
1245 1015
1238 1007
1230 1001
1224 993
1215 988
1208 980
1202 972
1194 965
1186 959
1179 951
1170 946
1164 938
1157 930
1149 923
1140 918
1134 910
1126 903
1117 898
1108 893
1102 885
1097 876
1087 875
1077 872
1070 864
1061 859
1055 851
1049 843
1041 837
1036 828
1027 823
1022 814
1014 807
1004 804
999 795
992 787
984 781
975 776
968 768
960 762
952 756
944 750
939 741
931 735
925 727
916 722
909 714
903 706
895 700
888 692
880 685
873 677
865 671
858 663
850 657
842 651
835 643
828 635
820 628
812 622
805 614
796 609
790 601
784 593
776 587
768 581
760 575
754 567
748 559
740 552
731 547
725 539
718 531
711 523
704 515
698 507
691 499
686 490
678 484
674 474
668 466
662 458
657 449
651 441
645 428
643 418
638 409
634 399
631 389
627 379
625 369
622 359
