201 1986
198 1976
203 1966
211 1959
220 1953
228 1947
237 1941
247 1936
255 1930
263 1923
271 1916
279 1909
288 1903
297 1898
306 1892
315 1887
324 1882
333 1876
342 1871
351 1866
360 1860
369 1854
378 1848
387 1842
396 1837
405 1832
415 1827
424 1822
433 1817
443 1812
453 1808
462 1802
470 1796
479 1791
489 1787
498 1782
508 1778
518 1773
527 1768
537 1764
547 1759
556 1754
566 1750
576 1746
586 1743
596 1739
606 1735
616 1730
626 1726
636 1723
646 1721
656 1717
666 1713
676 1709
686 1705
696 1702
706 1698
716 1694
726 1692
736 1689
746 1687
756 1683
766 1680
776 1676
786 1673
796 1670
806 1667
816 1663
826 1660
836 1657
846 1653
856 1650
866 1647
876 1645
886 1641
896 1638
906 1634
916 1632
926 1629
936 1625
946 1623
956 1620
966 1617
976 1614
986 1611
996 1608
1006 1605
1016 1601
1026 1598
1036 1595
1046 1592
1056 1589
1066 1585
1076 1582
1086 1579
1096 1576
1106 1573
1116 1570
1126 1567
1136 1564
1146 1561
1156 1557
1166 1554
1176 1551
1186 1548
1196 1545
1206 1541
1216 1537
1226 1534
1236 1531
1246 1529
1256 1526
1266 1523
1276 1520
1286 1517
1296 1514
1306 1510
1316 1507
1326 1504
1336 1501
1346 1498
1356 1494
1366 1491
1376 1487
1386 1484
1396 1481
1406 1478
1416 1475
1426 1471
1436 1468
1446 1466
1456 1464
1466 1461
1476 1457
1486 1454
1496 1451
1506 1448
1516 1444
1526 1441
1536 1438
1546 1435
1556 1432
1566 1429
1576 1425
1586 1422
1596 1419
1606 1416
1616 1413
1626 1410
1636 1407
1646 1404
1656 1401
1666 1397
1676 1394
1686 1390
1696 1387
1706 1383
1716 1379
1726 1376
1736 1373
1746 1370
1756 1366
1766 1363
1776 1360
1786 1357
1796 1354
1806 1351
1816 1348
1826 1344
1836 1341
1846 1338
1856 1335
1866 1332
1876 1329
1886 1326
1896 1323
1906 1320
1916 1317
1926 1314
1936 1312
1946 1308
1956 1305
1966 1302
1976 1299
1986 1296
1996 1293
2006 1290
2016 1293
2026 1297
2036 1293
2046 1291
2056 1295
2065 1300
2074 1305
2084 1309
2094 1313
2102 1319
2112 1323
2122 1325
2132 1326
2142 1329
2152 1332
2162 1333
2172 1334
2182 1334
2192 1334
2202 1336
2212 1336
2222 1334
2232 1333
2242 1334
2252 1333
2262 1332
2272 1330
2282 1328
2292 1325
2302 1322
2312 1319
2322 1316
2332 1314
2342 1311
2351 1306
2361 1301
2371 1297
2381 1292
2390 1287
2400 1285
2410 1282
2420 1278
2430 1276
2439 1271
2448 1266
2457 1261
2467 1256
2477 1253
2487 1250
2497 1246
2507 1241
2516 1236
2525 1231
2535 1228
2545 1226
2555 1222
2564 1217
2573 1212
2583 1209
2593 1206
2602 1201
2611 1196
2621 1194
2630 1189
2640 1186
2650 1183
2660 1179
2670 1175
2680 1171
2690 1166
2700 1162
2710 1159
2720 1156
2730 1153
2740 1151
2750 1148
2760 1144
2770 1140
2780 1137
2790 1134
2800 1131
2810 1128
2820 1126
2830 1121
2840 1117
2850 1116
2860 1115
2870 1115
2880 1113
2890 1108
2900 1103
2910 1102
2920 1102
2930 1103
2940 1103
2950 1099
2960 1095
2970 1095
2980 1095
2990 1095
3000 1093
3010 1092
3020 1091
3030 1089
3040 1088
3050 1088
3060 1088
3070 1085
3080 1083
3090 1082
3100 1081
3110 1078
3120 1074
3130 1072
3140 1074
3150 1074
3160 1073
3170 1072
3180 1071
3190 1070
3200 1068
3210 1065
3220 1063
3230 1064
3240 1065
3250 1064
3260 1063
3270 1060
3280 1056
3290 1055
3300 1054
3310 1051
3320 1048
3330 1047
3340 1045
3350 1042
3360 1037
3369 1032
3379 1027
3389 1025
3399 1021
3409 1017
3419 1013
3429 1009
3438 1004
3446 998
3455 992
3464 986
3472 980
3480 974
3488 967
3496 959
3504 952
3512 946
3519 937
3525 929
3532 921
3540 913
3546 905
3551 896
3556 887
3564 879
3574 876
3584 874
3594 874
3604 875
3614 876
3624 878
3634 881
3643 886
3653 890
3661 899
3663 913
3658 924
3651 932
3652 942
3657 951
3662 960
3670 954
3678 948
3686 940
3694 932
3699 919
3706 911
3716 910
3723 918
3723 928
3718 938
3719 948
3724 957
3730 965
3731 975
3741 976
3750 971
3760 975
3765 984
3769 994
3762 1006
3753 1011
3744 1006
3736 1000
3726 1003
3716 1005
3707 1000
3710 985
3702 979
3693 984
3683 988
3686 998
3686 1008
3694 1015
3698 1025
3706 1032
3716 1035
3726 1029
3734 1035
3739 1044
3746 1052
3756 1056
3762 1064
3762 1074
3757 1083
3748 1089
3740 1096
3736 1106
3737 1116
3732 1129
3724 1136
3715 1142
3707 1148
3698 1154
3689 1159
3680 1165
3671 1170
3662 1175
3652 1179
3642 1183
3632 1188
3622 1193
3612 1196
3602 1199
3592 1203
3582 1207
3572 1210
3562 1214
3552 1217
3542 1220
3532 1223
3522 1225
3512 1228
3502 1231
3492 1233
3482 1236
3472 1240
3462 1243
3452 1245
3442 1247
3432 1249
3422 1250
3412 1253
3402 1257
3392 1260
3382 1262
3372 1264
3362 1266
3352 1270
3342 1272
3332 1274
3322 1276
3312 1280
3302 1282
3292 1285
3282 1287
3272 1289
3262 1292
3252 1295
3242 1297
3232 1299
3222 1302
3212 1305
3202 1306
3192 1309
3182 1311
3172 1313
3162 1317
3152 1320
3142 1321
3132 1322
3122 1325
3112 1329
3102 1332
3092 1335
3082 1339
3072 1341
3062 1342
3052 1344
3042 1346
3032 1349
3022 1353
3012 1355
3002 1356
2992 1358
2982 1361
2972 1364
2962 1366
2952 1369
2942 1373
2932 1375
2922 1377
2912 1379
2902 1382
2892 1385
2882 1387
2872 1389
2862 1391
2852 1394
2842 1396
2832 1399
2822 1402
2812 1404
2802 1406
2792 1408
2782 1411
2772 1414
2762 1416
2752 1418
2742 1421
2732 1424
2722 1427
2712 1428
2702 1431
2692 1433
2682 1436
2672 1438
2662 1441
2652 1444
2642 1446
2632 1449
2622 1450
2612 1453
2602 1456
2592 1459
2582 1461
2572 1464
2562 1466
2552 1468
2542 1470
2532 1472
2522 1475
2512 1477
2502 1478
2492 1481
2482 1484
2472 1486
2462 1489
2452 1492
2442 1495
2432 1496
2422 1499
2412 1502
2402 1504
2392 1507
2382 1510
2372 1513
2362 1515
2352 1516
2342 1519
2332 1522
2322 1525
2312 1527
2302 1530
2292 1533
2282 1536
2272 1539
2262 1542
2252 1545
2242 1547
2232 1549
2222 1553
2212 1554
2202 1558
2192 1561
2182 1565
2172 1568
2162 1570
2152 1572
2142 1573
2132 1576
2122 1578
2112 1580
2102 1582
2092 1585
2082 1589
2072 1593
2062 1595
2052 1597
2042 1598
2032 1598
2022 1598
2012 1596
2003 1601
1995 1607
1985 1612
1975 1615
1967 1622
1959 1629
1949 1633
1939 1635
1929 1638
1919 1641
1909 1644
1899 1647
1889 1651
1879 1653
1869 1655
1859 1658
1849 1661
1839 1663
1829 1666
1819 1669
1809 1672
1799 1675
1789 1678
1779 1680
1769 1683
1759 1687
1749 1690
1739 1693
1729 1695
1719 1697
1709 1700
1699 1702
1689 1705
1679 1709
1669 1712
1659 1714
1649 1717
1639 1720
1629 1722
1619 1724
1609 1727
1599 1730
1589 1733
1579 1736
1569 1739
1559 1741
1549 1744
1539 1746
1529 1748
1519 1752
1509 1755
1499 1758
1489 1761
1479 1764
1469 1766
1459 1768
1449 1772
1439 1775
1429 1777
1419 1779
1409 1782
1399 1785
1389 1788
1379 1790
1369 1793
1359 1796
1349 1798
1339 1801
1329 1804
1319 1807
1309 1810
1299 1813
1289 1815
1279 1818
1269 1822
1259 1825
1249 1827
1239 1829
1229 1832
1219 1834
1209 1837
1199 1840
1189 1842
1179 1845
1169 1848
1159 1851
1149 1854
1139 1856
1129 1859
1119 1861
1109 1864
1099 1867
1089 1869
1079 1872
1069 1876
1059 1878
1049 1881
1039 1884
1029 1887
1019 1889
1009 1892
999 1895
989 1897
979 1900
969 1904
959 1908
949 1909
939 1910
929 1912
919 1915
909 1917
899 1920
889 1923
879 1925
869 1927
859 1929
849 1931
839 1934
829 1937
819 1940
809 1942
799 1943
789 1945
779 1947
769 1950
759 1952
749 1954
739 1955
729 1957
719 1960
709 1962
699 1963
689 1965
679 1967
669 1968
659 1970
649 1973
639 1975
629 1976
619 1976
609 1977
599 1978
589 1979
579 1980
569 1981
559 1983
549 1985
539 1986
529 1988
519 1990
509 1991
499 1993
489 1994
479 1994
469 1995
459 1996
449 1996
439 1997
429 1997
419 1999
409 2000
399 2001
389 2000
379 2000
369 2000
359 2002
349 2002
339 2001
329 2002
319 2003
309 2002
299 2002
289 2002
279 2002
269 2001
259 2000
249 1999
239 1997
229 1997
219 1996
209 1993
