457 113
456 103
466 102
476 103
484 110
494 111
503 116
512 121
522 125
532 128
540 134
548 140
557 145
566 150
574 157
583 162
591 168
599 174
608 179
614 187
622 193
630 199
637 207
646 212
654 219
661 227
669 233
677 240
685 247
693 253
700 261
708 268
716 274
721 283
729 289
735 297
743 303
749 311
757 317
765 324
771 332
778 340
786 347
793 355
802 360
808 368
817 373
824 381
833 386
839 394
845 402
851 410
858 418
864 426
870 434
876 442
882 450
890 457
896 465
904 472
910 480
916 488
922 496
929 504
937 510
943 518
951 524
957 532
963 540
969 548
977 555
983 563
991 570
998 578
1004 586
1012 592
1017 601
1024 609
1032 616
1038 624
1045 632
1053 639
1060 647
1067 655
1074 663
1080 671
1086 679
1096 678
1106 682
1113 690
1121 696
1127 704
1133 712
1141 719
1147 727
1154 735
1160 743
1168 750
1176 757
1182 765
1190 772
1198 779
1206 786
1214 793
1222 800
1229 808
1237 814
1245 821
1252 829
1259 837
1265 845
1272 853
1280 860
1286 868
1293 876
1299 884
1307 891
1313 899
1319 907
1327 914
1333 922
1339 930
1345 938
1353 945
1359 953
1366 961
1374 967
1380 975
1387 983
1394 991
1400 999
1408 1006
1413 1015
1420 1023
1428 1029
1433 1038
1441 1045
1449 1052
1455 1060
1461 1068
1467 1076
1475 1083
1481 1091
1487 1099
1493 1107
1500 1115
1506 1123
1512 1131
1518 1139
1524 1147
1529 1156
1534 1165
1539 1174
1544 1183
1548 1193
1551 1203
1552 1213
1552 1229
1548 1241
1544 1252
1536 1259
1528 1266
1519 1271
1510 1277
1500 1281
1490 1284
1480 1286
1470 1288
1460 1290
1450 1293
1441 1298
1435 1290
1429 1282
1424 1273
1420 1263
1418 1253
1416 1243
1414 1233
1404 1230
1403 1220
1400 1210
1397 1200
1389 1194
1381 1187
1379 1171
1375 1161
1369 1153
1363 1145
1356 1137
1351 1128
1346 1119
1338 1112
1334 1102
1328 1094
1318 1091
1310 1084
1304 1076
1294 1075
1286 1068
1283 1058
1283 1046
1277 1038
1267 1040
1264 1030
1264 1020
1254 1018
1245 1013
1237 1007
1234 997
1226 991
1216 990
1208 984
1200 973
1190 971
1182 965
1178 955
1170 948
1168 938
1168 928
1164 918
1156 912
1155 902
1147 896
1140 888
1137 878
1132 868
1123 863
1120 853
1110 857
1104 849
1094 849
1098 839
1088 841
1078 841
1068 843
1058 843
1048 844
1040 838
1031 833
1027 823
1021 815
1018 805
1016 787
1012 777
1002 775
992 772
986 764
980 756
972 749
965 741
957 735
951 727
946 718
936 714
926 712
921 703
920 693
912 686
905 678
898 670
891 662
885 654
879 646
871 639
863 632
855 625
849 617
842 609
835 601
828 593
820 587
814 579
806 572
801 563
793 557
786 549
780 541
774 533
766 526
758 520
752 512
745 504
739 496
731 489
723 483
719 473
711 467
705 459
699 451
691 444
684 436
676 429
671 420
662 415
657 406
651 398
644 390
636 384
630 376
624 368
616 361
611 352
603 345
596 337
589 329
584 320
575 315
569 307
562 299
557 290
549 283
544 274
538 266
530 259
525 250
519 242
514 233
508 225
503 216
497 208
493 198
487 190
480 182
476 172
473 162
470 152
465 143
461 133
458 123
