19 197
14 207
19 216
26 224
34 230
37 240
45 247
49 257
57 264
64 272
72 279
79 287
87 294
91 304
99 310
104 319
110 327
117 335
124 343
129 352
134 361
141 369
149 375
152 385
160 392
167 400
176 405
185 410
195 410
204 405
213 400
223 398
230 390
240 385
248 378
258 373
265 365
273 358
280 350
288 343
295 335
303 328
310 315
315 305
320 295
320 285
325 275
335 270
345 270
355 270
365 265
373 258
380 250
388 243
395 235
404 230
414 227
424 225
434 225
444 225
454 225
464 222
474 220
484 220
494 220
503 215
513 215
523 215
533 215
543 215
553 215
563 215
573 215
583 215
593 213
603 210
613 210
621 204
611 199
601 199
591 199
581 199
571 199
562 194
553 199
543 199
533 199
523 199
513 199
503 199
493 195
483 194
473 194
463 190
453 189
443 189
433 189
423 189
413 189
403 185
393 181
389 171
384 162
377 154
367 150
359 144
349 142
340 137
330 133
323 125
315 118
310 109
304 101
299 92
292 84
284 77
277 69
269 62
262 54
254 47
247 39
237 35
228 30
220 24
210 22
200 19
191 14
181 14
172 19
163 24
155 31
145 36
140 46
132 54
127 64
119 72
114 82
108 94
100 101
95 111
88 119
80 126
72 134
64 142
54 147
44 157
39 167
32 179
24 187
