44 307
44 297
49 287
49 277
49 267
59 264
69 264
79 264
89 264
99 262
107 254
112 244
122 239
130 231
140 226
150 221
158 214
167 209
172 199
174 187
174 177
174 167
174 157
179 147
184 137
194 134
203 129
213 129
223 129
233 129
240 137
245 146
240 155
242 165
245 175
245 185
245 195
250 204
258 210
268 214
275 206
285 201
293 194
302 189
312 189
321 184
330 189
340 189
349 184
359 184
369 184
379 184
389 184
399 184
405 192
415 194
425 194
434 199
444 201
453 206
463 210
472 215
480 222
490 224
498 230
500 240
505 249
513 255
520 263
525 272
530 281
536 289
544 296
554 299
564 299
574 299
584 299
594 299
604 299
614 301
620 315
620 325
620 335
620 345
620 355
620 365
614 375
605 370
595 370
585 370
575 370
565 370
555 370
550 380
550 390
545 400
545 410
545 420
540 430
530 435
523 443
513 445
503 445
493 448
483 450
473 453
463 455
453 455
444 460
434 460
425 465
415 465
406 470
396 468
386 465
376 465
366 465
356 464
347 459
347 444
357 440
355 430
345 427
335 425
325 427
315 425
305 425
295 425
285 425
276 430
266 430
256 430
246 430
237 435
227 435
218 440
208 440
199 445
189 445
179 441
182 424
192 424
201 419
211 415
209 397
204 388
197 380
190 372
182 365
178 355
169 350
159 350
150 345
140 342
130 340
120 340
110 337
100 335
90 335
80 335
70 335
60 335
50 335
44 327
44 317
