179 412
184 421
184 446
189 455
194 464
199 473
207 480
216 485
225 490
235 492
234 507
234 517
234 527
239 551
244 560
250 568
258 575
262 585
272 589
280 595
289 600
299 600
308 605
318 605
328 605
338 605
348 605
358 605
368 603
378 598
388 595
397 590
406 585
415 580
423 573
430 565
435 555
443 548
448 538
453 528
455 515
455 500
460 489
455 480
455 470
460 460
465 450
470 440
475 425
480 415
480 405
485 395
485 385
485 375
490 360
490 350
490 340
495 328
490 319
487 309
482 300
478 290
470 283
463 275
455 269
450 260
450 250
459 245
469 242
479 240
489 240
498 235
508 235
517 230
527 230
536 225
545 220
553 213
553 196
549 186
539 187
534 197
524 201
514 204
505 199
495 199
486 194
477 189
467 185
458 180
450 173
445 164
441 154
435 146
430 137
420 133
413 125
403 121
394 116
384 114
375 109
365 109
355 109
345 109
335 111
325 114
315 116
305 121
295 126
285 131
277 139
268 144
259 149
249 149
239 149
229 149
219 147
210 142
200 138
195 129
192 119
184 127
179 137
184 146
189 155
195 163
203 170
212 175
220 182
227 190
236 195
234 207
234 217
231 229
222 234
212 239
204 247
209 256
219 260
228 265
238 265
244 273
236 284
227 289
219 297
214 307
207 319
199 327
199 337
194 347
194 357
194 367
194 377
194 387
197 404
187 404
