84 151
79 142
87 134
95 126
103 119
112 114
122 109
130 101
138 94
145 86
153 79
162 74
171 69
179 62
187 54
197 49
207 44
217 39
227 34
237 29
247 24
257 24
267 24
277 24
287 24
297 24
307 24
317 24
326 29
336 29
345 34
355 34
363 40
373 40
380 48
388 54
397 59
404 67
412 74
420 80
428 86
435 94
443 100
452 105
462 109
471 114
481 114
491 114
501 114
510 109
520 109
530 107
540 107
550 107
554 117
550 130
545 145
540 155
535 165
530 175
535 184
540 193
550 197
557 205
562 214
560 230
558 243
550 250
540 260
532 269
522 274
514 280
505 285
495 285
500 294
500 304
505 313
510 322
517 330
522 339
529 347
537 354
544 362
552 369
555 379
560 388
560 400
560 415
560 430
555 445
545 455
535 455
527 449
517 445
510 437
500 435
490 435
483 443
475 450
470 460
465 470
460 485
465 494
474 499
483 504
492 509
501 514
510 519
519 524
525 532
534 537
533 553
525 560
515 565
505 570
495 575
487 584
477 585
468 590
459 595
450 600
440 600
430 605
421 610
411 610
402 615
392 615
382 619
372 615
362 619
352 615
342 615
335 607
325 605
316 600
306 598
296 595
287 590
278 585
269 580
259 580
250 575
241 570
231 570
221 568
211 565
202 560
195 552
190 543
184 535
179 526
174 517
170 507
162 500
159 490
149 490
139 487
129 490
119 488
114 479
109 470
104 461
104 451
99 442
99 432
104 417
109 402
114 392
122 384
127 374
132 364
137 354
142 344
144 332
149 322
149 312
154 297
154 282
154 272
154 260
154 250
154 240
149 231
144 222
140 212
135 203
128 195
120 188
113 180
105 173
98 165
89 160
