69 151
64 142
72 134
80 126
88 119
97 114
107 109
115 101
123 94
130 86
138 79
147 74
155 66
165 61
175 56
183 49
192 44
201 39
211 35
221 30
231 25
241 24
251 24
261 24
271 24
281 24
291 24
301 24
311 24
321 24
331 24
340 29
349 34
357 40
365 47
372 55
377 64
384 72
392 79
399 87
409 91
413 108
405 115
398 123
388 128
380 135
373 143
365 150
358 158
350 165
343 178
335 185
330 195
325 205
325 215
330 224
340 227
348 234
358 235
367 240
375 247
383 254
392 259
401 264
410 269
415 278
420 287
420 297
414 305
405 310
405 320
407 330
417 334
427 334
437 334
447 334
457 329
467 324
477 324
486 319
496 319
506 315
516 310
526 309
535 304
544 299
554 299
564 299
574 301
580 309
585 318
580 330
575 340
569 350
560 355
550 360
541 365
532 370
523 375
513 378
503 380
494 385
484 385
475 390
465 390
455 395
445 400
435 405
428 413
418 418
410 425
400 430
393 438
388 448
383 458
375 465
370 475
365 485
370 494
379 499
389 499
398 504
408 505
418 509
428 509
437 514
447 514
456 519
465 524
474 529
484 531
493 536
503 539
512 544
520 550
525 559
521 570
512 575
503 580
494 585
485 590
478 598
468 600
459 605
450 610
440 610
430 615
420 620
410 620
401 625
391 625
381 625
371 625
361 625
351 625
341 625
332 620
323 615
313 615
304 610
294 607
285 602
275 600
265 597
257 590
247 590
238 585
228 585
219 580
209 580
201 574
192 569
184 562
179 553
174 544
169 535
161 528
156 519
152 509
144 502
135 497
125 495
116 500
107 495
99 489
94 480
89 471
84 462
84 452
84 442
84 432
89 417
94 407
99 397
107 389
112 379
117 369
119 357
124 347
129 332
134 322
139 309
139 299
139 289
139 279
139 269
139 259
139 249
134 240
132 230
129 220
124 211
119 202
112 194
107 185
98 180
90 173
84 165
76 159
