119 572
119 562
129 557
139 552
149 549
159 549
169 549
178 544
188 544
198 544
207 539
217 539
227 539
237 534
247 534
257 534
267 529
277 529
287 529
297 524
307 524
317 524
326 519
336 519
346 519
355 514
365 514
375 514
384 509
394 509
404 509
413 504
423 504
433 504
442 499
452 499
462 499
472 494
482 494
492 494
502 489
512 489
522 489
532 484
542 484
552 484
562 479
572 479
582 479
592 474
602 474
612 474
622 469
632 469
642 469
652 464
662 464
672 464
682 459
692 459
702 459
712 454
722 454
732 454
742 449
752 449
762 449
772 444
782 444
792 444
801 439
811 439
821 439
830 434
840 434
850 434
859 429
869 429
879 429
888 424
898 424
908 424
917 419
927 419
937 419
947 414
957 414
967 414
977 409
987 409
997 409
1007 404
1017 404
1027 404
1037 399
1047 399
1057 399
1067 394
1077 394
1087 394
1097 389
1107 389
1117 389
1127 384
1137 384
1147 384
1157 379
1167 379
1177 379
1187 374
1197 374
1207 374
1216 369
1226 369
1236 369
1246 365
1256 364
1266 364
1275 359
1285 359
1295 359
1304 354
1314 354
1324 354
1333 349
1343 349
1353 349
1362 344
1372 344
1382 344
1392 339
1402 339
1412 339
1422 334
1432 334
1442 334
1452 329
1462 329
1472 329
1482 324
1492 324
1502 324
1512 319
1522 319
1532 319
1542 314
1552 314
1562 309
1572 309
1582 304
1592 304
1601 299
1611 299
1620 294
1629 287
1637 279
1647 274
1657 274
1666 269
1676 269
1686 265
1696 264
1706 264
1716 260
1726 259
1736 259
1746 255
1756 254
1766 254
1775 249
1785 249
1795 249
1804 244
1814 244
1824 244
1833 239
1843 239
1853 239
1862 234
1872 234
1882 234
1891 229
1901 229
1911 229
1920 224
1930 224
1940 221
1950 219
1960 219
1970 216
1980 214
1990 214
2000 211
2010 209
2020 209
2029 204
2039 204
2049 204
2058 199
2068 199
2078 199
2087 194
2097 194
2107 194
2116 189
2126 189
2136 189
2146 189
2155 194
2160 203
2168 210
2172 220
2180 227
2187 235
2195 242
2204 247
2210 255
2215 264
2215 274
2215 284
2220 293
2220 303
2220 313
2220 323
2225 332
2225 342
2225 355
2217 369
2209 375
2200 380
2190 380
2180 380
2170 385
2160 385
2150 385
2140 390
2130 390
2121 395
2111 395
2101 395
2092 400
2082 400
2072 404
2062 405
2052 405
2042 409
2032 410
2022 410
2013 415
2003 415
1993 418
1983 420
1973 420
1963 423
1953 425
1943 425
1934 430
1924 430
1914 432
1904 435
1894 435
1884 437
1874 440
1864 440
1855 445
1845 445
1835 445
1826 450
1816 450
1806 450
1797 455
1787 455
1777 459
1767 460
1757 460
1748 465
1738 465
1728 465
1719 470
1709 470
1699 472
1689 475
1679 475
1670 480
1660 480
1650 480
1641 485
1631 485
1621 485
1612 490
1602 490
1592 494
1582 495
1572 495
1562 495
1552 494
1542 490
1533 485
1523 485
1514 490
1504 490
1494 490
1485 495
1475 495
1465 495
1455 495
1446 500
1436 500
1426 500
1417 505
1407 505
1397 505
1388 510
1378 510
1368 510
1358 513
1348 515
1338 515
1328 518
1318 520
1308 520
1298 523
1288 525
1278 525
1268 528
1258 530
1248 530
1238 530
1229 535
1219 535
1209 535
1200 540
1190 540
1180 540
1170 540
1160 545
1150 545
1140 545
1131 550
1121 550
1111 550
1102 555
1092 555
1082 555
1072 559
1062 560
1052 560
1042 564
1032 565
1022 565
1012 569
1002 570
992 570
982 570
973 575
963 575
953 575
944 580
934 580
924 580
915 585
905 585
895 585
885 585
876 590
866 590
856 590
847 595
837 595
827 595
818 600
808 600
798 600
788 603
778 605
768 605
758 608
748 610
738 610
728 613
718 615
708 615
698 615
689 620
679 620
669 620
660 625
650 625
640 625
630 625
620 630
610 630
600 630
591 635
581 635
571 635
562 640
552 640
542 640
532 644
522 645
512 645
502 649
492 650
482 650
472 654
462 655
452 655
442 655
433 660
423 660
413 660
404 665
394 665
384 665
375 670
365 670
355 670
345 670
335 675
325 675
315 675
306 680
296 680
286 680
277 685
267 685
257 685
247 689
237 690
227 690
217 694
207 695
197 694
187 690
177 690
167 689
157 685
147 685
140 677
134 669
129 660
129 650
129 640
124 631
124 621
124 611
119 602
119 592
119 582
