289 267
289 257
297 249
302 239
312 234
321 229
331 225
341 224
351 224
361 224
371 220
381 219
391 219
401 219
411 219
421 219
431 215
441 214
450 219
460 219
469 224
477 230
485 237
489 247
494 256
498 266
503 275
507 285
512 294
515 304
520 313
525 322
529 332
534 341
538 351
540 361
546 369
550 379
555 388
560 397
564 407
569 416
570 426
575 435
580 444
585 453
590 462
594 472
599 481
600 491
605 500
610 509
615 518
615 528
620 537
625 546
630 555
635 564
635 574
640 583
645 592
650 601
655 610
660 619
660 629
665 638
670 647
675 656
678 666
683 675
687 685
692 694
695 704
700 713
705 722
709 732
714 741
718 751
720 761
725 770
730 779
735 788
740 797
740 807
745 816
750 825
755 834
755 844
760 853
765 862
770 871
775 880
780 889
785 898
785 908
790 917
795 926
798 936
803 945
807 955
812 964
815 974
820 983
825 992
829 1002
830 1012
837 1020
842 1029
845 1039
850 1048
855 1057
859 1067
860 1077
865 1086
871 1094
875 1104
880 1113
885 1122
885 1132
890 1141
895 1150
900 1159
905 1168
905 1178
913 1185
915 1195
920 1204
925 1213
925 1223
930 1232
935 1241
940 1250
945 1259
950 1268
950 1278
955 1287
960 1296
963 1306
965 1316
965 1326
965 1336
970 1345
970 1355
970 1365
970 1375
970 1385
970 1395
970 1405
965 1420
965 1430
967 1440
970 1450
975 1459
975 1469
980 1478
985 1487
985 1497
990 1506
985 1520
978 1533
970 1540
961 1545
951 1545
941 1545
931 1543
921 1539
914 1531
909 1522
905 1512
900 1503
894 1495
889 1486
884 1477
879 1468
872 1460
865 1452
857 1445
854 1435
844 1432
837 1424
829 1417
820 1412
812 1405
805 1397
797 1390
790 1382
782 1375
779 1365
771 1359
769 1349
764 1340
764 1330
756 1324
754 1314
749 1305
744 1296
739 1287
739 1277
734 1268
729 1259
724 1250
724 1240
719 1231
714 1222
710 1212
704 1204
701 1194
697 1184
692 1175
689 1165
684 1156
679 1147
674 1138
669 1129
664 1120
662 1110
659 1100
654 1091
649 1082
645 1072
639 1064
636 1054
634 1044
629 1035
624 1026
619 1017
615 1007
610 998
609 988
604 979
599 970
599 960
594 951
589 942
584 933
579 924
574 915
572 905
569 895
564 886
559 877
554 868
549 859
546 849
544 839
539 830
534 821
529 812
524 803
520 793
516 783
511 774
509 764
504 755
499 746
499 736
494 727
489 718
484 709
479 700
479 690
471 683
466 674
464 664
459 655
454 646
454 636
449 627
444 618
440 608
434 600
432 590
429 580
424 571
419 562
415 552
409 544
407 534
399 527
399 517
394 508
390 498
386 488
381 479
377 469
372 460
369 450
364 441
359 432
359 422
354 413
349 404
344 395
339 386
334 377
334 367
329 358
324 349
319 340
319 330
311 324
307 314
302 305
299 295
294 286
289 277
