329 527
329 517
334 502
334 492
334 482
334 472
339 462
344 452
349 442
357 434
365 426
375 421
385 416
395 414
404 409
414 409
424 409
434 409
444 409
454 407
464 402
472 394
482 389
492 389
502 389
512 389
522 389
532 389
542 389
552 389
561 394
570 399
578 405
587 410
597 414
607 414
617 414
627 414
637 414
647 414
657 414
667 414
677 414
687 414
697 414
707 414
717 414
727 414
737 414
747 414
757 414
767 414
777 414
787 414
797 414
807 414
817 414
827 414
837 414
847 414
857 414
867 414
877 414
887 414
897 414
907 414
917 414
927 414
937 414
947 414
956 419
965 424
975 424
985 424
995 424
1005 424
1015 424
1024 429
1034 429
1044 427
1054 424
1064 424
1074 424
1084 424
1094 424
1104 424
1114 424
1124 424
1134 424
1144 424
1154 424
1164 424
1173 429
1183 429
1192 424
1202 424
1212 424
1222 424
1231 429
1241 429
1250 424
1260 424
1270 424
1280 424
1290 424
1300 424
1310 424
1320 424
1330 424
1340 424
1350 427
1360 429
1369 424
1379 424
1389 424
1399 426
1409 429
1419 429
1429 429
1439 429
1449 429
1459 429
1469 429
1479 429
1489 429
1499 429
1509 429
1519 429
1529 429
1539 429
1549 429
1559 429
1569 429
1579 429
1589 429
1599 429
1609 429
1619 429
1629 429
1639 431
1649 434
1659 434
1669 434
1679 436
1689 439
1699 441
1708 446
1715 454
1723 460
1727 470
1730 480
1730 490
1730 500
1730 510
1730 520
1725 535
1720 550
1713 563
1705 570
1697 579
1687 584
1677 585
1667 585
1657 589
1647 590
1637 590
1627 590
1617 590
1607 590
1597 590
1587 594
1577 595
1567 595
1557 595
1547 595
1537 595
1527 595
1517 599
1507 600
1497 600
1487 600
1477 600
1467 600
1457 600
1447 600
1438 605
1429 600
1419 600
1409 602
1399 605
1389 605
1379 605
1369 605
1359 605
1349 605
1339 605
1329 605
1319 605
1309 605
1299 605
1289 605
1279 605
1269 605
1259 605
1249 605
1240 610
1230 610
1220 610
1210 610
1200 610
1190 610
1180 610
1170 610
1160 610
1150 610
1140 610
1130 610
1120 610
1110 610
1100 610
1090 610
1080 610
1070 610
1060 610
1050 610
1040 615
1030 615
1020 615
1010 615
1000 615
990 615
980 615
970 620
961 625
952 630
942 630
932 630
922 630
913 635
903 635
893 635
883 635
873 635
863 635
853 635
843 635
833 635
823 635
813 635
803 635
793 635
783 635
773 635
763 635
753 635
743 635
733 635
723 635
713 635
703 635
693 635
683 635
673 635
663 635
653 638
643 640
634 635
624 635
614 635
604 635
594 635
584 637
574 640
564 642
556 650
546 650
537 655
527 655
517 655
507 655
498 650
488 650
479 645
470 640
461 635
452 630
442 630
432 630
422 630
412 630
402 630
392 630
382 629
372 625
365 617
357 610
350 602
344 594
339 585
339 575
339 565
334 556
334 546
334 536
