194 546
189 537
197 529
206 524
216 524
225 519
235 519
245 519
255 516
265 514
274 509
283 504
292 499
302 494
312 494
321 489
330 484
339 479
349 477
359 472
369 467
379 462
389 459
398 454
408 454
417 449
426 444
436 440
446 439
455 434
464 429
474 429
484 427
494 424
504 424
514 424
524 424
534 422
544 419
554 419
564 419
574 419
584 419
593 414
603 414
613 414
623 414
633 414
642 409
652 409
662 409
672 409
682 409
692 404
702 404
712 404
722 404
732 404
742 404
751 399
761 399
771 399
781 395
791 394
801 394
811 394
821 394
830 389
840 389
850 389
860 389
870 389
879 384
889 384
899 384
909 384
919 384
929 384
939 382
949 379
959 379
969 379
979 379
989 377
999 374
1009 374
1019 374
1029 374
1038 369
1048 369
1058 369
1068 369
1078 369
1088 369
1097 364
1107 364
1117 364
1127 364
1137 359
1147 359
1157 359
1167 359
1177 359
1187 359
1196 354
1206 354
1216 354
1226 354
1236 354
1246 350
1256 349
1266 349
1276 345
1286 344
1296 344
1306 344
1316 344
1326 344
1336 340
1346 339
1356 339
1366 339
1376 335
1386 334
1396 334
1406 334
1415 329
1425 329
1435 329
1445 329
1455 326
1465 324
1475 324
1485 324
1495 324
1505 321
1515 319
1525 319
1535 319
1544 314
1554 314
1564 314
1574 314
1584 314
1594 312
1604 309
1614 309
1624 309
1634 307
1644 304
1654 304
1664 302
1674 299
1684 299
1694 297
1704 294
1714 294
1724 294
1734 294
1744 294
1752 300
1760 307
1769 312
1779 314
1788 309
1792 299
1797 289
1806 284
1815 279
1825 279
1835 279
1845 279
1855 279
1864 274
1874 274
1884 274
1894 274
1903 269
1913 269
1923 269
1933 269
1943 270
1952 275
1957 284
1960 294
1965 303
1965 313
1965 323
1965 333
1970 342
1970 352
1970 362
1970 372
1974 382
1970 400
1965 410
1958 418
1950 425
1940 425
1930 425
1920 425
1910 425
1901 430
1891 430
1881 430
1871 430
1862 435
1852 435
1842 435
1832 435
1822 435
1815 427
1807 420
1800 412
1790 410
1780 410
1775 420
1775 430
1767 439
1759 445
1749 447
1739 450
1729 450
1719 450
1709 450
1699 450
1690 455
1680 455
1670 455
1660 455
1650 455
1640 455
1630 455
1621 460
1611 460
1601 460
1592 465
1582 465
1572 465
1562 465
1552 469
1542 470
1532 470
1522 470
1512 470
1503 475
1493 475
1483 475
1474 480
1464 480
1454 480
1444 480
1434 482
1424 485
1414 485
1404 485
1394 485
1384 485
1375 490
1365 490
1355 490
1345 490
1335 490
1325 495
1315 495
1305 495
1295 500
1285 500
1275 500
1265 500
1255 500
1245 505
1235 505
1225 505
1215 505
1205 505
1195 510
1185 510
1175 510
1165 515
1155 515
1145 515
1135 515
1125 515
1115 520
1105 520
1095 520
1085 520
1075 525
1065 525
1055 525
1045 525
1035 525
1025 525
1015 525
1005 530
995 530
985 530
976 535
966 535
956 535
946 535
936 535
927 540
917 540
907 540
897 540
887 540
878 545
868 545
858 545
848 545
838 545
828 545
819 550
809 550
799 550
790 545
780 545
772 554
762 555
752 555
742 555
732 559
722 560
712 560
702 560
692 560
683 565
673 565
663 565
653 565
643 568
633 570
623 570
613 570
603 570
593 570
584 575
574 575
564 575
554 577
544 580
534 580
524 580
514 580
504 580
495 585
485 585
475 585
465 585
455 582
445 580
435 580
426 575
416 575
406 573
396 570
386 570
377 565
367 565
357 565
347 565
338 560
328 560
318 560
309 555
299 555
290 550
280 550
270 550
260 550
250 550
240 550
230 550
220 550
211 555
201 554
