404 587
404 577
409 562
409 552
414 542
414 532
414 522
414 512
419 497
419 487
419 477
424 467
424 457
424 447
429 437
429 427
434 412
439 402
439 392
444 382
449 372
454 362
462 354
467 344
474 332
482 324
489 312
497 304
502 294
510 286
515 276
523 269
529 257
537 249
545 241
553 234
560 226
568 219
575 211
583 204
590 196
598 189
605 181
613 174
622 169
630 161
640 156
650 154
659 149
668 144
678 144
687 139
696 134
706 130
716 129
725 124
735 121
745 119
755 116
765 114
774 109
784 107
794 104
804 102
814 99
824 99
834 99
844 99
854 97
864 94
874 94
884 94
894 94
904 94
914 94
924 94
934 94
944 94
954 94
964 94
974 96
984 99
994 99
1004 99
1014 99
1024 99
1034 99
1044 99
1054 99
1064 99
1074 99
1084 99
1093 104
1103 104
1113 104
1123 104
1133 104
1143 104
1153 104
1162 109
1172 109
1182 109
1192 109
1201 114
1211 114
1221 114
1230 119
1240 119
1250 119
1260 119
1269 124
1279 124
1289 124
1299 126
1309 129
1319 131
1329 134
1338 139
1348 140
1358 144
1367 149
1376 154
1386 154
1395 159
1404 164
1413 169
1422 174
1431 179
1440 184
1449 189
1458 194
1467 199
1476 204
1485 209
1495 212
1504 217
1512 224
1521 229
1529 236
1538 241
1545 249
1554 254
1562 260
1570 267
1578 274
1587 279
1594 287
1604 291
1610 299
1618 305
1627 310
1635 317
1644 322
1654 326
1663 331
1673 334
1682 339
1692 339
1701 344
1710 349
1720 349
1729 354
1739 356
1749 359
1758 364
1768 365
1778 369
1787 374
1796 379
1806 379
1814 386
1823 391
1833 395
1842 400
1852 404
1859 412
1869 416
1875 424
1885 427
1892 435
1900 442
1904 452
1912 459
1915 469
1920 478
1920 488
1925 497
1925 507
1925 517
1929 527
1930 537
1925 555
1925 565
1920 580
1920 590
1915 605
1915 615
1915 625
1915 635
1917 645
1922 654
1925 664
1930 673
1930 683
1922 699
1914 707
1904 710
1895 715
1885 715
1875 720
1865 725
1858 733
1850 740
1843 748
1835 755
1827 769
1818 775
1809 780
1799 780
1789 780
1780 785
1770 785
1760 785
1750 785
1740 785
1730 785
1720 785
1710 785
1701 790
1691 790
1681 790
1671 789
1662 784
1654 777
1645 772
1637 765
1630 757
1622 750
1613 745
1603 745
1594 740
1584 740
1574 740
1564 740
1554 740
1544 740
1535 735
1525 735
1515 735
1505 735
1495 735
1485 732
1475 730
1465 730
1455 730
1445 730
1435 730
1425 730
1416 735
1406 735
1396 735
1386 735
1376 735
1366 735
1356 735
1347 740
1337 740
1327 740
1317 740
1308 745
1298 748
1288 753
1280 760
1271 765
1262 770
1254 777
1244 782
1234 787
1224 790
1215 795
1205 795
1195 795
1185 800
1175 800
1165 800
1155 800
1145 800
1135 800
1125 800
1115 800
1105 800
1095 800
1086 795
1076 794
1067 789
1057 785
1048 780
1039 775
1029 772
1020 767
1012 760
1003 755
995 748
988 740
980 733
971 728
961 725
951 725
942 720
932 720
922 720
912 720
902 720
892 720
882 719
872 715
862 715
852 715
842 715
832 715
822 714
812 710
802 710
792 710
782 710
772 710
762 710
753 705
743 705
733 705
723 705
713 705
703 705
693 705
683 705
673 705
663 705
653 705
643 705
633 705
623 708
613 713
605 720
600 730
593 738
585 745
577 754
567 759
558 765
548 768
538 770
528 770
518 773
508 775
498 775
489 770
479 766
471 760
462 755
455 747
449 739
444 730
439 721
439 711
434 702
434 692
434 682
429 673
429 663
425 653
424 643
424 633
419 624
416 614
409 606
404 597
