159 592
159 582
164 567
169 557
169 547
174 537
174 527
174 517
174 507
179 497
187 489
195 481
200 471
208 464
212 454
220 446
230 441
238 434
247 429
255 421
265 416
275 411
285 406
295 404
304 399
313 394
323 394
332 389
341 384
351 380
361 375
371 374
380 369
390 366
400 364
409 359
419 359
428 354
438 354
448 354
457 349
467 349
477 344
487 344
497 339
507 339
517 339
526 334
536 334
546 330
556 325
566 320
574 312
582 304
589 292
597 284
605 276
613 269
620 261
628 254
632 244
640 236
648 229
655 221
663 214
670 206
678 199
685 191
695 186
703 179
712 174
721 169
729 162
737 154
747 149
756 144
764 137
774 134
783 129
793 129
802 124
812 124
821 119
831 119
840 114
850 114
860 111
870 109
880 109
890 109
900 106
910 104
920 104
930 104
940 101
950 99
960 99
970 99
980 99
990 99
1000 99
1009 94
1019 94
1029 94
1039 94
1049 94
1059 94
1069 94
1079 94
1089 94
1099 94
1109 94
1119 94
1129 94
1139 94
1149 94
1158 89
1168 89
1178 89
1188 89
1198 89
1208 89
1218 89
1228 89
1238 89
1248 89
1258 89
1268 89
1278 89
1288 89
1297 94
1307 94
1317 94
1327 94
1337 94
1347 94
1356 99
1366 99
1376 99
1386 99
1396 99
1405 104
1415 104
1425 104
1435 107
1445 109
1455 112
1465 114
1474 119
1484 119
1493 124
1503 125
1513 129
1522 134
1531 139
1540 144
1548 150
1555 158
1563 165
1572 170
1580 177
1587 185
1595 192
1602 200
1612 204
1619 212
1627 219
1634 227
1642 234
1649 242
1659 246
1668 251
1678 255
1687 260
1697 264
1706 269
1716 269
1725 274
1735 274
1744 279
1754 279
1764 279
1773 284
1783 284
1793 285
1802 290
1812 294
1819 302
1824 311
1830 319
1835 328
1840 337
1840 347
1840 357
1840 367
1840 377
1840 387
1840 397
1840 407
1840 417
1840 427
1840 437
1840 447
1840 457
1840 467
1835 480
1830 495
1825 505
1820 515
1812 524
1802 529
1794 535
1785 540
1775 545
1765 550
1758 558
1748 563
1740 570
1735 580
1730 595
1730 605
1730 615
1728 633
1723 643
1715 650
1705 655
1696 660
1687 665
1677 665
1667 665
1657 669
1647 670
1638 675
1628 675
1618 675
1608 678
1598 680
1589 675
1579 672
1570 667
1565 658
1559 650
1551 644
1544 636
1536 630
1527 625
1517 625
1507 625
1497 625
1487 625
1477 625
1467 625
1458 630
1448 630
1438 633
1428 635
1418 635
1408 638
1398 640
1388 640
1379 645
1369 645
1359 645
1350 650
1340 650
1330 650
1321 655
1311 655
1301 655
1292 660
1282 660
1273 665
1263 668
1253 670
1244 675
1235 680
1226 685
1216 685
1207 690
1198 695
1188 698
1178 700
1169 705
1159 707
1149 710
1140 715
1130 715
1120 720
1113 728
1105 735
1100 745
1095 755
1087 769
1077 774
1069 782
1064 792
1054 797
1046 805
1036 805
1026 805
1016 805
1007 810
997 810
987 810
977 810
967 810
957 810
947 810
937 810
927 809
917 805
910 797
902 790
893 785
884 780
875 775
865 775
856 770
847 765
840 757
832 750
825 742
817 735
807 735
798 730
789 735
779 735
769 735
759 735
750 740
740 740
730 740
720 740
710 740
701 745
691 745
681 745
671 745
661 745
651 745
641 745
631 745
621 745
611 745
601 745
591 745
581 745
571 745
561 745
551 745
541 745
531 745
521 745
511 745
501 745
492 750
482 754
472 759
462 760
453 765
444 770
434 772
424 775
414 775
404 775
394 775
384 775
374 775
364 775
354 775
345 770
337 764
329 757
322 749
317 740
310 732
302 725
293 720
284 715
275 710
265 710
256 705
246 703
236 700
227 695
217 695
208 690
200 683
194 675
189 666
184 657
179 648
172 640
169 630
164 621
159 612
159 602
