169 542
169 532
174 517
179 507
187 499
195 491
203 484
210 476
218 469
225 461
233 454
242 449
252 444
262 439
272 439
281 434
290 429
299 424
308 419
317 414
327 409
337 404
347 399
357 394
367 389
377 384
387 379
397 374
407 369
417 364
427 359
437 359
446 354
456 350
466 349
475 344
485 341
495 339
504 334
514 332
524 329
533 324
543 324
552 319
562 319
571 314
581 310
591 309
600 304
610 304
620 304
630 304
640 304
650 304
660 304
669 299
679 299
689 299
699 299
709 297
719 294
729 294
739 294
749 294
758 289
768 289
778 289
788 289
798 289
807 284
817 284
827 284
836 289
846 289
855 294
864 299
873 304
883 305
893 309
902 314
912 314
922 314
931 319
941 319
950 324
960 324
969 329
979 329
989 331
999 334
1009 334
1018 339
1028 339
1038 339
1048 339
1058 339
1068 339
1078 339
1088 340
1097 345
1107 349
1116 354
1125 359
1134 364
1144 366
1153 371
1163 375
1172 380
1182 384
1191 389
1201 389
1210 384
1220 384
1230 384
1239 389
1248 394
1258 395
1265 403
1273 410
1282 415
1292 419
1302 419
1311 424
1320 419
1330 419
1340 419
1350 416
1360 414
1370 414
1380 414
1390 414
1400 414
1410 414
1420 414
1429 409
1439 409
1449 409
1459 411
1468 416
1478 420
1487 425
1495 432
1502 440
1510 447
1518 454
1527 459
1534 467
1542 474
1549 482
1557 489
1560 499
1565 508
1570 517
1577 525
1582 534
1585 544
1590 553
1595 562
1600 571
1603 581
1608 590
1610 600
1610 610
1605 625
1600 635
1595 650
1590 665
1590 675
1590 685
1590 695
1590 705
1585 720
1580 730
1572 739
1564 745
1555 750
1545 755
1536 760
1527 765
1518 770
1509 775
1500 780
1491 785
1481 785
1471 785
1462 790
1452 790
1442 790
1432 790
1422 794
1412 795
1402 795
1392 795
1382 799
1372 799
1362 795
1353 790
1345 783
1338 775
1330 768
1323 760
1314 755
1304 752
1295 747
1285 745
1275 745
1265 745
1255 745
1246 750
1236 750
1226 750
1216 750
1206 750
1196 750
1187 755
1177 755
1167 755
1157 755
1147 755
1137 759
1127 760
1117 760
1107 760
1097 760
1087 760
1077 760
1068 765
1058 765
1048 768
1038 773
1028 778
1023 788
1015 795
1008 803
1000 810
991 815
982 820
973 825
963 828
953 830
943 833
933 835
923 835
913 835
903 835
893 838
883 840
874 835
864 832
855 827
847 820
838 815
829 810
819 807
810 802
802 795
793 790
785 783
781 773
776 764
772 754
764 747
757 739
747 735
737 735
727 735
717 735
707 735
697 735
687 735
677 735
667 735
657 735
648 730
638 730
628 730
618 730
608 730
598 730
588 730
578 730
568 730
559 725
549 725
539 725
529 725
519 725
509 725
500 720
490 720
480 717
470 715
461 710
451 708
441 705
432 700
422 704
412 709
407 719
402 729
397 739
388 745
379 750
370 755
360 755
350 760
340 760
330 760
320 760
310 765
300 765
290 765
280 765
270 765
261 760
252 755
243 750
234 745
226 739
217 734
209 727
202 719
197 710
194 700
192 690
189 680
187 670
184 660
182 650
179 640
179 630
174 621
174 611
174 601
169 592
169 582
169 572
169 562
169 552
