669 1156
664 1147
672 1139
682 1139
692 1134
702 1134
712 1129
722 1129
732 1124
742 1124
752 1124
762 1124
772 1124
782 1124
792 1124
802 1124
812 1124
822 1124
832 1124
842 1124
852 1124
859 1112
859 1102
852 1094
844 1087
840 1077
832 1070
829 1060
824 1051
819 1042
819 1032
819 1022
819 1012
819 1002
819 992
824 977
829 962
829 952
829 942
834 927
834 917
834 907
839 897
844 887
852 879
857 869
862 859
869 847
874 837
879 827
884 817
889 807
894 792
899 782
904 772
912 764
914 747
918 730
908 730
898 730
888 730
878 730
869 735
860 740
850 745
842 754
832 759
824 767
814 772
804 777
794 782
784 787
774 790
765 795
755 795
745 800
735 798
729 790
729 780
724 771
724 761
719 752
719 742
719 732
719 722
724 712
729 702
734 692
742 684
750 676
758 669
767 664
775 656
783 649
790 641
795 631
803 624
809 607
814 592
819 582
824 567
824 557
829 542
834 527
839 512
844 497
849 482
854 472
859 458
855 448
851 438
846 429
839 421
834 412
827 404
822 395
819 385
814 376
814 366
809 357
809 347
809 337
809 327
809 317
814 307
819 292
824 282
829 272
837 264
842 254
844 242
849 232
857 224
862 214
867 204
877 199
887 199
897 199
907 199
917 199
927 199
937 199
947 199
954 207
962 214
969 222
977 229
986 234
994 241
1000 249
1008 255
1015 263
1025 267
1029 277
1037 284
1044 292
1049 301
1050 311
1055 320
1055 330
1055 340
1055 350
1055 360
1060 369
1070 372
1080 374
1090 374
1100 371
1108 364
1112 354
1117 344
1122 334
1130 326
1140 321
1148 314
1157 309
1166 304
1175 299
1185 299
1195 299
1205 299
1215 299
1225 299
1234 304
1244 304
1253 309
1262 314
1271 319
1280 324
1290 327
1299 332
1304 341
1310 349
1318 355
1322 365
1325 375
1325 385
1325 395
1325 405
1325 415
1325 425
1325 435
1325 445
1325 455
1325 465
1325 475
1325 485
1325 495
1320 510
1315 525
1310 535
1305 545
1300 555
1291 560
1282 565
1273 570
1264 575
1254 575
1244 575
1234 575
1224 575
1214 572
1205 567
1197 560
1187 560
1178 555
1169 550
1159 547
1150 542
1140 538
1133 530
1123 530
1113 533
1108 543
1103 553
1098 563
1090 570
1085 580
1080 590
1075 600
1068 613
1060 620
1055 630
1055 640
1055 650
1055 660
1060 669
1068 675
1078 679
1088 679
1097 684
1106 689
1116 689
1124 696
1130 704
1130 714
1130 724
1135 733
1135 743
1143 750
1150 758
1160 759
1170 759
1180 759
1190 759
1200 759
1210 759
1219 764
1228 769
1238 770
1247 775
1252 784
1255 794
1254 812
1244 817
1234 820
1225 825
1215 825
1205 822
1195 820
1185 820
1185 830
1190 839
1184 847
1176 855
1166 854
1157 849
1149 842
1142 834
1137 825
1130 817
1122 810
1118 800
1110 793
1103 785
1095 778
1088 770
1080 763
1073 755
1064 750
1056 744
1047 739
1039 732
1030 727
1020 725
1010 725
1010 735
1010 745
1010 755
1010 765
1012 775
1017 784
1024 792
1025 802
1030 811
1035 820
1035 830
1035 840
1037 850
1040 860
1040 870
1040 880
1040 890
1040 900
1040 910
1042 920
1045 930
1045 940
1047 950
1055 957
1062 965
1070 972
1080 974
1089 979
1099 979
1109 979
1119 979
1129 979
1139 979
1149 979
1159 979
1169 977
1179 972
1189 969
1199 969
1208 964
1218 964
1227 959
1237 959
1246 954
1256 954
1265 949
1275 946
1280 936
1284 917
1289 907
1289 897
1289 887
1289 877
1289 867
1289 857
1289 847
1289 837
1289 827
1294 812
1294 802
1299 787
1304 772
1309 757
1314 747
1319 732
1324 722
1329 712
1337 704
1347 699
1357 694
1367 694
1377 694
1378 708
1370 715
1363 723
1355 730
1350 740
1345 750
1340 760
1340 770
1335 780
1330 795
1330 805
1330 815
1325 830
1325 840
1325 850
1325 860
1320 870
1320 880
1320 890
1320 900
1320 910
1320 920
1315 930
1315 940
1310 950
1310 960
1305 970
1300 980
1292 994
1282 999
1272 1000
1263 1005
1253 1005
1243 1008
1233 1010
1223 1010
1213 1010
1203 1010
1193 1010
1183 1010
1173 1010
1163 1010
1153 1010
1143 1010
1133 1010
1123 1010
1113 1010
1103 1010
1093 1013
1083 1018
1075 1025
1070 1035
1065 1045
1060 1055
1055 1070
1050 1080
1045 1090
1040 1100
1033 1108
1025 1115
1018 1123
1010 1130
1020 1134
1030 1134
1040 1134
1050 1131
1060 1129
1070 1126
1080 1124
1090 1124
1100 1121
1110 1119
1120 1119
1130 1119
1140 1119
1150 1119
1160 1116
1170 1114
1180 1117
1189 1122
1199 1126
1205 1134
1210 1143
1215 1152
1209 1162
1199 1165
1190 1170
1180 1170
1171 1175
1161 1175
1151 1175
1141 1175
1131 1175
1121 1175
1111 1175
1101 1175
1091 1175
1081 1175
1071 1175
1061 1175
1051 1175
1041 1175
1031 1173
1021 1170
1011 1168
1001 1165
991 1164
984 1156
979 1147
979 1137
979 1127
979 1117
984 1107
984 1097
989 1087
994 1072
999 1054
999 1044
994 1035
984 1035
974 1035
964 1035
954 1035
944 1035
934 1035
924 1035
914 1035
904 1035
895 1040
890 1050
890 1060
890 1070
890 1080
892 1090
897 1099
900 1109
905 1118
905 1128
905 1138
897 1145
888 1150
879 1155
869 1155
859 1157
849 1160
839 1160
829 1160
819 1160
809 1160
799 1160
789 1160
779 1160
769 1160
759 1160
749 1160
739 1160
729 1160
719 1160
709 1160
699 1160
689 1160
679 1160
