37 499
37 514
45 520
55 522
65 525
74 530
83 535
93 535
103 535
112 540
121 545
129 551
136 559
146 563
156 565
165 570
175 570
185 572
195 575
205 575
215 570
225 570
235 570
245 565
255 565
263 558
273 553
283 548
293 543
303 540
312 545
322 549
331 554
339 560
348 565
357 570
366 565
370 555
375 545
385 540
395 540
405 540
415 540
425 540
435 540
445 540
455 540
465 540
475 540
485 535
495 530
505 530
514 525
524 522
534 517
544 515
553 510
563 508
573 505
583 505
592 500
601 495
611 495
620 490
628 483
638 478
648 473
655 465
660 450
665 435
665 425
665 415
665 405
665 395
660 386
658 376
655 366
650 357
650 347
645 338
640 329
640 319
640 309
635 300
632 290
630 280
625 271
625 261
623 251
620 241
615 232
614 222
610 212
605 203
600 194
600 184
595 175
595 165
595 155
593 145
585 139
575 139
565 139
555 139
545 139
535 139
525 139
516 134
506 134
496 134
486 134
476 134
466 134
456 134
446 134
437 129
427 129
417 129
407 129
397 129
388 124
378 120
368 119
358 119
348 119
338 119
328 119
318 119
308 119
299 124
289 127
279 132
270 139
261 144
252 149
244 157
239 167
239 177
234 192
234 202
234 212
234 222
229 237
229 247
229 257
229 267
224 277
224 287
224 297
224 307
224 317
219 332
224 341
224 351
224 361
229 370
232 380
234 390
239 399
244 408
240 421
232 429
224 437
224 456
229 465
235 473
243 480
249 488
249 498
241 504
232 509
222 514
213 519
203 519
194 524
184 524
174 524
164 524
154 524
144 522
135 517
125 513
118 505
110 498
103 490
95 483
90 474
85 465
85 455
85 445
85 435
85 425
90 415
98 408
103 398
110 390
120 385
129 380
137 374
145 365
155 360
165 355
173 348
180 340
188 333
193 323
195 310
200 295
200 285
195 276
190 267
183 259
174 254
165 249
156 254
147 259
139 267
134 277
139 286
147 279
152 269
162 264
172 264
179 272
184 281
184 291
184 301
184 311
180 321
173 329
165 336
157 344
148 349
139 354
129 357
119 362
111 369
102 374
93 379
85 386
77 394
72 404
64 412
59 422
59 432
59 456
59 466
59 476
64 485
57 499
47 499
