24 272
24 262
29 252
39 247
47 239
55 231
63 224
72 219
81 214
90 209
99 202
109 197
119 192
129 187
139 182
147 174
156 169
165 164
174 159
183 154
192 149
200 141
208 134
215 126
225 121
233 114
240 106
248 99
255 91
263 84
272 79
282 74
290 66
298 59
302 49
307 39
315 31
325 26
335 24
345 27
352 35
360 42
367 50
375 57
382 65
387 74
394 82
402 89
409 97
417 104
424 112
432 119
439 127
447 134
456 139
464 146
470 154
479 159
488 164
497 169
506 174
515 179
523 185
532 190
542 194
549 202
559 204
568 209
577 214
584 222
592 229
601 234
609 241
615 249
620 258
625 267
630 276
625 290
625 300
618 308
610 315
605 325
598 338
590 345
583 353
575 360
568 368
560 375
553 383
545 390
537 399
529 405
520 410
513 418
505 425
497 434
489 440
480 445
470 450
461 455
451 455
442 460
433 455
425 448
419 440
410 435
410 445
415 454
420 463
428 470
435 478
432 489
427 499
417 499
407 495
404 485
395 490
395 500
395 510
388 523
380 530
370 520
370 530
365 545
350 530
350 540
355 549
355 559
360 568
360 578
368 585
375 593
383 600
390 608
398 614
407 619
416 624
425 629
435 629
445 629
455 626
465 627
475 629
485 629
495 629
505 629
515 626
525 621
535 619
545 619
555 616
563 609
570 601
578 594
585 586
589 571
584 562
579 553
574 544
566 538
556 534
549 526
544 517
554 514
564 516
573 521
583 524
592 529
601 534
605 544
610 553
615 562
615 572
610 590
608 603
600 610
592 619
583 625
574 630
565 635
556 640
547 645
537 649
527 650
517 650
508 655
498 655
488 658
480 665
470 665
460 662
450 660
440 660
430 660
420 657
412 650
403 645
393 645
384 640
374 637
367 629
359 622
352 614
344 607
337 599
329 592
325 582
320 573
319 563
314 554
312 544
305 520
304 537
297 545
289 539
284 530
274 527
269 518
264 509
259 500
257 490
247 494
238 500
229 495
219 492
219 482
224 472
232 465
239 455
229 455
220 460
210 458
201 453
191 450
182 445
175 437
167 430
158 425
150 418
143 410
135 403
128 395
120 388
114 380
105 375
97 369
89 362
82 354
74 347
69 338
63 330
55 323
48 315
40 308
34 300
29 291
29 281
