249 762
249 752
254 742
254 732
262 724
267 714
269 704
269 694
269 684
269 674
269 664
264 655
264 645
264 635
259 626
259 616
254 607
254 597
254 587
254 577
254 567
254 557
254 547
254 537
254 527
254 517
254 507
254 497
254 487
254 477
254 467
259 457
259 447
264 432
264 422
269 412
269 402
277 394
282 384
292 379
299 387
300 397
307 405
310 415
310 425
312 435
320 442
327 450
337 454
344 462
350 470
355 479
365 482
374 487
382 494
391 499
400 504
409 509
418 514
427 519
437 519
446 524
455 529
465 529
475 532
484 537
492 544
499 552
509 554
518 549
528 549
537 544
546 539
555 534
564 529
573 524
577 514
582 504
584 492
589 477
589 467
589 457
589 447
589 437
589 427
594 417
594 407
594 397
594 387
594 377
594 367
599 357
599 347
599 337
599 327
604 312
604 302
609 292
609 282
609 272
614 257
614 247
614 237
619 227
619 217
619 207
619 197
624 187
624 177
629 167
629 157
634 142
642 134
649 117
657 109
662 99
667 89
672 79
679 67
687 59
692 49
701 44
709 37
709 27
719 26
705 55
698 63
693 73
688 83
680 90
675 100
670 110
665 120
660 135
655 145
650 155
645 170
640 180
640 190
635 200
635 210
630 225
630 235
630 245
630 255
625 270
625 280
625 290
625 300
620 310
620 320
620 330
620 340
620 350
620 360
620 370
620 380
620 390
620 400
620 410
620 420
620 430
620 440
620 450
620 460
615 475
615 485
615 495
615 505
615 515
610 525
610 535
605 545
600 555
595 570
595 580
590 590
585 600
585 610
590 619
590 629
595 638
595 648
593 658
588 668
578 673
573 683
565 690
565 700
560 710
560 720
555 730
555 740
555 750
550 760
550 770
545 780
545 790
545 800
550 809
550 819
555 828
555 838
563 845
567 855
572 864
575 874
575 884
580 893
588 900
595 908
600 917
610 919
618 925
625 933
619 942
609 945
600 950
590 947
580 945
570 945
560 945
551 940
541 940
532 935
522 935
512 934
502 930
492 930
483 925
474 920
464 917
457 909
447 905
440 897
432 890
423 885
414 880
404 877
399 868
393 860
385 853
379 845
370 840
362 834
354 827
347 819
342 810
333 805
324 800
314 800
304 800
294 800
284 800
274 800
265 795
257 789
249 782
249 772
