24 282
24 272
32 264
40 256
48 249
52 239
61 234
69 227
77 219
87 214
95 206
105 201
115 199
124 192
134 187
144 182
152 174
161 169
170 164
179 157
189 152
197 144
205 136
215 131
223 124
232 119
240 111
248 104
252 94
257 84
265 76
273 69
280 61
288 54
295 46
303 39
310 31
320 26
330 24
340 27
344 37
350 45
355 54
363 60
370 68
378 75
387 80
397 84
404 92
412 99
419 107
427 114
434 122
442 129
449 137
459 141
465 149
475 152
483 159
492 164
501 169
510 174
519 179
528 184
537 189
546 194
555 199
564 204
572 210
582 214
589 222
597 229
604 237
614 241
620 249
628 255
630 265
630 275
625 290
620 300
615 310
608 318
600 325
593 333
585 340
580 350
572 359
564 365
555 370
548 378
540 385
533 393
525 400
518 408
510 415
503 423
495 430
487 439
478 445
469 450
460 455
450 455
440 460
431 455
420 454
425 463
433 470
435 480
433 493
425 500
415 498
409 490
400 485
395 495
390 505
388 518
380 525
372 534
367 544
357 545
354 535
345 530
340 540
340 550
340 560
335 570
330 580
323 593
318 603
313 613
305 620
298 628
288 633
278 638
268 643
258 648
250 655
240 655
230 660
220 660
210 660
200 660
190 665
180 665
171 660
162 655
152 655
142 655
133 650
123 650
114 645
105 640
96 635
87 630
77 629
69 622
62 614
54 607
47 599
39 592
39 582
39 572
39 562
44 552
52 544
60 536
68 529
77 524
87 519
97 519
106 514
110 525
102 534
93 540
84 545
78 553
70 560
65 570
65 580
70 589
78 595
87 600
95 607
104 612
114 614
123 619
132 624
141 629
150 634
160 634
170 631
178 624
187 629
197 629
206 624
215 629
225 626
235 624
244 619
254 617
264 612
272 604
277 594
285 586
293 579
297 569
299 553
293 545
284 540
281 530
271 528
266 519
264 509
259 500
257 490
247 494
238 500
229 495
219 492
219 482
227 474
235 466
243 459
247 449
243 438
235 445
227 454
217 455
208 460
199 455
189 451
181 445
172 440
163 435
155 428
149 420
139 417
132 409
124 402
117 394
109 387
102 379
94 372
87 364
79 357
72 349
64 342
57 334
49 327
45 317
40 308
34 300
29 291
