24 517
24 507
34 504
42 510
45 520
47 530
52 539
62 539
71 544
75 554
80 563
88 569
98 570
108 574
118 574
127 569
137 564
147 559
157 554
165 546
173 539
182 534
189 522
194 512
202 504
209 492
214 481
214 471
214 461
214 451
214 441
209 432
214 422
222 414
219 401
214 392
210 382
205 373
204 363
199 354
196 344
194 334
194 324
191 314
189 304
184 295
182 285
179 275
174 266
169 257
169 247
164 238
160 228
159 218
159 208
152 200
149 190
144 181
144 171
144 161
139 152
139 142
147 134
155 126
165 121
175 119
185 116
195 114
205 114
215 114
225 114
235 114
245 114
255 114
265 114
275 114
285 114
295 114
305 114
315 114
325 114
335 114
345 114
355 114
365 114
374 109
384 109
394 109
403 104
413 104
423 104
433 104
442 99
452 99
462 99
471 94
481 94
491 94
500 89
510 86
520 84
530 84
540 81
550 79
559 74
569 76
575 84
570 100
570 110
570 120
570 130
570 140
570 150
570 160
570 170
570 180
570 190
572 200
575 210
570 225
570 235
570 245
570 255
570 265
570 275
570 285
572 295
575 305
575 315
575 325
575 335
580 344
580 354
580 364
585 373
585 383
585 393
585 403
585 413
590 422
590 432
590 442
595 451
590 465
590 475
587 489
582 499
572 504
562 505
553 510
543 510
533 510
523 510
514 505
504 505
495 500
485 500
475 500
465 500
455 500
446 495
436 495
426 495
417 490
407 490
397 490
388 485
378 485
368 485
359 480
349 480
339 480
329 480
319 480
309 480
300 485
292 499
282 500
278 490
268 493
258 495
249 500
240 505
235 515
228 528
220 535
212 544
204 550
195 555
188 563
180 570
175 580
165 585
156 590
146 590
137 595
127 595
117 595
107 595
97 595
87 595
80 587
70 583
63 575
55 568
48 560
40 553
34 545
29 536
29 526
