24 422
24 412
29 402
39 397
49 394
59 394
69 396
78 401
88 405
95 413
100 422
105 431
108 441
110 451
110 461
110 471
110 481
105 490
100 505
95 520
90 535
85 550
85 560
85 570
90 579
90 589
90 599
95 608
103 615
110 623
118 630
127 635
137 639
146 644
156 644
166 644
176 644
186 644
195 639
205 636
215 631
223 624
232 619
240 611
248 604
254 592
259 582
264 567
269 556
269 546
261 540
251 538
241 535
231 533
221 529
214 521
214 503
214 493
210 483
204 475
194 471
186 465
177 460
168 455
160 448
154 440
144 436
139 427
134 418
128 410
120 403
114 395
109 386
104 377
99 368
92 360
85 352
80 343
76 333
71 324
64 316
59 307
54 298
47 290
44 280
39 271
34 262
34 252
39 242
44 232
52 224
57 214
62 204
70 196
78 189
85 181
93 174
100 166
108 159
117 154
127 149
137 144
147 139
157 134
166 129
175 124
184 117
192 109
202 104
210 96
218 89
225 81
235 76
245 71
253 64
262 59
270 51
280 46
288 39
292 29
302 24
311 29
320 34
330 37
337 45
345 52
353 59
362 64
371 69
380 74
389 79
398 84
407 89
414 97
424 101
433 106
440 114
449 119
457 125
465 132
474 137
484 141
493 146
500 154
510 157
519 162
527 169
536 174
544 181
550 189
558 195
565 203
570 212
577 220
580 230
580 240
580 250
575 265
570 275
565 285
563 298
555 305
548 318
543 328
538 338
530 345
523 358
515 365
510 375
508 388
503 398
495 405
488 413
480 420
473 433
465 440
458 448
450 455
443 463
433 468
425 475
415 480
405 485
410 494
410 504
415 513
407 529
398 535
388 535
378 535
368 535
358 538
348 543
340 550
335 560
330 575
330 585
323 593
318 603
310 610
303 623
295 630
288 638
280 645
270 650
260 655
251 660
242 665
233 670
223 670
213 673
203 675
193 675
183 678
173 680
164 685
154 687
144 692
134 697
124 702
114 705
104 702
104 692
114 687
122 679
121 664
112 659
104 652
97 644
87 640
80 632
75 623
69 615
64 606
64 596
64 586
59 577
64 567
64 557
64 547
69 532
74 522
79 507
84 492
89 477
94 466
94 456
94 446
89 437
85 427
77 420
68 415
59 410
49 410
40 415
35 425
40 434
36 449
29 441
24 432
