109 672
109 662
114 652
114 642
119 627
124 617
132 609
137 599
142 589
150 581
155 571
163 564
172 559
180 551
188 544
195 536
203 529
210 521
218 514
227 509
237 504
246 499
255 494
264 489
273 484
283 484
292 479
302 474
312 474
321 469
331 465
341 464
351 460
361 459
371 455
381 454
391 450
401 449
411 449
420 444
430 444
440 441
450 439
460 439
470 436
480 434
490 434
500 431
510 429
520 429
530 426
540 424
550 424
560 421
570 419
580 419
590 419
599 414
609 414
619 414
628 409
638 409
648 409
658 409
667 404
677 404
687 404
697 404
707 404
716 399
726 399
736 395
746 394
756 394
765 389
775 389
785 389
794 384
804 384
814 384
823 379
833 379
843 379
853 379
863 379
872 374
882 374
892 374
902 369
912 369
922 369
932 369
942 369
952 369
962 369
972 369
982 369
992 369
1002 369
1011 364
1021 364
1031 364
1039 357
1044 341
1039 332
1039 322
1044 312
1052 304
1060 296
1068 289
1077 284
1085 276
1095 271
1103 264
1112 259
1120 251
1128 244
1137 239
1145 231
1155 226
1165 224
1174 219
1183 224
1190 232
1195 241
1195 251
1201 259
1211 255
1221 250
1229 242
1237 234
1246 229
1254 222
1264 219
1274 217
1284 219
1294 221
1304 224
1314 224
1324 222
1334 219
1343 214
1353 214
1362 209
1372 204
1382 204
1392 204
1401 199
1411 195
1421 194
1431 194
1441 194
1451 194
1460 199
1470 202
1480 204
1489 209
1499 211
1509 214
1519 214
1528 219
1538 219
1548 220
1558 224
1568 224
1577 229
1587 229
1597 229
1606 234
1616 234
1625 239
1635 239
1644 244
1654 244
1664 244
1673 249
1683 249
1692 254
1702 254
1712 254
1721 259
1730 264
1740 264
1750 264
1760 264
1769 269
1779 269
1789 269
1799 269
1809 267
1819 264
1829 266
1839 269
1848 274
1858 274
1868 274
1878 274
1888 274
1898 274
1907 279
1916 284
1926 284
1936 284
1946 284
1955 289
1965 289
1975 289
1985 289
1995 289
2005 289
2015 289
2025 289
2035 289
2045 289
2055 289
2065 289
2075 289
2085 289
2095 289
2105 289
2115 289
2125 289
2135 289
2144 294
2154 296
2163 301
2173 304
2183 304
2193 304
2203 304
2213 304
2223 304
2233 304
2243 304
2253 305
2262 310
2272 314
2279 322
2289 326
2295 334
2303 340
2310 348
2318 355
2327 360
2335 367
2343 374
2352 379
2361 384
2369 391
2375 399
2380 408
2385 417
2385 427
2390 436
2390 446
2395 455
2397 465
2402 474
2405 484
2410 493
2415 502
2420 511
2420 521
2425 530
2427 540
2430 550
2430 560
2432 570
2435 580
2435 590
2435 600
2440 609
2440 619
2440 629
2440 639
2440 649
2440 659
2440 669
2440 679
2440 689
2440 699
2435 715
2435 725
2435 735
2430 745
2430 755
2425 765
2425 775
2420 790
2420 800
2425 809
2425 819
2425 829
2425 839
2425 849
2420 865
2415 875
2415 885
2410 900
2410 910
2405 920
2405 930
2400 940
2395 955
2395 965
2395 975
2395 985
2390 995
2385 1005
2378 1018
2370 1025
2363 1033
2355 1040
2348 1053
2340 1060
2330 1065
2322 1074
2314 1080
2305 1085
2296 1090
2287 1095
2278 1100
2269 1105
2259 1107
2249 1110
2240 1115
2230 1115
2220 1115
2211 1120
2201 1120
2192 1125
2182 1125
2172 1125
2162 1125
2152 1129
2142 1130
2132 1130
2122 1130
2112 1130
2103 1125
2093 1125
2083 1125
2073 1125
2063 1125
2053 1125
2043 1125
2033 1125
2024 1120
2014 1120
2004 1120
1994 1120
1984 1120
1975 1115
1965 1115
1955 1115
1945 1112
1935 1110
1925 1110
1915 1107
1905 1105
1895 1105
1886 1100
1876 1100
1866 1098
1856 1095
1846 1095
1837 1090
1827 1090
1818 1085
1808 1085
1798 1085
1789 1080
1779 1080
1769 1080
1760 1075
1750 1072
1740 1068
1733 1060
1725 1053
1719 1045
1714 1036
1709 1027
1709 1017
1704 1008
1695 1003
1686 998
1676 995
1666 993
1656 990
1646 990
1637 985
1627 985
1617 985
1607 985
1598 980
1588 980
1578 980
1569 975
1559 975
1549 975
1539 975
1529 975
1520 970
1510 970
1500 970
1490 970
1480 970
1470 970
1460 970
1450 970
1440 970
1430 970
1420 970
1410 970
1400 970
1390 970
1380 970
1370 975
1360 980
1353 988
1343 993
1335 1000
1325 1005
1317 1014
1307 1019
1297 1024
1287 1029
1278 1035
1268 1035
1260 1028
1253 1020
1244 1015
1236 1009
1229 1001
1221 995
1211 993
1201 990
1192 995
1182 999
1172 1000
1163 1005
1153 1008
1143 1010
1134 1015
1124 1017
1114 1020
1105 1025
1095 1025
1085 1030
1076 1035
1066 1035
1057 1040
1047 1044
1037 1045
1027 1049
1017 1050
1008 1055
998 1058
988 1060
978 1063
968 1065
958 1068
948 1070
938 1070
929 1075
919 1075
909 1075
900 1080
890 1080
880 1080
870 1080
860 1080
850 1080
841 1085
831 1085
821 1085
811 1085
801 1085
791 1085
781 1085
771 1083
761 1080
751 1080
741 1080
731 1080
721 1078
711 1075
701 1075
691 1073
681 1070
671 1070
661 1068
651 1065
641 1065
632 1060
622 1060
612 1059
602 1055
592 1055
583 1050
573 1050
564 1045
554 1045
545 1040
535 1037
525 1035
516 1030
506 1030
497 1025
487 1024
477 1020
468 1015
459 1010
449 1010
440 1005
430 1003
421 998
411 995
402 990
393 985
384 980
374 980
365 975
356 970
347 965
338 960
329 955
320 950
311 945
302 940
293 935
284 930
275 925
267 919
257 915
248 910
240 903
234 895
224 891
216 885
207 880
200 872
190 868
183 860
175 853
168 845
160 838
153 830
145 823
139 815
131 809
127 799
122 790
119 780
114 771
109 762
109 752
109 742
109 732
109 722
109 712
109 702
109 692
109 682
