24 70
28 81
38 81
48 81
56 87
61 96
68 104
68 114
68 124
68 134
68 144
68 154
68 164
68 174
68 184
64 200
56 212
61 221
71 221
81 221
91 221
101 221
111 221
113 210
107 202
103 192
103 182
103 172
103 162
103 152
103 142
103 132
103 122
103 112
113 109
123 106
131 100
137 90
142 81
152 81
162 81
172 81
182 79
181 69
181 59
176 50
166 50
156 50
146 50
136 50
108 18
105 35
117 23
126 28
126 38
126 48
116 50
106 50
96 50
86 50
76 50
66 50
62 60
54 70
44 70
34 70
