22 70
26 81
36 81
46 81
54 88
60 96
68 102
74 110
74 120
74 130
74 140
74 150
74 160
74 170
74 180
74 190
70 200
62 212
67 221
77 221
87 221
97 221
107 221
117 221
117 209
112 200
109 190
109 180
109 170
109 160
109 150
109 140
109 130
109 120
109 110
119 108
129 104
137 98
143 90
148 81
158 81
168 81
178 81
185 70
185 60
183 50
173 50
163 50
153 50
143 50
133 50
123 50
108 16
100 32
113 25
114 35
114 45
104 50
94 50
84 50
74 50
64 50
54 50
44 50
42 64
32 70
