32 50
32 60
28 76
37 81
47 81
53 89
60 97
68 103
78 107
80 117
80 127
80 137
80 147
80 157
80 167
80 177
80 187
68 212
73 221
83 221
93 221
103 221
113 221
123 221
125 209
120 200
117 190
117 180
117 170
117 160
117 150
117 140
117 130
117 120
117 110
126 105
135 100
143 92
149 82
159 81
169 81
171 68
171 58
165 50
155 50
145 50
135 50
125 50
115 50
105 50
105 27
96 22
96 32
98 42
92 50
82 50
72 50
62 50
52 50
42 50
