18 50
18 60
26 81
36 81
46 81
56 81
62 89
67 98
75 105
85 109
95 111
96 121
96 131
96 141
96 151
96 161
96 171
96 181
92 200
86 212
91 221
101 221
111 221
121 221
131 221
141 221
139 209
134 200
131 190
131 178
131 168
131 158
131 148
131 138
131 128
131 118
131 108
136 99
142 91
146 81
156 81
166 81
176 81
175 70
165 70
155 70
145 68
140 59
135 50
125 50
115 50
105 50
95 50
85 50
75 48
89 24
94 33
99 24
82 16
73 21
68 30
68 40
58 50
48 50
38 50
28 50
