599 1197
599 1187
604 1172
604 1162
609 1152
609 1142
614 1132
614 1122
619 1107
619 1097
624 1087
624 1077
629 1062
629 1052
629 1042
629 1032
634 1023
634 1013
634 1003
634 993
634 983
634 973
634 963
634 953
634 943
634 933
634 923
634 913
634 903
634 893
634 883
634 873
634 863
634 853
629 844
629 834
629 824
629 814
626 804
624 794
624 784
624 774
624 764
619 755
619 745
619 735
619 725
619 715
614 706
614 696
614 686
614 676
614 666
609 657
609 647
609 637
609 627
609 617
609 607
609 597
609 587
609 577
609 567
609 557
609 547
609 537
609 527
609 517
609 507
609 497
609 487
609 477
609 467
614 452
614 442
614 432
614 422
619 407
619 397
619 387
619 377
624 367
624 357
624 347
624 337
624 327
629 312
629 302
629 292
629 282
634 272
634 262
639 247
639 237
644 222
644 212
649 202
649 192
654 177
654 167
659 157
659 147
664 132
664 122
669 112
669 102
674 92
674 82
679 72
687 64
695 56
703 49
710 41
720 36
730 34
740 34
750 34
759 39
767 45
775 52
780 61
785 70
785 80
785 90
780 100
773 113
765 120
760 135
760 145
755 155
755 165
750 180
750 190
745 200
745 210
740 225
740 235
735 245
735 255
730 270
730 280
725 295
725 305
725 315
725 325
720 340
720 350
720 360
720 370
715 385
715 395
715 405
715 415
715 425
710 435
710 445
710 455
710 465
705 480
705 490
705 500
705 510
705 520
705 530
705 540
705 550
705 560
705 570
705 580
705 590
705 600
705 610
705 620
705 630
705 640
705 650
710 659
710 669
710 679
710 689
710 699
715 708
715 718
715 728
715 738
723 745
730 753
738 760
745 768
753 775
757 785
765 792
772 800
780 807
785 816
790 825
795 834
800 843
800 853
805 862
810 871
810 881
815 890
815 900
817 910
820 920
822 930
825 940
825 950
830 959
830 969
830 979
830 989
830 999
830 1009
830 1019
830 1029
830 1039
830 1049
825 1060
825 1070
820 1080
820 1090
815 1105
815 1115
810 1125
803 1138
795 1145
790 1155
783 1163
778 1173
770 1180
763 1188
755 1195
748 1203
738 1208
730 1215
721 1220
712 1225
703 1230
694 1235
685 1240
676 1245
666 1245
657 1250
647 1250
637 1250
628 1245
619 1240
611 1234
604 1226
599 1217
599 1207
