20 1031
20 1021
25 1011
25 1001
30 986
30 976
30 966
35 951
35 941
40 931
45 921
53 914
58 904
63 894
70 886
78 879
85 871
93 865
102 860
110 851
118 845
127 840
135 831
143 824
153 819
163 814
170 806
180 801
190 796
200 795
209 790
219 790
229 788
239 783
249 780
259 780
269 780
279 780
288 785
298 785
308 785
318 785
328 785
338 785
348 785
358 785
368 785
378 785
388 785
398 785
408 785
418 785
428 785
438 785
448 785
458 785
468 785
478 785
488 785
498 785
508 785
518 785
528 785
538 785
548 785
558 785
568 785
578 785
588 785
598 785
608 785
618 785
628 785
638 785
648 785
658 785
668 785
678 785
687 790
697 790
707 790
717 790
727 790
737 790
746 795
756 795
766 795
776 795
786 795
796 795
806 795
815 800
825 800
835 800
845 800
855 800
865 803
875 805
885 805
895 805
905 805
915 805
925 805
935 805
945 805
954 810
964 810
974 810
984 810
993 815
1003 815
1012 820
1022 820
1032 820
1039 828
1049 830
1058 835
1068 835
1078 835
1087 840
1097 840
1107 840
1117 840
1127 840
1137 840
1146 845
1156 845
1166 845
1176 845
1186 845
1196 849
1206 850
1216 850
1226 850
1236 850
1246 850
1256 850
1266 850
1276 850
1285 845
1295 845
1305 845
1315 845
1324 840
1334 840
1344 840
1354 840
1363 835
1373 835
1383 834
1393 830
1403 829
1413 825
1423 824
1433 819
1443 814
1453 809
1463 804
1473 799
1483 795
1492 790
1501 785
1510 780
1518 774
1525 766
1535 756
1543 749
1550 741
1558 734
1563 724
1570 711
1575 701
1580 691
1585 676
1590 666
1590 656
1595 646
1595 636
1600 621
1605 611
1605 601
1605 591
1610 578
1610 568
1610 558
1610 548
1610 538
1610 528
1610 518
1610 508
1610 498
1610 488
1610 478
1610 468
1610 458
1610 448
1610 438
1610 428
1610 418
1605 409
1605 399
1601 389
1600 379
1595 370
1590 361
1589 351
1585 341
1580 332
1575 323
1571 313
1566 304
1563 294
1555 287
1548 279
1540 273
1531 268
1521 264
1515 256
1505 253
1499 245
1489 245
1480 240
1471 235
1462 230
1452 229
1442 229
1432 229
1422 229
1412 229
1402 229
1392 229
1382 229
1372 229
1363 234
1353 234
1343 238
1333 239
1324 244
1315 249
1306 254
1297 259
1289 266
1281 274
1277 284
1269 291
1264 306
1259 321
1259 331
1259 341
1259 351
1263 361
1264 371
1268 381
1269 391
1274 400
1280 408
1284 418
1289 427
1296 435
1301 444
1309 451
1315 459
1323 465
1329 473
1334 482
1341 490
1349 496
1355 504
1363 510
1372 515
1382 515
1391 520
1401 520
1411 515
1421 515
1430 510
1439 505
1445 496
1450 481
1455 466
1455 456
1447 450
1438 455
1429 460
1419 462
1409 465
1399 465
1389 465
1380 460
1370 460
1361 455
1351 454
1342 449
1333 444
1325 437
1318 429
1310 423
1305 414
1300 405
1295 396
1295 386
1295 376
1295 366
1300 356
1300 346
1305 336
1310 326
1318 319
1323 309
1330 301
1340 296
1350 291
1358 285
1367 280
1376 275
1386 275
1396 275
1406 275
1416 275
1426 275
1436 275
1446 275
1456 275
1465 280
1475 280
1484 285
1493 290
1502 295
1511 300
1519 306
1525 314
1533 320
1539 328
1547 335
1551 345
1559 351
1563 361
1568 370
1571 380
1575 390
1576 400
1580 410
1580 420
1580 430
1580 440
1580 450
1575 465
1575 475
1570 490
1570 500
1565 510
1565 520
1560 530
1555 540
1550 550
1543 563
1538 573
1533 583
1528 593
1520 600
1513 608
1505 615
1497 624
1489 630
1480 635
1470 640
1460 645
1451 650
1442 655
1432 659
1422 660
1412 660
1402 660
1392 660
1382 660
1372 660
1362 660
1352 660
1342 660
1332 660
1323 655
1313 655
1304 650
1295 645
1286 640
1277 635
1268 630
1259 625
1251 619
1245 611
1235 607
1228 599
1220 592
1213 584
1205 577
1198 569
1190 563
1184 555
1176 549
1170 541
1165 532
1160 523
1155 514
1150 505
1148 495
1145 485
1140 476
1140 466
1140 456
1140 446
1140 436
1140 426
1140 416
1140 406
1140 396
1140 386
1140 376
1140 366
1140 356
1140 346
1140 336
1140 326
1145 311
1145 301
1145 291
1145 281
1150 271
1155 256
1160 246
1160 236
1160 226
1165 216
1170 206
1178 199
1188 194
1195 186
1205 176
1213 169
1223 164
1233 159
1243 154
1253 149
1263 144
1273 139
1283 134
1293 130
1303 130
1312 125
1322 125
1331 120
1341 115
1351 110
1361 110
1371 110
1380 105
1390 105
1400 105
1410 105
1420 105
1430 105
1440 105
1450 105
1460 105
1470 105
1480 105
1490 108
1500 110
1510 110
1519 115
1528 120
1537 125
1546 130
1556 134
1565 139
1575 143
1583 150
1589 158
1599 161
1608 166
1615 174
1620 183
1628 190
1631 200
1641 204
1649 211
1653 221
1659 229
1667 235
1674 243
1679 252
1684 261
1689 270
1694 279
1702 285
1709 293
1714 302
1719 311
1724 320
1729 329
1729 339
1734 348
1739 357
1744 366
1748 376
1749 386
1749 396
1753 406
1758 415
1761 425
1764 435
1764 445
1764 455
1764 465
1769 474
1774 483
1774 493
1774 503
1779 512
1784 521
1784 531
1784 541
1784 551
1784 561
1784 571
1784 581
1784 591
1784 601
1784 611
1784 621
1784 631
1784 641
1779 651
1779 661
1774 671
1769 686
1764 696
1764 706
1759 716
1754 726
1751 739
1746 749
1741 759
1736 769
1732 779
1724 786
1717 799
1709 806
1699 811
1694 821
1687 834
1679 841
1669 846
1664 856
1657 864
1649 871
1639 876
1632 884
1624 891
1614 896
1606 904
1596 909
1587 914
1579 921
1571 929
1561 934
1551 939
1541 944
1531 944
1521 949
1512 954
1503 959
1494 964
1484 964
1475 969
1466 974
1456 974
1446 979
1436 979
1426 984
1416 984
1407 989
1397 989
1388 994
1378 994
1369 999
1360 1004
1350 1004
1341 1009
1331 1009
1321 1009
1311 1009
1301 1009
1291 1009
1281 1009
1271 1009
1261 1009
1251 1009
1241 1009
1231 1009
1221 1009
1211 1009
1202 1004
1192 1004
1182 1004
1172 1004
1163 999
1153 999
1143 995
1134 990
1124 989
1114 985
1104 987
1094 990
1085 985
1075 981
1065 980
1056 975
1046 974
1037 969
1027 965
1018 960
1008 959
998 955
988 955
978 955
969 950
959 950
950 945
940 945
931 940
921 940
912 935
902 935
892 934
882 930
872 930
862 930
853 925
843 925
833 925
823 924
813 920
803 920
794 915
784 915
774 915
764 915
755 910
745 910
735 910
725 910
715 909
705 909
695 909
685 909
675 909
665 910
655 914
645 914
635 914
625 914
615 914
605 914
595 914
585 914
575 914
565 914
555 914
545 914
535 914
525 914
515 914
505 914
495 914
485 914
475 914
465 914
456 919
446 919
436 919
426 919
416 919
406 919
396 919
386 919
376 919
366 919
356 919
346 919
336 919
326 919
316 919
306 919
296 924
287 929
277 929
268 934
258 938
250 945
243 953
238 963
230 970
223 978
215 985
208 998
200 1005
193 1018
188 1028
180 1035
175 1045
170 1060
170 1070
165 1085
165 1095
165 1105
165 1115
166 1125
170 1135
171 1145
175 1155
180 1164
185 1173
185 1183
193 1190
196 1200
204 1206
210 1214
218 1220
224 1228
232 1235
241 1240
250 1245
258 1251
265 1259
270 1268
278 1275
281 1285
290 1290
298 1296
305 1304
315 1308
325 1310
335 1313
344 1318
354 1321
360 1329
370 1330
380 1326
390 1325
399 1320
408 1315
418 1314
425 1306
435 1301
443 1295
452 1290
460 1281
470 1276
478 1269
483 1259
490 1246
495 1231
500 1216
505 1206
510 1191
510 1181
510 1171
510 1161
510 1151
510 1141
505 1132
500 1123
496 1113
491 1104
484 1096
480 1086
472 1079
463 1074
454 1069
445 1064
435 1064
425 1064
415 1064
405 1064
395 1064
385 1065
385 1075
385 1085
380 1095
380 1105
380 1115
380 1125
380 1135
381 1145
386 1154
396 1155
406 1155
416 1155
425 1160
433 1166
440 1174
445 1183
449 1193
449 1203
449 1213
449 1223
444 1241
437 1254
429 1261
421 1269
411 1274
401 1279
392 1284
382 1284
372 1284
362 1284
352 1284
342 1284
333 1279
323 1279
313 1275
304 1270
294 1266
285 1261
277 1254
268 1249
256 1234
250 1226
245 1217
240 1208
235 1199
230 1190
228 1180
225 1170
225 1160
223 1150
220 1140
220 1130
215 1121
215 1111
215 1101
215 1091
215 1081
215 1071
215 1061
215 1051
220 1041
228 1034
233 1024
240 1016
248 1009
255 1001
263 994
273 989
280 981
290 976
300 971
310 966
320 965
330 961
340 960
349 955
359 955
369 955
378 950
388 949
398 945
408 944
418 940
428 940
438 940
448 940
458 940
468 940
478 940
487 945
497 945
506 950
516 954
525 959
535 963
544 968
554 971
563 976
573 980
579 988
589 991
595 999
603 1005
609 1013
617 1020
621 1030
629 1036
633 1046
638 1055
644 1063
649 1072
650 1082
655 1091
655 1101
655 1111
655 1121
655 1131
655 1141
655 1151
655 1161
655 1171
655 1181
650 1190
650 1200
645 1210
640 1220
635 1230
630 1240
625 1250
620 1260
615 1275
610 1285
608 1298
603 1308
595 1315
590 1325
585 1335
580 1345
573 1353
568 1363
560 1370
552 1379
544 1385
535 1390
527 1399
519 1405
510 1410
500 1415
491 1420
482 1425
473 1430
463 1433
453 1435
443 1438
433 1440
424 1445
414 1445
404 1447
394 1450
384 1450
374 1450
364 1450
354 1450
344 1450
334 1450
324 1450
314 1450
305 1445
295 1445
285 1445
276 1440
266 1440
257 1435
247 1434
237 1430
228 1425
218 1425
209 1420
200 1415
191 1410
183 1404
175 1398
166 1393
156 1389
149 1381
141 1375
133 1369
125 1362
118 1354
110 1347
103 1339
95 1333
89 1325
81 1319
75 1311
70 1302
65 1293
59 1285
54 1276
50 1266
45 1257
40 1248
40 1238
35 1229
35 1219
31 1209
30 1199
25 1190
25 1180
25 1170
25 1160
25 1150
25 1140
25 1130
25 1120
25 1110
25 1100
25 1090
25 1080
20 1071
20 1061
20 1051
20 1041
