1157 844
1157 859
1164 867
1169 876
1176 884
1184 890
1187 900
1197 904
1207 899
1215 885
1220 875
1225 860
1230 850
1235 835
1243 828
1250 820
1258 813
1265 805
1270 795
1278 788
1283 778
1285 760
1290 750
1299 745
1309 745
1319 742
1329 740
1339 740
1348 735
1358 733
1368 730
1378 730
1387 725
1396 720
1405 715
1415 715
1421 723
1429 730
1432 740
1440 747
1447 755
1452 764
1456 774
1466 778
1475 783
1485 787
1495 790
1504 795
1514 795
1523 800
1533 800
1543 800
1553 800
1563 800
1573 800
1583 800
1593 798
1603 795
1612 790
1622 789
1632 785
1641 780
1650 775
1660 770
1670 770
1680 770
1690 765
1700 765
1710 765
1720 765
1730 754
1727 744
1722 735
1715 727
1705 723
1698 715
1690 709
1681 704
1672 699
1662 699
1652 699
1643 704
1635 711
1627 719
1618 724
1608 724
1598 724
1588 724
1579 729
1569 732
1559 737
1549 739
1540 744
1530 744
1520 744
1511 739
1505 731
1500 722
1495 713
1490 704
1484 696
1476 689
1470 681
1470 671
1469 661
1464 652
1457 644
1452 635
1445 627
1435 624
1429 616
1419 612
1415 602
1407 595
1400 587
1392 580
1388 570
1380 563
1373 555
1365 549
1359 541
1351 534
1342 529
1332 529
1322 529
1312 529
1302 529
1292 529
1283 534
1275 528
1270 519
1266 509
1257 504
1247 504
1237 504
1227 504
1217 504
1207 509
1199 517
1194 527
1189 542
1189 552
1189 562
1197 569
1205 575
1215 575
1225 577
1235 580
1245 582
1249 592
1249 602
1249 612
1257 619
1265 625
1274 630
1283 635
1293 635
1303 635
1312 640
1322 640
1329 648
1334 657
1342 664
1342 679
1332 679
1322 684
1313 689
1305 696
1295 701
1290 711
1280 716
1272 724
1264 732
1259 742
1254 752
1249 767
1247 779
1239 787
1234 797
1227 809
1219 817
1214 827
1206 839
1196 839
1186 839
1176 839
1166 839
