1224 567
1224 557
1229 547
1234 537
1239 527
1249 522
1259 519
1269 521
1278 526
1285 534
1293 540
1297 550
1300 560
1310 564
1320 564
1330 564
1340 564
1350 564
1360 564
1370 567
1379 572
1389 576
1398 581
1405 589
1413 595
1420 603
1430 607
1439 612
1447 619
1454 627
1459 636
1468 641
1473 650
1480 658
1485 667
1489 677
1494 686
1495 696
1495 706
1495 716
1495 726
1495 736
1495 746
1498 756
1503 765
1513 769
1520 761
1528 754
1535 746
1540 736
1548 729
1555 721
1560 711
1565 701
1573 694
1582 689
1591 694
1600 699
1608 705
1617 710
1625 717
1635 719
1644 724
1653 729
1660 737
1654 750
1644 750
1634 750
1624 750
1614 750
1605 755
1595 755
1585 755
1575 755
1565 760
1555 765
1548 773
1538 778
1530 785
1525 795
1520 805
1510 815
1500 820
1491 825
1482 820
1473 815
1464 810
1454 806
1449 797
1449 787
1444 778
1439 769
1436 759
1434 749
1429 740
1429 730
1426 720
1416 720
1406 720
1397 725
1388 730
1379 735
1369 735
1359 735
1349 735
1339 735
1330 740
1330 750
1330 760
1330 770
1330 780
1330 790
1330 800
1330 810
1330 820
1330 830
1332 840
1337 849
1340 859
1345 868
1345 878
1350 887
1347 904
1339 910
1329 910
1319 910
1309 910
1299 910
1289 910
1279 910
1269 907
1269 897
1277 889
1287 889
1294 877
1294 867
1294 857
1294 847
1294 837
1294 827
1294 817
1294 807
1294 797
1294 787
1294 777
1294 767
1294 757
1294 747
1294 737
1299 727
1304 717
1312 709
1320 701
1330 696
1339 690
1338 680
1329 675
1319 675
1309 672
1300 667
1290 663
1283 655
1275 648
1269 640
1264 631
1259 622
1259 612
1250 607
1240 603
1234 595
1229 586
1224 577
