464 867
464 857
469 847
474 837
479 827
489 822
497 814
507 809
517 804
527 799
537 799
546 794
556 794
566 794
576 794
586 794
595 799
605 802
614 807
619 816
625 824
630 833
635 842
642 850
647 859
654 867
659 876
663 886
668 895
672 905
677 914
680 924
689 929
699 929
704 918
704 908
704 898
704 888
704 878
704 868
704 858
704 848
700 838
699 828
694 819
694 809
689 800
689 790
689 780
684 771
684 761
676 755
666 755
656 755
646 753
636 750
627 745
617 744
607 740
598 735
589 730
580 725
571 720
562 715
555 707
547 700
538 695
530 688
523 680
515 673
509 665
499 661
494 652
494 642
494 632
494 622
494 612
494 602
494 592
494 582
494 572
494 562
494 552
494 542
494 532
499 522
499 512
504 502
509 492
517 484
525 476
533 469
542 464
552 459
562 459
572 459
582 459
592 459
601 464
610 469
620 469
629 474
638 479
647 484
656 489
660 499
665 508
665 518
665 528
665 538
675 534
684 529
693 524
703 524
713 524
723 524
733 524
743 524
752 529
760 521
764 503
758 495
749 490
744 481
739 472
734 463
729 454
724 445
720 435
710 435
700 435
690 435
681 430
671 429
662 424
657 415
650 407
644 399
639 390
634 381
629 372
629 362
629 352
629 342
629 332
634 317
634 307
639 297
644 287
649 277
654 267
662 259
672 254
682 249
692 244
702 244
712 239
722 239
732 239
742 239
752 239
760 231
768 224
769 206
769 196
769 186
769 176
764 167
764 157
764 147
769 137
774 127
779 117
787 109
792 99
801 94
810 89
820 92
830 94
840 97
850 99
859 104
867 110
877 114
886 119
895 124
905 127
915 129
925 129
935 129
945 129
955 129
965 129
975 129
985 129
994 124
1004 124
1014 124
1023 119
1033 119
1042 114
1052 114
1062 114
1071 109
1081 109
1091 109
1101 109
1110 114
1118 120
1127 125
1135 132
1144 137
1150 145
1155 154
1155 164
1160 173
1168 180
1175 188
1180 197
1180 207
1187 215
1197 219
1204 227
1212 234
1220 240
1223 253
1215 260
1217 270
1225 277
1232 285
1237 294
1240 304
1245 313
1245 323
1245 333
1245 343
1245 353
1245 363
1245 373
1240 385
1233 398
1225 405
1216 410
1207 415
1198 420
1189 425
1179 425
1170 430
1160 430
1150 430
1143 438
1138 448
1130 455
1130 465
1130 475
1130 485
1135 494
1135 504
1140 513
1150 514
1160 514
1170 511
1180 509
1190 509
1200 509
1210 509
1219 514
1229 514
1238 519
1247 524
1254 532
1262 539
1269 547
1277 554
1284 562
1289 571
1295 579
1300 588
1308 595
1312 605
1320 612
1324 622
1330 630
1335 639
1340 648
1348 655
1357 660
1362 669
1369 677
1379 681
1385 689
1395 692
1402 700
1407 709
1410 719
1418 725
1422 735
1425 745
1425 755
1427 765
1430 775
1432 785
1433 798
1428 808
1420 815
1412 824
1404 830
1395 835
1390 845
1395 854
1395 864
1390 875
1390 885
1390 895
1390 905
1385 920
1380 935
1380 945
1375 955
1370 965
1370 975
1365 990
1365 1000
1360 1010
1360 1020
1360 1030
1355 1040
1350 1050
1345 1060
1340 1070
1335 1080
1328 1093
1323 1103
1315 1110
1310 1120
1303 1133
1295 1140
1290 1150
1280 1155
1270 1160
1260 1160
1250 1160
1240 1160
1230 1160
1220 1157
1210 1155
1200 1152
1190 1150
1180 1150
1171 1145
1161 1145
1151 1143
1141 1139
1132 1134
1122 1130
1115 1122
1105 1118
1099 1110
1089 1107
1082 1099
1074 1092
1067 1084
1062 1075
1055 1067
1045 1065
1040 1075
1035 1085
1025 1090
1015 1095
1008 1103
998 1108
988 1113
978 1115
968 1115
958 1115
948 1115
938 1115
928 1115
919 1110
909 1110
899 1107
890 1102
882 1095
875 1087
867 1080
858 1075
848 1075
838 1075
828 1075
819 1080
810 1085
802 1094
792 1099
782 1104
772 1109
762 1114
752 1119
742 1124
732 1125
723 1130
714 1135
704 1135
695 1140
685 1140
675 1145
665 1145
655 1145
645 1145
636 1140
626 1140
616 1140
607 1135
597 1135
588 1130
579 1125
570 1120
562 1114
554 1107
550 1097
542 1090
535 1082
527 1075
524 1065
519 1056
514 1047
509 1038
504 1029
499 1020
494 1011
489 1002
489 992
484 983
479 974
474 965
469 956
469 946
464 937
464 927
464 917
464 907
464 897
464 887
464 877
