48 326
48 316
52 300
56 290
64 282
73 277
83 276
93 276
103 276
113 278
123 276
133 274
143 271
145 255
135 251
125 253
115 249
105 247
95 244
86 239
77 234
70 226
64 218
60 208
62 196
66 184
74 178
84 176
94 172
104 172
114 170
124 168
132 160
142 156
152 154
162 152
159 139
154 130
152 120
154 104
156 94
158 78
154 68
151 58
150 48
150 38
158 30
166 24
176 22
186 20
196 22
205 27
214 32
224 34
234 34
244 34
254 34
264 30
274 26
284 22
294 20
304 22
314 26
322 32
327 41
327 51
324 65
320 75
315 84
315 94
315 104
313 122
310 133
306 143
300 151
310 154
320 157
329 162
336 170
344 177
349 186
351 202
350 217
345 226
337 234
330 243
321 248
312 253
303 258
303 268
305 278
308 288
313 297
315 307
319 317
321 327
321 337
319 348
318 359
310 365
302 371
292 371
282 371
272 371
262 371
252 371
242 371
232 371
222 370
212 369
202 367
192 367
182 365
172 363
162 363
152 361
142 363
132 365
122 369
112 371
102 371
92 371
82 370
72 367
63 362
56 354
50 346
50 336
