44 322
44 312
48 296
54 288
62 282
70 276
80 276
90 276
100 276
110 278
120 274
130 272
138 265
131 257
123 251
113 253
103 251
93 247
83 243
73 239
65 233
57 227
52 218
48 208
48 198
52 188
58 180
68 176
78 174
88 172
98 170
108 166
116 160
126 156
136 154
146 144
142 134
140 124
138 114
138 104
140 90
139 76
135 66
132 56
132 46
132 36
140 28
150 24
160 20
170 20
180 23
190 27
199 32
209 34
219 34
229 34
239 34
249 33
258 28
268 24
278 22
288 20
298 23
308 27
315 35
319 46
318 59
314 69
310 79
305 88
305 98
305 108
303 118
301 130
297 142
292 151
302 154
312 156
322 160
330 166
337 174
343 182
350 190
353 200
351 218
346 227
338 235
330 241
321 246
312 251
303 257
293 256
294 266
298 276
308 279
316 285
322 293
325 303
327 313
331 323
329 340
329 350
327 360
319 366
310 371
300 371
290 371
280 371
270 371
260 369
250 371
240 371
230 371
220 371
210 371
200 369
190 369
180 367
170 365
160 363
150 363
140 361
130 363
121 368
111 371
101 371
91 371
81 371
71 369
62 364
54 358
46 352
44 342
44 332
