52 324
52 314
54 302
56 292
64 284
72 278
82 276
92 276
102 276
112 277
122 280
132 276
142 274
148 261
146 251
136 253
126 250
116 247
106 245
97 240
88 235
80 228
74 220
70 210
70 200
74 188
80 180
90 176
100 174
110 172
120 172
130 170
140 166
146 158
156 156
166 154
162 138
158 128
156 118
158 108
162 98
167 89
170 78
167 68
164 58
164 48
164 38
172 30
180 24
190 22
200 20
210 23
219 28
227 34
237 34
247 34
257 34
267 30
276 24
286 22
296 20
306 22
315 27
323 34
325 46
325 56
321 66
317 76
319 86
321 96
319 114
314 129
310 139
305 148
311 156
320 161
328 167
335 175
341 183
345 193
346 209
344 219
338 227
332 235
324 243
315 248
307 254
307 264
308 274
310 293
305 302
307 312
305 330
303 342
300 357
292 365
284 371
274 371
264 371
254 371
244 371
234 371
224 369
214 368
204 367
194 365
184 363
174 363
164 363
154 361
144 363
134 365
124 369
114 371
104 371
94 371
84 369
74 367
65 362
58 354
54 344
52 334
