102 106
102 96
104 86
108 74
112 64
118 56
126 48
136 44
146 40
150 28
158 22
168 20
178 23
183 32
193 34
201 40
210 45
216 53
222 61
227 70
233 78
242 83
252 86
262 88
270 95
279 100
281 110
275 118
274 137
267 145
257 148
248 153
240 159
246 167
252 175
260 181
267 189
269 208
271 218
273 228
275 238
275 248
273 258
271 272
281 276
291 278
298 286
299 296
299 306
299 316
299 326
297 336
295 352
291 366
282 371
272 371
262 371
252 369
242 365
232 363
222 363
212 365
202 367
192 367
182 369
172 369
162 371
152 370
143 365
133 362
130 352
128 342
126 332
126 322
126 312
126 302
120 294
120 284
120 274
120 264
120 254
120 244
122 234
122 224
124 208
126 196
126 186
126 176
124 166
121 151
115 143
109 135
104 126
102 116
