90 308
90 298
92 288
97 279
107 276
117 276
127 276
135 262
134 252
136 238
129 229
124 220
121 210
122 190
128 182
137 177
147 174
157 172
167 167
166 157
160 149
150 147
141 142
137 132
136 122
132 112
132 102
140 96
148 90
158 86
168 84
177 79
183 71
188 62
194 54
202 46
210 38
215 29
223 22
233 20
243 22
253 20
263 22
271 28
273 38
279 46
288 51
295 59
300 68
304 78
307 88
309 98
309 108
308 123
303 132
297 142
292 151
287 160
289 170
289 180
289 190
289 200
289 210
291 220
291 230
291 240
291 250
291 260
291 270
291 280
291 290
287 300
287 310
287 320
285 338
283 348
281 358
272 365
262 369
252 371
242 369
232 369
222 367
212 367
202 365
192 365
182 369
172 371
162 371
152 371
142 369
132 371
122 371
112 371
104 365
96 358
94 348
92 338
90 328
90 318
