78 260
78 250
88 248
104 248
120 248
136 248
152 248
158 237
157 227
147 227
137 227
127 227
117 227
112 218
122 218
132 218
142 218
152 218
158 201
150 195
140 195
130 195
120 195
112 188
125 186
135 186
145 186
155 186
158 173
158 163
157 153
147 153
137 153
127 152
126 142
126 132
126 122
126 112
126 102
126 92
126 82
126 72
126 62
126 52
126 42
126 32
126 22
136 20
146 20
156 20
166 20
176 20
186 20
196 20
206 20
216 20
226 20
236 20
246 20
256 20
266 20
269 30
269 40
269 50
269 60
269 70
269 80
269 90
269 100
269 110
269 120
269 130
269 140
267 153
257 153
247 153
237 153
227 153
217 153
207 154
207 164
207 174
207 184
217 186
227 186
237 186
247 186
257 186
267 186
277 186
287 186
297 186
307 186
312 195
302 195
292 195
282 195
272 195
262 195
252 195
242 195
232 195
222 195
207 196
207 206
207 216
217 218
227 218
237 218
247 218
257 218
267 218
277 218
287 218
297 218
307 218
302 227
292 227
282 227
272 227
262 227
252 227
242 227
232 227
222 227
207 228
207 238
208 248
218 248
228 248
238 248
248 248
264 248
280 248
296 248
306 248
316 248
323 256
323 266
313 270
303 271
293 269
283 269
273 269
263 269
253 269
243 273
233 269
223 269
213 269
203 269
193 269
183 269
173 269
163 269
153 273
143 269
133 269
123 269
113 269
103 269
93 269
83 269
