70 260
70 250
80 248
90 248
100 248
110 248
120 248
130 248
140 248
150 248
160 248
170 248
180 248
190 248
192 235
185 227
175 227
165 227
155 227
145 227
135 227
125 227
115 227
105 227
95 227
85 227
80 218
90 218
100 218
110 218
120 218
130 218
140 218
150 218
160 218
170 218
180 218
190 218
192 205
188 195
178 195
168 195
158 195
148 195
138 195
128 195
118 195
108 195
98 195
88 195
80 188
93 186
103 186
113 186
123 186
133 186
143 186
153 186
163 186
173 186
183 186
192 178
192 168
192 158
183 153
173 153
163 153
153 153
143 153
133 153
123 152
122 142
122 132
122 122
122 112
122 102
122 92
122 82
122 72
122 62
122 52
122 42
122 32
122 22
132 20
142 20
152 20
162 20
172 20
182 20
192 20
202 20
212 20
222 20
232 20
242 20
252 20
262 20
272 20
282 23
283 33
283 43
283 53
283 63
283 73
283 83
283 93
283 103
283 113
283 123
283 133
283 143
273 153
263 153
253 153
243 154
243 164
243 174
243 184
253 186
263 186
273 186
283 186
293 186
288 195
278 195
268 195
258 195
243 196
243 206
243 216
253 218
263 218
273 218
283 218
293 218
288 227
278 227
268 227
258 227
243 228
243 238
244 248
254 248
264 248
274 248
284 248
294 248
304 248
314 248
324 248
329 257
325 269
315 269
305 269
295 269
285 269
275 269
265 269
255 271
245 269
235 269
225 269
215 269
205 269
195 269
185 269
175 269
165 269
155 269
145 273
135 269
125 269
115 269
105 269
95 269
85 273
75 269
