138 220
146 227
156 227
166 227
176 227
186 227
196 227
206 227
208 237
208 247
198 248
188 248
178 248
168 248
158 248
148 248
138 250
138 260
143 269
153 272
163 269
173 273
183 269
193 269
203 269
213 269
223 271
233 270
243 269
253 269
261 257
256 248
246 248
236 248
235 238
235 228
235 218
235 208
235 198
235 188
235 178
235 168
235 158
235 148
235 138
235 128
235 118
235 108
235 98
235 88
235 78
235 68
235 58
235 48
228 40
219 35
219 25
210 20
200 20
190 22
184 30
184 40
184 50
184 60
184 70
184 80
184 90
184 100
184 110
184 120
184 130
184 140
188 150
198 153
208 154
208 164
208 174
202 186
192 186
182 186
172 186
162 186
152 186
147 195
157 195
167 195
177 195
187 195
197 195
207 197
208 207
201 218
191 218
181 218
171 218
161 218
151 218
