54 260
54 250
64 248
74 248
84 248
94 248
104 248
114 248
124 248
134 248
144 248
154 248
158 232
149 227
139 227
129 227
119 227
109 227
99 227
89 227
84 218
94 218
104 218
114 218
124 218
134 218
144 218
154 218
158 203
152 195
142 195
132 195
122 195
112 195
102 195
92 195
84 188
97 186
107 186
117 186
127 186
137 186
147 186
157 185
158 173
158 163
157 153
147 153
137 153
127 153
117 153
107 153
97 152
96 142
96 132
96 122
96 112
96 102
96 92
96 82
96 72
96 62
96 52
96 42
96 32
96 22
106 20
116 20
126 20
136 20
146 20
156 20
166 20
176 20
186 20
196 20
206 20
216 20
226 20
236 20
246 20
256 20
266 20
276 20
286 20
296 22
297 32
297 42
297 52
297 62
297 72
297 82
297 92
297 102
297 112
297 122
297 132
297 142
295 152
285 153
275 153
265 153
255 153
245 153
235 153
225 153
215 154
215 164
215 174
215 184
225 186
235 186
245 186
255 186
265 186
275 186
285 186
295 186
305 186
315 186
325 186
330 195
320 195
310 195
300 195
290 195
280 195
270 195
260 195
250 195
240 195
230 195
215 196
215 206
215 216
225 218
235 218
245 218
255 218
265 218
275 218
285 218
295 218
305 218
315 218
325 218
333 224
320 227
310 227
300 227
290 227
280 227
270 227
260 227
250 227
240 227
230 227
215 228
215 238
216 248
226 248
236 248
246 248
256 248
266 248
276 248
286 248
296 248
306 248
316 248
326 248
336 248
345 253
339 269
329 271
319 269
309 269
299 269
289 269
279 269
269 269
259 269
249 269
239 269
229 269
219 269
209 269
199 269
189 269
179 269
169 269
159 269
149 269
139 269
129 269
119 269
109 273
99 269
89 269
79 269
69 272
59 269
