58 260
58 250
68 248
78 248
88 248
98 248
108 248
118 248
128 248
138 248
148 248
158 247
158 237
155 227
145 227
135 227
125 227
115 227
105 227
95 227
90 218
100 218
110 218
120 218
130 218
140 218
150 218
158 206
158 196
148 195
138 195
128 195
118 195
108 195
98 195
90 188
103 186
113 186
123 186
133 186
143 186
153 186
158 172
158 162
153 153
143 153
133 153
123 153
113 153
103 152
102 142
102 132
102 122
102 112
102 102
102 92
102 82
102 72
102 62
102 52
102 42
102 32
102 22
112 20
122 20
132 20
142 20
152 20
162 20
172 20
182 20
192 20
202 20
212 20
222 20
232 20
242 20
252 20
262 20
272 20
282 20
291 25
291 35
291 45
291 55
291 65
291 75
291 85
291 95
291 105
291 115
291 125
291 135
291 145
283 153
273 153
263 153
253 153
243 153
233 153
223 153
213 154
213 164
213 174
213 184
223 186
233 186
243 186
253 186
263 186
273 186
283 186
293 186
303 186
313 186
323 186
328 195
318 195
308 195
298 195
288 195
278 195
268 195
258 195
248 195
238 195
228 195
213 196
213 206
213 216
223 218
233 218
243 218
253 218
263 218
273 218
283 218
293 218
303 218
313 218
323 218
318 227
308 227
298 227
288 227
278 227
268 227
258 227
248 227
238 227
228 227
213 228
213 238
214 248
224 248
234 248
244 248
254 248
264 248
274 248
284 248
294 248
304 248
314 248
324 248
334 248
341 256
333 270
323 271
313 269
303 269
293 269
283 269
273 269
263 269
253 269
243 269
233 269
223 269
213 269
203 269
193 269
183 269
173 269
163 269
153 269
143 269
133 269
123 272
113 269
103 269
93 269
83 269
73 272
63 269
