94 262
94 252
104 248
120 248
136 248
152 248
158 237
156 227
146 227
136 227
128 220
141 218
151 218
158 205
157 195
147 195
137 195
128 190
142 186
152 186
158 171
158 161
152 153
142 150
142 140
142 130
142 120
142 110
142 100
142 90
141 80
140 70
140 60
140 50
140 40
142 22
152 20
162 20
172 20
182 20
192 20
202 20
212 20
222 20
232 20
242 20
251 25
251 35
251 45
251 55
251 65
251 75
251 85
251 95
251 105
251 115
251 125
251 135
249 152
239 153
229 153
219 153
209 153
199 154
199 164
199 174
199 184
209 186
219 186
229 186
239 186
249 186
259 186
269 186
279 186
289 186
294 195
284 195
274 195
264 195
254 195
244 195
234 195
224 195
214 195
199 198
199 208
200 218
214 218
224 218
234 218
244 218
254 218
264 218
274 218
284 218
294 218
289 227
279 227
269 227
259 227
249 227
239 227
229 227
219 227
209 227
199 228
199 238
200 248
210 248
220 248
236 248
252 248
268 248
278 248
288 248
298 248
305 256
302 269
292 273
282 269
272 269
262 269
252 269
242 269
232 269
222 273
212 269
202 269
192 269
182 269
172 272
162 269
152 269
142 269
132 269
122 269
112 269
102 269
