89 137
89 127
99 122
99 112
107 104
116 99
124 92
134 89
144 89
150 81
158 74
168 74
178 74
188 74
198 74
208 74
218 74
228 74
238 74
248 74
258 74
268 74
278 74
288 74
298 74
308 74
318 74
328 74
338 74
348 74
355 66
365 64
375 64
385 64
395 64
405 64
415 64
425 64
435 64
445 64
455 64
465 64
475 64
485 64
495 67
503 74
513 74
523 75
533 79
540 87
549 92
554 101
558 111
560 121
560 131
560 141
560 151
560 161
560 171
560 181
560 191
560 201
560 211
560 221
560 231
560 241
560 251
566 259
570 269
570 279
570 289
564 305
558 313
553 323
545 330
535 330
525 335
515 335
510 345
500 345
490 345
480 345
470 345
460 350
450 350
440 350
430 350
420 350
410 350
400 350
390 350
380 350
370 350
360 350
350 350
340 350
330 350
320 350
310 350
300 350
290 350
288 368
280 375
270 380
265 395
260 410
255 425
245 425
240 435
235 445
229 455
220 460
220 470
216 480
206 484
204 474
204 464
199 455
199 445
197 435
189 429
189 419
189 409
184 400
179 391
179 381
174 372
169 363
162 355
152 355
142 355
133 350
124 345
114 342
110 332
102 325
99 315
99 305
99 295
99 285
99 275
99 265
99 255
99 245
99 235
99 225
99 215
99 205
99 195
99 185
99 175
95 165
89 157
89 147
