109 122
109 112
119 109
125 101
129 87
137 79
147 79
156 74
166 74
174 67
184 64
194 64
204 64
214 64
224 64
234 64
243 59
253 59
263 59
273 59
283 59
293 59
303 59
313 59
323 59
333 59
343 59
353 59
363 59
373 59
383 59
393 59
403 59
413 59
423 59
433 59
442 54
452 54
462 54
472 54
482 54
492 54
502 54
512 54
521 59
531 59
540 64
550 64
555 73
563 79
573 80
580 88
580 98
585 107
585 117
585 127
585 137
585 147
585 157
585 167
585 177
585 187
585 197
585 207
585 217
585 227
585 237
585 247
585 257
585 267
585 277
585 287
580 305
575 315
568 325
558 325
549 330
539 330
530 335
520 335
510 335
500 335
490 335
480 335
470 335
460 335
450 335
440 335
430 335
420 335
410 335
400 335
390 335
380 335
370 335
360 335
350 335
344 345
334 345
324 345
314 345
305 350
295 355
290 365
280 375
270 380
264 392
254 395
245 400
241 410
232 415
224 408
220 398
214 390
204 386
204 376
204 366
199 357
195 347
185 345
175 345
165 345
155 343
148 335
139 330
131 324
129 314
126 304
124 294
124 284
124 274
124 264
124 254
124 244
124 234
124 224
124 214
124 204
119 195
109 192
109 182
109 172
109 162
109 152
109 142
109 132
