89 242
89 232
99 222
99 212
104 197
114 192
114 182
119 172
129 167
129 157
137 149
146 144
154 137
164 134
173 129
183 129
187 119
197 119
207 119
216 114
226 114
231 105
241 104
251 100
261 99
271 99
281 99
289 92
299 89
309 89
319 89
329 89
339 87
349 84
359 84
369 84
379 84
389 86
399 89
409 89
419 89
429 89
439 89
449 91
455 99
465 99
475 99
485 102
495 104
505 107
513 114
523 114
532 119
542 119
550 125
560 129
569 134
579 136
585 144
595 147
603 154
610 162
614 172
622 179
625 189
630 198
630 208
640 212
640 222
644 232
645 242
640 260
640 270
630 280
625 295
617 310
612 319
604 325
595 330
589 340
580 345
570 345
562 359
552 360
547 369
537 370
527 374
517 375
507 375
502 384
492 385
482 389
472 390
462 390
452 390
447 399
437 400
427 400
417 400
407 400
397 400
387 404
377 405
367 405
357 405
347 405
337 405
328 400
318 400
308 403
303 413
293 415
284 420
275 425
269 435
260 440
250 440
245 450
235 455
227 469
217 470
212 479
204 485
198 493
190 500
180 500
174 510
164 512
164 502
169 492
169 482
179 477
179 467
184 452
184 442
194 432
194 422
199 407
209 397
209 387
214 378
207 370
197 370
194 360
184 360
175 355
165 353
159 345
151 338
145 330
135 327
127 320
119 314
114 305
113 295
104 290
102 280
99 270
95 260
89 252
