59 302
59 292
69 282
69 272
69 262
74 247
84 242
89 232
99 227
104 217
114 214
123 209
130 201
140 199
149 194
158 189
168 189
172 179
182 179
191 174
199 167
209 164
219 164
229 162
239 159
249 159
259 159
269 159
275 151
285 149
294 142
294 132
304 127
304 117
304 107
309 97
319 92
319 82
324 67
324 57
329 42
334 32
342 24
349 32
354 41
355 51
360 60
360 70
365 79
370 88
375 97
382 105
385 115
385 125
390 134
390 144
400 147
405 156
415 159
425 159
435 162
445 164
455 164
465 167
473 174
483 174
493 175
502 180
507 189
517 189
526 194
535 199
545 199
550 208
560 212
570 214
575 223
583 229
590 237
597 245
600 255
608 261
610 271
610 281
610 291
610 301
610 311
610 321
610 331
600 340
595 355
590 370
580 375
575 385
565 390
557 404
547 405
542 414
532 419
522 420
517 429
507 430
497 434
487 435
479 442
469 445
459 445
450 450
440 450
430 450
420 450
410 460
400 460
390 460
380 460
370 460
360 460
350 465
340 465
330 465
320 465
310 462
300 460
290 460
280 460
270 460
260 460
250 458
243 450
233 450
223 450
214 445
204 445
194 441
186 435
177 430
167 430
157 430
153 420
144 415
134 411
126 405
117 400
114 390
104 387
99 378
90 373
84 365
83 355
74 350
72 340
69 330
65 320
59 312
