184 432
184 422
192 414
202 409
212 409
222 409
232 409
241 414
250 419
260 419
270 419
279 414
289 414
298 409
308 409
317 404
327 404
336 399
346 399
355 394
365 391
375 389
385 386
395 384
405 381
415 379
425 376
435 374
444 367
452 359
469 342
479 339
489 341
499 344
505 352
510 362
504 370
494 370
485 375
475 375
480 384
489 389
499 389
509 391
512 404
503 410
494 415
484 415
474 415
465 410
456 405
446 405
436 405
427 410
417 410
407 414
397 415
387 415
378 420
368 423
358 425
348 428
338 430
328 433
318 435
309 440
299 440
290 445
280 445
270 450
263 458
255 465
250 475
242 484
234 490
224 492
214 490
204 490
195 485
189 477
199 464
209 464
219 457
223 440
214 435
204 435
194 435
