124 167
124 157
132 149
142 149
152 149
159 157
164 166
168 176
173 185
180 193
185 202
189 212
197 219
200 229
208 235
212 245
217 254
224 262
230 270
232 280
240 287
247 295
250 305
255 314
263 320
267 330
272 339
279 347
284 356
290 364
299 369
307 375
317 379
327 379
336 384
345 389
345 400
347 410
350 420
350 430
350 440
347 454
339 447
330 442
320 440
310 440
315 449
323 455
320 465
324 482
314 485
305 480
295 477
287 470
280 462
274 454
274 444
274 434
271 424
269 414
269 404
267 394
262 385
255 377
249 369
246 359
239 351
234 342
227 334
222 325
219 315
209 312
209 302
202 294
197 285
190 277
184 269
182 259
174 252
167 244
162 235
159 225
151 219
147 209
142 200
139 190
129 186
124 177
