209 137
209 127
214 112
224 114
230 122
230 132
235 141
245 144
254 149
264 149
270 141
279 135
275 125
269 117
269 107
269 97
279 94
285 102
292 110
302 114
305 124
310 133
310 143
310 153
305 165
299 175
290 180
285 190
280 205
280 215
280 225
280 235
282 245
285 255
285 265
285 275
285 285
285 295
285 305
290 314
290 324
290 334
290 344
290 354
295 363
295 373
295 383
295 393
303 400
307 410
310 420
318 426
325 434
325 444
330 453
330 463
330 473
325 490
315 490
309 482
309 472
305 462
295 460
285 460
285 470
287 480
287 494
277 495
269 489
264 480
260 470
254 462
254 452
254 442
264 432
264 422
269 413
269 403
265 393
264 383
264 373
264 363
257 355
254 345
254 335
254 325
252 315
249 305
249 295
249 285
249 275
249 265
249 255
247 245
244 235
244 225
244 215
243 205
234 200
233 190
225 183
219 175
214 166
214 156
209 147
