84 427
84 417
92 409
102 404
111 399
121 395
129 389
138 384
147 379
157 379
165 371
175 366
185 361
195 356
205 351
213 344
222 339
232 334
242 329
250 321
260 316
270 314
279 307
289 302
297 294
307 294
315 286
323 279
330 271
338 264
342 254
349 242
357 234
367 234
376 229
386 229
395 234
405 234
409 252
399 255
389 255
380 260
380 270
388 276
398 280
408 284
417 279
425 285
420 295
415 305
409 315
400 320
390 320
387 330
378 325
368 325
359 320
349 320
339 320
329 322
319 327
309 332
299 335
290 340
280 345
270 350
260 360
250 360
240 370
230 375
220 380
210 385
203 393
193 398
183 400
174 405
165 410
156 415
147 420
137 424
127 429
119 435
110 440
100 440
92 434
