164 162
164 152
174 151
183 156
185 166
191 174
200 179
210 176
218 169
221 159
217 149
209 142
209 132
219 129
227 135
237 139
246 144
254 151
258 161
263 170
265 180
263 193
255 200
250 210
250 220
250 230
255 239
260 248
260 258
265 267
269 277
270 287
274 297
275 307
282 315
285 325
290 334
290 344
290 354
298 360
300 370
305 379
310 388
310 398
320 402
327 410
332 419
342 419
349 427
359 431
365 439
370 448
367 459
357 459
349 452
345 442
335 440
335 450
340 459
345 468
339 477
329 480
319 482
309 480
299 477
292 469
284 462
279 453
274 444
269 435
269 425
264 416
259 407
255 397
249 389
249 379
244 370
243 360
235 353
234 343
229 334
229 324
224 315
222 305
219 295
214 286
214 276
209 267
209 257
209 247
204 238
198 230
190 223
184 215
176 209
169 201
164 192
164 182
164 172
