1104 872
1104 862
1112 854
1120 846
1128 839
1137 834
1147 834
1157 834
1167 834
1176 829
1186 829
1196 829
1206 829
1216 829
1226 829
1236 829
1245 824
1255 824
1265 824
1274 819
1284 819
1294 819
1304 819
1314 819
1324 819
1334 819
1344 819
1353 814
1354 802
1359 792
1367 784
1369 767
1369 757
1374 747
1382 739
1391 734
1401 734
1411 734
1421 734
1431 734
1441 734
1451 734
1460 739
1470 739
1480 739
1490 739
1500 739
1508 745
1515 753
1515 763
1515 773
1515 783
1515 793
1520 802
1527 810
1530 820
1540 824
1548 830
1555 838
1560 847
1567 855
1577 859
1587 859
1597 859
1607 859
1617 859
1626 864
1634 871
1635 881
1635 891
1641 899
1649 906
1650 916
1645 930
1640 940
1633 953
1625 960
1615 960
1605 960
1605 970
1607 980
1605 995
1601 1005
1592 1010
1583 1015
1573 1015
1563 1015
1553 1015
1545 1008
1539 1000
1539 990
1539 980
1529 980
1519 980
1509 980
1500 985
1491 995
1482 1000
1472 999
1462 995
1453 990
1443 993
1435 1000
1430 1010
1420 1015
1410 1020
1400 1020
1391 1025
1382 1020
1372 1020
1362 1020
1352 1020
1343 1015
1334 1010
1324 1007
1315 1002
1305 1000
1295 1000
1285 1000
1275 1000
1265 1000
1255 1000
1247 1009
1237 1014
1227 1015
1217 1019
1207 1020
1197 1020
1187 1024
1177 1029
1167 1030
1157 1029
1147 1025
1140 1017
1135 1008
1129 1000
1124 991
1124 981
1119 972
1119 962
1119 952
1119 942
1127 934
1136 929
1146 929
1156 929
1166 929
1176 929
1179 910
1170 905
1160 905
1150 905
1140 905
1130 905
1120 905
1112 899
1104 892
1104 882
