144 562
144 552
149 537
149 527
154 512
159 502
164 492
172 484
177 474
187 469
197 464
207 464
217 459
227 459
237 454
247 454
257 449
267 449
277 449
286 444
296 444
306 440
316 439
326 439
336 435
346 434
356 434
366 430
376 429
386 429
396 425
406 424
416 424
426 424
436 420
446 419
456 419
466 419
475 414
485 414
495 414
505 414
514 409
524 409
534 409
544 409
554 409
563 404
573 404
583 404
593 404
603 404
613 404
623 404
633 404
643 404
653 404
663 404
672 399
682 399
692 399
702 399
711 394
721 394
731 390
741 389
751 389
761 385
771 384
781 384
791 380
801 379
811 379
821 379
831 375
841 374
851 374
861 374
871 374
881 370
891 369
901 369
911 369
921 369
931 369
941 369
951 365
961 364
971 364
981 364
991 364
1001 364
1011 364
1021 364
1031 364
1041 364
1051 364
1061 364
1071 364
1081 364
1091 364
1101 364
1111 364
1120 369
1130 369
1140 369
1150 369
1160 369
1170 369
1179 374
1189 374
1199 374
1208 379
1218 379
1228 380
1238 384
1248 384
1257 379
1267 379
1277 379
1286 384
1294 391
1304 394
1313 389
1320 381
1328 374
1332 364
1340 356
1348 349
1357 344
1365 336
1373 329
1382 324
1392 319
1402 314
1411 309
1421 309
1430 304
1440 304
1450 304
1460 304
1470 304
1480 304
1490 304
1500 304
1510 307
1520 309
1529 314
1538 319
1547 324
1556 329
1565 334
1574 339
1582 345
1590 352
1594 362
1602 369
1609 377
1619 379
1629 377
1639 372
1649 369
1658 364
1668 364
1678 364
1688 365
1698 369
1708 369
1718 369
1728 369
1737 364
1747 364
1757 364
1767 364
1776 359
1786 359
1796 359
1806 359
1815 354
1825 354
1835 354
1845 354
1855 354
1865 354
1875 351
1885 349
1895 349
1905 349
1915 349
1925 349
1935 349
1945 349
1955 349
1965 349
1975 349
1985 349
1995 349
2005 346
2015 344
2025 344
2035 344
2045 344
2054 349
2064 349
2074 349
2084 349
2094 349
2104 349
2113 344
2123 344
2132 339
2142 339
2152 339
2162 339
2172 339
2182 339
2192 339
2202 339
2212 339
2222 339
2231 344
2241 344
2250 349
2259 354
2267 360
2277 364
2287 364
2297 364
2307 364
2316 369
2326 369
2336 369
2346 369
2356 369
2366 365
2376 364
2386 360
2396 359
2406 355
2416 350
2426 349
2436 345
2446 344
2456 344
2466 344
2475 349
2484 354
2492 360
2500 367
2507 375
2512 384
2515 394
2520 403
2525 412
2529 422
2530 432
2534 442
2535 452
2540 461
2540 471
2540 481
2540 491
2540 501
2540 511
2540 521
2540 531
2535 545
2533 563
2528 573
2523 583
2515 590
2508 598
2500 605
2491 610
2481 610
2471 610
2461 610
2451 610
2441 610
2431 608
2421 605
2411 605
2401 605
2391 604
2384 596
2376 590
2367 585
2357 585
2347 585
2338 590
2328 590
2318 590
2308 590
2298 590
2288 590
2278 590
2268 590
2259 595
2250 600
2241 605
2231 605
2221 605
2211 605
2201 605
2191 605
2181 605
2172 610
2162 610
2152 610
2142 610
2132 610
2123 605
2114 600
2104 600
2094 600
2084 600
2074 600
2064 600
2054 600
2044 600
2034 600
2024 600
2014 600
2004 600
1994 600
1984 600
1974 600
1964 600
1954 600
1944 600
1934 600
1925 605
1915 605
1905 605
1895 605
1885 605
1875 605
1865 605
1855 605
1845 605
1835 610
1825 610
1815 610
1805 610
1795 610
1785 610
1775 610
1765 610
1755 610
1745 610
1735 610
1725 610
1716 615
1706 615
1697 620
1687 620
1677 620
1667 620
1657 620
1648 615
1639 610
1630 605
1620 610
1615 620
1608 628
1600 635
1593 643
1588 653
1580 660
1570 665
1560 670
1550 675
1540 680
1530 685
1523 693
1513 695
1504 700
1495 705
1486 710
1477 715
1467 715
1460 707
1452 700
1442 700
1432 699
1422 695
1412 694
1402 690
1393 685
1384 680
1375 675
1366 670
1357 665
1350 657
1342 650
1335 642
1327 635
1323 625
1314 620
1305 625
1297 634
1287 639
1277 640
1267 640
1257 639
1247 635
1238 630
1228 630
1218 630
1208 630
1198 630
1188 633
1178 635
1168 635
1158 635
1148 635
1138 635
1128 635
1118 635
1108 635
1099 640
1089 640
1079 640
1069 640
1059 640
1049 640
1040 645
1030 645
1020 645
1010 645
1000 645
990 645
980 645
970 645
960 645
950 645
940 645
930 645
920 645
911 650
901 650
891 650
881 650
871 650
861 650
851 650
841 650
831 650
821 650
812 655
802 655
792 655
782 655
772 655
762 655
752 655
742 655
732 655
722 655
712 655
703 660
693 660
683 660
673 660
663 660
653 660
643 660
633 660
623 660
613 663
603 665
593 665
583 665
573 665
563 665
554 670
544 670
534 670
524 670
514 670
504 670
494 670
484 670
474 670
464 670
454 670
444 670
434 670
424 670
415 675
405 675
395 675
385 675
375 675
365 675
355 675
345 675
335 675
325 675
315 675
305 675
295 675
285 675
275 675
265 675
255 675
245 675
235 675
225 675
215 675
205 675
196 670
186 669
177 664
172 655
165 647
159 639
154 630
154 620
149 611
149 601
144 592
144 582
144 572
