119 352
119 342
124 332
132 324
141 319
151 319
161 319
171 319
180 314
190 317
200 319
210 319
220 319
230 319
240 319
249 324
259 322
269 319
279 321
289 324
299 324
308 329
318 329
327 324
337 324
347 319
356 324
366 324
375 329
385 329
395 329
405 332
415 334
425 334
435 334
445 334
455 334
465 334
475 334
485 334
495 334
505 334
515 334
525 334
535 334
545 334
555 334
565 334
575 334
585 334
595 334
605 334
615 334
625 334
635 331
645 329
655 329
665 329
675 329
685 329
695 329
704 324
714 326
724 329
734 329
743 324
753 324
763 324
772 329
782 329
792 329
801 324
811 324
821 324
831 324
841 324
851 324
861 324
871 324
880 319
890 319
900 319
910 319
920 319
930 319
940 319
949 314
959 314
969 314
979 314
989 314
999 312
1009 309
1019 309
1029 309
1039 309
1048 304
1058 304
1068 304
1077 299
1087 299
1097 294
1107 294
1117 294
1127 289
1137 289
1147 289
1156 284
1166 284
1175 279
1185 279
1195 279
1204 274
1213 269
1222 264
1231 259
1240 254
1249 249
1259 247
1269 242
1279 237
1289 232
1297 224
1307 219
1315 211
1323 204
1332 199
1342 199
1351 194
1361 194
1371 190
1381 189
1391 189
1401 189
1411 189
1421 189
1431 189
1441 189
1451 189
1460 194
1470 194
1480 194
1489 199
1498 204
1508 205
1518 209
1527 214
1536 219
1545 224
1555 227
1564 232
1574 236
1580 244
1588 250
1595 258
1605 262
1614 267
1624 269
1634 271
1644 274
1654 274
1664 274
1674 274
1684 274
1694 276
1704 279
1713 274
1722 279
1732 279
1741 284
1751 284
1760 279
1770 279
1779 284
1789 284
1799 284
1809 284
1819 284
1829 286
1839 284
1849 284
1858 279
1867 284
1877 284
1887 284
1897 284
1907 284
1916 289
1926 289
1936 285
1946 284
1956 284
1966 284
1976 284
1986 284
1996 284
2006 284
2016 284
2026 280
2036 279
2045 284
2055 284
2064 279
2074 279
2084 279
2094 279
2104 279
2114 279
2124 279
2134 279
2144 279
2154 279
2163 274
2173 274
2182 279
2192 279
2202 279
2212 279
2219 287
2225 295
2225 305
2225 315
2225 325
2225 335
2225 345
2225 355
2225 365
2225 375
2225 385
2225 395
2225 405
2227 415
2230 425
2230 435
2230 445
2230 455
2235 464
2235 474
2235 484
2240 493
2240 503
2238 518
2233 528
2223 533
2213 535
2203 538
2193 540
2183 540
2173 540
2164 535
2154 535
2144 537
2134 540
2125 545
2115 545
2105 545
2095 545
2085 545
2075 545
2065 545
2055 545
2045 545
2035 545
2025 545
2015 545
2006 550
1996 550
1986 550
1976 550
1966 550
1956 550
1947 555
1937 555
1927 555
1917 555
1907 555
1897 559
1887 560
1877 560
1867 560
1857 560
1848 565
1838 565
1828 565
1818 565
1808 565
1798 565
1788 565
1779 570
1769 570
1759 570
1749 570
1740 575
1730 575
1720 575
1711 570
1701 570
1691 570
1682 575
1672 575
1662 579
1652 584
1644 590
1638 598
1630 605
1625 615
1618 623
1608 628
1600 635
1593 643
1583 648
1575 655
1567 664
1557 669
1547 674
1539 680
1530 685
1520 685
1510 690
1501 695
1491 695
1482 700
1473 705
1464 710
1455 715
1445 725
1438 733
1428 735
1418 735
1408 735
1399 730
1389 726
1381 720
1372 715
1363 710
1354 705
1344 705
1334 702
1325 697
1315 695
1306 690
1297 685
1288 680
1279 675
1269 672
1260 667
1252 660
1243 655
1235 648
1229 640
1221 634
1214 626
1206 620
1197 615
1190 607
1182 600
1175 592
1165 590
1155 590
1145 590
1135 590
1125 590
1115 590
1105 590
1095 590
1085 590
1075 590
1065 590
1055 590
1045 590
1036 595
1026 595
1016 595
1006 595
996 595
986 595
976 595
966 595
957 600
947 600
937 604
927 605
917 605
907 605
897 605
887 605
877 609
867 614
857 619
847 620
837 620
827 620
817 620
807 620
797 620
788 615
779 610
769 610
759 610
749 610
739 610
729 610
719 610
709 610
699 610
689 610
679 610
669 610
659 610
649 610
639 610
629 610
620 605
610 605
600 605
590 605
580 605
571 610
562 605
552 605
543 600
533 600
524 595
514 595
505 600
495 600
485 602
475 600
466 595
456 595
446 595
436 595
426 595
416 595
406 595
396 595
387 590
377 590
367 590
357 590
347 589
337 585
328 580
318 580
308 580
299 575
289 575
279 575
269 575
259 575
249 575
239 575
229 577
219 580
210 575
200 575
190 575
180 575
171 580
162 575
152 575
143 570
135 563
129 555
124 546
119 537
119 527
119 517
124 501
124 491
124 481
124 471
124 461
124 451
124 441
124 431
124 421
124 411
124 401
124 391
124 381
124 371
119 362
