224 357
224 367
224 377
224 387
219 397
224 406
224 416
224 426
224 436
229 445
229 455
229 465
232 475
234 485
240 493
248 500
258 500
268 500
278 500
288 500
298 500
308 500
318 500
327 505
337 505
347 505
357 505
366 500
376 500
386 500
396 500
406 500
416 500
426 500
436 500
446 500
456 500
466 500
476 500
486 500
495 505
505 505
515 505
524 500
534 500
544 500
554 500
564 500
574 500
583 505
593 505
603 505
613 505
623 503
633 500
643 500
653 500
663 500
672 505
682 505
692 505
702 505
712 505
722 505
732 505
742 505
752 505
762 505
772 505
782 505
792 505
801 500
811 500
820 505
830 500
840 500
850 500
860 500
870 500
879 505
885 513
893 520
900 528
905 537
909 547
917 554
924 562
932 569
936 579
946 583
950 593
958 600
967 605
975 612
982 620
991 625
1000 630
1010 630
1020 630
1030 630
1040 632
1050 635
1059 640
1069 640
1079 640
1089 640
1099 640
1109 640
1119 640
1129 640
1139 640
1149 640
1159 640
1169 640
1179 640
1189 640
1198 645
1208 645
1218 645
1228 643
1238 638
1248 633
1258 630
1268 628
1278 625
1287 620
1296 615
1305 610
1315 605
1325 605
1334 600
1342 594
1350 585
1359 580
1369 577
1377 569
1385 560
1394 555
1402 549
1412 545
1421 540
1431 543
1441 545
1451 545
1461 545
1471 545
1481 545
1490 540
1500 540
1510 540
1520 540
1530 542
1540 545
1550 545
1560 545
1570 545
1579 540
1589 540
1598 545
1608 543
1618 540
1628 540
1638 540
1647 545
1657 545
1667 545
1677 545
1687 545
1697 545
1707 544
1717 540
1727 540
1736 545
1746 545
1756 545
1766 545
1775 540
1785 540
1794 545
1804 545
1813 540
1823 540
1833 540
1842 545
1852 545
1862 545
1872 545
1882 545
1892 545
1902 545
1912 545
1922 545
1932 545
1942 549
1952 549
1962 545
1972 545
1982 545
1992 545
2002 545
2012 549
2022 550
2032 550
2042 550
2052 549
2062 545
2072 545
2082 545
2092 545
2102 549
2112 550
2122 550
2132 549
2142 545
2152 545
2162 545
2172 549
2182 550
2192 550
2202 550
2212 554
2222 555
2232 555
2241 550
2251 550
2261 550
2271 550
2281 550
2291 550
2300 545
2308 538
2313 528
2312 510
2310 500
2310 490
2310 480
2310 470
2315 455
2315 445
2315 435
2315 425
2315 415
2315 405
2315 395
2315 385
2312 375
2310 365
2310 355
2310 345
2310 335
2315 322
2314 312
2310 302
2300 299
2291 294
2281 294
2271 294
2261 294
2251 294
2242 289
2232 289
2222 289
2212 289
2202 289
2192 289
2183 294
2173 294
2163 290
2153 289
2143 289
2134 294
2124 294
2115 299
2105 299
2095 299
2086 294
2076 294
2066 294
2056 294
2047 289
2037 289
2027 289
2018 294
2008 294
1998 294
1988 294
1978 294
1968 290
1958 289
1948 289
1938 289
1929 294
1919 294
1909 294
1899 294
1889 294
1879 294
1869 294
1859 294
1849 291
1839 289
1830 294
1820 294
1810 294
1800 294
1790 294
1780 294
1770 294
1761 289
1751 289
1741 289
1731 289
1722 294
1712 294
1703 289
1693 289
1683 289
1673 289
1663 289
1653 289
1643 289
1634 294
1624 294
1614 294
1604 294
1594 294
1585 289
1575 289
1565 289
1555 289
1545 289
1535 291
1525 294
1515 294
1505 294
1495 292
1485 289
1475 289
1465 289
1455 289
1445 289
1436 284
1427 279
1418 274
1410 268
1403 260
1395 254
1391 244
1382 239
1374 232
1367 224
1358 219
1348 219
1340 213
1333 205
1325 199
1316 194
1306 194
1296 194
1286 194
1277 189
1267 185
1259 179
1249 176
1239 174
1230 169
1220 169
1214 161
1209 152
1200 147
1190 144
1180 144
1170 146
1162 154
1154 162
1146 169
1136 170
1126 174
1116 174
1106 175
1096 179
1087 184
1077 184
1067 189
1058 194
1048 194
1039 199
1029 202
1021 209
1012 214
1003 219
994 224
986 230
981 240
971 244
962 249
954 257
948 269
939 274
929 274
919 274
909 272
900 267
890 264
880 264
870 264
860 264
851 269
841 269
832 264
822 264
812 264
803 259
793 259
783 259
773 259
763 259
753 259
744 264
734 264
725 269
715 269
706 264
696 264
686 265
676 269
666 269
656 269
646 269
637 264
627 264
617 264
608 269
598 269
588 269
578 269
568 269
558 269
548 269
539 264
529 264
519 264
509 264
499 264
490 269
480 271
470 274
460 274
450 274
440 272
430 269
420 269
410 269
400 269
390 269
381 264
371 264
361 264
352 259
342 259
333 264
323 264
313 264
304 269
294 272
284 274
274 274
264 274
254 274
244 277
239 287
239 297
239 307
239 317
234 327
229 337
229 347
