1133 2009
1133 1999
1134 1984
1136 1972
1138 1959
1140 1948
1143 1937
1147 1926
1152 1916
1157 1905
1162 1896
1168 1887
1174 1879
1180 1871
1188 1863
1196 1855
1204 1848
1212 1840
1220 1833
1228 1826
1236 1819
1244 1813
1252 1807
1260 1801
1269 1795
1278 1789
1287 1783
1296 1777
1305 1772
1314 1766
1323 1761
1332 1756
1341 1751
1350 1745
1360 1741
1369 1736
1379 1732
1389 1729
1399 1724
1409 1721
1419 1718
1429 1714
1439 1712
1449 1709
1459 1707
1469 1705
1479 1703
1489 1700
1499 1698
1509 1696
1519 1695
1529 1694
1539 1692
1549 1691
1559 1690
1569 1688
1579 1688
1589 1687
1599 1686
1609 1684
1619 1683
1629 1683
1639 1681
1649 1680
1659 1677
1669 1676
1679 1674
1689 1670
1699 1667
1708 1662
1717 1656
1726 1651
1735 1646
1744 1640
1752 1634
1761 1628
1769 1622
1777 1615
1785 1609
1793 1603
1801 1597
1809 1591
1817 1585
1825 1579
1833 1572
1841 1566
1849 1559
1857 1553
1865 1547
1873 1541
1881 1535
1889 1528
1897 1522
1905 1515
1913 1509
1921 1503
1929 1497
1938 1491
1946 1485
1954 1478
1962 1471
1971 1465
1979 1458
1987 1452
1995 1446
2003 1440
2011 1434
2019 1427
2028 1421
2036 1415
2044 1409
2052 1403
2060 1397
2068 1391
2076 1385
2084 1378
2092 1372
2100 1366
2108 1360
2116 1354
2124 1348
2132 1342
2140 1336
2148 1330
2156 1324
2164 1317
2172 1311
2181 1305
2189 1298
2198 1292
2207 1286
2215 1280
2223 1274
2231 1268
2239 1262
2247 1256
2255 1250
2263 1244
2271 1238
2279 1232
2287 1226
2295 1220
2303 1214
2311 1208
2319 1202
2327 1195
2335 1189
2344 1183
2352 1177
2360 1171
2368 1165
2376 1159
2384 1153
2392 1146
2400 1140
2408 1134
2416 1128
2425 1122
2433 1116
2441 1110
2449 1104
2458 1098
2466 1091
2474 1085
2482 1079
2490 1073
2498 1067
2507 1061
2515 1055
2523 1048
2531 1042
2540 1036
2548 1030
2556 1024
2564 1018
2572 1012
2581 1007
2589 1000
2597 994
2605 988
2613 982
2622 976
2630 970
2638 964
2646 957
2654 951
2663 945
2671 939
2679 933
2687 927
2695 921
2704 915
2712 909
2721 903
2729 897
2737 891
2745 885
2753 879
2761 873
2770 867
2778 861
2787 855
2795 849
2804 843
2812 837
2820 831
2829 825
2838 819
2846 813
2854 807
2862 801
2870 795
2878 789
2886 783
2894 777
2902 771
2910 765
2918 759
2927 753
2935 747
2943 740
2951 734
2959 728
2967 722
2975 716
2984 710
2992 704
3000 698
3008 692
3016 686
3024 680
3032 674
3040 668
3048 662
3057 656
3065 650
3073 644
3081 638
3089 632
3097 626
3105 620
3114 614
3122 608
3130 602
3138 596
3147 590
3155 584
3163 578
3171 572
3179 566
3187 559
3196 553
3204 547
3212 541
3220 535
3228 529
3237 523
3245 517
3253 511
3261 505
3269 499
3277 493
3286 487
3294 481
3302 475
3310 469
3318 462
3326 456
3335 450
3344 444
3352 438
3360 432
3369 426
3378 420
3386 414
3395 408
3403 402
3411 395
3420 390
3428 383
3436 377
3445 372
3453 365
3461 359
3469 353
3478 347
3486 341
3494 335
3502 329
3510 323
3519 317
3527 311
3536 305
3544 299
3552 293
3560 287
3570 283
3580 283
3590 285
3599 290
3609 294
3619 296
3625 304
3625 314
3626 324
3627 334
3623 350
3615 358
3607 365
3598 371
3589 377
3580 383
3572 390
3564 397
3555 402
3547 408
3539 414
3530 420
3521 426
3513 433
3505 441
3496 447
3487 452
3479 459
3471 465
3462 470
3454 476
3446 482
3438 488
3429 494
3420 500
3412 507
3404 514
3395 520
3386 525
3378 531
3370 537
3362 543
3354 549
3346 555
3338 561
3329 567
3320 572
3312 578
3304 584
3296 590
3288 596
3279 602
3271 608
3262 614
3253 620
3245 627
3236 633
3227 639
3219 645
3211 651
3203 657
3194 663
3186 669
3178 675
3169 681
3161 687
3152 692
3144 699
3136 705
3127 710
3118 716
3110 722
3101 728
3093 735
3084 740
3075 746
3067 752
3059 759
3051 766
3043 773
3035 779
3026 784
3018 790
3009 796
3000 802
2992 808
2984 814
2975 819
2967 825
2959 831
2951 837
2943 843
2935 850
2926 856
2918 863
2909 869
2901 875
2892 881
2884 887
2876 893
2868 900
2860 907
2851 912
2843 918
2834 923
2826 929
2818 936
2810 942
2802 948
2793 954
2783 959
2775 965
2767 972
2759 978
2751 984
2742 990
2734 996
2725 1002
2717 1008
2709 1015
2701 1022
2692 1028
2684 1034
2675 1040
2667 1047
2658 1053
2650 1059
2642 1065
2633 1070
2625 1076
2617 1083
2609 1089
2601 1095
2593 1101
2584 1107
2575 1113
2567 1119
2559 1125
2551 1131
2543 1137
2535 1143
2526 1148
2518 1154
2510 1160
2502 1166
2493 1172
2485 1178
2477 1185
2469 1191
2461 1197
2452 1203
2444 1210
2436 1216
2428 1222
2420 1228
2411 1234
2403 1240
2395 1246
2386 1252
2378 1258
2370 1265
2361 1271
2353 1277
2345 1283
2337 1289
2329 1295
2321 1301
2312 1307
2304 1313
2296 1319
2288 1325
2280 1331
2272 1338
2263 1344
2255 1350
2247 1357
2239 1363
2231 1369
2223 1375
2215 1381
2207 1387
2198 1393
2189 1399
2181 1406
2173 1413
2165 1419
2157 1426
2149 1432
2141 1438
2132 1444
2124 1450
2116 1456
2108 1463
2100 1469
2091 1475
2083 1481
2075 1489
2067 1495
2059 1501
2051 1508
2043 1514
2035 1520
2027 1526
2019 1532
2010 1538
2002 1544
1993 1550
1985 1556
1977 1564
1969 1570
1961 1576
1953 1583
1945 1589
1937 1595
1929 1601
1921 1608
1913 1614
1905 1620
1897 1626
1889 1633
1881 1640
1873 1646
1865 1653
1857 1660
1849 1666
1840 1671
1832 1677
1824 1684
1816 1690
1808 1696
1800 1703
1792 1711
1784 1717
1776 1725
1769 1733
1763 1742
1755 1750
1749 1758
1744 1769
1738 1777
1733 1786
1727 1795
1722 1805
1717 1817
1714 1827
1708 1837
1703 1846
1699 1856
1695 1867
1691 1877
1687 1888
1682 1897
1677 1906
1673 1917
1668 1927
1663 1938
1658 1947
1653 1957
1648 1966
1642 1976
1636 1985
1630 1994
1623 2003
1617 2012
1610 2020
1604 2028
1597 2036
1590 2044
1582 2052
1574 2060
1566 2067
1558 2074
1550 2081
1542 2088
1534 2095
1526 2101
1518 2107
1510 2113
1502 2119
1494 2125
1485 2131
1476 2137
1468 2143
1460 2149
1451 2154
1442 2160
1433 2165
1424 2170
1415 2175
1406 2180
1396 2184
1387 2189
1377 2193
1367 2196
1357 2199
1347 2201
1337 2203
1327 2204
1317 2205
1307 2205
1297 2203
1287 2202
1277 2200
1267 2197
1257 2194
1247 2190
1238 2185
1229 2180
1220 2175
1212 2169
1204 2163
1197 2155
1189 2148
1181 2141
1175 2133
1168 2125
1163 2116
1157 2108
1152 2099
1148 2089
1145 2079
1141 2069
1138 2059
1137 2049
1135 2039
1134 2029
1133 2019
