222 337
221 352
224 362
227 372
230 382
232 392
234 402
238 417
242 430
245 440
253 446
257 456
262 465
268 473
276 479
281 489
286 503
296 506
300 516
308 523
316 530
324 537
330 545
340 548
342 558
352 562
360 568
366 576
375 581
383 587
391 593
401 593
409 600
419 604
424 613
432 619
442 620
452 621
456 631
466 633
476 632
486 636
490 646
500 648
510 650
519 655
529 655
539 657
549 659
559 661
565 669
575 666
585 666
592 674
602 677
612 678
622 681
632 683
642 686
651 691
661 693
671 697
681 701
691 703
701 707
711 710
718 718
727 723
736 728
746 732
756 736
765 741
771 749
781 750
789 756
795 764
805 768
810 777
819 782
828 787
836 794
846 797
851 806
859 813
868 818
878 820
878 830
886 836
893 844
901 850
909 857
916 865
924 871
934 874
942 880
950 886
956 894
962 902
971 907
976 916
986 916
991 925
997 933
1006 938
1012 946
1021 951
1027 959
1036 964
1044 970
1052 976
1060 982
1065 991
1074 996
1082 1002
1092 1004
1096 1014
1104 1021
1113 1026
1123 1030
1128 1039
1134 1047
1140 1055
1149 1060
1158 1065
1167 1070
1173 1078
1180 1086
1190 1089
1198 1096
1204 1104
1212 1111
1220 1118
1228 1125
1236 1131
1245 1136
1253 1142
1258 1151
1266 1158
1276 1160
1281 1169
1291 1169
1297 1177
1302 1186
1310 1192
1320 1196
1328 1202
1336 1208
1341 1217
1350 1222
1358 1229
1366 1236
1374 1242
1384 1246
1389 1255
1397 1262
1405 1269
1412 1277
1421 1282
1429 1289
1437 1296
1445 1303
1454 1308
1461 1316
1470 1321
1475 1330
1484 1335
1494 1338
1502 1345
1510 1352
1518 1358
1525 1366
1533 1372
1541 1378
1549 1385
1558 1390
1566 1396
1575 1401
1585 1400
1595 1399
1605 1402
1612 1394
1620 1387
1623 1376
1623 1364
1622 1354
1617 1345
1609 1339
1601 1333
1594 1325
1586 1319
1578 1312
1570 1306
1562 1299
1554 1293
1546 1286
1538 1280
1530 1273
1522 1267
1514 1260
1506 1253
1498 1247
1490 1241
1482 1235
1473 1230
1467 1222
1459 1216
1451 1209
1443 1202
1435 1196
1427 1190
1419 1183
1411 1177
1403 1171
1396 1163
1387 1158
1379 1152
1372 1144
1364 1138
1356 1131
1348 1125
1340 1118
1332 1111
1324 1104
1316 1098
1308 1092
1300 1085
1292 1078
1284 1072
1276 1066
1268 1059
1260 1053
1252 1046
1244 1039
1236 1032
1228 1026
1220 1019
1212 1013
1204 1006
1196 999
1188 992
1180 986
1172 979
1164 972
1156 966
1148 959
1140 952
1132 945
1123 940
1117 932
1109 926
1101 919
1093 912
1085 905
1077 899
1069 892
1061 885
1053 879
1045 872
1037 866
1029 859
1021 852
1013 845
1005 838
997 832
989 826
981 819
973 813
966 805
957 800
950 792
942 785
934 779
926 773
918 766
911 758
902 753
894 747
886 741
879 733
871 727
863 720
855 714
847 707
839 700
831 694
825 686
817 680
810 672
804 664
796 657
791 648
785 640
779 632
774 623
769 614
764 605
758 597
753 588
748 579
742 571
738 561
733 552
728 543
723 534
718 525
714 515
709 506
705 496
700 487
695 478
691 468
685 460
680 451
676 441
670 433
666 423
660 415
654 407
650 397
643 389
637 381
630 373
625 364
617 358
611 350
605 342
597 336
591 328
583 321
575 315
567 308
559 301
553 293
543 291
537 283
529 277
521 271
513 265
504 260
496 254
487 249
478 244
468 241
459 236
449 232
439 229
430 224
420 222
410 219
400 217
390 215
380 214
370 213
360 212
350 212
340 212
330 212
320 213
310 216
300 217
290 222
280 227
272 233
264 240
256 247
250 256
244 264
239 274
234 284
230 296
226 309
223 324
