47 206
46 196
48 183
52 172
58 162
65 154
73 147
82 141
92 137
102 132
112 128
122 125
132 123
142 122
152 120
162 119
172 118
182 118
192 117
202 118
212 118
222 119
232 119
242 119
252 120
262 121
272 123
282 125
292 128
302 132
311 137
319 143
326 151
334 158
341 166
349 172
359 175
369 175
379 175
389 175
399 175
409 175
419 174
429 173
439 173
449 173
459 171
469 171
479 170
489 169
499 168
509 167
519 166
529 165
539 164
549 162
559 161
569 160
579 159
589 158
599 157
609 156
619 155
629 153
639 153
649 152
659 152
669 151
679 150
689 149
699 149
709 148
719 148
729 148
739 148
749 147
759 147
769 147
779 148
789 148
799 149
809 149
819 149
829 149
839 149
849 149
859 150
869 150
879 151
889 151
899 152
909 153
919 153
929 154
939 154
949 154
959 156
968 161
978 159
988 158
998 160
1008 163
1013 172
1014 182
1014 197
1012 211
1006 219
998 226
988 228
978 226
968 223
958 227
948 232
938 233
928 234
918 236
908 237
898 237
888 237
878 238
868 239
858 240
848 241
838 242
828 243
818 244
808 245
798 245
788 247
778 247
768 248
758 249
748 250
738 251
728 251
718 251
708 252
698 252
688 253
678 253
668 253
658 253
648 253
638 252
628 252
618 252
608 251
598 251
588 250
578 249
568 249
558 248
548 246
538 245
528 244
518 243
508 242
498 240
488 239
478 238
468 237
458 235
448 234
438 232
428 230
418 229
408 228
398 227
388 225
378 223
368 222
358 222
348 224
340 230
332 238
325 246
317 254
309 262
300 267
291 272
281 276
271 280
261 283
251 286
241 288
231 289
221 291
211 292
201 292
191 293
181 293
171 293
161 292
151 291
141 289
131 288
121 286
111 284
101 281
91 278
81 274
73 268
65 262
59 254
53 246
50 236
48 226
48 216
