69 313
69 303
73 289
77 279
83 270
90 262
97 254
105 247
114 241
124 236
134 232
144 230
154 227
164 226
174 225
184 224
194 223
204 223
214 222
224 221
233 216
243 211
252 206
261 201
270 196
279 190
288 185
297 180
306 174
315 169
324 164
333 159
342 154
352 149
361 143
370 138
379 133
388 128
397 123
406 117
415 112
424 107
433 102
443 97
452 92
460 86
469 81
478 76
487 71
496 66
506 62
516 57
526 55
536 55
546 50
554 43
564 43
570 51
567 61
562 71
556 80
547 86
537 84
527 88
517 92
508 98
498 102
488 107
478 112
469 117
459 121
450 126
440 130
430 135
421 140
412 145
403 150
394 155
384 159
375 165
366 170
358 176
349 181
340 186
331 191
322 197
313 202
304 208
296 214
288 221
280 228
272 234
264 242
258 250
254 260
250 272
245 283
240 293
234 303
228 311
220 320
212 328
204 334
195 340
186 345
176 349
166 354
156 357
146 360
136 362
126 364
118 357
113 348
103 346
93 343
84 338
76 332
71 323
