29 177
34 190
44 190
53 185
63 185
73 185
83 185
92 190
102 194
112 195
122 199
132 200
142 200
151 205
161 208
170 213
180 217
189 222
199 225
205 233
213 240
220 248
225 257
234 262
242 269
249 277
257 284
264 292
272 299
281 304
289 310
298 315
307 320
315 327
324 332
334 335
343 340
352 345
362 349
369 357
374 366
379 375
379 385
373 399
365 406
358 414
350 421
343 429
335 436
327 444
322 454
312 459
303 464
293 464
284 469
272 484
274 495
284 495
294 492
302 485
312 484
320 475
330 470
340 470
350 465
350 454
340 450
348 443
355 435
363 428
370 420
378 413
388 408
390 390
390 380
390 370
390 360
398 353
408 348
418 345
428 345
438 343
448 340
457 335
467 335
477 339
484 347
489 356
494 365
494 375
499 384
501 394
504 404
504 414
509 423
509 433
507 444
498 449
489 454
479 454
469 454
459 454
449 457
455 465
464 470
474 470
484 467
494 465
502 459
514 452
510 466
502 474
502 489
512 484
520 470
525 460
530 445
530 435
532 419
522 415
520 405
515 396
515 386
510 377
510 367
505 358
505 348
498 340
493 331
485 325
493 318
503 315
513 313
523 310
532 305
542 304
552 300
562 299
572 294
580 285
585 275
590 265
589 249
580 244
570 244
565 235
573 228
578 218
580 205
589 200
588 186
580 180
588 173
598 168
595 154
585 154
576 159
567 164
558 169
550 176
545 186
535 191
528 199
519 204
510 209
501 214
491 214
482 209
472 209
463 204
453 200
443 199
433 195
423 194
414 189
404 189
394 189
384 189
374 189
364 189
354 189
344 189
334 189
324 189
314 189
304 189
294 186
284 184
274 184
264 181
254 177
245 172
235 169
226 164
216 164
207 159
197 155
188 150
178 149
168 146
159 141
149 139
140 134
130 132
120 129
110 129
100 131
90 136
82 144
73 149
65 156
57 164
47 164
37 169
