35 75
29 67
39 64
49 62
59 57
69 54
78 49
88 49
95 41
105 39
111 30
121 29
129 22
139 19
149 19
159 19
168 24
177 29
180 39
188 45
195 53
200 62
204 72
209 81
213 91
215 101
215 111
215 121
221 129
225 139
230 148
235 157
235 167
235 177
240 186
243 196
250 204
255 213
260 222
267 230
275 237
282 245
290 252
297 260
302 269
309 277
314 286
320 294
325 303
335 307
339 317
345 325
350 334
355 343
365 347
372 355
380 362
384 372
390 380
395 389
403 395
407 405
415 412
419 422
427 429
430 439
435 448
445 452
449 462
459 466
465 474
473 480
480 488
488 495
495 503
503 510
510 518
520 522
527 530
535 537
544 542
549 551
555 559
565 562
569 572
577 579
584 587
594 589
602 595
607 604
615 610
605 617
595 615
586 610
577 605
567 605
564 595
555 590
547 584
537 580
530 572
522 565
513 560
505 553
498 545
489 540
481 534
474 526
466 520
456 518
446 515
436 513
426 510
416 509
407 504
397 500
388 495
378 495
369 490
359 490
349 490
339 490
330 495
325 505
325 515
330 524
335 533
340 542
345 551
348 561
355 569
355 579
360 588
368 595
370 605
375 614
368 625
358 625
350 618
343 610
335 603
328 595
320 588
314 580
309 571
304 562
295 557
287 550
280 542
274 534
269 525
260 520
250 520
248 533
240 540
235 550
225 560
223 573
215 580
215 590
215 600
225 604
235 604
234 617
224 620
214 620
204 620
194 620
184 620
174 620
164 620
154 620
144 620
135 615
129 607
139 604
149 604
159 604
169 604
179 604
189 604
198 599
204 587
204 577
204 567
214 562
214 552
219 542
224 532
229 522
234 510
229 501
224 492
217 484
212 475
202 475
193 470
184 465
174 462
170 452
162 445
159 435
149 435
141 429
134 421
129 412
124 403
118 395
110 388
104 380
96 374
94 364
91 354
89 344
89 334
84 325
79 316
79 306
74 297
79 282
84 271
79 262
79 252
84 237
89 222
89 212
89 202
89 192
94 177
94 167
99 154
99 144
94 135
94 125
89 116
84 107
77 99
72 90
62 89
52 85
45 77
