79 507
79 497
87 489
95 481
103 474
110 466
120 464
130 467
139 472
147 479
156 484
166 484
175 479
181 470
189 457
194 447
202 439
207 429
212 419
220 411
225 401
230 391
238 384
242 374
247 364
254 352
259 342
267 334
275 326
280 316
285 306
293 299
297 289
302 279
309 267
317 259
322 249
327 239
334 227
339 217
347 209
354 197
359 187
367 179
372 169
379 157
384 147
392 139
394 123
394 113
389 104
384 95
379 86
374 77
374 67
379 57
387 49
395 41
403 34
410 26
420 24
430 24
440 24
450 24
460 24
468 30
475 38
480 47
480 57
485 66
495 69
505 69
515 69
524 74
532 80
540 87
540 97
545 106
550 115
550 125
542 135
532 139
522 140
512 140
503 145
493 145
483 145
474 150
465 155
455 155
445 160
440 170
433 178
428 188
423 198
415 205
408 213
403 223
398 233
390 240
383 253
375 260
370 270
363 283
358 293
350 300
345 310
340 320
333 328
328 338
320 345
313 358
305 365
298 378
290 385
285 395
278 408
273 418
265 425
260 435
255 445
248 453
243 463
235 470
230 480
223 493
215 500
210 510
210 520
212 530
215 540
220 549
220 559
220 569
213 583
205 590
195 595
186 600
177 605
167 604
157 600
148 595
139 590
129 586
129 562
133 550
123 550
113 550
103 550
95 543
89 535
84 526
79 517
