79 502
79 492
87 484
95 476
103 469
112 464
122 459
131 464
139 471
149 474
158 479
168 479
175 471
183 464
187 454
192 444
199 432
207 424
212 414
217 404
224 392
229 382
237 374
244 362
249 352
257 344
265 336
270 326
275 316
283 309
287 299
292 289
299 277
307 269
312 259
317 249
324 237
329 227
337 219
344 207
352 199
357 189
362 179
369 167
374 157
382 149
389 134
389 124
389 114
384 105
382 95
379 85
374 76
377 59
384 47
392 39
400 31
408 24
418 24
428 24
438 24
448 24
458 25
465 33
470 42
475 51
478 61
484 69
494 69
504 69
514 71
524 74
532 80
535 90
537 100
542 109
545 119
550 128
542 144
534 152
529 162
521 170
512 175
503 170
493 170
483 170
474 165
465 160
455 160
445 160
435 165
430 175
423 188
418 198
410 205
405 215
398 223
393 233
385 240
380 250
375 260
368 268
360 275
355 285
350 295
343 303
338 313
333 323
325 330
320 340
315 350
308 358
300 365
295 375
288 388
283 398
275 405
270 415
263 423
258 433
250 440
245 450
240 460
233 468
225 475
220 485
213 498
205 505
210 514
210 524
210 534
215 543
220 552
220 562
218 578
208 583
198 588
190 595
181 600
171 603
161 600
152 595
142 594
132 590
123 585
114 580
104 577
97 569
92 560
89 550
89 540
84 531
84 521
79 512
