274 702
274 692
279 677
279 667
279 657
279 647
284 637
284 627
284 617
284 607
284 597
284 587
284 577
289 562
289 552
289 542
294 532
294 522
294 512
294 502
299 487
299 477
299 467
299 457
299 447
299 437
304 427
304 417
304 407
309 397
309 387
309 377
309 367
309 357
309 347
309 337
314 327
314 317
314 307
319 292
319 282
324 271
319 262
319 252
319 242
324 232
324 222
334 212
342 204
349 188
349 178
340 173
333 165
324 160
324 150
314 146
309 137
309 127
309 117
309 107
309 97
309 87
309 77
319 72
329 67
337 59
347 59
357 59
367 54
377 54
387 54
396 49
406 49
416 49
426 49
435 54
445 54
455 54
464 59
474 59
484 61
490 69
498 75
500 85
500 95
500 105
500 115
500 130
500 140
493 148
485 155
479 165
470 170
460 180
462 190
470 197
474 207
479 216
485 224
493 230
495 240
500 249
500 260
500 270
500 280
500 290
505 299
500 310
500 320
500 330
500 340
500 350
495 365
500 374
500 384
500 394
500 404
500 414
500 424
500 434
500 444
505 453
505 463
505 473
505 483
505 493
505 503
510 512
510 522
510 532
510 542
510 552
510 562
510 572
510 582
510 592
510 602
510 615
510 625
510 635
515 644
515 654
515 664
515 674
515 684
515 694
515 704
520 713
520 723
518 733
510 740
505 750
495 750
487 759
478 765
468 765
458 768
450 775
440 775
430 775
420 775
410 775
400 775
390 775
380 775
370 775
361 770
351 768
341 765
331 764
322 759
312 755
303 750
295 743
289 735
279 731
274 722
274 712
