329 332
329 322
334 312
339 297
339 287
344 277
349 267
354 257
362 249
370 241
375 231
384 222
384 212
389 197
389 187
389 177
389 167
389 157
394 142
394 132
394 122
394 112
394 102
394 92
394 82
402 74
412 74
422 74
432 74
442 74
452 74
462 74
470 80
470 90
472 100
475 110
480 119
480 129
480 139
485 148
480 165
480 175
480 185
480 200
482 210
485 220
487 230
495 237
502 245
507 254
514 262
515 272
522 280
525 290
530 299
535 308
535 318
535 328
535 338
535 348
535 358
535 368
535 378
535 388
540 397
540 407
540 417
540 427
540 437
540 447
540 460
540 470
540 480
542 490
540 500
540 510
540 520
540 530
540 540
540 550
540 560
540 570
540 580
540 590
540 600
540 610
540 620
540 630
540 640
540 650
540 660
540 670
540 680
540 690
540 700
540 710
540 720
540 730
540 740
540 750
540 760
540 770
535 780
529 790
520 795
510 795
500 795
490 795
480 795
470 795
460 795
451 800
441 800
431 800
421 800
411 800
401 800
391 800
381 800
371 800
361 800
352 795
342 795
339 785
339 775
334 766
334 756
334 746
334 736
334 696
334 686
334 676
334 666
334 656
334 632
334 622
334 612
334 602
334 592
334 582
334 572
334 562
334 552
334 542
334 532
334 522
334 512
334 496
334 486
329 477
329 467
329 457
329 447
329 437
329 427
329 417
329 407
329 397
329 387
329 377
329 367
329 357
329 342
