24 467
24 457
29 447
34 437
39 427
44 417
52 409
59 397
69 391
69 381
69 371
69 361
69 351
64 342
64 332
69 322
79 319
89 319
99 319
109 319
119 319
129 319
139 319
149 321
159 324
168 329
177 334
186 339
195 344
203 350
213 354
223 354
233 354
243 354
253 354
262 349
272 349
282 349
292 349
302 349
311 344
321 344
330 339
340 339
350 336
360 331
370 329
380 329
390 329
400 329
409 334
417 340
425 347
432 355
440 362
449 367
459 371
469 374
479 374
488 369
498 369
508 369
517 364
527 364
537 364
544 372
545 382
545 392
550 401
553 411
555 421
555 431
548 443
540 450
533 463
525 470
520 480
515 490
517 500
522 509
525 519
525 529
525 539
518 548
508 550
498 550
488 550
478 550
468 550
458 550
448 550
438 550
429 545
420 540
411 535
402 530
392 530
382 529
372 525
363 520
353 520
343 520
334 525
324 525
314 525
304 525
294 527
284 530
275 535
265 535
255 535
245 535
235 540
226 545
217 550
208 545
198 545
189 540
179 540
170 535
162 529
154 522
145 517
139 509
131 503
121 500
111 500
102 505
92 505
82 505
72 505
62 505
52 505
43 510
34 505
29 496
24 487
24 477
