24 397
24 387
34 382
42 374
50 366
58 359
65 351
73 344
79 327
79 317
79 307
79 297
84 287
94 282
104 279
113 274
123 274
133 274
143 274
153 274
163 274
172 279
180 285
185 294
193 300
202 305
212 309
221 314
231 310
241 309
251 305
261 304
271 300
281 299
291 299
300 294
310 294
319 289
329 289
339 289
349 289
359 289
368 284
378 285
388 289
397 294
405 300
410 309
420 312
429 317
437 324
447 324
457 324
467 324
476 319
486 319
496 319
506 315
516 314
526 314
534 321
538 331
540 341
545 350
545 360
550 369
550 379
548 393
540 400
533 408
525 415
518 423
510 430
505 440
500 450
495 460
495 470
495 480
500 489
495 505
486 510
477 515
468 520
458 520
448 520
440 513
434 505
425 500
416 495
407 490
397 489
387 485
378 480
369 475
359 475
349 475
339 475
329 475
319 475
309 475
300 480
290 480
280 480
270 485
260 485
251 490
241 490
231 490
221 490
211 490
202 495
192 495
182 495
172 495
163 490
154 485
145 480
135 478
128 470
120 463
113 455
104 450
95 445
85 445
75 445
65 445
56 450
46 450
36 454
29 446
24 437
24 427
24 417
24 407
