24 417
24 407
29 397
39 392
44 382
52 374
60 366
65 356
73 349
80 341
84 322
84 312
84 302
84 292
89 282
99 279
109 277
119 274
129 274
139 274
149 274
159 274
167 280
175 287
182 295
190 302
199 307
209 309
219 309
228 304
238 304
248 304
257 299
267 299
277 299
287 294
297 294
307 294
317 294
327 294
336 289
346 289
356 289
366 285
376 289
386 289
396 289
405 294
415 294
424 299
432 305
442 309
451 314
459 321
469 324
479 324
489 324
499 324
509 322
519 319
529 319
537 325
542 334
545 344
550 353
555 362
553 373
545 380
538 388
530 395
523 403
515 410
510 420
510 430
510 440
510 450
515 459
520 468
520 478
513 488
503 493
493 495
483 495
474 500
464 500
455 505
445 503
436 498
426 494
419 486
411 480
402 475
393 470
383 470
373 470
363 470
353 470
343 470
333 470
323 470
313 470
304 475
295 480
285 480
275 480
265 485
255 485
245 490
235 490
226 495
216 495
206 495
197 500
190 492
182 485
175 477
165 473
156 468
146 464
137 459
127 455
117 455
107 455
97 455
87 455
77 455
67 455
57 455
47 455
37 455
34 445
29 436
29 426
