37 99
46 104
56 105
65 100
74 95
84 95
87 105
97 129
99 139
104 148
104 158
104 168
104 178
99 192
94 207
94 217
94 227
94 237
99 246
109 245
119 242
120 230
127 220
125 210
130 200
130 190
135 180
145 180
155 180
165 180
175 180
185 180
195 180
205 180
215 180
225 180
234 185
234 195
239 204
239 214
239 224
239 234
239 244
247 250
257 249
265 240
265 230
273 223
275 204
275 194
270 185
280 185
290 185
299 190
299 200
299 210
299 220
302 230
307 239
311 249
319 255
324 264
332 270
341 275
351 275
361 275
371 275
380 270
385 260
385 250
385 240
390 225
390 215
399 210
409 210
419 210
429 210
439 210
449 210
459 210
469 210
479 210
489 210
499 210
505 218
510 227
517 235
522 244
526 254
536 258
545 263
555 267
562 275
572 274
582 270
591 275
601 273
607 264
612 254
617 244
625 229
625 219
625 209
625 199
625 189
620 180
620 170
615 161
610 152
602 145
595 137
595 127
595 117
594 107
590 97
580 94
571 89
561 89
552 84
542 80
533 75
525 69
525 59
516 54
507 49
497 49
487 49
477 49
469 57
474 66
474 76
474 86
464 97
459 107
454 117
449 127
454 136
447 144
438 149
429 154
420 149
410 148
405 139
405 129
400 120
400 110
397 100
395 90
395 80
395 70
395 60
395 50
392 40
384 34
374 31
364 32
359 42
359 52
359 62
359 72
352 84
343 89
335 96
327 104
319 122
314 137
304 139
294 139
285 144
275 144
265 142
255 142
250 133
250 123
245 114
235 114
225 112
215 109
206 104
196 104
186 104
176 104
167 99
158 94
148 94
139 89
130 84
121 79
112 74
103 69
95 62
85 58
78 50
70 56
62 64
52 69
47 79
39 87
