29 172
29 182
29 192
29 202
34 211
34 221
34 231
39 240
48 245
55 253
65 255
75 255
85 250
95 252
99 262
104 271
109 280
115 288
119 298
119 308
119 318
124 327
129 336
136 344
144 350
150 358
154 368
159 377
167 384
175 390
184 395
189 404
191 414
194 424
199 433
200 443
204 453
204 463
204 473
204 483
204 493
199 502
204 511
204 521
202 534
197 544
187 549
187 564
195 570
205 570
215 570
225 570
233 563
238 553
245 545
250 530
255 519
255 509
255 499
250 490
250 480
250 470
255 460
255 450
260 440
260 430
265 415
265 405
265 395
273 388
283 385
293 385
303 385
313 385
323 385
333 385
343 385
353 385
363 385
373 385
380 393
385 402
389 412
394 421
401 429
409 435
414 444
410 461
405 471
400 481
392 489
382 489
372 494
364 502
369 511
379 515
389 515
399 515
409 515
419 512
424 502
425 490
430 480
435 470
440 460
445 450
450 440
450 430
447 420
445 410
455 412
459 422
464 431
471 439
479 445
485 453
493 460
499 468
494 477
494 487
499 496
494 507
487 524
479 532
484 541
494 545
504 545
514 545
520 535
525 525
530 515
530 505
530 495
535 482
535 472
535 462
534 452
530 442
525 433
520 424
520 414
520 404
520 394
515 385
515 375
515 365
515 355
524 350
529 359
531 369
534 379
539 388
539 398
544 407
549 416
554 425
557 435
565 442
569 452
577 459
584 467
592 474
601 479
611 483
621 485
631 485
641 485
641 469
631 469
622 464
613 459
605 453
598 445
590 439
586 429
580 421
575 412
574 402
570 392
565 383
565 373
560 364
560 354
555 345
555 335
550 326
550 316
548 306
545 296
544 286
539 277
535 267
530 258
525 249
522 239
514 232
507 224
497 220
488 215
478 211
469 206
459 204
450 199
440 199
431 194
421 194
411 194
401 194
391 194
381 194
371 194
361 194
351 194
341 194
331 195
321 199
311 199
301 199
291 199
281 199
271 199
261 199
251 199
241 199
231 199
222 194
212 190
203 185
193 184
183 184
173 180
168 171
164 161
156 154
150 146
145 137
137 130
130 122
122 115
113 110
105 116
98 124
88 124
79 119
69 117
60 112
50 109
41 104
32 99
32 114
39 122
39 132
39 142
39 152
34 162
