24 147
24 137
29 127
29 117
34 102
34 92
34 82
42 74
52 74
60 80
68 86
73 95
80 103
90 104
100 104
110 104
120 101
128 94
137 89
146 84
155 79
160 88
165 97
165 107
165 117
165 127
165 137
165 147
165 157
170 166
176 174
185 169
194 164
204 164
214 164
224 164
234 164
244 164
254 164
264 164
274 164
284 164
294 164
304 164
314 164
323 169
333 169
342 174
352 174
361 179
371 179
381 179
389 186
399 189
409 191
419 194
429 194
439 192
449 189
458 184
468 184
477 179
486 174
494 167
504 157
509 142
514 127
514 117
514 107
509 98
505 88
501 78
491 74
487 64
487 49
497 49
506 54
514 61
520 69
525 78
533 85
537 95
540 105
540 115
540 125
540 135
540 145
538 158
530 165
525 175
520 185
515 195
505 205
500 215
491 220
482 225
477 234
469 240
460 245
460 255
460 265
460 275
455 285
455 295
455 305
450 320
445 335
445 345
440 355
440 365
440 375
442 385
450 392
450 402
450 412
450 422
450 432
445 450
438 463
430 470
425 480
422 494
414 500
405 505
395 505
385 502
375 500
369 492
379 487
389 482
397 474
402 464
407 454
409 444
406 434
399 426
391 420
382 415
375 407
365 405
365 415
358 423
350 430
345 440
338 448
330 455
322 464
317 474
308 480
299 485
289 485
279 485
269 485
259 482
259 472
269 467
279 464
288 459
297 454
305 446
309 436
309 426
304 417
300 407
294 399
289 390
287 380
277 380
267 380
260 372
250 370
240 370
230 370
220 370
210 370
203 378
195 385
190 395
190 405
185 415
180 430
175 440
170 455
170 465
165 475
165 485
162 499
154 507
144 510
134 510
124 507
124 497
129 487
137 479
139 460
139 450
139 440
139 430
139 420
139 410
138 400
129 395
120 400
115 415
110 425
105 440
105 450
100 460
100 470
100 480
92 494
84 500
75 505
65 505
55 505
49 497
49 487
59 482
67 474
69 462
69 452
74 437
74 427
74 417
74 407
79 390
79 380
74 371
74 361
74 351
69 342
65 332
59 324
54 315
49 306
49 296
49 286
49 276
44 267
44 257
44 247
44 233
44 223
39 214
34 205
34 195
29 186
24 177
24 167
24 157
