64 207
64 197
72 189
77 179
79 167
79 157
79 147
87 139
97 134
104 124
102 114
94 107
94 97
94 87
104 86
110 94
119 99
127 105
134 92
134 82
139 72
139 62
149 66
153 76
160 84
168 90
173 99
182 104
185 114
195 117
195 127
203 134
212 139
221 144
229 151
230 161
239 166
245 174
253 180
258 189
268 190
277 195
287 199
296 204
305 209
315 209
325 209
335 212
343 219
353 219
363 219
373 219
383 219
393 219
403 219
413 219
423 219
432 224
442 224
452 219
462 219
472 219
482 219
492 219
502 219
511 224
521 224
530 229
540 229
549 234
559 234
568 239
575 247
583 254
592 259
599 267
600 277
605 286
614 291
615 301
618 311
620 321
623 331
625 341
625 351
630 360
630 370
635 379
635 389
645 392
645 402
650 411
659 416
665 424
661 435
651 435
642 430
634 423
627 415
620 407
615 398
614 388
607 380
604 370
604 360
595 355
595 365
590 380
590 390
580 400
575 415
575 425
577 435
580 445
580 455
580 465
575 480
573 493
568 503
560 510
552 520
547 529
539 535
529 535
520 530
514 522
514 512
524 509
530 501
538 494
539 480
539 470
539 460
539 450
539 440
530 435
530 445
530 455
528 468
518 473
510 480
505 490
498 498
488 503
480 510
470 520
460 520
450 520
442 514
442 499
451 494
461 494
471 490
479 482
484 472
489 457
489 447
484 438
479 429
477 419
472 410
469 400
459 397
455 387
445 385
435 390
425 390
415 390
405 387
395 385
385 385
375 385
365 385
365 395
360 405
360 415
355 430
355 440
345 445
340 460
335 470
335 480
330 495
330 505
330 515
325 525
315 535
313 553
308 563
298 568
288 570
278 570
269 565
259 562
259 552
269 547
274 532
279 522
284 512
284 502
289 485
289 475
289 465
289 455
285 440
280 450
275 465
270 475
265 490
260 500
257 519
252 529
244 537
234 540
224 540
214 540
205 535
195 535
189 527
194 512
204 509
214 509
224 507
229 497
229 487
234 469
234 459
229 450
229 440
229 430
227 420
224 410
219 401
219 391
214 382
209 373
209 363
200 358
199 348
194 339
192 329
187 320
184 310
182 300
179 290
179 280
169 276
164 267
155 262
145 260
137 254
127 250
117 250
107 250
97 250
94 240
84 240
76 234
69 226
64 217
