24 517
27 534
37 535
47 535
57 534
65 525
73 518
80 510
80 500
85 485
90 470
95 460
100 445
105 435
110 425
115 415
120 405
120 395
129 390
129 400
129 410
132 420
134 430
134 440
134 450
137 460
139 470
139 480
139 490
139 500
137 519
127 524
119 532
119 542
129 545
139 545
148 550
158 548
168 543
170 525
170 515
175 500
175 490
175 480
175 470
175 460
175 450
175 440
180 430
180 420
185 405
182 395
180 385
190 387
197 395
207 399
217 400
227 404
237 405
247 405
256 410
266 410
276 413
285 418
295 422
305 425
315 425
324 430
330 438
338 445
347 450
355 457
364 462
369 471
364 482
359 492
351 500
341 504
331 504
322 509
314 517
314 527
324 530
333 535
343 535
353 535
362 530
371 525
379 517
387 509
395 495
400 485
409 480
419 480
414 497
407 509
399 517
391 524
382 529
374 537
379 546
389 550
399 550
409 550
419 547
424 537
430 525
438 518
443 508
450 500
455 490
463 483
468 473
470 462
470 452
465 443
460 434
455 425
455 415
460 400
465 390
470 380
478 373
488 370
497 375
507 379
514 387
519 396
524 405
524 415
529 424
535 432
545 435
555 430
560 417
560 407
559 397
555 387
547 380
545 370
540 361
540 351
540 341
540 331
535 322
535 312
530 303
530 293
525 284
519 276
509 277
509 287
509 297
504 307
499 317
492 309
484 302
480 292
470 289
464 281
454 277
445 272
435 269
426 264
417 259
408 254
398 254
388 250
378 249
368 249
358 249
349 244
339 244
329 244
319 244
309 244
299 244
289 244
279 244
269 241
259 239
249 236
239 234
229 231
219 227
210 222
200 219
191 214
182 209
177 200
170 192
165 183
160 174
155 165
155 155
155 145
155 135
155 125
160 110
165 95
165 85
170 70
175 52
174 42
167 34
158 39
150 46
142 54
134 62
126 69
116 69
107 64
98 69
88 69
78 65
70 59
64 51
56 44
47 39
37 39
29 47
29 57
34 66
34 76
39 85
39 95
39 105
42 115
44 125
44 135
49 144
51 154
54 164
60 172
59 202
64 211
59 222
54 237
49 252
49 262
49 272
49 282
54 291
54 301
59 310
64 331
64 341
69 350
69 360
69 370
69 380
69 390
69 400
69 410
69 420
69 430
64 447
64 457
64 467
59 482
59 492
51 500
41 504
32 509
