24 187
24 197
24 207
24 217
29 226
36 234
44 240
54 240
64 240
74 240
74 250
74 260
77 270
79 280
79 290
79 300
84 309
86 319
91 328
94 338
99 347
107 354
114 362
114 372
114 382
114 392
114 402
114 412
114 422
114 432
114 442
114 452
114 462
111 479
102 484
92 484
84 492
84 502
94 505
103 510
113 510
123 508
130 500
135 490
143 483
145 470
150 460
155 445
160 435
165 425
165 415
170 405
179 400
184 409
184 419
184 429
184 439
184 449
184 459
184 469
184 479
177 489
169 497
164 507
164 517
174 520
184 520
194 520
204 520
210 510
218 503
220 490
225 480
230 470
230 460
235 450
235 440
240 430
240 420
249 415
259 415
268 420
278 420
288 420
297 425
307 425
316 430
325 425
334 430
343 435
353 435
363 435
368 444
360 451
352 459
342 459
332 459
324 467
324 477
332 484
342 485
352 485
362 485
371 480
381 480
389 472
399 467
407 460
416 455
425 450
434 455
444 455
454 455
464 455
474 455
483 450
493 450
502 445
512 445
522 449
529 457
529 467
522 479
514 487
520 495
529 500
539 500
549 500
559 497
565 482
565 472
565 462
564 452
560 442
560 432
559 422
555 412
547 405
539 399
530 394
521 389
512 384
504 377
500 367
492 360
490 350
490 340
490 330
495 320
495 310
503 303
510 295
510 285
518 278
525 270
525 260
533 253
538 243
543 233
548 223
550 205
555 195
560 182
560 172
560 162
560 152
560 142
560 132
560 122
560 112
560 102
559 92
555 82
547 75
539 69
529 69
519 69
509 69
499 72
489 77
484 87
484 97
490 105
500 105
509 100
519 100
528 105
529 115
529 125
529 135
524 147
524 157
519 167
519 177
517 189
509 197
504 207
502 219
494 227
489 237
484 247
476 254
467 259
457 264
447 269
437 269
428 264
418 264
408 264
398 264
388 260
378 259
368 259
359 254
349 254
339 254
330 249
320 249
310 247
300 244
290 244
280 244
271 239
261 239
252 234
242 234
232 230
223 225
215 219
209 211
201 204
192 199
182 195
175 187
167 180
160 172
155 163
150 154
147 144
139 137
135 127
130 118
123 110
115 104
105 106
97 114
92 124
83 129
73 129
64 124
55 119
46 114
37 109
34 126
39 135
39 145
37 159
29 167
