24 237
24 227
32 219
42 214
47 204
52 194
60 186
68 179
74 162
74 152
84 149
92 155
100 162
109 167
119 171
125 179
133 185
140 193
148 200
155 208
165 212
173 219
182 224
192 224
201 229
211 229
221 229
231 229
241 229
251 229
261 229
271 229
281 229
291 229
301 229
310 224
320 224
330 224
340 221
350 219
360 219
370 216
380 214
390 214
400 214
409 209
419 209
429 209
439 209
449 209
459 209
468 214
478 214
487 219
496 224
505 229
514 234
522 240
530 247
535 256
544 261
548 271
550 281
556 289
560 299
565 308
570 317
575 326
581 334
589 341
595 349
600 358
610 359
618 365
627 370
635 377
643 384
652 389
659 397
665 405
670 414
660 422
650 418
644 410
636 403
626 399
619 391
611 385
602 380
593 375
584 370
576 364
567 359
562 350
555 342
547 335
543 325
535 318
529 310
529 300
520 295
515 305
510 320
500 325
495 335
490 345
490 355
490 365
490 375
492 385
497 394
504 402
510 410
510 420
515 429
515 439
515 449
510 460
508 478
500 485
500 495
495 505
487 519
482 529
473 535
464 540
454 540
444 536
439 527
447 519
457 514
457 504
449 497
449 487
457 479
467 479
472 469
474 455
466 449
459 441
454 432
445 427
437 420
428 415
420 408
414 400
406 393
401 384
396 375
386 375
376 375
366 375
356 375
347 380
337 384
327 385
317 385
308 390
298 390
288 390
278 393
270 400
265 410
265 420
265 430
265 440
265 450
265 460
265 470
263 488
255 495
250 505
241 510
232 505
229 495
231 485
236 475
239 465
239 455
230 460
225 470
220 480
220 490
220 500
218 513
210 520
204 530
195 535
185 540
177 534
174 517
184 512
192 504
194 492
199 477
199 467
199 457
199 447
199 437
199 427
199 417
199 404
194 395
189 386
181 380
172 375
163 370
155 363
149 355
141 349
134 341
129 332
125 322
119 314
116 304
112 294
107 285
104 275
95 270
86 265
76 265
66 263
56 260
46 258
36 254
32 244
