24 147
24 137
29 127
34 117
42 109
49 92
54 77
54 67
59 57
59 47
59 37
69 34
77 40
87 44
97 44
104 52
112 59
122 59
132 59
141 64
151 60
161 59
171 59
181 59
190 54
200 54
210 54
220 54
229 49
239 49
249 49
259 49
269 49
279 49
289 49
299 49
309 49
319 49
329 49
339 49
349 47
359 44
369 44
379 44
389 44
399 44
409 44
418 39
428 39
438 39
448 39
457 34
467 34
477 34
486 29
496 29
506 29
516 25
526 24
536 24
546 24
556 24
566 24
575 29
583 35
590 43
595 52
600 61
600 71
595 85
595 95
595 105
595 115
595 125
600 134
600 144
600 154
600 164
600 174
600 184
600 194
600 204
600 214
600 224
600 234
605 243
605 253
605 263
605 273
605 283
605 293
600 310
595 325
588 335
579 340
569 340
559 336
554 327
562 319
569 303
565 293
564 283
559 274
554 265
545 260
540 270
535 285
535 295
535 305
527 319
519 325
509 325
499 322
499 312
507 304
509 292
514 278
510 268
503 260
494 255
485 250
475 250
465 250
455 250
445 255
435 255
425 255
415 255
405 260
395 260
386 255
376 255
366 255
356 255
347 250
337 250
327 250
318 245
309 240
300 235
290 235
280 235
275 245
280 254
280 264
280 274
280 284
285 293
290 302
285 320
277 334
269 340
259 340
249 337
249 327
257 319
259 304
259 294
254 285
252 275
249 265
244 256
236 250
226 248
216 244
209 236
204 227
197 219
187 215
180 207
175 198
168 190
160 183
154 175
149 166
144 157
137 149
129 142
120 137
110 135
100 135
90 140
81 145
71 145
61 145
52 150
43 155
34 150
