24 272
24 262
29 252
34 242
42 234
52 229
60 221
64 207
69 193
62 185
58 175
50 168
44 160
39 151
39 141
34 132
34 122
39 112
47 104
56 99
64 92
72 84
82 79
92 79
102 79
112 79
122 79
132 79
141 84
150 89
159 94
167 100
175 107
182 115
185 125
190 134
185 150
185 160
185 170
185 180
180 190
180 200
175 215
177 225
182 234
189 242
194 251
195 261
195 271
200 280
200 290
195 305
200 314
205 323
210 332
210 342
215 351
218 361
220 371
220 381
225 390
230 399
230 409
230 419
228 438
220 445
215 455
215 465
208 473
200 480
200 490
200 500
200 510
200 520
195 530
190 545
190 555
185 570
180 585
175 600
180 609
185 618
195 622
203 629
212 634
221 639
224 652
216 660
206 660
197 665
189 672
179 675
169 675
159 675
149 675
139 675
129 675
120 670
110 670
100 668
94 660
89 651
84 642
84 632
89 620
87 610
84 600
79 591
74 582
74 572
74 562
74 552
79 537
84 528
84 518
84 508
79 499
74 490
66 484
59 476
59 466
59 456
54 447
49 438
49 428
49 418
44 409
44 399
42 389
37 380
34 370
34 360
34 350
29 341
29 331
29 321
29 311
24 302
24 292
24 282
