29 397
29 387
37 379
47 379
57 379
65 385
70 394
79 399
89 399
99 399
109 399
114 385
112 375
102 375
92 379
82 375
74 368
70 358
64 350
59 341
54 332
54 322
54 312
54 302
54 292
54 282
54 272
54 262
54 252
54 242
54 232
59 207
67 199
72 189
79 177
87 169
96 164
105 159
114 152
124 147
132 139
142 134
152 129
162 129
172 129
182 129
192 124
202 124
211 119
221 119
230 114
239 119
249 119
244 110
244 100
243 90
234 85
229 76
229 66
221 60
211 60
201 64
194 56
189 47
197 39
207 39
217 39
226 34
236 34
246 34
255 29
265 29
275 32
284 37
285 47
288 58
280 65
275 75
265 75
255 75
260 84
265 93
260 105
265 114
275 111
285 114
295 114
305 114
315 114
325 114
335 114
345 114
355 117
364 122
374 124
384 124
394 126
395 136
395 150
395 160
389 170
379 170
370 175
375 184
385 184
395 184
405 184
415 184
425 184
435 184
445 184
455 184
465 184
475 184
485 184
495 184
505 184
515 184
525 184
535 184
545 184
555 181
565 182
570 191
570 201
562 209
554 215
544 215
535 220
525 220
515 225
505 230
495 235
485 240
475 245
465 250
457 259
447 260
438 265
429 270
420 275
410 280
412 290
417 299
427 299
437 299
444 307
450 320
450 330
450 340
446 355
436 355
427 360
417 360
409 367
399 367
389 370
379 372
369 377
359 380
349 380
339 382
329 385
319 385
309 385
299 385
289 385
279 385
270 380
265 390
255 395
245 395
236 400
226 400
217 405
207 409
197 409
189 415
180 410
170 415
161 420
151 420
142 425
132 425
122 429
112 429
102 430
92 430
83 435
73 435
63 435
53 435
44 430
34 426
29 417
29 407
