29 427
29 437
39 435
49 435
59 435
64 444
54 444
42 449
32 449
24 457
30 465
39 460
49 460
58 465
68 465
77 470
87 470
95 477
102 485
110 492
117 500
125 507
132 515
142 519
152 520
143 534
135 541
125 546
115 551
107 559
102 569
94 577
94 587
94 597
99 606
109 610
119 610
118 600
110 594
105 585
120 590
129 595
137 589
130 579
130 569
125 560
134 555
143 550
152 545
161 540
171 540
180 535
190 535
199 530
207 524
215 515
224 510
234 510
243 515
253 515
262 520
267 529
271 539
276 548
280 558
288 565
295 573
303 580
310 588
318 595
324 603
329 612
329 622
329 632
324 642
324 652
319 664
310 659
301 654
292 649
282 649
272 649
274 660
274 672
264 677
269 686
279 687
289 682
297 689
301 699
292 704
282 704
272 704
264 712
270 720
280 720
290 720
300 720
309 725
319 725
329 722
339 720
349 720
359 717
369 712
370 699
370 689
370 679
370 669
365 660
370 642
370 632
370 622
370 612
370 602
365 593
365 583
360 574
355 565
355 555
364 550
374 550
384 550
394 547
402 540
411 535
415 525
423 518
430 510
438 503
445 495
453 488
460 480
468 473
475 465
484 460
492 454
502 449
510 440
520 435
529 430
538 425
547 420
556 415
565 410
574 405
582 399
592 394
602 389
612 384
622 379
632 375
641 370
650 365
659 360
667 354
677 349
685 340
694 335
702 329
712 324
722 319
732 314
740 305
750 300
760 295
770 290
780 285
790 280
800 280
809 275
818 270
827 265
837 265
846 260
856 260
865 255
874 250
883 245
893 240
903 238
908 229
894 229
885 234
875 236
865 239
855 241
845 244
835 244
825 246
815 249
805 249
795 251
785 254
775 256
765 261
755 264
746 269
737 274
727 274
717 279
707 284
697 289
688 294
679 299
670 304
661 309
652 314
642 314
633 319
624 324
614 327
604 332
594 334
585 339
576 344
567 349
557 349
548 354
539 359
529 359
520 364
510 366
500 369
490 369
480 369
470 369
460 369
450 369
440 369
430 369
420 369
410 369
400 369
390 369
380 369
370 369
360 367
350 364
340 362
330 359
321 354
311 354
301 354
291 354
282 359
272 359
263 364
253 364
243 364
233 364
223 366
215 360
215 350
215 340
215 330
220 315
220 305
225 291
223 281
220 271
219 261
214 252
210 242
200 239
194 231
186 224
177 219
168 214
159 209
149 209
140 214
131 219
121 219
111 219
101 219
91 220
81 224
71 224
61 224
52 229
44 237
44 247
52 254
60 260
70 262
80 265
90 265
102 270
107 279
97 279
87 284
77 284
67 284
57 284
49 292
49 302
57 309
67 310
77 310
87 310
97 310
107 310
117 310
127 314
136 319
146 320
149 330
144 342
144 352
139 362
139 372
139 382
144 391
144 401
144 411
149 420
152 430
159 438
164 447
167 464
159 472
149 477
144 487
134 486
126 479
117 474
108 469
100 463
95 454
90 445
84 437
77 429
68 424
59 419
49 419
39 422
