24 257
24 247
32 239
40 231
48 224
57 219
67 219
77 219
87 219
96 224
105 229
114 234
124 234
133 229
143 229
152 224
162 224
172 219
182 219
191 224
200 229
208 235
215 243
223 250
230 258
235 267
240 276
240 286
240 296
245 305
245 315
250 324
260 324
269 319
278 314
288 314
295 306
305 301
315 299
324 294
334 292
344 289
353 284
363 284
372 279
382 279
392 274
402 274
411 269
421 269
430 264
440 261
450 259
459 254
469 252
479 249
488 244
498 244
508 245
517 250
527 254
537 254
547 254
556 259
566 259
575 264
584 269
594 269
604 271
613 276
620 284
629 289
638 294
647 299
656 304
665 309
673 315
682 320
690 327
700 329
710 332
720 334
730 334
739 339
747 345
757 349
766 344
775 339
784 334
793 329
803 329
812 324
822 324
832 319
842 314
850 306
859 297
867 289
874 277
879 266
879 256
874 247
867 239
859 232
850 227
842 220
832 219
824 212
824 202
834 199
844 201
854 204
863 209
873 210
880 218
888 225
895 233
900 242
905 251
911 259
915 269
920 278
920 288
920 298
915 310
908 323
903 333
895 340
888 348
880 355
873 363
865 370
858 378
848 383
840 390
830 390
822 399
812 404
802 409
794 415
784 417
774 422
764 427
754 432
744 435
735 440
726 445
716 445
706 445
696 445
687 450
677 450
667 450
657 450
648 445
638 445
628 445
618 445
608 445
598 445
588 448
578 453
568 458
560 465
555 475
548 488
540 495
535 505
535 515
540 524
545 533
545 543
550 552
554 562
555 572
562 580
567 589
575 595
580 604
580 614
585 623
585 633
585 643
585 653
585 663
590 672
594 682
595 692
600 701
595 715
590 725
580 730
570 730
561 735
552 740
543 735
534 730
524 730
514 727
514 717
524 712
532 704
540 696
549 682
549 672
549 662
544 653
540 643
539 633
534 624
529 615
527 605
519 599
514 590
504 587
500 577
490 573
484 565
475 570
475 580
475 590
470 605
468 623
463 633
455 640
450 650
445 660
440 675
440 685
440 695
436 710
427 715
418 720
408 720
399 725
389 727
379 730
371 723
365 715
355 715
349 707
357 699
367 699
377 694
387 694
396 689
404 682
409 667
414 657
414 647
419 637
419 627
424 612
424 602
429 592
424 583
420 573
419 563
414 554
409 545
408 535
400 528
393 520
384 515
375 510
366 505
356 503
346 499
337 494
327 490
318 485
309 480
300 485
296 498
286 495
277 500
274 490
273 480
263 483
255 490
249 500
239 502
239 492
244 482
252 474
260 466
269 458
269 448
262 440
253 435
244 430
234 430
224 430
215 425
205 422
195 418
186 413
176 410
167 405
158 400
150 393
141 388
135 380
127 374
119 367
112 359
102 355
93 350
84 345
74 345
64 345
54 345
46 339
37 334
29 327
29 317
29 307
39 302
49 299
59 299
68 294
78 295
88 299
98 300
108 304
111 294
102 289
92 285
83 280
73 280
64 275
55 280
46 275
36 273
30 265
