24 172
24 162
29 152
29 142
29 132
29 122
37 114
45 106
53 99
60 91
70 86
80 84
90 84
100 81
110 79
120 79
130 82
139 87
149 89
158 94
167 99
170 109
175 118
180 127
184 137
192 144
199 152
207 159
216 164
224 171
230 179
239 184
249 186
259 189
268 194
277 199
287 199
296 204
305 209
315 209
325 212
335 214
345 214
355 217
365 219
375 219
385 219
395 219
405 219
415 219
425 219
435 219
445 219
455 219
465 219
475 219
485 216
495 214
505 211
515 206
525 201
533 194
540 186
548 179
555 171
565 166
573 159
582 154
587 144
597 139
607 139
615 145
613 158
605 165
598 173
593 183
583 188
575 195
568 208
558 213
553 223
545 230
535 235
530 245
525 255
527 265
532 274
535 284
540 293
545 302
545 312
550 321
550 331
555 340
555 350
557 360
560 370
560 380
565 389
570 398
575 407
579 417
587 424
594 432
600 440
605 449
610 458
610 468
615 477
619 487
620 497
620 507
620 517
620 530
618 543
613 553
608 563
598 565
589 560
580 555
574 547
574 537
579 527
584 515
584 505
584 495
575 490
570 500
565 510
565 520
557 534
549 542
539 545
529 545
524 536
519 527
527 519
534 507
539 491
539 481
534 472
530 462
522 455
515 447
507 440
498 435
490 428
483 420
475 413
468 405
460 398
453 390
445 383
438 375
428 375
419 380
410 385
400 385
390 385
380 382
370 378
363 370
353 370
343 370
333 370
323 370
313 373
303 375
293 375
283 375
273 375
264 380
255 385
250 395
250 405
245 415
245 425
245 435
240 445
240 455
240 465
240 475
240 485
235 500
235 510
230 525
224 537
216 545
206 545
197 550
187 550
177 549
169 542
162 534
159 517
167 509
174 497
174 487
179 475
179 465
174 456
174 446
174 436
174 426
174 416
174 406
174 396
174 386
174 376
169 367
165 357
160 348
156 338
151 329
149 319
149 309
144 300
144 290
139 281
134 272
130 262
125 253
121 243
115 235
106 230
96 230
86 230
77 235
67 235
58 230
49 225
41 218
36 209
29 201
29 191
24 182
