39 362
44 347
44 337
44 327
44 317
54 314
64 314
74 314
83 319
93 319
103 319
113 319
123 319
133 319
143 319
152 324
162 324
172 324
182 324
192 324
202 324
212 324
221 329
231 329
239 317
244 307
244 297
249 287
244 278
244 268
239 259
234 250
234 240
229 231
224 205
222 195
219 185
210 180
200 180
190 185
183 193
175 200
165 210
160 220
150 220
144 230
135 235
127 244
119 252
109 250
99 247
99 237
104 227
109 217
119 212
124 202
132 194
137 184
144 172
145 160
135 160
125 160
115 160
105 160
95 160
85 157
75 155
65 155
55 155
45 155
39 147
44 137
44 127
44 117
44 107
44 97
54 94
64 94
74 94
84 96
94 99
104 99
114 99
124 99
134 99
144 99
154 99
163 104
173 104
183 104
193 104
203 104
213 104
223 104
232 109
242 109
249 92
249 82
249 72
249 62
254 52
259 42
267 34
276 29
285 24
295 24
305 27
312 35
320 42
325 51
330 60
335 69
330 80
325 90
330 99
335 108
345 112
355 114
365 114
375 117
385 119
395 119
405 119
415 119
425 119
435 119
445 122
455 124
465 124
475 124
485 124
490 133
490 143
485 160
485 170
480 185
470 185
460 185
450 185
450 195
443 210
434 205
424 205
415 200
406 195
397 190
388 185
379 180
369 180
360 185
355 200
355 210
353 223
345 230
345 240
345 250
340 265
340 275
340 285
335 295
335 305
340 314
345 323
350 332
360 334
369 339
379 339
389 339
399 339
409 339
419 339
429 339
438 344
448 344
458 344
465 352
465 362
460 375
460 385
455 395
445 395
435 392
425 390
415 390
405 390
395 390
385 390
387 400
397 404
404 412
409 421
415 429
420 438
425 447
429 457
435 465
437 475
445 482
450 491
456 499
460 509
460 519
465 528
464 542
454 545
445 540
437 534
429 527
422 519
417 510
414 500
406 494
399 486
391 480
382 475
379 465
371 459
364 451
359 442
354 433
347 425
343 415
335 408
329 400
319 397
312 389
302 385
292 385
283 380
273 383
268 393
263 403
258 413
253 423
245 430
238 438
233 448
228 458
220 465
213 478
208 488
203 498
195 505
188 513
183 523
175 530
167 539
159 545
149 546
144 537
144 527
144 517
144 507
149 497
157 489
162 479
167 469
169 457
174 447
179 437
187 429
192 419
197 409
202 399
204 387
207 375
197 375
187 375
177 375
167 375
157 375
148 370
138 370
128 370
118 370
108 370
98 370
88 370
78 370
69 365
59 365
49 365
