94 242
94 232
102 224
107 214
112 204
120 196
125 186
130 176
138 169
142 159
147 149
154 137
164 132
172 124
181 119
190 114
200 111
210 109
220 109
229 97
234 85
229 76
224 67
224 57
229 47
234 37
242 29
252 24
262 24
272 24
282 24
291 29
299 36
305 44
310 53
310 63
310 73
310 83
310 93
318 99
327 104
337 104
347 104
357 104
366 109
375 114
385 117
392 125
400 132
407 140
415 147
422 155
427 164
434 172
440 180
445 189
453 195
457 205
465 212
470 221
479 226
480 236
475 250
465 252
455 248
449 240
440 235
432 229
424 222
419 213
412 205
403 200
395 193
388 185
380 178
374 170
364 170
354 170
345 175
345 185
340 195
340 205
340 215
335 230
335 240
335 250
330 265
330 275
330 285
332 295
337 304
340 314
345 323
345 333
350 342
354 357
349 367
341 375
331 375
321 375
312 370
303 365
294 360
285 365
278 373
270 380
265 390
258 398
253 408
248 418
240 425
233 438
228 448
223 458
215 465
208 478
203 488
195 495
188 508
180 515
175 525
167 534
162 544
153 550
144 555
135 550
129 542
134 532
134 522
139 507
144 497
149 487
157 479
162 469
164 457
169 447
174 437
179 427
184 417
192 409
197 399
202 389
207 379
212 369
217 359
222 349
229 332
234 317
239 299
239 289
239 279
234 270
234 260
229 251
224 242
224 232
219 223
214 214
211 204
207 194
202 185
193 180
183 183
173 188
165 195
158 208
150 215
145 225
138 233
130 240
120 245
112 254
102 259
94 252
