54 317
54 307
59 297
59 287
64 272
72 264
77 254
82 244
90 236
100 234
110 231
120 229
115 240
108 248
98 253
90 260
85 270
80 285
75 295
75 305
80 314
80 324
90 324
99 319
108 324
114 312
122 304
124 292
129 282
129 272
134 257
139 247
144 232
152 224
159 212
164 202
169 187
169 177
177 169
179 157
184 147
189 137
194 127
204 122
212 114
217 104
227 104
237 99
247 99
257 99
267 99
277 99
287 99
297 94
307 94
317 89
326 84
334 77
342 69
352 64
362 59
372 54
382 49
392 49
402 49
411 44
421 44
431 44
440 49
450 49
460 49
470 52
478 59
488 60
495 68
503 75
510 83
520 84
525 93
533 100
540 108
545 117
549 127
554 136
558 146
560 156
565 165
567 175
572 184
575 194
575 204
575 214
575 224
575 234
575 244
570 255
570 270
570 280
565 290
560 305
554 317
544 317
544 307
549 292
554 275
559 265
559 255
559 245
564 234
559 225
555 215
550 230
550 240
550 250
545 260
545 270
540 280
535 295
530 305
525 315
527 325
530 335
530 345
530 355
530 365
535 374
535 384
530 400
528 413
520 420
510 425
501 430
491 430
481 433
471 434
464 426
459 417
467 409
472 399
479 387
479 377
479 367
475 357
470 348
464 340
455 335
450 350
450 360
450 370
445 385
450 394
445 410
442 424
434 432
424 435
414 435
405 430
399 422
404 404
404 394
404 384
404 374
404 364
399 355
399 345
399 335
395 325
385 325
380 340
380 350
375 360
375 370
375 380
370 395
370 405
370 415
370 425
365 440
365 450
360 465
351 470
342 475
333 480
323 480
314 475
304 476
299 467
299 457
307 449
315 441
319 429
319 419
319 409
314 400
314 390
314 380
314 370
312 360
309 350
308 340
299 345
290 350
285 365
283 378
275 385
270 400
265 415
260 425
254 442
249 452
241 460
232 465
222 465
213 470
203 470
194 465
184 461
179 452
187 444
195 436
205 431
213 424
219 407
224 397
224 387
224 377
229 362
234 347
234 337
234 327
239 312
244 297
249 279
249 269
244 260
234 262
224 265
215 270
205 275
197 284
189 292
179 291
174 282
182 275
179 265
170 270
163 278
158 288
153 298
145 305
145 315
138 323
130 330
120 335
111 340
102 345
93 350
83 350
73 350
64 345
59 336
54 327
