24 286
19 277
27 269
35 261
45 256
55 251
60 241
70 236
78 229
85 221
90 211
98 204
102 194
107 184
109 167
114 157
119 142
124 122
124 112
129 97
137 79
139 67
144 57
152 49
154 37
162 29
172 24
182 24
192 24
202 24
212 24
221 19
231 15
241 15
251 19
261 19
271 19
279 26
289 26
299 29
307 35
310 45
315 54
324 59
334 59
344 61
354 64
364 64
374 64
383 69
393 69
403 69
413 69
423 69
433 70
442 75
450 82
459 87
469 91
478 96
483 105
490 113
495 122
502 130
507 139
516 144
520 154
528 160
535 168
535 178
540 187
544 197
540 210
545 219
545 229
540 240
540 255
540 265
537 279
540 289
544 306
548 320
555 328
549 343
544 334
539 325
539 315
534 306
530 296
529 285
525 275
520 290
520 300
520 310
520 320
520 330
520 340
520 350
522 360
525 370
525 380
523 398
513 400
504 405
494 405
484 405
474 402
474 392
479 377
479 367
474 358
474 348
474 338
471 328
465 320
460 335
455 350
455 360
450 375
455 384
455 394
454 407
445 412
435 412
425 412
415 412
405 412
399 399
404 382
409 367
409 357
414 332
414 322
419 310
409 312
399 310
390 315
385 325
385 335
385 345
385 355
385 365
385 375
385 385
390 394
390 404
395 413
395 425
392 439
382 444
372 445
362 449
352 449
342 449
332 449
322 449
314 442
314 432
314 422
324 412
329 391
329 381
324 349
322 339
314 332
310 322
305 313
299 305
290 300
280 305
270 305
263 313
253 318
245 325
240 335
235 345
230 355
225 365
220 380
215 390
210 400
212 410
208 423
198 425
188 428
178 430
168 430
158 430
148 430
139 425
134 412
142 404
150 396
158 389
164 372
169 357
174 342
179 332
179 322
184 312
184 302
189 287
189 277
194 265
194 255
194 245
194 235
194 225
189 216
189 206
184 185
175 190
165 195
164 207
159 217
149 216
141 210
131 213
125 205
118 218
110 225
103 233
95 240
85 245
75 250
69 260
60 265
52 274
42 279
34 287
