94 307
94 326
99 335
102 345
107 354
109 364
114 373
119 382
124 391
129 400
132 410
140 417
144 427
144 437
144 447
149 456
154 465
160 473
168 480
174 488
174 498
174 508
174 518
174 528
174 538
175 548
180 557
187 565
197 569
204 577
212 584
219 592
227 599
236 604
244 610
253 615
260 623
270 627
280 630
290 630
299 625
309 622
319 617
327 610
336 605
345 600
350 590
358 583
365 575
373 568
375 555
380 545
388 538
395 530
395 520
395 510
395 500
395 490
395 480
395 470
400 460
405 450
410 440
415 425
415 415
415 405
420 395
430 390
440 385
440 375
445 360
445 350
445 340
445 330
445 320
450 305
450 295
455 282
447 275
440 267
435 258
435 248
435 238
435 228
430 219
430 209
430 199
430 189
430 179
430 169
430 159
430 149
425 140
423 130
418 121
415 111
410 102
405 93
398 85
390 79
381 74
372 69
363 64
354 59
344 59
334 59
324 57
317 49
312 40
303 35
293 34
284 29
275 24
265 24
255 24
245 24
235 24
226 29
217 34
208 39
200 46
192 54
183 59
175 66
168 74
160 81
155 91
147 99
142 109
134 117
129 127
124 137
124 147
119 157
114 172
114 182
109 197
109 207
109 217
109 227
109 237
109 247
109 257
109 267
114 276
114 286
114 296
104 304
