175 170
169 162
177 154
185 146
195 141
205 136
215 134
224 129
233 124
242 119
252 114
262 109
272 104
282 99
292 99
301 94
311 94
320 89
330 89
340 86
350 84
359 89
369 89
379 91
389 94
399 94
408 99
417 104
426 109
435 114
445 117
454 122
462 129
469 137
477 144
484 152
489 161
495 169
504 174
512 180
520 187
529 192
537 199
544 207
552 214
555 224
557 239
547 240
538 235
529 230
519 230
510 225
500 222
490 220
480 220
475 230
468 243
460 250
453 258
445 265
445 275
447 285
452 294
455 304
460 313
465 322
465 332
470 341
473 351
478 360
482 370
485 380
485 390
480 400
480 410
480 420
475 430
475 440
470 450
465 465
460 475
455 490
450 500
445 510
440 525
435 535
430 545
425 555
418 568
410 575
400 580
391 585
382 590
372 594
362 595
352 595
342 595
332 595
322 594
312 590
302 589
294 582
285 577
277 570
270 562
265 553
261 543
255 535
245 540
237 549
229 555
220 560
210 562
202 555
199 545
194 536
194 526
189 517
194 507
194 497
194 487
199 477
204 462
209 452
214 437
219 425
214 416
214 406
209 397
209 387
209 377
214 367
219 357
224 342
229 332
234 317
239 302
240 285
232 294
222 299
212 304
204 310
194 307
194 297
194 287
194 277
199 262
204 247
209 237
214 219
209 210
207 200
204 190
204 180
204 170
195 165
185 165
