44 32
39 42
44 51
49 60
54 69
56 79
61 88
65 98
74 103
79 112
79 122
87 129
91 139
99 145
102 155
104 165
104 175
99 187
99 197
99 207
99 217
99 227
99 237
99 247
94 257
94 267
100 275
110 275
120 277
130 280
140 280
150 280
160 280
170 280
180 280
190 270
190 260
199 265
199 275
204 284
206 294
211 303
221 305
230 300
240 300
250 302
257 310
265 317
274 322
282 329
291 334
299 340
308 345
317 350
327 354
334 362
342 369
351 374
359 380
364 389
369 398
369 421
374 430
377 440
382 449
384 459
390 467
394 477
404 477
405 460
405 450
402 440
400 430
400 420
405 410
414 405
422 399
432 395
442 395
451 390
461 390
470 385
480 385
477 369
468 364
458 364
448 364
438 364
429 359
420 364
410 366
400 369
397 359
387 355
378 350
370 343
365 334
361 324
355 316
350 307
345 298
340 289
335 280
332 270
330 260
327 250
325 240
334 235
344 232
337 224
328 219
318 219
308 216
299 211
290 206
285 197
280 188
273 180
265 174
261 164
252 159
247 150
240 142
232 135
225 127
215 123
210 114
205 105
205 95
205 85
205 75
205 65
205 55
205 45
210 35
202 29
193 24
183 24
173 24
163 24
153 24
143 24
133 24
124 19
114 22
114 32
108 44
98 40
90 34
81 29
71 29
61 29
52 24
