14 342
14 332
24 329
33 324
43 324
52 319
62 314
72 314
82 314
91 309
101 305
111 304
121 304
130 299
140 296
150 294
160 294
169 289
179 287
189 284
199 284
208 279
217 274
227 269
235 261
243 254
247 244
255 236
265 231
273 224
282 219
285 229
285 239
285 249
285 259
285 269
290 278
298 284
307 289
316 294
326 294
335 299
345 299
355 299
364 304
374 304
384 304
393 309
403 309
412 314
422 314
432 314
442 309
452 309
459 317
467 324
476 329
485 334
495 334
505 334
515 334
524 329
534 327
544 324
554 324
563 319
573 319
582 314
592 314
602 314
612 314
622 314
632 314
642 314
652 314
662 314
672 314
682 314
679 327
671 335
662 340
653 335
643 335
633 338
623 343
613 345
603 348
593 353
585 360
575 360
565 365
555 370
550 380
552 390
557 399
560 409
553 420
544 415
534 412
525 407
517 400
509 393
503 385
495 378
488 370
478 370
468 373
460 380
453 390
443 390
435 383
429 375
419 375
410 370
400 370
393 378
388 388
380 395
370 400
360 397
352 390
345 382
335 380
325 380
315 380
305 380
295 380
285 385
275 385
265 385
255 385
245 385
235 385
225 385
225 395
215 400
210 410
210 420
210 430
210 440
210 450
210 460
208 473
200 480
194 472
187 464
182 455
179 445
174 436
174 426
169 417
169 407
169 397
164 388
157 380
148 375
138 375
128 375
118 375
109 370
99 370
89 370
79 370
70 365
61 360
52 355
43 350
33 350
24 345
