19 381
14 372
24 367
34 364
43 359
52 354
62 354
71 349
80 344
90 344
99 339
109 339
119 337
129 334
139 334
149 332
159 329
169 329
179 329
188 324
197 319
207 314
215 306
223 299
230 291
238 284
245 276
253 269
262 264
270 270
272 280
275 290
277 300
282 309
289 317
295 325
305 329
314 334
324 334
334 334
344 334
353 339
363 339
373 339
383 340
393 344
403 344
412 349
422 349
432 344
442 339
451 334
460 329
469 324
475 332
479 342
484 351
490 359
499 364
509 364
519 364
529 364
539 364
549 364
559 364
568 359
578 359
587 354
597 349
607 349
616 344
626 340
636 339
646 339
655 334
665 334
675 334
684 329
694 329
703 334
707 344
699 350
690 355
681 365
671 365
661 365
652 370
643 375
634 380
625 385
615 385
608 393
600 400
592 409
582 410
572 409
562 405
553 400
543 400
534 395
524 395
514 395
504 395
494 397
484 402
474 407
464 410
455 405
446 400
436 400
427 395
417 395
407 399
397 400
387 400
377 400
367 404
359 410
350 415
343 425
333 425
325 418
318 410
309 405
299 405
289 405
279 405
270 410
260 410
250 410
240 410
230 410
220 410
210 410
200 410
195 420
190 430
185 440
180 455
170 458
164 450
159 441
154 432
147 424
142 415
135 407
127 400
117 400
107 400
97 399
87 395
77 395
67 395
57 395
48 390
38 390
29 385
