19 367
19 357
27 349
32 339
39 327
47 319
56 314
64 307
74 302
82 294
92 289
99 277
109 274
118 269
128 269
138 269
148 269
157 264
167 264
176 259
186 259
195 254
205 254
215 254
225 254
235 254
245 254
255 254
264 259
274 259
284 259
294 259
303 254
310 246
318 239
325 247
330 256
335 265
343 271
353 274
362 279
371 284
380 289
390 292
399 297
407 304
416 309
426 309
435 304
445 304
454 299
463 304
470 312
479 317
487 324
494 332
502 339
509 347
519 349
528 354
538 355
548 359
557 354
566 349
576 345
586 340
596 339
606 335
616 334
625 329
634 324
644 324
654 322
664 319
674 319
684 319
693 328
685 335
675 340
667 350
659 357
649 360
639 360
630 365
623 373
615 380
615 390
620 399
629 404
638 409
647 414
656 419
660 429
669 434
675 442
673 453
663 455
653 455
644 450
634 450
624 450
615 445
606 440
597 435
587 435
580 427
572 420
562 420
553 415
544 410
534 410
524 410
514 412
504 417
494 420
484 420
475 425
466 430
456 430
447 435
437 435
427 435
417 439
409 447
399 450
389 450
379 450
370 455
360 455
358 468
350 475
346 490
336 494
327 489
319 482
312 474
304 467
295 462
287 455
277 454
267 450
257 450
247 450
237 450
227 450
217 450
207 450
197 449
187 445
178 440
168 440
159 435
149 435
139 435
130 430
122 424
112 420
102 419
92 415
83 410
74 405
64 405
55 400
45 398
39 390
31 384
24 376
