19 351
14 342
22 334
32 334
41 329
50 324
59 319
69 317
79 312
89 309
98 304
108 304
117 299
127 299
136 294
146 294
156 294
165 289
175 289
185 289
195 289
205 286
215 284
225 284
235 284
245 284
255 284
265 284
274 277
282 269
290 261
298 254
305 246
313 239
322 234
332 234
335 244
335 254
335 264
335 274
340 283
348 289
357 294
367 294
377 294
387 294
396 299
406 299
415 304
425 304
435 307
445 309
455 312
465 314
474 319
484 319
494 319
504 321
513 326
523 330
533 334
543 335
553 339
563 339
572 344
582 339
592 334
600 326
610 321
618 314
625 306
635 301
643 294
652 289
662 284
671 279
680 274
690 274
700 277
693 288
685 295
675 300
668 308
660 315
655 325
648 333
643 343
635 350
635 360
635 370
635 380
635 390
635 400
640 409
640 419
640 435
630 432
622 425
614 419
609 410
601 404
597 394
589 387
582 379
572 375
562 375
552 375
542 375
532 375
523 380
513 383
503 385
493 385
484 380
475 385
465 385
455 385
445 385
435 390
425 400
416 405
406 405
397 400
388 395
379 390
369 390
359 390
349 390
339 390
329 390
319 390
309 390
299 390
289 390
279 390
269 392
259 395
253 403
245 410
240 420
240 430
240 440
240 450
240 460
235 475
231 485
222 480
215 472
209 464
207 454
202 445
199 435
197 425
194 415
194 405
189 396
184 387
175 382
165 380
155 380
145 380
135 380
125 380
115 377
105 375
95 375
86 370
76 370
66 370
57 365
47 365
38 360
29 355
