14 337
14 327
24 322
34 319
43 314
53 314
62 309
72 309
81 304
91 304
101 304
111 300
121 299
131 299
141 299
151 299
161 295
171 294
181 294
191 294
201 294
211 294
221 294
231 294
241 294
251 294
260 299
270 299
280 299
290 299
300 299
310 299
319 304
329 304
339 306
349 309
358 314
368 314
378 314
388 314
397 309
407 304
417 299
427 299
430 309
430 319
439 324
448 329
458 330
468 334
478 334
488 334
498 334
508 334
517 329
527 324
537 324
547 324
556 319
566 319
576 315
586 314
596 314
606 310
616 309
626 309
636 305
646 304
656 304
666 304
676 304
686 304
696 304
705 309
713 315
708 325
699 330
689 330
679 330
669 330
659 332
649 335
639 337
629 342
619 345
610 350
600 350
590 355
582 364
572 369
564 377
559 387
551 395
541 393
531 389
524 381
516 375
507 370
497 370
487 370
477 370
467 370
458 375
449 380
439 380
429 377
420 372
410 370
400 370
390 370
380 380
370 385
360 390
350 395
340 392
330 388
324 380
314 380
305 385
295 385
285 385
275 385
265 385
255 385
245 385
238 393
230 400
225 410
220 420
212 430
202 429
197 420
194 410
186 403
181 394
176 385
167 380
157 380
147 380
137 380
127 380
117 380
107 379
97 375
88 370
78 370
69 365
59 362
50 357
40 353
33 345
24 340
