14 267
14 257
19 242
19 232
19 222
19 212
27 204
32 194
37 184
39 172
49 167
54 157
62 149
70 141
78 134
84 122
92 114
100 106
104 87
112 79
120 71
128 64
135 56
143 49
152 44
162 39
172 39
181 34
191 30
201 34
209 27
219 24
229 24
239 24
249 24
259 24
269 22
279 19
289 19
299 19
309 16
315 24
324 29
334 29
344 31
354 34
364 34
372 40
380 47
390 44
398 50
405 58
410 67
419 72
427 79
434 87
444 91
450 99
458 105
460 115
465 124
465 134
460 145
460 155
450 160
455 169
465 169
474 162
484 152
494 149
503 144
510 136
518 129
528 129
537 124
546 119
554 112
564 109
574 109
584 109
594 109
604 111
614 112
624 116
619 125
609 125
599 125
589 125
580 130
573 138
565 145
560 155
560 165
560 175
560 185
560 195
560 205
560 215
560 225
560 235
560 245
560 255
560 265
562 275
570 282
578 289
587 294
596 299
606 299
615 304
610 315
600 315
590 315
580 315
570 315
560 312
550 308
544 300
534 300
525 295
519 287
510 282
500 278
494 270
485 275
480 285
475 295
468 303
460 310
450 310
444 320
435 325
427 334
419 342
409 347
399 352
389 355
380 360
371 365
362 370
353 375
344 380
334 382
324 385
315 390
305 390
295 390
285 390
275 390
265 390
255 390
245 390
235 390
225 395
225 405
225 415
225 425
222 435
213 430
205 423
198 415
190 408
183 400
175 393
169 385
167 375
160 367
155 358
148 350
139 345
129 347
120 342
112 335
102 334
92 330
85 322
75 320
67 314
59 307
52 299
42 295
33 290
24 285
19 276
