19 177
19 167
24 157
29 147
37 139
44 127
54 122
62 114
69 102
77 94
85 86
93 79
102 74
111 69
121 65
129 59
138 54
147 49
155 41
165 36
173 29
182 24
192 24
202 24
212 19
222 19
232 19
242 19
252 19
262 19
271 24
281 24
291 24
301 24
310 29
319 34
329 31
339 34
349 36
359 39
369 41
378 46
384 54
394 56
400 64
410 67
419 72
427 79
434 87
442 94
450 100
455 109
463 115
472 120
477 129
484 137
494 141
504 144
513 149
520 141
530 139
539 132
547 124
555 116
563 109
570 101
580 99
589 94
598 89
607 84
617 79
627 79
630 95
623 103
615 110
610 120
610 130
610 140
612 150
620 157
620 167
620 177
620 187
620 197
620 207
620 217
620 227
620 237
620 247
627 255
630 265
620 265
610 265
600 263
594 255
584 255
576 249
567 244
559 237
550 232
540 228
534 220
525 215
515 215
505 215
497 224
489 230
480 235
473 243
465 250
457 260
449 267
439 270
430 275
420 280
413 288
403 290
393 293
385 300
375 300
365 300
358 308
348 310
338 313
328 315
318 315
308 315
299 310
289 310
279 310
269 312
259 310
251 304
242 299
234 292
225 287
215 285
215 295
215 305
215 315
220 324
220 334
214 345
204 346
199 337
195 327
187 320
180 312
175 303
169 295
161 289
152 284
142 280
132 280
123 275
114 270
105 265
96 260
87 255
79 248
70 243
64 235
55 230
45 228
38 220
29 215
24 206
19 197
19 187
