39 227
39 217
47 209
55 201
65 196
75 194
84 187
89 177
94 167
94 157
102 149
110 141
118 134
125 126
133 119
142 114
150 106
158 99
167 94
176 89
184 82
192 74
200 66
210 61
218 54
227 49
237 44
246 39
255 34
265 34
275 31
285 29
295 29
304 24
314 24
324 24
334 24
344 24
354 24
364 24
373 29
383 29
393 30
400 38
408 44
417 49
424 57
432 64
441 69
449 76
455 84
464 89
472 95
482 99
489 107
494 116
503 121
510 129
515 138
523 145
530 153
535 162
540 171
545 180
550 189
555 198
563 205
573 209
583 209
592 204
601 199
610 194
620 191
630 186
640 184
649 179
658 174
668 174
677 169
686 174
690 184
695 193
700 202
700 212
705 221
710 230
710 240
710 250
710 260
705 275
700 290
695 300
685 310
675 310
665 310
655 307
645 305
636 300
626 299
617 294
607 290
597 290
587 289
577 285
568 280
558 283
548 288
543 298
538 308
533 318
525 325
518 333
508 338
500 345
493 353
483 358
473 363
465 370
455 370
445 375
438 383
428 388
418 393
408 398
400 405
392 414
382 419
372 420
363 425
354 430
344 430
334 430
324 430
314 430
304 430
295 425
285 422
275 420
266 415
257 410
247 410
240 402
230 398
224 390
215 385
207 379
199 372
190 367
180 363
174 355
166 349
164 339
162 329
157 320
148 315
140 308
134 300
126 294
117 289
107 285
100 277
90 273
83 265
74 260
66 253
56 249
47 244
39 237
