29 487
39 482
44 472
49 455
35 465
29 457
39 452
44 437
49 427
54 417
59 407
69 397
74 382
79 372
84 362
89 352
97 344
104 332
112 324
120 316
128 309
138 309
147 304
155 296
165 294
174 289
183 284
187 274
192 264
202 259
204 246
199 237
190 232
184 224
179 215
179 205
174 196
179 186
185 194
195 194
205 194
215 197
223 204
233 205
243 209
253 209
262 204
267 194
275 186
283 179
284 167
289 157
299 152
299 142
307 134
312 124
319 112
329 107
339 102
347 94
357 89
367 84
377 79
387 74
397 74
405 66
414 57
424 54
433 49
442 44
450 36
459 42
451 49
467 49
475 41
484 32
494 29
495 39
485 45
495 49
504 44
510 36
510 52
520 49
519 65
510 70
522 75
513 88
503 93
495 100
485 105
485 115
478 123
470 130
462 139
454 145
445 150
438 158
430 165
424 175
415 180
410 190
405 200
400 210
395 220
389 235
383 243
375 250
370 260
365 270
355 275
350 285
340 290
345 299
353 305
363 309
372 314
381 319
391 319
400 324
409 329
415 337
419 347
420 357
420 367
420 377
420 387
412 399
404 405
395 410
385 410
375 410
365 410
355 407
345 403
339 395
339 385
331 378
325 370
319 362
314 353
307 345
298 340
288 343
283 353
275 360
265 365
255 370
245 375
237 384
227 385
222 394
212 399
204 405
195 410
185 410
178 418
170 425
160 430
155 440
150 450
143 458
135 465
125 470
118 478
110 485
102 494
94 502
89 512
79 515
77 505
69 512
59 517
49 517
50 505
44 497
49 482
