49 122
49 132
59 135
69 135
78 130
88 130
98 130
108 130
118 130
128 128
138 125
148 125
158 125
168 125
178 123
188 120
198 120
208 120
214 128
207 139
197 139
187 139
177 139
167 139
157 139
147 139
138 144
128 144
118 144
109 149
99 149
89 149
79 149
69 149
59 152
49 157
49 167
59 167
69 165
79 165
89 165
99 162
109 160
119 160
129 160
139 160
149 160
158 155
168 155
178 155
188 155
198 155
208 155
217 150
219 160
214 174
204 174
194 174
184 174
174 174
164 177
154 179
144 179
134 179
124 179
114 179
104 179
94 179
84 179
74 182
64 184
54 187
54 197
64 200
74 197
84 195
94 195
104 195
114 195
124 195
133 190
143 190
153 190
163 190
173 190
183 190
192 185
202 185
212 185
222 185
232 185
241 180
251 180
261 180
271 180
275 170
275 160
275 150
275 140
284 135
294 135
304 135
314 135
324 135
334 135
344 135
354 135
364 135
374 135
383 130
393 130
403 130
413 130
423 130
433 128
443 125
453 125
463 125
473 125
483 125
493 123
503 120
513 120
523 120
533 120
543 118
553 115
563 115
573 115
583 113
593 110
603 110
613 110
623 110
633 110
642 105
652 105
662 105
672 104
675 91
675 81
674 71
664 69
654 72
644 74
634 74
624 74
614 74
604 74
595 79
585 79
575 79
565 79
555 79
545 79
536 84
526 84
516 84
506 84
497 89
487 89
477 89
467 89
457 89
447 89
437 89
427 89
417 89
407 89
397 89
388 94
378 94
368 94
358 94
348 94
338 94
329 99
319 99
309 99
299 99
290 104
280 104
270 100
270 90
270 80
270 70
262 64
252 64
242 64
232 64
222 64
212 64
202 64
192 64
183 69
173 69
163 69
153 69
143 69
134 74
124 74
114 74
104 74
94 74
84 77
74 79
64 79
54 79
44 82
50 90
60 90
70 90
80 90
90 90
100 90
110 90
120 90
130 90
140 85
150 85
160 85
170 85
180 80
190 80
200 80
209 85
214 94
208 104
198 104
189 109
179 109
169 109
159 109
149 109
139 112
129 114
119 114
109 114
99 117
89 119
79 119
69 119
59 119
