49 332
49 322
54 312
64 307
74 302
82 294
91 289
100 284
109 279
119 277
127 269
134 257
139 247
149 242
159 237
169 232
177 224
186 219
195 214
205 214
215 214
225 214
235 214
245 214
255 214
265 211
269 192
274 182
279 170
279 160
279 150
277 140
268 135
259 130
249 130
241 124
234 116
229 107
239 102
249 99
259 99
269 99
278 94
279 82
279 72
279 62
279 52
279 42
284 32
294 27
304 26
313 31
315 41
318 51
320 61
320 71
320 81
326 89
336 89
345 94
355 94
365 94
374 99
380 107
380 117
370 120
360 125
350 130
340 130
330 135
325 145
325 155
325 165
325 175
325 185
325 195
327 205
332 214
341 219
351 219
361 219
371 219
381 219
391 219
401 219
411 219
420 224
430 227
437 235
445 242
452 250
455 260
457 270
467 274
477 274
487 274
497 274
506 279
514 286
520 294
528 300
535 308
535 318
540 327
544 337
545 347
545 357
545 367
542 384
533 390
524 395
515 400
505 400
495 400
485 405
475 405
465 410
455 410
445 415
435 415
425 415
415 415
405 415
395 415
385 415
375 415
365 415
355 415
345 420
335 420
325 420
315 420
305 420
295 425
285 425
275 425
265 425
255 425
245 425
235 425
225 425
215 425
205 425
195 425
185 422
175 420
165 417
155 415
145 412
137 405
128 400
119 395
109 392
100 387
90 385
81 380
72 375
68 365
59 360
54 351
49 342
