29 307
24 317
29 326
34 335
43 340
52 345
61 350
70 355
79 360
88 365
97 370
107 374
117 375
127 379
137 380
147 380
157 380
167 380
177 384
187 385
197 385
207 385
217 385
227 385
237 385
247 385
257 385
267 385
277 385
287 385
297 385
307 385
317 385
327 385
336 390
345 385
355 385
365 380
375 380
385 380
395 380
404 375
414 375
423 370
432 365
441 360
450 355
460 350
470 350
480 345
490 340
500 335
508 328
515 320
520 304
520 294
517 284
508 279
499 274
490 269
480 269
471 264
462 259
452 255
444 249
434 246
424 242
420 232
420 222
420 212
410 209
400 209
390 209
380 209
370 209
361 204
351 204
342 199
333 194
323 194
314 189
304 189
295 184
295 174
295 164
290 155
290 145
290 135
290 125
290 115
290 105
300 100
310 95
320 95
330 90
340 87
339 77
332 69
322 69
312 69
302 69
292 69
284 62
280 52
280 42
280 32
274 24
264 27
254 32
254 42
254 52
253 64
244 69
234 69
224 69
214 72
204 77
194 82
199 91
206 99
216 103
226 105
236 108
244 114
244 124
244 134
244 144
244 154
244 164
236 174
226 174
216 174
207 179
197 179
187 184
177 184
167 189
157 189
147 194
137 199
127 204
122 214
117 224
107 229
97 234
87 239
77 239
69 247
59 252
49 257
44 267
39 277
34 287
34 297
