24 312
24 302
29 292
37 284
45 276
55 271
65 266
73 259
82 254
92 249
102 244
109 227
117 219
125 211
135 206
145 201
155 196
165 191
175 189
185 186
195 184
205 184
215 184
225 184
235 184
244 177
244 167
249 154
249 144
249 134
249 124
244 115
235 110
227 104
219 97
219 87
229 82
239 77
249 74
259 74
269 70
269 60
264 51
259 42
259 32
269 27
279 24
289 26
290 36
290 46
290 56
295 65
295 75
300 84
310 84
320 84
330 84
340 84
343 98
333 103
323 105
313 108
303 113
295 120
295 130
295 140
295 150
295 160
295 170
297 180
307 184
317 184
326 189
336 189
345 194
355 194
365 194
375 194
385 197
395 199
405 199
414 204
424 206
430 214
430 224
435 233
443 239
452 244
461 249
470 254
480 257
487 265
497 269
506 274
516 274
520 284
525 293
520 305
515 315
510 325
503 338
495 345
488 353
480 360
470 365
460 370
450 375
440 380
430 385
421 390
411 390
402 395
392 395
382 399
372 400
362 400
352 400
342 400
332 400
322 400
312 400
302 400
292 400
282 400
272 400
262 400
252 400
242 400
232 400
222 400
212 400
202 400
192 399
182 395
172 395
162 395
153 390
143 390
134 385
124 385
114 382
105 377
95 375
85 373
78 365
69 360
59 357
50 352
40 348
34 340
29 331
24 322
