64 337
59 347
64 356
69 365
69 375
78 380
82 390
84 400
90 408
95 417
102 425
104 435
109 444
115 452
119 462
124 471
129 480
135 488
143 494
153 490
157 500
165 490
174 485
184 482
194 480
204 477
212 469
217 460
215 450
215 440
215 430
215 420
215 410
215 400
215 390
215 380
225 380
235 380
245 375
255 370
265 365
275 365
285 365
294 360
304 360
314 357
324 355
330 345
338 338
348 333
354 325
362 319
372 314
382 310
391 305
400 300
410 300
419 295
429 292
434 282
442 275
452 275
462 274
470 265
475 255
485 255
495 255
505 250
515 245
524 240
533 235
542 229
545 216
540 207
535 198
530 189
530 179
524 171
514 169
504 169
494 172
486 179
477 184
468 189
460 196
452 204
442 209
432 209
422 209
414 217
407 229
397 229
387 229
377 234
367 234
358 239
349 244
339 242
330 256
320 261
310 266
303 274
293 274
285 281
275 286
269 294
259 297
249 302
239 312
229 317
223 329
214 334
204 337
194 342
184 347
175 354
165 350
163 340
155 334
149 326
141 320
131 324
121 324
112 319
102 319
92 324
84 332
74 334
