104 282
109 272
109 262
114 240
109 231
109 221
109 211
109 187
117 179
122 169
129 157
137 149
145 141
153 134
162 129
172 129
182 129
183 143
178 153
170 160
170 175
165 190
170 199
180 197
189 192
199 192
209 191
219 187
229 187
239 184
248 189
252 179
261 184
271 184
276 175
286 179
295 174
304 179
307 169
317 169
326 174
331 165
341 169
350 164
360 164
369 159
378 164
387 159
397 154
406 159
414 152
424 151
434 149
443 154
447 144
457 144
466 149
475 144
485 142
495 141
505 136
515 137
525 134
535 132
545 129
554 134
560 126
570 126
580 124
590 124
599 119
608 124
615 116
624 121
630 129
630 140
632 150
622 154
614 160
604 160
594 160
585 165
575 165
565 165
556 170
546 170
536 170
527 175
517 175
507 175
498 180
488 180
478 183
468 185
458 185
448 188
438 190
428 190
418 193
408 195
398 195
389 200
379 200
369 200
360 205
350 205
340 205
331 210
321 210
311 210
302 215
292 215
282 215
273 220
263 220
253 220
244 225
234 225
224 225
215 230
205 230
195 230
185 235
175 235
177 245
185 252
194 257
195 267
199 277
195 295
187 304
179 310
170 305
160 310
150 310
143 318
133 320
125 313
119 305
109 291
