74 362
74 352
79 337
84 326
79 317
84 302
84 292
84 282
94 277
104 274
114 274
123 279
133 280
143 284
152 289
155 299
160 308
155 325
155 335
160 344
170 347
180 349
190 349
200 349
210 349
220 347
230 344
240 344
250 344
259 339
269 339
279 339
288 334
297 329
307 329
317 329
327 329
337 329
347 324
357 324
367 324
377 324
387 319
397 319
407 319
417 319
426 314
436 314
446 314
456 314
466 314
476 314
486 314
495 309
505 309
515 309
525 306
535 307
545 309
553 315
557 325
555 335
553 348
543 353
535 360
525 360
516 365
507 370
497 374
487 379
477 380
468 385
459 390
449 390
440 395
430 395
421 400
411 400
402 405
392 405
382 405
372 405
362 409
352 410
342 410
332 410
322 410
312 414
302 410
292 410
282 410
272 410
262 409
252 405
242 405
232 405
222 405
212 405
202 405
193 400
183 400
173 400
164 395
154 395
145 400
145 410
140 425
140 435
135 445
125 450
115 450
106 445
96 444
89 436
84 427
84 417
84 407
84 390
79 381
74 372
