29 347
24 362
30 370
39 375
49 375
58 380
67 385
77 389
87 390
96 395
106 398
116 400
125 405
134 410
144 410
153 415
163 415
170 400
175 390
180 375
185 365
190 351
188 341
180 335
185 325
195 327
205 330
214 335
223 340
233 340
242 345
252 349
261 354
271 355
281 358
290 363
300 365
309 370
319 370
328 375
337 380
347 384
357 385
366 390
376 393
386 395
395 400
405 402
414 407
424 410
433 415
443 415
452 420
461 425
471 428
481 430
490 435
500 437
510 440
519 445
529 445
535 453
545 455
555 457
565 450
570 435
575 420
580 405
583 389
574 384
565 379
555 377
545 374
536 369
527 364
517 364
507 360
498 355
488 354
478 350
468 346
459 341
449 339
440 334
430 334
421 329
412 324
402 324
393 319
383 316
374 311
364 309
355 304
345 304
336 299
327 294
317 294
308 289
299 284
289 281
279 279
270 274
260 274
254 266
244 264
234 261
224 259
215 254
210 245
215 230
223 223
225 210
230 200
235 190
243 183
250 170
255 160
263 153
270 140
280 133
275 124
265 124
255 124
246 129
236 129
226 129
216 129
206 129
197 134
187 134
177 139
167 144
159 152
151 160
141 165
131 170
126 179
117 184
112 194
102 199
97 209
89 217
89 227
84 237
79 247
74 262
70 276
65 286
59 294
49 292
44 307
39 322
34 332
