119 372
119 362
124 352
134 347
139 332
139 322
144 312
152 304
160 296
168 289
174 277
182 269
190 261
198 254
208 254
217 259
226 264
234 271
235 281
228 293
223 303
218 313
210 320
215 329
224 334
232 340
240 347
247 355
257 359
264 367
274 371
283 376
290 384
300 387
309 392
317 399
326 404
335 409
343 415
352 420
360 427
369 432
377 439
386 444
395 449
403 455
412 460
420 467
429 472
437 479
446 484
455 489
464 494
472 500
482 504
489 512
499 516
508 521
515 529
520 538
520 550
513 563
505 570
495 570
487 564
477 560
470 552
460 548
454 540
444 537
435 532
427 525
418 520
409 515
400 510
392 504
382 500
375 492
365 488
358 480
349 475
339 472
330 467
322 460
313 455
304 450
296 444
289 436
281 430
272 425
265 417
255 413
248 405
240 398
234 390
224 387
215 382
207 375
198 370
190 363
183 355
174 360
165 365
159 382
151 390
141 390
131 389
124 381
