29 347
29 337
34 322
34 312
34 302
44 299
54 301
64 304
74 304
84 304
94 304
104 304
100 293
94 285
89 276
84 257
77 249
72 240
65 232
59 224
56 214
52 204
49 187
57 179
66 184
76 184
85 189
90 198
98 205
105 213
110 222
115 231
121 239
129 246
133 256
138 265
142 275
150 282
158 289
162 279
152 254
144 247
140 237
134 229
129 220
129 210
121 204
119 194
116 184
112 174
107 165
104 155
96 148
91 139
84 131
84 121
84 111
79 102
84 92
92 84
101 79
110 84
120 87
127 95
132 104
135 114
135 124
140 133
145 142
149 152
155 160
160 169
168 175
172 185
180 192
180 202
185 211
191 219
199 226
204 213
199 204
196 194
194 184
189 175
184 166
184 156
179 147
179 137
179 127
179 113
174 104
172 94
167 85
164 75
159 66
154 47
154 37
162 29
171 24
181 24
190 29
198 35
205 43
210 52
214 62
215 72
220 81
223 91
228 100
232 110
235 120
235 130
237 140
242 149
245 159
250 168
250 178
255 187
255 200
260 209
270 206
277 190
274 180
272 170
269 160
264 151
264 141
259 132
264 114
264 104
259 95
259 85
254 76
249 67
249 57
249 47
249 37
254 27
264 24
274 24
280 32
289 37
295 45
300 54
305 63
310 72
310 82
314 92
315 102
320 111
325 120
320 130
325 139
325 149
325 159
330 168
335 177
335 187
335 197
335 207
340 216
343 226
345 236
348 246
354 254
360 262
360 275
365 284
370 293
378 299
387 304
396 309
406 309
409 297
417 289
422 279
424 262
429 247
429 237
429 227
429 217
434 207
444 202
449 192
457 184
465 176
473 169
483 169
492 174
499 182
500 192
498 203
490 210
490 220
490 230
490 240
490 250
490 260
485 270
480 280
480 290
475 305
475 315
475 325
483 331
493 334
503 334
513 334
523 335
525 345
520 355
520 365
520 375
515 390
505 390
495 390
485 387
475 385
465 385
455 385
450 400
450 410
440 420
440 430
435 440
430 455
428 468
420 475
410 480
405 490
405 500
396 505
386 505
377 510
367 510
357 510
347 510
337 510
328 505
318 505
308 505
299 510
289 510
279 510
269 510
260 505
250 505
240 505
230 505
221 510
212 505
203 500
195 493
191 483
186 474
179 466
174 457
170 447
165 438
164 428
159 419
159 409
156 399
152 389
147 380
144 370
135 365
125 362
115 360
105 360
95 360
85 360
75 360
65 360
55 357
45 355
35 355
