114 207
114 197
122 189
132 189
142 189
151 194
160 199
165 208
170 217
170 227
174 237
175 247
175 257
180 266
180 276
186 284
190 294
190 304
195 313
205 317
205 327
212 335
222 339
224 325
224 315
222 305
219 295
219 285
214 276
214 266
214 256
214 246
214 236
214 226
209 217
209 207
214 197
222 189
231 184
236 175
246 170
256 169
266 169
276 169
284 176
285 186
285 196
283 208
275 215
275 225
275 235
280 244
280 254
280 264
285 273
285 283
293 289
299 272
299 262
299 252
299 242
299 232
299 222
299 212
299 202
299 192
299 182
299 172
299 162
299 152
299 142
299 132
299 122
299 112
299 102
299 92
299 82
304 67
312 59
322 59
332 59
342 59
351 64
359 71
363 81
365 91
365 101
365 111
365 121
365 131
365 141
365 151
365 161
360 170
360 180
362 190
365 200
365 210
365 220
365 230
365 240
365 250
365 260
365 270
365 280
365 290
370 299
379 287
379 277
379 267
384 257
384 247
389 232
389 222
395 210
387 204
384 187
384 177
394 174
403 169
413 169
422 174
430 180
435 189
445 192
452 200
455 210
455 220
455 230
455 240
455 250
450 265
450 275
445 290
445 300
445 310
445 320
445 330
445 340
445 350
445 360
445 370
435 375
435 385
435 395
443 401
445 411
454 416
455 426
460 435
470 439
479 432
487 424
495 416
500 406
508 399
515 391
523 384
530 376
539 367
547 359
557 354
567 349
577 344
587 344
597 344
607 344
616 349
624 356
625 366
625 376
618 388
608 393
600 400
593 410
584 415
578 423
573 433
565 440
558 453
550 460
548 473
540 480
534 490
525 495
520 510
515 520
508 533
500 540
495 550
489 560
483 568
475 575
468 583
460 590
453 598
445 605
439 615
430 620
420 625
410 625
402 634
394 640
385 645
380 655
380 665
375 675
365 675
355 675
345 675
335 675
325 675
315 675
305 675
295 675
285 675
275 675
265 675
255 675
245 675
235 675
225 675
215 675
205 675
195 675
185 675
179 667
179 657
184 642
189 632
189 622
194 612
194 602
194 592
194 582
189 573
189 563
184 554
181 544
179 534
176 524
174 514
174 504
171 494
169 484
169 474
169 464
169 454
169 444
169 434
169 424
169 414
169 404
169 394
164 385
164 375
162 365
159 355
149 352
145 342
140 333
139 323
134 314
134 304
129 295
127 285
124 275
119 266
119 256
114 247
114 237
114 227
114 217
