54 232
54 251
59 260
68 265
77 270
87 270
97 270
107 270
117 270
127 270
137 270
147 270
157 270
167 270
177 270
187 270
197 270
207 274
217 275
227 275
237 275
247 275
257 275
267 279
274 287
266 294
256 294
246 295
236 299
226 300
216 304
207 309
197 309
187 314
178 319
168 319
159 324
150 329
140 331
130 334
120 336
110 339
101 344
91 345
81 349
72 354
64 362
64 372
64 382
69 391
76 399
86 400
96 400
106 400
115 395
125 395
134 390
144 387
154 385
164 385
173 380
183 380
193 380
203 380
213 378
223 375
233 375
242 370
252 369
262 365
272 364
282 360
292 360
289 377
289 401
294 410
300 418
308 425
323 430
315 436
305 441
295 446
285 451
275 454
266 459
257 464
247 464
237 469
228 474
220 481
212 489
204 497
204 507
204 517
212 524
221 529
231 530
240 525
250 520
260 520
269 515
278 510
287 505
296 500
306 500
315 495
325 490
335 485
345 485
354 480
363 475
373 475
382 470
392 469
402 465
411 460
421 460
430 455
440 450
450 450
459 445
469 445
478 440
488 438
498 433
508 430
517 425
526 420
535 415
545 410
555 405
563 398
570 390
580 385
589 380
599 377
609 372
610 354
610 344
610 334
610 324
610 314
610 304
610 294
610 284
610 274
610 264
610 254
610 244
610 234
610 224
610 214
610 204
610 194
607 184
598 179
589 184
579 184
569 184
559 184
550 179
541 174
531 174
522 169
514 162
505 157
497 150
488 145
480 139
470 137
462 130
453 125
445 119
436 114
427 109
417 105
408 100
398 99
388 95
378 94
368 90
358 89
349 84
340 79
331 74
322 69
312 69
302 69
293 64
283 60
275 53
268 45
260 39
250 36
242 44
234 52
234 62
234 72
239 81
244 90
250 98
258 105
262 115
272 119
280 125
290 127
300 130
310 132
317 140
327 144
337 145
346 150
355 155
364 160
363 174
355 181
348 189
338 189
329 194
319 194
309 197
299 199
289 199
279 199
269 199
259 199
249 201
239 204
229 204
219 204
209 204
199 204
189 204
179 204
169 204
160 209
150 209
140 209
130 209
120 211
110 214
100 214
90 214
80 214
71 219
62 224
