24 127
24 117
29 107
29 97
34 87
39 77
44 67
52 59
57 49
65 41
75 36
85 31
95 26
105 24
115 24
125 24
135 24
145 24
155 24
165 27
174 32
184 36
193 41
203 45
212 50
220 57
227 65
235 72
242 80
247 89
250 99
255 108
260 117
265 126
270 135
275 144
280 153
285 162
295 161
300 151
305 141
310 131
318 124
322 114
327 104
332 94
337 84
345 76
353 69
360 61
365 51
375 46
385 41
394 46
400 54
400 64
405 73
410 82
414 92
419 101
429 104
439 104
449 104
458 99
468 99
477 94
487 94
496 89
506 89
515 84
525 87
532 95
537 104
540 114
545 123
545 133
550 142
550 152
550 162
550 172
550 182
550 192
545 210
545 220
542 234
537 244
532 254
527 264
522 274
517 284
512 294
504 300
495 305
485 305
475 303
466 298
456 294
447 289
437 285
428 280
419 275
409 275
400 270
395 280
397 290
400 300
400 310
405 319
410 328
410 338
415 347
415 357
415 367
415 377
408 388
398 393
388 398
378 403
368 408
358 413
348 418
340 425
333 433
323 438
313 443
303 448
295 455
285 452
277 445
270 437
262 430
255 422
247 415
238 410
230 403
224 395
214 391
209 382
200 377
192 370
183 365
175 358
169 350
160 345
151 340
142 335
138 325
129 320
121 314
112 309
104 302
97 294
89 287
82 279
74 272
70 262
62 255
59 245
49 242
44 233
39 224
34 215
29 206
29 196
29 186
24 177
24 167
24 157
24 147
24 137
