39 97
39 87
44 77
52 69
62 69
71 64
79 57
89 52
97 44
107 39
117 39
127 34
137 34
147 34
156 29
165 34
175 34
185 34
195 37
200 46
210 49
220 52
229 57
237 64
246 69
256 69
265 74
270 83
280 84
290 87
294 97
302 104
311 109
315 119
323 125
333 129
342 134
352 134
361 139
370 144
380 144
390 144
400 144
410 144
419 139
429 137
439 134
449 134
459 134
469 134
479 136
489 139
498 144
508 144
517 149
526 154
536 154
545 159
555 162
565 164
575 167
583 174
593 174
602 179
611 184
621 184
630 189
640 192
649 197
659 199
669 199
679 199
688 204
698 205
708 209
717 214
727 214
737 214
747 214
756 219
765 224
773 230
783 234
793 235
802 240
801 255
792 260
782 260
772 260
762 260
752 260
742 260
733 255
723 255
714 250
704 250
694 250
685 245
675 245
665 245
655 242
645 240
636 235
626 233
616 230
606 228
600 220
590 220
590 230
595 239
600 248
600 258
605 267
609 277
610 287
619 292
629 294
639 294
648 299
657 304
664 312
672 319
675 329
680 338
688 345
692 355
700 362
707 370
717 374
726 379
735 384
735 394
740 403
736 415
726 415
716 414
709 406
701 400
692 395
689 385
681 378
676 369
667 364
659 357
652 349
642 345
633 340
623 340
613 340
603 340
594 335
585 330
576 325
566 325
556 325
547 320
538 315
530 308
523 300
515 293
509 285
499 282
495 272
485 270
475 275
465 285
465 295
465 305
465 315
465 325
465 335
455 340
445 345
435 345
425 345
415 345
405 345
395 345
385 345
375 345
365 350
359 362
349 367
339 365
329 362
329 352
339 347
347 339
352 329
360 321
370 316
380 317
390 319
400 316
410 311
414 295
405 290
396 295
386 295
376 295
366 295
356 295
346 295
336 295
326 295
316 295
307 300
297 300
287 304
277 305
268 310
259 315
250 320
250 330
250 340
260 344
270 344
279 339
284 327
294 324
304 324
312 330
310 345
302 354
293 360
284 365
274 365
265 370
255 367
247 360
238 355
229 350
219 350
211 344
209 334
204 325
204 315
202 305
193 300
183 300
173 300
163 300
153 300
143 300
134 305
125 310
118 318
108 323
100 330
95 340
87 349
77 354
68 360
59 355
49 352
49 342
54 332
64 329
73 324
80 316
88 309
95 301
105 296
113 289
122 284
127 274
137 269
147 264
157 264
167 264
177 264
187 259
194 251
194 241
189 232
189 222
189 212
190 197
185 188
184 178
179 169
179 159
174 150
174 140
164 137
164 127
159 118
152 110
142 110
132 110
122 110
112 110
102 110
92 110
82 110
74 117
64 115
55 110
47 104
