24 102
24 92
29 82
34 62
39 47
49 46
59 44
68 39
78 39
87 34
97 34
107 29
117 29
126 34
136 34
144 27
154 24
164 24
173 29
182 24
191 29
201 25
209 31
215 39
215 49
223 55
225 65
230 80
235 89
244 94
254 96
264 99
274 99
284 99
294 99
304 99
313 104
322 99
332 99
342 99
352 99
362 99
372 99
382 99
392 99
402 99
412 99
422 99
432 99
442 99
451 104
460 109
469 104
478 109
488 109
497 104
507 104
516 109
526 109
536 109
544 116
550 124
560 127
555 145
545 155
539 172
531 180
521 180
512 175
503 180
493 180
484 175
474 177
467 185
458 180
448 180
438 180
429 185
420 180
410 180
400 180
390 180
380 178
371 173
365 165
355 170
346 175
336 175
326 175
317 180
307 180
297 180
288 185
279 190
269 190
259 190
249 187
239 190
229 190
220 195
210 205
205 215
205 225
200 235
197 249
189 255
179 257
169 262
159 265
149 265
139 265
129 265
119 265
109 262
99 261
91 255
82 250
73 245
63 245
54 240
45 235
37 229
29 222
29 212
24 187
24 177
24 167
24 157
24 147
24 137
24 127
24 117
