24 127
24 117
32 109
34 92
39 82
47 74
55 66
63 59
72 54
80 46
88 39
98 39
107 34
117 29
127 24
136 29
145 24
155 24
165 24
175 24
185 24
195 27
205 29
213 35
220 43
228 50
230 60
235 69
240 78
240 88
245 97
255 99
263 105
270 113
279 107
289 107
299 104
309 104
319 104
329 104
339 104
349 104
359 104
369 106
379 109
389 106
399 106
409 109
419 111
429 111
439 111
449 114
459 114
469 114
478 119
488 119
498 119
508 119
517 114
527 109
530 119
540 117
547 125
555 132
557 144
549 152
539 152
529 157
519 160
510 155
501 160
491 158
481 155
471 158
461 160
451 160
441 160
432 165
422 165
412 165
402 169
392 170
382 174
372 175
363 170
353 170
344 175
334 172
324 172
314 175
305 170
296 175
287 170
278 175
268 178
258 180
249 175
240 180
240 190
240 200
235 215
230 225
225 235
218 243
210 250
201 255
192 260
182 260
172 260
162 260
152 260
142 260
132 260
122 259
112 255
103 250
94 245
84 242
75 237
67 230
60 222
52 215
45 207
40 198
39 188
34 179
32 169
