84 232
84 222
89 212
94 202
94 192
99 182
107 174
115 166
123 159
130 151
138 144
147 139
156 134
164 127
174 124
183 119
193 119
202 114
212 114
222 114
232 114
242 114
252 114
262 114
272 114
282 114
291 119
301 119
310 124
320 127
330 129
335 138
343 145
345 155
345 165
350 174
355 183
363 190
373 194
383 194
393 194
402 189
412 189
421 194
430 199
439 204
449 206
458 211
468 214
478 214
487 209
497 209
507 204
517 204
526 209
536 209
545 214
555 214
564 219
574 219
583 214
593 214
603 214
613 215
622 220
627 229
636 234
640 244
648 250
648 268
638 273
628 278
620 285
612 294
602 299
592 300
582 300
573 295
563 295
554 290
544 292
534 295
524 295
514 295
505 300
495 297
485 295
475 295
467 289
457 285
448 290
438 293
428 295
418 298
410 305
400 305
390 305
380 305
370 305
360 305
350 305
345 315
340 330
335 345
335 355
327 364
318 370
308 370
298 373
288 375
278 375
269 380
259 380
249 380
239 380
229 380
219 380
209 380
199 380
189 380
180 375
171 370
161 369
152 364
144 357
137 349
129 342
124 333
117 325
114 315
106 309
102 299
97 290
94 280
89 271
84 262
84 252
84 242
