19 162
19 172
14 182
19 191
24 200
27 210
34 218
35 228
43 235
47 245
55 252
62 260
70 267
77 275
85 282
92 290
100 297
107 305
112 314
116 324
124 330
127 340
135 347
142 355
152 355
161 360
171 360
181 360
190 355
200 355
208 348
218 345
227 340
236 335
245 330
253 323
260 315
268 308
273 298
278 288
283 278
288 268
295 260
304 255
314 255
324 255
332 249
337 239
342 229
352 225
361 220
371 220
381 220
391 220
401 220
411 220
421 220
431 220
441 220
451 220
461 220
471 220
481 220
491 220
501 220
511 223
521 225
531 225
541 225
551 225
561 225
571 225
581 225
591 225
601 225
611 225
621 225
617 214
607 214
597 214
587 214
578 209
568 205
558 204
548 204
538 204
528 204
518 200
508 199
498 199
488 199
478 199
469 194
459 194
449 191
439 189
429 189
419 189
409 189
399 186
389 184
379 184
369 181
359 179
350 174
345 165
342 155
335 147
327 140
318 135
308 134
298 131
295 121
295 111
295 101
290 92
285 83
280 74
273 66
265 60
257 54
248 49
240 43
233 35
223 34
215 27
205 24
196 19
187 14
177 14
167 14
158 19
149 24
139 27
130 36
122 44
114 52
107 64
102 74
98 84
90 91
82 99
72 104
67 114
58 119
50 126
42 134
34 142
27 154
