119 102
119 92
129 87
137 79
147 79
156 84
165 89
175 92
182 100
190 107
197 115
205 122
212 130
217 139
224 147
234 151
240 159
250 159
260 156
270 151
280 149
289 144
298 139
308 139
317 134
327 134
337 129
346 134
356 134
366 130
376 134
386 134
396 134
405 139
415 142
425 144
434 149
444 151
453 156
460 164
468 170
475 178
483 185
485 195
490 204
500 204
510 201
520 199
529 194
539 192
549 187
559 184
568 179
577 174
587 174
596 169
606 169
615 164
625 167
630 176
625 185
621 200
612 205
604 212
596 220
586 220
577 225
567 229
557 230
547 234
537 234
527 239
517 239
507 244
497 249
489 255
480 260
470 265
463 273
455 280
460 289
465 298
470 307
475 316
480 325
485 334
485 344
490 353
490 365
490 375
490 385
490 395
490 405
485 415
485 425
480 435
475 445
470 460
468 473
460 480
455 490
450 500
448 513
440 520
438 533
430 540
425 550
420 560
412 574
402 579
393 585
384 590
375 595
365 595
356 600
346 600
336 600
326 600
316 600
307 595
297 595
288 590
280 583
273 575
265 568
261 558
256 549
249 541
244 532
240 522
232 515
222 515
212 515
202 515
192 515
183 510
174 505
164 507
164 497
172 489
180 481
188 474
195 466
203 459
204 446
204 436
204 416
199 407
199 397
199 387
204 377
204 367
209 357
214 347
219 337
219 327
229 317
234 307
235 292
227 285
220 277
212 270
209 260
199 242
204 231
199 222
204 212
204 202
205 188
199 180
191 174
184 166
176 160
167 155
158 150
150 143
143 135
135 128
129 120
