22 294
24 305
33 310
43 310
52 315
62 315
72 319
82 320
92 320
102 320
112 320
122 320
131 325
140 330
149 335
158 340
167 345
177 349
187 350
196 355
206 355
215 360
225 360
234 365
244 365
254 365
263 370
273 370
282 375
290 382
297 390
304 398
309 407
317 414
324 422
329 431
336 439
344 445
350 453
355 462
362 470
370 477
374 487
382 494
389 502
397 509
401 519
409 525
415 533
423 540
433 540
443 540
452 545
461 540
471 540
475 530
470 521
470 511
470 501
465 492
465 482
464 472
460 462
460 452
455 443
455 433
455 423
450 414
450 404
450 394
445 385
445 375
454 370
464 370
474 370
483 375
492 380
500 387
507 395
515 402
522 410
532 414
539 422
547 429
554 437
562 444
571 449
579 455
587 449
597 444
600 430
600 420
595 411
595 401
590 392
589 382
585 372
578 364
568 360
558 356
550 350
566 350
570 337
570 327
570 317
564 309
554 309
545 304
540 295
545 285
554 280
564 277
570 261
570 251
565 242
555 239
545 237
540 228
535 219
525 219
515 219
505 219
495 219
485 219
475 219
465 219
455 219
445 215
445 205
445 195
445 185
450 170
450 160
450 150
450 140
455 125
455 115
455 105
455 95
460 85
460 75
460 65
462 49
452 49
442 49
432 49
422 49
413 54
405 61
397 69
389 77
383 89
375 96
370 106
363 114
355 121
350 131
342 139
334 147
327 159
319 167
313 179
305 186
300 196
292 204
284 212
279 222
270 229
260 229
250 229
241 234
231 234
221 235
211 239
201 240
191 244
182 249
172 249
162 254
152 259
142 264
132 269
122 274
112 279
102 279
92 279
82 279
72 284
62 284
52 284
42 289
32 289
