34 71
29 62
37 54
45 46
55 41
65 36
73 29
82 24
92 19
102 19
111 24
120 19
129 24
139 21
149 19
158 24
167 19
176 24
186 24
195 29
205 26
215 29
225 29
235 32
245 34
255 34
264 29
274 31
284 29
294 29
304 26
314 24
324 24
333 19
343 19
353 19
362 14
372 14
381 19
391 19
400 24
408 30
418 34
428 34
438 34
447 29
457 29
467 29
476 24
486 24
495 29
500 40
500 50
495 60
490 70
485 85
475 95
480 104
489 109
497 115
505 122
509 132
510 145
505 160
500 170
492 179
483 185
474 190
465 195
455 200
445 205
450 214
450 224
455 233
460 242
465 251
471 259
479 266
485 274
493 280
500 288
505 297
510 306
510 316
510 330
510 340
508 353
503 363
495 370
485 375
475 375
465 372
455 370
446 365
436 364
427 359
417 355
407 355
398 350
388 350
378 350
368 350
359 355
350 360
340 365
335 375
330 385
325 395
330 404
339 409
349 409
358 414
368 414
377 419
387 419
396 424
406 424
415 429
424 434
434 436
444 439
453 444
462 449
471 454
479 461
480 471
470 475
460 485
450 490
441 495
432 500
422 504
413 510
404 515
394 517
384 520
375 525
365 525
355 530
345 530
335 530
325 530
315 532
305 530
295 530
286 525
276 523
266 520
257 515
248 510
239 505
230 500
220 500
211 495
201 493
191 490
181 490
172 485
163 480
154 475
146 468
141 459
134 451
129 442
124 433
119 424
114 415
106 408
96 405
86 405
77 410
70 402
64 394
59 385
54 376
49 352
54 342
54 332
59 322
64 312
72 304
77 294
82 284
87 274
92 264
94 252
99 242
104 227
104 212
109 177
104 168
104 158
100 148
94 140
89 131
84 122
79 113
72 105
65 97
55 93
49 85
41 79
