129 257
129 247
137 239
146 234
155 229
164 224
173 219
180 211
188 204
184 189
184 179
179 170
179 160
174 151
169 142
169 132
164 123
160 113
159 103
154 94
154 84
149 75
149 65
144 56
149 44
159 44
168 39
178 39
188 39
198 39
207 34
217 34
227 34
237 34
247 29
257 29
264 37
265 47
270 56
273 66
278 75
280 85
285 94
285 104
290 113
295 122
295 132
305 134
315 134
325 134
335 134
345 134
355 134
365 134
375 134
385 137
395 139
405 139
414 144
424 146
433 151
440 159
449 164
457 170
465 177
472 185
480 192
488 199
497 204
504 212
514 216
523 221
533 224
543 224
553 224
562 219
572 214
582 214
592 214
602 214
609 222
610 232
605 245
600 260
595 270
595 280
595 290
600 299
608 305
615 313
620 322
620 332
620 342
615 355
607 364
602 374
593 380
584 385
575 390
565 395
555 400
555 410
560 419
565 428
570 437
575 446
581 454
589 461
598 466
603 475
610 483
615 492
619 502
620 512
620 522
620 532
620 542
615 560
607 569
599 575
589 575
579 575
570 570
561 565
551 564
542 559
532 555
522 555
513 550
503 550
494 545
485 550
475 550
465 550
458 558
450 565
452 575
455 585
460 594
460 604
465 613
475 617
485 619
495 619
504 624
514 626
523 631
533 635
543 639
552 644
561 649
570 654
580 657
585 666
580 680
572 689
562 694
552 699
544 705
535 710
525 710
515 715
505 720
507 730
510 740
515 749
515 759
520 768
525 777
525 787
530 796
533 806
535 816
540 825
545 834
545 844
550 853
555 862
546 870
537 875
527 875
517 879
507 880
497 880
488 885
478 885
469 890
459 890
449 892
439 895
429 895
420 900
410 897
405 888
404 878
399 869
396 859
394 849
391 839
389 829
384 820
384 810
379 801
374 792
374 782
369 773
365 763
364 753
360 743
359 733
354 724
349 715
340 710
330 707
320 703
311 698
301 695
292 690
282 690
272 690
263 685
255 678
249 670
241 664
234 656
229 647
229 637
222 629
214 622
210 612
202 605
192 605
182 605
173 610
165 603
159 595
154 586
154 576
149 567
149 557
149 547
149 537
154 522
159 512
167 504
174 492
179 477
184 467
189 452
194 442
199 427
204 412
204 402
204 392
204 382
204 372
204 362
204 352
199 343
194 334
192 324
184 317
179 308
173 300
165 293
159 285
151 278
141 274
134 266
