139 646
134 637
142 629
151 624
161 624
171 624
181 624
191 624
201 624
211 624
221 624
231 624
241 624
251 625
259 619
254 610
246 604
242 594
234 587
234 577
234 567
234 557
234 547
234 537
234 527
234 517
239 502
244 487
259 447
264 437
272 429
277 419
282 410
280 400
270 400
260 405
251 410
242 415
233 420
224 425
214 425
204 427
194 430
184 430
179 416
179 406
179 396
179 377
184 367
192 359
197 349
202 339
211 334
214 322
224 312
232 304
239 287
247 279
249 267
262 244
264 230
263 220
255 213
249 205
239 202
232 194
224 187
224 177
224 167
224 157
224 147
224 137
224 127
224 117
229 107
237 99
242 89
252 89
261 84
271 80
281 79
290 74
300 74
310 74
320 77
327 85
332 94
341 99
349 106
355 115
360 124
365 133
365 143
365 153
365 163
365 173
375 169
380 178
390 176
400 171
408 164
409 152
417 144
426 139
435 134
445 134
455 134
465 134
475 134
485 134
495 131
501 139
510 144
520 144
520 154
528 160
530 170
530 180
530 190
525 200
530 209
530 219
530 229
530 239
530 249
530 259
530 269
530 279
523 295
514 300
505 305
495 305
486 310
476 310
466 309
457 304
447 304
439 297
430 292
420 290
410 295
403 308
395 315
385 320
378 333
373 343
363 348
358 358
350 365
360 369
370 369
380 369
390 372
397 380
405 387
412 395
415 410
420 419
430 419
440 419
450 419
460 422
469 427
475 435
475 450
465 450
455 450
455 460
457 470
447 474
439 468
432 460
425 452
417 445
413 435
405 428
398 420
390 413
384 405
375 400
365 400
365 410
365 420
365 430
365 445
370 454
370 464
370 474
370 484
375 493
383 500
385 510
387 520
395 527
399 537
409 539
419 539
429 539
439 539
449 539
459 539
469 539
479 541
489 532
494 522
499 507
499 497
504 487
512 479
514 447
519 427
524 417
524 407
529 397
539 387
549 384
558 379
567 374
576 379
585 384
593 390
595 400
594 412
584 415
574 415
564 415
555 420
550 430
545 440
545 450
545 460
545 470
545 480
545 490
545 500
540 510
533 523
525 530
520 540
514 550
505 555
495 555
485 560
475 565
465 565
455 565
445 565
435 565
425 565
415 565
405 565
402 579
394 585
385 590
378 598
370 605
368 618
360 625
370 629
380 629
390 629
399 624
409 621
419 619
429 619
439 619
448 624
458 624
465 632
472 640
480 647
472 660
462 660
452 660
442 660
432 660
422 660
412 660
402 660
392 660
382 660
372 660
362 660
352 660
342 660
332 659
324 652
324 642
324 632
324 622
332 614
337 604
342 595
339 585
339 575
330 570
320 570
310 570
300 570
290 570
290 580
290 590
285 605
285 615
280 625
280 635
275 645
265 650
256 655
246 655
236 655
226 655
216 655
206 655
196 655
186 655
176 655
166 655
156 653
146 654
