179 277
179 267
184 257
189 247
194 237
202 229
210 221
218 214
225 206
230 196
240 191
248 184
255 176
263 169
270 161
278 154
285 146
293 139
297 129
305 121
310 111
318 104
324 92
332 84
340 76
348 69
355 61
363 54
369 42
377 34
385 26
395 24
403 30
410 38
418 45
425 53
433 60
442 65
447 74
454 82
462 89
469 97
475 105
480 114
489 119
495 127
502 135
510 142
517 150
525 157
534 162
542 169
549 177
557 184
564 192
572 199
579 207
587 214
594 222
600 230
605 239
610 248
615 257
615 267
615 277
613 293
605 300
600 310
593 318
585 325
577 339
569 345
563 353
555 360
547 369
539 377
529 382
521 390
512 395
503 400
494 405
485 410
475 410
468 418
460 425
455 440
450 450
445 460
440 470
433 478
425 485
420 500
420 510
420 520
420 530
420 540
420 550
420 560
420 570
420 580
420 590
420 600
420 610
420 620
420 630
420 640
420 650
420 660
420 670
420 680
420 690
420 700
422 710
425 720
425 730
425 740
420 750
420 760
417 770
409 764
404 755
399 746
399 736
399 726
399 716
394 707
394 697
394 687
394 677
399 663
399 653
394 644
394 634
394 624
394 614
391 604
389 594
389 584
389 574
389 564
386 554
384 544
384 534
384 524
384 514
384 504
379 495
379 485
378 475
368 475
359 470
349 466
349 456
344 447
340 437
335 428
329 420
319 417
310 412
300 408
291 403
281 399
274 391
266 385
257 380
250 372
242 365
235 357
227 350
218 345
210 338
203 330
195 323
189 315
184 306
179 297
179 287
