39 427
39 417
47 409
55 401
65 396
75 391
85 386
95 381
105 376
115 371
123 364
132 359
142 354
152 349
162 344
172 339
182 339
191 334
199 327
199 317
209 312
219 309
228 304
234 292
239 277
244 267
249 257
249 247
254 230
244 230
234 232
224 231
219 222
227 214
236 209
245 204
255 201
265 196
273 189
277 179
279 167
284 152
289 137
294 127
299 117
304 107
312 99
320 91
328 84
337 79
347 79
355 85
360 94
360 104
365 113
370 122
374 132
379 141
383 151
393 154
399 142
407 134
417 134
424 142
429 151
430 161
424 172
414 175
405 170
395 170
395 180
400 189
405 198
405 208
410 217
414 227
415 237
425 239
435 236
445 234
455 231
465 229
475 226
485 224
495 221
505 219
514 214
523 209
527 199
532 189
537 179
542 169
544 157
552 149
557 139
565 131
575 132
580 141
585 150
587 160
592 169
595 179
600 188
600 198
605 207
610 216
615 225
617 235
622 244
625 254
630 263
625 275
615 280
606 275
596 273
586 270
577 265
567 264
557 260
548 255
539 250
529 252
519 257
509 260
500 265
490 270
481 275
472 280
463 285
454 290
445 295
445 305
450 314
455 323
460 332
464 342
465 352
469 362
479 362
484 352
492 344
502 344
509 352
514 361
515 371
509 382
499 385
490 380
480 380
480 390
482 400
487 409
490 419
495 428
495 438
500 447
504 457
496 465
487 470
478 475
468 475
458 475
449 470
439 467
430 462
420 458
411 453
401 449
392 444
382 440
373 435
363 433
353 435
344 440
334 442
324 445
314 445
304 442
304 432
312 424
321 413
311 409
304 401
296 395
287 390
278 385
269 380
260 385
250 385
240 390
230 393
223 385
213 388
203 390
194 395
184 397
174 400
164 402
154 405
145 410
135 410
126 415
116 415
107 420
97 420
88 425
78 425
69 430
59 430
49 430
