154 432
154 422
162 414
171 419
180 414
190 417
200 414
209 409
218 404
219 392
224 382
229 367
234 352
239 342
244 327
244 317
244 307
249 297
257 289
269 272
277 264
287 259
295 251
305 246
315 241
323 234
329 226
329 204
321 198
315 190
309 182
300 177
290 173
284 165
274 166
266 160
256 159
249 151
244 142
245 132
237 125
228 120
220 113
213 105
205 98
199 90
189 86
192 59
201 54
211 54
221 54
231 54
241 54
250 59
258 65
263 74
270 82
279 87
289 84
299 84
309 86
319 89
329 91
335 99
345 97
354 102
364 106
373 111
383 115
392 120
397 129
404 137
412 144
415 154
420 163
425 172
425 182
433 189
442 194
451 199
455 209
463 215
465 225
465 235
465 245
465 255
465 265
465 275
465 285
465 295
465 305
465 315
465 325
475 329
485 332
494 337
504 341
513 346
523 349
532 354
541 349
550 354
560 352
569 357
577 364
586 369
594 376
600 384
605 393
610 402
615 411
615 421
615 431
612 444
604 450
594 447
585 442
575 438
569 430
559 428
552 420
543 415
535 408
528 400
519 395
511 389
502 384
497 375
487 375
480 367
470 363
464 355
454 355
445 350
435 352
427 345
420 337
414 329
409 320
407 310
404 300
399 291
399 270
389 270
380 275
370 275
360 277
350 275
340 275
330 280
320 285
310 290
303 298
293 298
285 305
285 315
285 325
280 340
280 350
275 360
275 370
273 383
265 390
260 400
255 415
250 425
243 433
235 440
233 458
225 465
215 470
206 465
197 460
189 454
181 448
171 444
162 439
