159 402
162 419
166 429
171 438
175 448
180 457
189 462
199 465
208 460
215 450
223 443
225 430
230 420
235 410
235 400
245 390
255 385
265 380
273 373
279 365
287 359
292 349
297 339
302 329
307 319
312 309
317 299
325 290
335 285
345 280
355 275
365 275
375 275
384 270
392 264
402 264
407 255
416 260
419 270
439 295
445 303
455 305
464 310
474 310
483 315
492 320
502 320
512 324
522 325
532 325
542 329
551 334
561 333
571 333
581 333
591 333
601 333
611 333
621 333
630 338
640 340
649 345
655 353
663 360
670 368
678 375
687 380
695 387
700 375
700 360
700 345
700 330
700 315
700 300
700 285
700 270
700 257
694 249
684 249
674 249
664 252
654 257
646 265
641 274
632 279
623 284
613 284
603 284
593 284
583 284
573 284
563 284
553 284
543 284
533 284
523 284
513 284
503 280
495 273
495 263
490 254
485 245
480 236
475 227
475 217
470 208
470 198
465 189
460 180
455 170
450 156
445 147
437 140
430 132
420 129
417 119
409 112
400 107
390 104
381 99
371 99
366 90
356 89
347 84
337 84
327 85
319 79
309 81
299 79
289 81
279 79
269 82
260 77
250 74
241 69
232 64
222 60
213 55
205 61
195 66
187 74
182 84
177 94
169 102
164 112
164 122
169 131
179 135
188 140
197 145
207 149
217 150
225 157
235 157
244 162
254 165
257 175
267 179
274 187
284 190
293 195
300 203
310 207
320 210
330 212
340 215
350 215
359 220
355 231
347 239
339 247
329 252
319 257
309 262
299 267
284 287
279 297
274 307
266 319
257 324
252 334
247 344
239 352
234 362
234 372
224 377
216 385
206 389
196 389
187 394
177 394
167 394
