39 287
39 277
49 274
59 274
68 279
78 279
88 279
98 279
108 279
118 279
124 267
129 257
137 249
142 239
152 234
162 229
170 221
178 214
187 209
194 201
189 192
189 182
189 172
189 162
189 152
194 137
199 127
209 122
219 119
229 119
239 119
249 119
259 121
260 131
260 141
265 150
270 159
265 170
265 180
260 195
265 204
275 204
285 204
294 209
303 204
313 204
322 199
331 194
340 189
350 189
360 189
370 189
379 184
389 184
399 184
409 184
418 189
428 190
438 194
448 194
457 199
466 204
475 209
483 215
490 223
500 227
507 235
515 242
524 247
532 254
539 262
540 272
550 274
560 274
570 274
580 274
589 279
599 279
609 279
619 279
628 284
638 284
648 284
658 284
665 292
665 302
662 314
654 320
644 320
634 320
624 320
615 315
605 315
595 315
585 315
575 315
565 315
565 325
567 335
575 342
575 352
570 365
570 375
565 390
565 400
567 410
570 420
568 433
563 443
555 450
546 455
537 460
527 460
517 460
507 460
497 464
487 465
477 465
467 469
457 470
447 470
437 470
427 470
417 470
408 475
398 475
388 475
378 475
368 475
359 470
350 465
344 457
352 449
350 435
340 435
330 435
321 440
311 440
302 445
293 440
283 440
273 440
264 445
254 447
244 450
234 450
225 445
219 437
229 432
239 429
248 424
244 407
240 397
235 388
229 380
219 376
211 370
202 365
195 357
187 350
177 350
168 345
159 340
150 335
140 332
130 328
124 320
115 315
105 315
95 312
85 310
75 307
65 305
55 305
45 305
39 297
