154 247
154 237
159 227
164 212
174 209
183 204
187 194
197 194
202 184
204 172
204 162
209 152
209 142
219 132
219 122
229 117
229 107
237 99
247 94
255 86
265 84
271 75
281 74
291 74
300 79
309 84
319 86
325 94
331 85
336 75
346 70
356 65
361 55
371 54
381 54
391 54
401 54
405 64
415 64
425 67
435 64
441 55
449 49
459 49
468 44
478 44
488 45
498 49
508 50
515 58
525 54
535 51
545 49
554 44
564 44
574 44
583 49
593 50
602 55
605 65
615 69
620 78
625 87
625 97
633 104
643 105
647 115
655 122
664 127
665 137
669 147
670 157
670 167
670 177
665 195
665 205
670 214
670 224
680 227
680 237
680 247
680 257
680 267
670 275
670 285
665 300
665 310
659 320
650 325
645 340
635 345
625 345
620 355
615 370
605 370
605 380
600 390
595 405
585 410
577 420
572 429
562 430
552 430
543 435
533 435
523 435
514 430
505 435
495 435
490 450
485 460
475 470
469 480
460 485
450 485
440 485
430 495
425 505
419 517
409 522
399 525
389 525
379 525
370 520
362 514
357 505
354 495
344 492
344 482
344 472
354 460
345 455
335 455
325 455
316 460
306 460
296 460
286 460
276 459
267 454
257 450
254 440
246 434
244 424
236 418
230 410
220 410
210 407
200 403
193 395
185 388
179 380
179 370
170 365
164 357
164 347
164 337
174 334
179 317
184 303
177 295
167 295
164 285
159 276
154 267
154 257
