159 122
159 112
169 107
169 97
177 89
187 84
195 76
205 74
215 74
225 74
234 69
244 69
254 69
264 69
274 69
284 69
294 69
304 69
314 69
324 69
334 69
344 69
354 69
364 69
374 69
383 64
393 64
403 64
413 64
423 64
433 64
443 64
453 64
463 64
473 64
483 64
493 64
503 64
513 64
523 64
533 64
543 64
553 64
563 64
572 69
582 69
592 69
601 74
611 74
615 84
620 93
630 97
630 107
630 117
630 127
630 137
630 147
630 157
630 167
630 177
634 187
635 197
635 207
635 217
635 227
635 237
635 247
635 257
635 267
635 277
635 287
630 300
624 310
615 315
605 320
600 330
590 330
580 335
570 335
560 335
550 335
550 345
545 355
540 365
530 375
530 385
530 395
525 405
520 420
510 425
505 435
505 445
498 455
489 460
479 457
479 447
474 438
474 428
465 423
464 413
459 404
454 395
454 385
450 375
440 373
439 363
436 353
430 345
420 345
410 345
400 345
390 345
380 345
370 345
360 345
350 345
340 345
330 345
320 345
310 345
300 345
290 345
280 345
272 355
262 355
252 355
242 355
232 355
222 355
214 348
205 343
199 335
189 332
184 323
175 318
169 310
165 300
159 292
159 282
159 272
159 262
159 252
159 242
159 232
159 222
159 212
159 202
159 192
159 182
159 172
159 162
159 152
159 142
159 132
