79 217
79 207
84 192
84 182
89 167
99 162
99 152
107 144
114 132
122 124
130 116
140 114
149 109
159 102
169 99
178 94
185 86
195 84
204 79
214 72
224 69
233 64
243 64
253 64
263 64
270 56
280 54
290 54
300 54
310 54
320 54
329 49
339 49
349 49
359 49
369 49
378 54
388 54
398 54
408 54
418 54
428 54
435 62
445 64
455 64
465 64
474 69
484 71
490 79
500 79
510 82
520 84
525 93
535 97
545 99
550 108
560 109
569 114
579 116
585 124
593 130
595 140
603 146
610 154
610 164
620 167
620 177
625 186
625 196
628 206
630 216
625 230
625 240
620 255
614 270
605 275
597 290
592 299
584 305
575 310
565 310
557 320
547 324
537 325
532 334
522 335
512 339
502 340
494 347
484 350
474 350
465 355
455 355
445 355
435 355
429 365
419 365
409 365
399 365
389 365
379 365
370 370
360 370
350 370
340 370
330 370
320 370
310 370
306 380
297 385
292 394
284 400
275 405
270 415
260 420
252 430
242 434
237 444
227 449
222 459
212 464
207 474
197 479
189 487
179 487
179 477
184 467
184 457
184 447
184 437
194 432
194 422
194 412
194 402
199 387
199 377
199 367
209 357
202 349
197 340
187 339
177 335
174 325
164 325
155 320
145 318
138 310
129 305
119 302
114 293
105 288
104 278
98 270
89 265
89 255
84 246
84 236
79 227
