84 242
84 232
89 217
89 207
99 202
99 192
104 177
114 172
119 157
129 152
134 142
144 139
153 134
163 134
167 124
177 124
186 119
194 112
204 109
213 104
223 104
230 96
240 94
249 89
259 89
269 89
279 82
289 79
299 79
309 79
319 79
329 79
338 74
348 74
358 74
368 74
378 74
387 79
397 79
407 79
417 79
427 79
437 79
440 89
450 89
460 89
470 89
480 92
490 94
495 103
505 104
515 107
525 109
530 118
540 119
549 124
559 126
565 134
575 137
585 139
590 148
598 155
600 165
608 171
615 179
615 189
625 192
625 202
630 211
630 221
636 229
640 239
640 249
630 255
630 265
625 280
619 295
610 300
604 315
598 323
590 330
584 340
574 342
564 345
555 350
545 350
540 360
530 360
520 360
510 365
500 365
490 375
480 375
480 385
480 395
480 405
482 415
485 425
485 435
487 445
490 455
490 465
495 474
495 484
495 494
505 497
505 507
509 517
509 527
499 525
491 519
484 511
479 502
470 497
464 489
459 480
451 474
442 469
437 460
430 452
422 445
414 439
409 430
401 424
396 415
387 410
384 400
375 395
365 395
355 395
345 395
335 395
325 395
321 405
312 410
307 419
299 425
290 430
284 440
275 445
269 455
260 460
254 470
245 475
240 485
230 490
226 500
217 505
212 514
204 520
195 525
189 535
179 537
179 527
184 512
184 502
194 492
194 482
194 472
199 462
199 452
199 442
209 432
209 422
209 412
214 402
214 392
214 382
210 365
200 362
190 360
180 357
172 350
163 345
153 345
145 338
138 330
129 325
119 321
114 312
114 302
105 297
99 289
94 280
89 271
89 261
84 252
