89 112
89 102
99 99
109 99
119 99
129 99
139 99
149 99
155 91
165 89
175 89
185 89
195 89
205 89
215 89
225 89
235 89
245 89
255 89
265 89
275 89
285 89
295 89
305 89
315 89
325 89
335 89
345 89
355 89
365 86
375 84
385 84
395 84
405 84
415 84
425 84
435 84
445 84
455 84
465 84
475 84
485 84
495 84
505 84
515 84
525 84
535 84
545 84
555 84
565 84
575 84
580 93
580 103
580 113
580 123
580 133
580 143
580 153
580 163
580 173
580 183
580 193
580 203
580 213
580 223
580 233
580 243
580 253
580 263
585 272
585 282
585 292
585 302
585 312
585 322
585 332
585 342
585 352
585 362
580 375
570 375
560 375
550 375
540 375
530 375
520 375
510 375
500 375
490 375
480 375
470 375
460 375
450 375
440 375
430 375
420 375
410 385
400 385
390 385
380 385
370 385
360 385
350 385
340 385
330 385
320 385
310 385
300 385
295 400
289 415
280 420
275 435
275 445
265 450
265 460
260 470
260 480
250 485
247 499
242 509
232 510
229 500
221 494
219 484
219 474
214 465
214 455
206 449
204 439
199 430
198 420
189 415
189 405
184 396
176 390
166 390
156 390
146 390
136 390
126 390
116 390
106 389
104 379
104 369
104 359
104 349
104 339
104 329
99 320
99 310
99 300
99 290
99 280
99 270
99 260
99 250
99 240
99 230
99 220
99 210
99 200
99 190
99 180
99 170
99 160
99 150
99 140
99 130
95 120
