159 97
159 87
169 84
179 84
189 84
199 84
209 84
219 84
229 84
239 77
249 74
259 74
269 74
279 74
289 74
299 74
309 74
319 74
329 74
339 74
349 74
359 74
369 74
379 74
389 74
399 74
409 74
419 74
429 74
439 74
449 72
459 69
469 69
479 69
489 69
499 69
509 69
519 69
529 69
539 69
549 69
559 69
569 69
579 69
589 69
599 69
609 69
619 69
629 69
639 69
649 69
658 64
668 64
678 64
688 64
698 64
708 64
718 64
728 64
735 72
735 82
735 92
735 102
735 112
735 122
735 132
735 142
735 152
735 162
735 172
735 182
735 192
740 201
740 211
740 221
740 231
740 241
740 251
740 261
740 271
740 281
740 291
740 301
740 311
740 321
740 331
740 341
739 352
729 355
719 355
710 360
700 360
690 360
680 360
670 360
660 360
650 360
640 360
630 360
620 360
610 360
600 360
590 360
580 360
570 360
560 360
550 360
540 360
530 360
520 360
510 360
500 360
494 370
484 370
474 370
464 370
454 370
444 370
434 370
424 370
414 370
404 370
394 370
385 375
375 375
365 375
360 385
350 385
340 385
330 390
320 390
310 390
305 400
295 400
285 405
275 405
265 415
255 415
245 415
235 420
225 420
215 420
210 430
200 430
194 422
202 414
210 406
220 404
229 392
239 387
239 375
229 375
219 375
209 375
199 375
189 375
179 375
169 375
164 366
164 356
164 346
164 336
164 326
164 316
164 306
164 296
164 286
164 276
164 266
159 257
159 247
159 237
159 227
159 217
159 207
159 197
159 187
159 177
159 167
159 157
159 147
159 137
159 127
159 117
159 107
