89 306
92 289
102 289
112 289
122 289
132 289
141 284
150 279
160 282
170 284
180 287
190 289
200 289
210 289
220 289
230 289
240 289
250 289
259 294
269 294
278 299
288 300
298 304
308 305
315 313
325 314
335 314
344 319
354 321
360 329
370 329
379 334
389 336
399 339
409 341
419 344
429 344
439 344
449 344
459 344
469 346
478 351
485 359
490 368
490 378
490 388
492 404
486 413
480 405
470 405
460 405
450 405
440 405
440 415
445 424
453 430
460 438
452 450
442 454
432 454
422 450
412 450
403 445
395 438
394 428
390 418
389 408
380 403
373 395
365 388
358 380
349 375
340 370
331 365
321 363
311 360
302 355
293 350
283 350
274 345
266 338
256 335
247 330
237 329
227 325
217 325
208 320
198 320
188 320
178 320
169 315
159 315
149 317
139 320
129 320
119 320
109 320
99 320
89 316
