149 122
149 112
157 104
167 104
177 104
185 110
190 119
195 128
203 135
207 145
210 155
215 164
223 170
227 180
232 189
235 199
240 208
250 212
250 222
254 232
260 240
265 249
270 258
275 267
279 277
287 284
290 294
295 303
300 312
307 320
310 330
315 339
320 348
325 357
330 366
336 374
345 379
350 388
355 397
360 406
355 420
350 430
342 440
334 447
324 445
322 435
318 425
309 420
299 420
290 425
292 435
294 452
286 460
277 455
270 447
262 440
259 430
254 421
254 411
249 402
249 392
249 382
257 374
262 364
264 350
259 341
254 332
249 323
246 313
241 304
237 294
229 287
229 277
224 268
219 259
214 250
209 241
204 232
200 222
194 214
189 205
184 196
179 187
175 177
170 168
164 160
162 150
159 140
154 131
