184 127
184 117
189 107
199 104
208 99
215 107
210 120
210 130
218 136
225 144
235 147
245 149
249 137
249 127
254 117
262 109
270 115
270 125
275 134
270 150
270 160
264 170
255 175
250 185
245 200
245 210
245 220
245 230
245 240
245 250
245 260
245 270
245 280
245 290
245 300
245 310
247 320
250 330
250 340
250 350
250 360
250 370
255 379
260 388
260 398
265 407
265 417
270 426
270 436
270 446
264 462
254 465
244 462
249 453
249 443
244 434
239 425
230 430
229 442
219 445
214 436
214 426
209 417
214 402
219 392
224 378
224 368
220 358
219 348
219 338
214 329
214 319
209 310
209 300
209 290
209 280
209 270
209 260
209 250
209 240
209 230
209 220
209 210
209 200
209 190
208 180
200 173
194 165
189 156
184 147
184 137
