174 192
174 202
180 210
186 218
196 220
206 220
216 223
224 217
234 212
242 204
247 195
256 190
265 185
274 180
284 180
294 180
304 177
314 175
324 175
333 180
343 180
352 185
362 185
372 189
382 190
392 194
402 195
412 199
421 204
431 205
436 214
444 220
447 230
449 240
455 248
463 255
472 260
482 259
485 245
483 235
475 229
470 220
479 215
485 223
495 227
502 235
510 222
505 213
505 203
505 193
498 185
488 184
479 179
469 179
459 179
449 176
439 174
429 171
419 167
412 159
402 159
393 154
383 154
373 150
363 149
353 149
343 149
334 144
324 144
314 144
304 144
294 144
284 144
274 147
266 154
257 149
247 149
237 145
229 139
219 136
211 130
201 134
191 134
182 139
174 147
179 156
189 155
198 160
208 160
212 170
203 179
194 184
184 187
