119 207
119 226
119 236
124 245
130 253
140 255
149 260
158 265
168 265
177 270
185 277
192 285
197 294
206 299
214 305
220 313
224 323
229 332
237 339
246 344
254 350
260 358
268 365
272 375
281 380
289 386
296 394
304 400
310 408
314 418
322 425
330 432
340 435
350 435
360 423
360 413
353 405
345 399
339 391
329 387
325 377
317 370
310 362
303 354
295 348
288 340
280 334
273 326
269 316
264 307
260 297
250 294
244 286
236 279
230 271
225 262
220 253
215 244
210 235
205 226
203 216
200 206
195 197
194 187
185 182
177 175
169 169
159 169
149 169
149 185
154 194
154 204
145 214
135 214
129 206
