84 332
84 351
84 362
90 370
100 370
92 380
84 387
84 397
94 400
104 400
114 400
123 395
130 385
140 385
149 380
157 374
162 364
165 350
175 345
183 338
193 333
203 328
210 320
218 313
228 310
237 305
246 300
254 292
262 285
272 285
281 280
289 272
299 267
309 262
319 257
329 255
339 255
349 255
358 260
368 258
378 253
385 245
395 240
400 228
395 219
385 219
375 219
365 219
355 219
350 210
350 200
358 193
368 190
377 185
385 174
376 169
367 164
357 164
347 164
337 164
329 172
319 177
314 187
312 199
304 207
297 219
287 219
279 227
269 229
260 234
251 239
242 244
232 244
223 249
215 256
208 264
198 264
190 271
182 279
172 284
164 292
158 304
148 304
140 311
132 319
122 324
112 324
102 324
92 324
