174 542
179 522
179 512
184 502
192 494
200 486
199 476
199 456
199 446
199 436
199 417
199 407
199 397
199 387
204 367
209 347
209 337
209 327
214 312
219 302
219 292
224 282
224 272
229 252
234 242
242 234
247 224
255 216
263 209
267 199
272 189
279 177
287 169
295 161
300 151
310 146
320 141
330 139
340 136
348 129
357 124
365 116
373 109
382 104
392 99
401 94
411 94
420 89
430 92
440 92
450 92
460 89
470 89
480 89
490 87
500 89
510 89
520 89
529 94
539 96
548 101
558 104
565 112
575 112
582 120
587 129
596 134
600 144
610 144
619 149
628 154
638 155
648 154
657 149
666 154
675 159
680 168
685 177
692 185
700 192
703 208
698 218
690 225
690 235
698 241
708 244
718 244
728 244
738 244
748 245
752 255
762 259
765 269
765 279
765 295
759 310
753 318
743 323
735 330
726 335
716 338
706 334
702 324
685 308
679 300
670 295
660 295
650 295
643 308
635 315
625 320
623 333
615 340
615 350
605 355
600 365
593 373
585 380
575 390
570 400
560 405
555 415
545 420
535 425
531 435
522 440
513 445
503 445
494 450
485 455
475 460
465 460
470 469
480 469
490 467
500 469
510 469
520 467
528 474
537 469
546 474
555 480
560 489
558 503
550 510
540 515
537 529
529 535
519 535
510 540
500 540
490 543
484 535
474 537
464 535
454 535
444 535
434 535
425 530
416 535
407 530
397 529
392 520
383 515
374 510
364 507
356 513
346 515
336 515
326 515
317 520
308 515
298 518
290 525
295 534
304 539
314 539
323 544
330 552
330 562
320 560
322 570
319 580
310 585
306 595
296 593
286 595
276 598
270 590
263 600
255 593
251 583
241 580
231 580
221 580
212 585
203 580
194 575
186 569
179 561
179 551
