219 592
219 602
224 615
227 625
237 629
246 634
256 633
266 635
276 635
285 630
295 630
305 630
314 625
323 620
327 630
336 625
345 620
353 613
360 605
368 598
375 590
383 583
389 575
397 569
402 560
411 555
421 555
429 561
434 570
443 575
450 583
455 592
462 600
470 607
480 605
488 598
490 585
500 585
500 573
498 563
492 554
487 545
483 535
475 529
465 529
460 520
468 513
473 503
479 495
485 485
490 470
499 465
505 455
505 445
510 435
515 425
523 418
528 408
533 398
535 385
540 375
545 365
545 355
555 350
555 340
564 335
570 325
580 320
589 315
595 323
599 333
604 342
612 349
610 330
620 332
626 324
620 315
631 315
630 300
630 290
639 285
647 279
635 270
630 257
620 254
614 246
604 249
595 254
585 258
585 248
585 238
585 228
585 218
585 208
585 198
585 188
585 178
580 169
576 159
566 155
556 160
546 164
536 160
526 160
516 159
506 159
496 159
486 159
476 160
466 165
456 165
451 175
441 180
431 180
421 185
411 185
406 194
397 199
387 204
379 212
372 224
364 232
354 237
344 242
339 252
334 262
327 279
319 287
314 297
314 307
304 312
304 322
302 349
294 357
289 367
289 377
289 392
289 402
292 419
284 427
284 437
289 466
289 482
284 492
279 507
284 516
293 525
288 534
279 539
269 542
262 559
254 567
244 572
234 572
229 582
