94 512
94 502
99 492
104 482
104 472
114 462
124 457
132 449
140 441
148 434
157 429
167 424
169 407
174 392
179 367
184 352
184 342
189 332
194 316
189 292
189 282
194 272
194 262
202 254
212 249
221 244
229 237
229 227
229 217
229 207
237 199
244 187
254 182
264 179
274 181
284 181
294 184
300 176
310 171
320 169
330 169
340 169
350 169
359 162
369 157
379 156
389 154
399 156
409 159
419 157
429 154
439 154
449 154
459 154
469 154
478 159
487 164
497 164
506 169
515 174
525 177
534 182
542 189
552 189
562 189
571 194
580 199
590 202
598 209
606 215
600 225
610 229
619 234
628 229
638 229
648 230
658 234
667 239
670 249
670 259
668 273
663 283
658 293
650 300
645 310
635 312
625 310
625 320
620 335
615 345
605 350
601 360
592 365
584 372
576 380
567 385
558 380
548 383
540 390
550 394
558 400
567 405
575 412
575 422
575 432
573 448
565 455
558 468
550 475
545 485
537 495
527 495
518 490
510 483
509 473
502 465
498 455
490 448
484 440
478 448
470 455
463 463
455 470
445 470
438 478
430 485
420 485
412 494
402 499
394 505
385 510
376 515
367 520
357 524
348 530
338 533
328 535
318 538
308 540
299 545
290 550
295 559
304 564
313 569
323 569
333 570
340 578
345 587
345 597
345 607
338 618
333 628
325 635
320 650
310 650
300 653
294 645
284 642
280 632
270 633
263 625
253 625
244 620
235 615
229 607
220 602
212 595
209 585
204 576
199 567
194 558
191 548
185 540
175 540
165 540
155 545
145 545
136 550
127 545
117 544
107 540
104 530
99 521
