42.50 39.50
42.50 57.50
42.50 113.50
50.50 71.40
53.50 32.50
53.50 103.00
53.50 124.20
60.50 57.20
62.00 88.92
67.50 39.70
68.50 71.20
71.00 103.00
74.50 124.20
78.00 57.17
82.00 88.75
85.00 39.75
87.00 71.42
88.50 124.20
92.00 103.00
95.50 57.20
99.00 282.58
99.50 88.90
102.50 39.80
106.00 71.17
106.00 124.08
110.00 103.17
116.50 57.20
120.00 39.50
120.00 89.08
123.50 124.30
127.50 71.40
127.50 272.00
130.50 103.30
137.50 60.90
138.00 92.50
141.00 131.42
144.50 272.10
148.00 289.75
152.00 99.50
151.50 198.40
151.50 212.50
153.00 18.50
162.50 127.60
162.50 272.00
166.50 289.67
169.50 14.70
169.50 184.10
169.50 215.70
176.00 162.92
176.00 303.75
180.00 117.25
180.00 272.00
183.50 141.60
183.50 208.60
183.50 289.90
187.00 21.92
194.00 191.25
194.00 303.67
197.50 270.40
201.00 43.25
201.00 289.50
204.00 170.00
212.00 303.67
215.00 145.50
216.50 270.30
218.50 25.50
222.00 291.50
225.50 131.10
229.00 43.42
232.50 305.40
236.00 268.50
243.50 291.40
247.00 25.50
246.50 155.90
257.00 265.25
257.50 307.80
261.00 46.50
267.50 184.30
268.00 289.50
278.00 25.50
278.50 258.00
289.00 50.25
289.00 304.08
296.00 282.58
299.50 201.60
299.50 247.60
310.00 36.08
313.50 61.00
317.00 293.33
320.00 222.67
324.00 271.92
330.50 81.50
338.00 57.25
345.00 251.00
349.00 275.50
352.00 106.50
359.00 81.92
362.50 229.90
366.00 138.42
366.00 173.58
366.00 201.50
369.50 254.50
380.50 117.00
384.50 159.57
384.50 191.00
384.50 219.14
158.46 299.62
141.72 300.74
131.12 289.58
121.08 293.48
113.26 285.67
92.62 275.63
84.81 268.37
78.67 262.80
81.46 250.52
92.62 257.77
102.66 263.35
113.82 268.37
161.81 85.37
166.27 74.77
145.07 74.77
152.32 67.51
148.97 43.52
155.67 42.96
159.02 36.27
150.09 36.27
133.91 29.57
141.16 29.01
148.97 25.67