<?xml version="1.0" encoding="UTF-8" standalone="no"?>
<!-- Created with CurveBenchmark -->
<svg
	xmlns:dc="http://purl.org/dc/elements/1.1/"
	xmlns:cc="http://creativecommons.org/ns#"
	xmlns:rdf="http://www.w3.org/1999/02/22-rdf-syntax-ns#"
	xmlns:svg="http://www.w3.org/2000/svg"
	xmlns="http://www.w3.org/2000/svg"
	xmlns:sodipodi="http://sodipodi.sourceforge.net/DTD/sodipodi-0.dtd"
	xmlns:inkscape="http://www.inkscape.org/namespaces/inkscape"
	width="1000"
	height="1000"
	id="svg2"
	version="1.1"
	sodipodi:docname="noisy-0.03/connect2d-mc11.txt">
<defs
	id="defs4" />
<metadata
	id="metadata7">
	<rdf:RDF>
		<cc:Work
			rdf:about="">
			<dc:format>image/svg+xml</dc:format>
			<dc:type
				rdf:resource="http://purl.org/dc/dcmitype/StillImage" />
			<dc:title></dc:title>
		</cc:Work>
	</rdf:RDF>
</metadata>
<g
	inkscape:label="Layer 1"
	inkscape:groupmode="layer"
	id="layer1">
	<path style="fill:none;stroke:red;stroke-width:1px;stroke-linecap:butt;stroke-linejoin:miter;stroke-opacity:1" d="M 925.386,557.182 905.902,565.362 z" id="boundary" inkscape:connector-curvature="0" />
	<path style="fill:none;stroke:red;stroke-width:1px;stroke-linecap:butt;stroke-linejoin:miter;stroke-opacity:1" d="M 905.902,565.362 910.385,580.727 z" id="boundary" inkscape:connector-curvature="0" />
	<path style="fill:none;stroke:red;stroke-width:1px;stroke-linecap:butt;stroke-linejoin:miter;stroke-opacity:1" d="M 910.385,580.727 884.861,581.143 z" id="boundary" inkscape:connector-curvature="0" />
	<path style="fill:none;stroke:red;stroke-width:1px;stroke-linecap:butt;stroke-linejoin:miter;stroke-opacity:1" d="M 884.861,581.143 894.2,642.179 z" id="boundary" inkscape:connector-curvature="0" />
	<path style="fill:none;stroke:red;stroke-width:1px;stroke-linecap:butt;stroke-linejoin:miter;stroke-opacity:1" d="M 894.2,642.179 862.933,689.668 z" id="boundary" inkscape:connector-curvature="0" />
	<path style="fill:none;stroke:red;stroke-width:1px;stroke-linecap:butt;stroke-linejoin:miter;stroke-opacity:1" d="M 862.933,689.668 853.469,701.413 z" id="boundary" inkscape:connector-curvature="0" />
	<path style="fill:none;stroke:red;stroke-width:1px;stroke-linecap:butt;stroke-linejoin:miter;stroke-opacity:1" d="M 853.469,701.413 849.533,719.999 z" id="boundary" inkscape:connector-curvature="0" />
	<path style="fill:none;stroke:red;stroke-width:1px;stroke-linecap:butt;stroke-linejoin:miter;stroke-opacity:1" d="M 849.533,719.999 817.256,725.432 z" id="boundary" inkscape:connector-curvature="0" />
	<path style="fill:none;stroke:red;stroke-width:1px;stroke-linecap:butt;stroke-linejoin:miter;stroke-opacity:1" d="M 817.256,725.432 820.033,801.43 z" id="boundary" inkscape:connector-curvature="0" />
	<path style="fill:none;stroke:red;stroke-width:1px;stroke-linecap:butt;stroke-linejoin:miter;stroke-opacity:1" d="M 820.033,801.43 837.255,822.021 z" id="boundary" inkscape:connector-curvature="0" />
	<path style="fill:none;stroke:red;stroke-width:1px;stroke-linecap:butt;stroke-linejoin:miter;stroke-opacity:1" d="M 837.255,822.021 778.859,795.575 z" id="boundary" inkscape:connector-curvature="0" />
	<path style="fill:none;stroke:red;stroke-width:1px;stroke-linecap:butt;stroke-linejoin:miter;stroke-opacity:1" d="M 778.859,795.575 757.371,801.051 z" id="boundary" inkscape:connector-curvature="0" />
	<path style="fill:none;stroke:red;stroke-width:1px;stroke-linecap:butt;stroke-linejoin:miter;stroke-opacity:1" d="M 757.371,801.051 690.202,783.396 z" id="boundary" inkscape:connector-curvature="0" />
	<path style="fill:none;stroke:red;stroke-width:1px;stroke-linecap:butt;stroke-linejoin:miter;stroke-opacity:1" d="M 690.202,783.396 727.572,838.006 z" id="boundary" inkscape:connector-curvature="0" />
	<path style="fill:none;stroke:red;stroke-width:1px;stroke-linecap:butt;stroke-linejoin:miter;stroke-opacity:1" d="M 727.572,838.006 723.565,867.66 z" id="boundary" inkscape:connector-curvature="0" />
	<path style="fill:none;stroke:red;stroke-width:1px;stroke-linecap:butt;stroke-linejoin:miter;stroke-opacity:1" d="M 723.565,867.66 747.802,888.582 z" id="boundary" inkscape:connector-curvature="0" />
	<path style="fill:none;stroke:red;stroke-width:1px;stroke-linecap:butt;stroke-linejoin:miter;stroke-opacity:1" d="M 747.802,888.582 756.143,894.691 z" id="boundary" inkscape:connector-curvature="0" />
	<path style="fill:none;stroke:red;stroke-width:1px;stroke-linecap:butt;stroke-linejoin:miter;stroke-opacity:1" d="M 756.143,894.691 694.158,896.406 z" id="boundary" inkscape:connector-curvature="0" />
	<path style="fill:none;stroke:red;stroke-width:1px;stroke-linecap:butt;stroke-linejoin:miter;stroke-opacity:1" d="M 694.158,896.406 675.748,906.947 z" id="boundary" inkscape:connector-curvature="0" />
	<path style="fill:none;stroke:red;stroke-width:1px;stroke-linecap:butt;stroke-linejoin:miter;stroke-opacity:1" d="M 675.748,906.947 648.761,921.135 z" id="boundary" inkscape:connector-curvature="0" />
	<path style="fill:none;stroke:red;stroke-width:1px;stroke-linecap:butt;stroke-linejoin:miter;stroke-opacity:1" d="M 648.761,921.135 590.77,965.579 z" id="boundary" inkscape:connector-curvature="0" />
	<path style="fill:none;stroke:red;stroke-width:1px;stroke-linecap:butt;stroke-linejoin:miter;stroke-opacity:1" d="M 590.77,965.579 589.245,974.818 z" id="boundary" inkscape:connector-curvature="0" />
	<path style="fill:none;stroke:red;stroke-width:1px;stroke-linecap:butt;stroke-linejoin:miter;stroke-opacity:1" d="M 589.245,974.818 529.455,970.315 z" id="boundary" inkscape:connector-curvature="0" />
	<path style="fill:none;stroke:red;stroke-width:1px;stroke-linecap:butt;stroke-linejoin:miter;stroke-opacity:1" d="M 529.455,970.315 511.9,972.765 z" id="boundary" inkscape:connector-curvature="0" />
	<path style="fill:none;stroke:red;stroke-width:1px;stroke-linecap:butt;stroke-linejoin:miter;stroke-opacity:1" d="M 511.9,972.765 474.475,996 z" id="boundary" inkscape:connector-curvature="0" />
	<path style="fill:none;stroke:red;stroke-width:1px;stroke-linecap:butt;stroke-linejoin:miter;stroke-opacity:1" d="M 474.475,996 471.76,947.456 z" id="boundary" inkscape:connector-curvature="0" />
	<path style="fill:none;stroke:red;stroke-width:1px;stroke-linecap:butt;stroke-linejoin:miter;stroke-opacity:1" d="M 471.76,947.456 465.181,934.101 z" id="boundary" inkscape:connector-curvature="0" />
	<path style="fill:none;stroke:red;stroke-width:1px;stroke-linecap:butt;stroke-linejoin:miter;stroke-opacity:1" d="M 465.181,934.101 443.278,935.072 z" id="boundary" inkscape:connector-curvature="0" />
	<path style="fill:none;stroke:red;stroke-width:1px;stroke-linecap:butt;stroke-linejoin:miter;stroke-opacity:1" d="M 443.278,935.072 393.238,975.014 z" id="boundary" inkscape:connector-curvature="0" />
	<path style="fill:none;stroke:red;stroke-width:1px;stroke-linecap:butt;stroke-linejoin:miter;stroke-opacity:1" d="M 393.238,975.014 348.454,972.914 z" id="boundary" inkscape:connector-curvature="0" />
	<path style="fill:none;stroke:red;stroke-width:1px;stroke-linecap:butt;stroke-linejoin:miter;stroke-opacity:1" d="M 348.454,972.914 297.589,960.754 z" id="boundary" inkscape:connector-curvature="0" />
	<path style="fill:none;stroke:red;stroke-width:1px;stroke-linecap:butt;stroke-linejoin:miter;stroke-opacity:1" d="M 297.589,960.754 285.395,953.278 z" id="boundary" inkscape:connector-curvature="0" />
	<path style="fill:none;stroke:red;stroke-width:1px;stroke-linecap:butt;stroke-linejoin:miter;stroke-opacity:1" d="M 285.395,953.278 256.45,928.675 z" id="boundary" inkscape:connector-curvature="0" />
	<path style="fill:none;stroke:red;stroke-width:1px;stroke-linecap:butt;stroke-linejoin:miter;stroke-opacity:1" d="M 256.45,928.675 271.653,882.439 z" id="boundary" inkscape:connector-curvature="0" />
	<path style="fill:none;stroke:red;stroke-width:1px;stroke-linecap:butt;stroke-linejoin:miter;stroke-opacity:1" d="M 271.653,882.439 202.113,904.855 z" id="boundary" inkscape:connector-curvature="0" />
	<path style="fill:none;stroke:red;stroke-width:1px;stroke-linecap:butt;stroke-linejoin:miter;stroke-opacity:1" d="M 202.113,904.855 186.499,866.393 z" id="boundary" inkscape:connector-curvature="0" />
	<path style="fill:none;stroke:red;stroke-width:1px;stroke-linecap:butt;stroke-linejoin:miter;stroke-opacity:1" d="M 186.499,866.393 166.497,833.857 z" id="boundary" inkscape:connector-curvature="0" />
	<path style="fill:none;stroke:red;stroke-width:1px;stroke-linecap:butt;stroke-linejoin:miter;stroke-opacity:1" d="M 166.497,833.857 169.373,825.787 z" id="boundary" inkscape:connector-curvature="0" />
	<path style="fill:none;stroke:red;stroke-width:1px;stroke-linecap:butt;stroke-linejoin:miter;stroke-opacity:1" d="M 169.373,825.787 147.234,798.439 z" id="boundary" inkscape:connector-curvature="0" />
	<path style="fill:none;stroke:red;stroke-width:1px;stroke-linecap:butt;stroke-linejoin:miter;stroke-opacity:1" d="M 147.234,798.439 117.515,784.443 z" id="boundary" inkscape:connector-curvature="0" />
	<path style="fill:none;stroke:red;stroke-width:1px;stroke-linecap:butt;stroke-linejoin:miter;stroke-opacity:1" d="M 117.515,784.443 111.327,760.808 z" id="boundary" inkscape:connector-curvature="0" />
	<path style="fill:none;stroke:red;stroke-width:1px;stroke-linecap:butt;stroke-linejoin:miter;stroke-opacity:1" d="M 111.327,760.808 79.1923,789.675 z" id="boundary" inkscape:connector-curvature="0" />
	<path style="fill:none;stroke:red;stroke-width:1px;stroke-linecap:butt;stroke-linejoin:miter;stroke-opacity:1" d="M 79.1923,789.675 52.1334,744.155 z" id="boundary" inkscape:connector-curvature="0" />
	<path style="fill:none;stroke:red;stroke-width:1px;stroke-linecap:butt;stroke-linejoin:miter;stroke-opacity:1" d="M 52.1334,744.155 39.2085,708.064 z" id="boundary" inkscape:connector-curvature="0" />
	<path style="fill:none;stroke:red;stroke-width:1px;stroke-linecap:butt;stroke-linejoin:miter;stroke-opacity:1" d="M 39.2085,708.064 70.0369,678.349 z" id="boundary" inkscape:connector-curvature="0" />
	<path style="fill:none;stroke:red;stroke-width:1px;stroke-linecap:butt;stroke-linejoin:miter;stroke-opacity:1" d="M 70.0369,678.349 35.7504,668.746 z" id="boundary" inkscape:connector-curvature="0" />
	<path style="fill:none;stroke:red;stroke-width:1px;stroke-linecap:butt;stroke-linejoin:miter;stroke-opacity:1" d="M 35.7504,668.746 57.0322,613.211 z" id="boundary" inkscape:connector-curvature="0" />
	<path style="fill:none;stroke:red;stroke-width:1px;stroke-linecap:butt;stroke-linejoin:miter;stroke-opacity:1" d="M 57.0322,613.211 4,588.442 z" id="boundary" inkscape:connector-curvature="0" />
	<path style="fill:none;stroke:red;stroke-width:1px;stroke-linecap:butt;stroke-linejoin:miter;stroke-opacity:1" d="M 4,588.442 28.6118,587.188 z" id="boundary" inkscape:connector-curvature="0" />
	<path style="fill:none;stroke:red;stroke-width:1px;stroke-linecap:butt;stroke-linejoin:miter;stroke-opacity:1" d="M 28.6118,587.188 38.1763,546.191 z" id="boundary" inkscape:connector-curvature="0" />
	<path style="fill:none;stroke:red;stroke-width:1px;stroke-linecap:butt;stroke-linejoin:miter;stroke-opacity:1" d="M 38.1763,546.191 30.0712,510.611 z" id="boundary" inkscape:connector-curvature="0" />
	<path style="fill:none;stroke:red;stroke-width:1px;stroke-linecap:butt;stroke-linejoin:miter;stroke-opacity:1" d="M 30.0712,510.611 44.1405,472.669 z" id="boundary" inkscape:connector-curvature="0" />
	<path style="fill:none;stroke:red;stroke-width:1px;stroke-linecap:butt;stroke-linejoin:miter;stroke-opacity:1" d="M 44.1405,472.669 56.0071,459.865 z" id="boundary" inkscape:connector-curvature="0" />
	<path style="fill:none;stroke:red;stroke-width:1px;stroke-linecap:butt;stroke-linejoin:miter;stroke-opacity:1" d="M 56.0071,459.865 15.6847,409.941 z" id="boundary" inkscape:connector-curvature="0" />
	<path style="fill:none;stroke:red;stroke-width:1px;stroke-linecap:butt;stroke-linejoin:miter;stroke-opacity:1" d="M 15.6847,409.941 62.7553,414.436 z" id="boundary" inkscape:connector-curvature="0" />
	<path style="fill:none;stroke:red;stroke-width:1px;stroke-linecap:butt;stroke-linejoin:miter;stroke-opacity:1" d="M 62.7553,414.436 104.738,390.43 z" id="boundary" inkscape:connector-curvature="0" />
	<path style="fill:none;stroke:red;stroke-width:1px;stroke-linecap:butt;stroke-linejoin:miter;stroke-opacity:1" d="M 104.738,390.43 73.6103,371.105 z" id="boundary" inkscape:connector-curvature="0" />
	<path style="fill:none;stroke:red;stroke-width:1px;stroke-linecap:butt;stroke-linejoin:miter;stroke-opacity:1" d="M 73.6103,371.105 56.9594,342.712 z" id="boundary" inkscape:connector-curvature="0" />
	<path style="fill:none;stroke:red;stroke-width:1px;stroke-linecap:butt;stroke-linejoin:miter;stroke-opacity:1" d="M 56.9594,342.712 103.823,327.214 z" id="boundary" inkscape:connector-curvature="0" />
	<path style="fill:none;stroke:red;stroke-width:1px;stroke-linecap:butt;stroke-linejoin:miter;stroke-opacity:1" d="M 103.823,327.214 119.868,298.48 z" id="boundary" inkscape:connector-curvature="0" />
	<path style="fill:none;stroke:red;stroke-width:1px;stroke-linecap:butt;stroke-linejoin:miter;stroke-opacity:1" d="M 119.868,298.48 152.978,244.539 z" id="boundary" inkscape:connector-curvature="0" />
	<path style="fill:none;stroke:red;stroke-width:1px;stroke-linecap:butt;stroke-linejoin:miter;stroke-opacity:1" d="M 152.978,244.539 109.566,231.426 z" id="boundary" inkscape:connector-curvature="0" />
	<path style="fill:none;stroke:red;stroke-width:1px;stroke-linecap:butt;stroke-linejoin:miter;stroke-opacity:1" d="M 109.566,231.426 204.825,153.719 z" id="boundary" inkscape:connector-curvature="0" />
	<path style="fill:none;stroke:red;stroke-width:1px;stroke-linecap:butt;stroke-linejoin:miter;stroke-opacity:1" d="M 204.825,153.719 253.199,135.458 z" id="boundary" inkscape:connector-curvature="0" />
	<path style="fill:none;stroke:red;stroke-width:1px;stroke-linecap:butt;stroke-linejoin:miter;stroke-opacity:1" d="M 253.199,135.458 235.003,169.909 z" id="boundary" inkscape:connector-curvature="0" />
	<path style="fill:none;stroke:red;stroke-width:1px;stroke-linecap:butt;stroke-linejoin:miter;stroke-opacity:1" d="M 235.003,169.909 230.138,186.511 z" id="boundary" inkscape:connector-curvature="0" />
	<path style="fill:none;stroke:red;stroke-width:1px;stroke-linecap:butt;stroke-linejoin:miter;stroke-opacity:1" d="M 230.138,186.511 210.427,177.354 z" id="boundary" inkscape:connector-curvature="0" />
	<path style="fill:none;stroke:red;stroke-width:1px;stroke-linecap:butt;stroke-linejoin:miter;stroke-opacity:1" d="M 210.427,177.354 204.779,183.375 z" id="boundary" inkscape:connector-curvature="0" />
	<path style="fill:none;stroke:red;stroke-width:1px;stroke-linecap:butt;stroke-linejoin:miter;stroke-opacity:1" d="M 204.779,183.375 171.425,200.104 z" id="boundary" inkscape:connector-curvature="0" />
	<path style="fill:none;stroke:red;stroke-width:1px;stroke-linecap:butt;stroke-linejoin:miter;stroke-opacity:1" d="M 171.425,200.104 168.049,205.042 z" id="boundary" inkscape:connector-curvature="0" />
	<path style="fill:none;stroke:red;stroke-width:1px;stroke-linecap:butt;stroke-linejoin:miter;stroke-opacity:1" d="M 168.049,205.042 162.751,259.348 z" id="boundary" inkscape:connector-curvature="0" />
	<path style="fill:none;stroke:red;stroke-width:1px;stroke-linecap:butt;stroke-linejoin:miter;stroke-opacity:1" d="M 162.751,259.348 286.603,253.874 z" id="boundary" inkscape:connector-curvature="0" />
	<path style="fill:none;stroke:red;stroke-width:1px;stroke-linecap:butt;stroke-linejoin:miter;stroke-opacity:1" d="M 286.603,253.874 355.994,222.092 z" id="boundary" inkscape:connector-curvature="0" />
	<path style="fill:none;stroke:red;stroke-width:1px;stroke-linecap:butt;stroke-linejoin:miter;stroke-opacity:1" d="M 355.994,222.092 401.125,216.16 z" id="boundary" inkscape:connector-curvature="0" />
	<path style="fill:none;stroke:red;stroke-width:1px;stroke-linecap:butt;stroke-linejoin:miter;stroke-opacity:1" d="M 401.125,216.16 398.206,182.137 z" id="boundary" inkscape:connector-curvature="0" />
	<path style="fill:none;stroke:red;stroke-width:1px;stroke-linecap:butt;stroke-linejoin:miter;stroke-opacity:1" d="M 398.206,182.137 376.143,123.292 z" id="boundary" inkscape:connector-curvature="0" />
	<path style="fill:none;stroke:red;stroke-width:1px;stroke-linecap:butt;stroke-linejoin:miter;stroke-opacity:1" d="M 376.143,123.292 402.195,114.044 z" id="boundary" inkscape:connector-curvature="0" />
	<path style="fill:none;stroke:red;stroke-width:1px;stroke-linecap:butt;stroke-linejoin:miter;stroke-opacity:1" d="M 402.195,114.044 390.122,110.549 z" id="boundary" inkscape:connector-curvature="0" />
	<path style="fill:none;stroke:red;stroke-width:1px;stroke-linecap:butt;stroke-linejoin:miter;stroke-opacity:1" d="M 390.122,110.549 354.71,100.033 z" id="boundary" inkscape:connector-curvature="0" />
	<path style="fill:none;stroke:red;stroke-width:1px;stroke-linecap:butt;stroke-linejoin:miter;stroke-opacity:1" d="M 354.71,100.033 339.864,108.817 z" id="boundary" inkscape:connector-curvature="0" />
	<path style="fill:none;stroke:red;stroke-width:1px;stroke-linecap:butt;stroke-linejoin:miter;stroke-opacity:1" d="M 339.864,108.817 343.429,113.421 z" id="boundary" inkscape:connector-curvature="0" />
	<path style="fill:none;stroke:red;stroke-width:1px;stroke-linecap:butt;stroke-linejoin:miter;stroke-opacity:1" d="M 343.429,113.421 332.688,140.498 z" id="boundary" inkscape:connector-curvature="0" />
	<path style="fill:none;stroke:red;stroke-width:1px;stroke-linecap:butt;stroke-linejoin:miter;stroke-opacity:1" d="M 332.688,140.498 316.94,169.974 z" id="boundary" inkscape:connector-curvature="0" />
	<path style="fill:none;stroke:red;stroke-width:1px;stroke-linecap:butt;stroke-linejoin:miter;stroke-opacity:1" d="M 316.94,169.974 322.958,118.062 z" id="boundary" inkscape:connector-curvature="0" />
	<path style="fill:none;stroke:red;stroke-width:1px;stroke-linecap:butt;stroke-linejoin:miter;stroke-opacity:1" d="M 322.958,118.062 334.176,89.4639 z" id="boundary" inkscape:connector-curvature="0" />
	<path style="fill:none;stroke:red;stroke-width:1px;stroke-linecap:butt;stroke-linejoin:miter;stroke-opacity:1" d="M 334.176,89.4639 335.028,68.9438 z" id="boundary" inkscape:connector-curvature="0" />
	<path style="fill:none;stroke:red;stroke-width:1px;stroke-linecap:butt;stroke-linejoin:miter;stroke-opacity:1" d="M 335.028,68.9438 330.07,69.2238 z" id="boundary" inkscape:connector-curvature="0" />
	<path style="fill:none;stroke:red;stroke-width:1px;stroke-linecap:butt;stroke-linejoin:miter;stroke-opacity:1" d="M 330.07,69.2238 316.463,50.4178 z" id="boundary" inkscape:connector-curvature="0" />
	<path style="fill:none;stroke:red;stroke-width:1px;stroke-linecap:butt;stroke-linejoin:miter;stroke-opacity:1" d="M 316.463,50.4178 297.219,42.6964 z" id="boundary" inkscape:connector-curvature="0" />
	<path style="fill:none;stroke:red;stroke-width:1px;stroke-linecap:butt;stroke-linejoin:miter;stroke-opacity:1" d="M 297.219,42.6964 283.947,35.3564 z" id="boundary" inkscape:connector-curvature="0" />
	<path style="fill:none;stroke:red;stroke-width:1px;stroke-linecap:butt;stroke-linejoin:miter;stroke-opacity:1" d="M 283.947,35.3564 272.999,12.0456 z" id="boundary" inkscape:connector-curvature="0" />
	<path style="fill:none;stroke:red;stroke-width:1px;stroke-linecap:butt;stroke-linejoin:miter;stroke-opacity:1" d="M 272.999,12.0456 307.308,4.43806 z" id="boundary" inkscape:connector-curvature="0" />
	<path style="fill:none;stroke:red;stroke-width:1px;stroke-linecap:butt;stroke-linejoin:miter;stroke-opacity:1" d="M 307.308,4.43806 343.61,48.4019 z" id="boundary" inkscape:connector-curvature="0" />
	<path style="fill:none;stroke:red;stroke-width:1px;stroke-linecap:butt;stroke-linejoin:miter;stroke-opacity:1" d="M 343.61,48.4019 374.321,76.6716 z" id="boundary" inkscape:connector-curvature="0" />
	<path style="fill:none;stroke:red;stroke-width:1px;stroke-linecap:butt;stroke-linejoin:miter;stroke-opacity:1" d="M 374.321,76.6716 393.117,79.1466 z" id="boundary" inkscape:connector-curvature="0" />
	<path style="fill:none;stroke:red;stroke-width:1px;stroke-linecap:butt;stroke-linejoin:miter;stroke-opacity:1" d="M 393.117,79.1466 416.469,93.5817 z" id="boundary" inkscape:connector-curvature="0" />
	<path style="fill:none;stroke:red;stroke-width:1px;stroke-linecap:butt;stroke-linejoin:miter;stroke-opacity:1" d="M 416.469,93.5817 424.194,84.2793 z" id="boundary" inkscape:connector-curvature="0" />
	<path style="fill:none;stroke:red;stroke-width:1px;stroke-linecap:butt;stroke-linejoin:miter;stroke-opacity:1" d="M 424.194,84.2793 429.861,60.0972 z" id="boundary" inkscape:connector-curvature="0" />
	<path style="fill:none;stroke:red;stroke-width:1px;stroke-linecap:butt;stroke-linejoin:miter;stroke-opacity:1" d="M 429.861,60.0972 401.764,24.3318 z" id="boundary" inkscape:connector-curvature="0" />
	<path style="fill:none;stroke:red;stroke-width:1px;stroke-linecap:butt;stroke-linejoin:miter;stroke-opacity:1" d="M 401.764,24.3318 389.709,28.152 z" id="boundary" inkscape:connector-curvature="0" />
	<path style="fill:none;stroke:red;stroke-width:1px;stroke-linecap:butt;stroke-linejoin:miter;stroke-opacity:1" d="M 389.709,28.152 376.002,7.93676 z" id="boundary" inkscape:connector-curvature="0" />
	<path style="fill:none;stroke:red;stroke-width:1px;stroke-linecap:butt;stroke-linejoin:miter;stroke-opacity:1" d="M 376.002,7.93676 401.92,17.4134 z" id="boundary" inkscape:connector-curvature="0" />
	<path style="fill:none;stroke:red;stroke-width:1px;stroke-linecap:butt;stroke-linejoin:miter;stroke-opacity:1" d="M 401.92,17.4134 428.343,26.2491 z" id="boundary" inkscape:connector-curvature="0" />
	<path style="fill:none;stroke:red;stroke-width:1px;stroke-linecap:butt;stroke-linejoin:miter;stroke-opacity:1" d="M 428.343,26.2491 515.291,67.399 z" id="boundary" inkscape:connector-curvature="0" />
	<path style="fill:none;stroke:red;stroke-width:1px;stroke-linecap:butt;stroke-linejoin:miter;stroke-opacity:1" d="M 515.291,67.399 532.904,57.9619 z" id="boundary" inkscape:connector-curvature="0" />
	<path style="fill:none;stroke:red;stroke-width:1px;stroke-linecap:butt;stroke-linejoin:miter;stroke-opacity:1" d="M 532.904,57.9619 553.893,4 z" id="boundary" inkscape:connector-curvature="0" />
	<path style="fill:none;stroke:red;stroke-width:1px;stroke-linecap:butt;stroke-linejoin:miter;stroke-opacity:1" d="M 553.893,4 565.51,11.2787 z" id="boundary" inkscape:connector-curvature="0" />
	<path style="fill:none;stroke:red;stroke-width:1px;stroke-linecap:butt;stroke-linejoin:miter;stroke-opacity:1" d="M 565.51,11.2787 572.165,31.2313 z" id="boundary" inkscape:connector-curvature="0" />
	<path style="fill:none;stroke:red;stroke-width:1px;stroke-linecap:butt;stroke-linejoin:miter;stroke-opacity:1" d="M 572.165,31.2313 582.557,41.5928 z" id="boundary" inkscape:connector-curvature="0" />
	<path style="fill:none;stroke:red;stroke-width:1px;stroke-linecap:butt;stroke-linejoin:miter;stroke-opacity:1" d="M 582.557,41.5928 601.819,57.1206 z" id="boundary" inkscape:connector-curvature="0" />
	<path style="fill:none;stroke:red;stroke-width:1px;stroke-linecap:butt;stroke-linejoin:miter;stroke-opacity:1" d="M 601.819,57.1206 625.585,57.0201 z" id="boundary" inkscape:connector-curvature="0" />
	<path style="fill:none;stroke:red;stroke-width:1px;stroke-linecap:butt;stroke-linejoin:miter;stroke-opacity:1" d="M 625.585,57.0201 669.599,60.1871 z" id="boundary" inkscape:connector-curvature="0" />
	<path style="fill:none;stroke:red;stroke-width:1px;stroke-linecap:butt;stroke-linejoin:miter;stroke-opacity:1" d="M 669.599,60.1871 627.464,69.712 z" id="boundary" inkscape:connector-curvature="0" />
	<path style="fill:none;stroke:red;stroke-width:1px;stroke-linecap:butt;stroke-linejoin:miter;stroke-opacity:1" d="M 627.464,69.712 630.659,80.3865 z" id="boundary" inkscape:connector-curvature="0" />
	<path style="fill:none;stroke:red;stroke-width:1px;stroke-linecap:butt;stroke-linejoin:miter;stroke-opacity:1" d="M 630.659,80.3865 611.914,84.2332 z" id="boundary" inkscape:connector-curvature="0" />
	<path style="fill:none;stroke:red;stroke-width:1px;stroke-linecap:butt;stroke-linejoin:miter;stroke-opacity:1" d="M 611.914,84.2332 603.304,105.106 z" id="boundary" inkscape:connector-curvature="0" />
	<path style="fill:none;stroke:red;stroke-width:1px;stroke-linecap:butt;stroke-linejoin:miter;stroke-opacity:1" d="M 603.304,105.106 616.672,123.887 z" id="boundary" inkscape:connector-curvature="0" />
	<path style="fill:none;stroke:red;stroke-width:1px;stroke-linecap:butt;stroke-linejoin:miter;stroke-opacity:1" d="M 616.672,123.887 657.435,144.767 z" id="boundary" inkscape:connector-curvature="0" />
	<path style="fill:none;stroke:red;stroke-width:1px;stroke-linecap:butt;stroke-linejoin:miter;stroke-opacity:1" d="M 657.435,144.767 680.424,153.83 z" id="boundary" inkscape:connector-curvature="0" />
	<path style="fill:none;stroke:red;stroke-width:1px;stroke-linecap:butt;stroke-linejoin:miter;stroke-opacity:1" d="M 680.424,153.83 734.945,182.077 z" id="boundary" inkscape:connector-curvature="0" />
	<path style="fill:none;stroke:red;stroke-width:1px;stroke-linecap:butt;stroke-linejoin:miter;stroke-opacity:1" d="M 734.945,182.077 771.269,179.531 z" id="boundary" inkscape:connector-curvature="0" />
	<path style="fill:none;stroke:red;stroke-width:1px;stroke-linecap:butt;stroke-linejoin:miter;stroke-opacity:1" d="M 771.269,179.531 768.21,207.294 z" id="boundary" inkscape:connector-curvature="0" />
	<path style="fill:none;stroke:red;stroke-width:1px;stroke-linecap:butt;stroke-linejoin:miter;stroke-opacity:1" d="M 768.21,207.294 844.072,256.398 z" id="boundary" inkscape:connector-curvature="0" />
	<path style="fill:none;stroke:red;stroke-width:1px;stroke-linecap:butt;stroke-linejoin:miter;stroke-opacity:1" d="M 844.072,256.398 903.082,386.614 z" id="boundary" inkscape:connector-curvature="0" />
	<path style="fill:none;stroke:red;stroke-width:1px;stroke-linecap:butt;stroke-linejoin:miter;stroke-opacity:1" d="M 903.082,386.614 855.104,390.71 z" id="boundary" inkscape:connector-curvature="0" />
	<path style="fill:none;stroke:red;stroke-width:1px;stroke-linecap:butt;stroke-linejoin:miter;stroke-opacity:1" d="M 855.104,390.71 829.886,326.194 z" id="boundary" inkscape:connector-curvature="0" />
	<path style="fill:none;stroke:red;stroke-width:1px;stroke-linecap:butt;stroke-linejoin:miter;stroke-opacity:1" d="M 829.886,326.194 812.195,321.989 z" id="boundary" inkscape:connector-curvature="0" />
	<path style="fill:none;stroke:red;stroke-width:1px;stroke-linecap:butt;stroke-linejoin:miter;stroke-opacity:1" d="M 812.195,321.989 808.448,293.948 z" id="boundary" inkscape:connector-curvature="0" />
	<path style="fill:none;stroke:red;stroke-width:1px;stroke-linecap:butt;stroke-linejoin:miter;stroke-opacity:1" d="M 808.448,293.948 796.08,262.989 z" id="boundary" inkscape:connector-curvature="0" />
	<path style="fill:none;stroke:red;stroke-width:1px;stroke-linecap:butt;stroke-linejoin:miter;stroke-opacity:1" d="M 796.08,262.989 771.755,244.13 z" id="boundary" inkscape:connector-curvature="0" />
	<path style="fill:none;stroke:red;stroke-width:1px;stroke-linecap:butt;stroke-linejoin:miter;stroke-opacity:1" d="M 771.755,244.13 703.971,216.969 z" id="boundary" inkscape:connector-curvature="0" />
	<path style="fill:none;stroke:red;stroke-width:1px;stroke-linecap:butt;stroke-linejoin:miter;stroke-opacity:1" d="M 703.971,216.969 684.931,174.532 z" id="boundary" inkscape:connector-curvature="0" />
	<path style="fill:none;stroke:red;stroke-width:1px;stroke-linecap:butt;stroke-linejoin:miter;stroke-opacity:1" d="M 684.931,174.532 624.473,139.571 z" id="boundary" inkscape:connector-curvature="0" />
	<path style="fill:none;stroke:red;stroke-width:1px;stroke-linecap:butt;stroke-linejoin:miter;stroke-opacity:1" d="M 624.473,139.571 589.973,134.412 z" id="boundary" inkscape:connector-curvature="0" />
	<path style="fill:none;stroke:red;stroke-width:1px;stroke-linecap:butt;stroke-linejoin:miter;stroke-opacity:1" d="M 589.973,134.412 596.453,120.295 z" id="boundary" inkscape:connector-curvature="0" />
	<path style="fill:none;stroke:red;stroke-width:1px;stroke-linecap:butt;stroke-linejoin:miter;stroke-opacity:1" d="M 596.453,120.295 574.543,107.106 z" id="boundary" inkscape:connector-curvature="0" />
	<path style="fill:none;stroke:red;stroke-width:1px;stroke-linecap:butt;stroke-linejoin:miter;stroke-opacity:1" d="M 574.543,107.106 575.057,97.7473 z" id="boundary" inkscape:connector-curvature="0" />
	<path style="fill:none;stroke:red;stroke-width:1px;stroke-linecap:butt;stroke-linejoin:miter;stroke-opacity:1" d="M 575.057,97.7473 594.754,83.9511 z" id="boundary" inkscape:connector-curvature="0" />
	<path style="fill:none;stroke:red;stroke-width:1px;stroke-linecap:butt;stroke-linejoin:miter;stroke-opacity:1" d="M 594.754,83.9511 573.219,53.4603 z" id="boundary" inkscape:connector-curvature="0" />
	<path style="fill:none;stroke:red;stroke-width:1px;stroke-linecap:butt;stroke-linejoin:miter;stroke-opacity:1" d="M 573.219,53.4603 560.112,51.0613 z" id="boundary" inkscape:connector-curvature="0" />
	<path style="fill:none;stroke:red;stroke-width:1px;stroke-linecap:butt;stroke-linejoin:miter;stroke-opacity:1" d="M 560.112,51.0613 537.713,77.5214 z" id="boundary" inkscape:connector-curvature="0" />
	<path style="fill:none;stroke:red;stroke-width:1px;stroke-linecap:butt;stroke-linejoin:miter;stroke-opacity:1" d="M 537.713,77.5214 505.985,105.693 z" id="boundary" inkscape:connector-curvature="0" />
	<path style="fill:none;stroke:red;stroke-width:1px;stroke-linecap:butt;stroke-linejoin:miter;stroke-opacity:1" d="M 505.985,105.693 491.432,119.968 z" id="boundary" inkscape:connector-curvature="0" />
	<path style="fill:none;stroke:red;stroke-width:1px;stroke-linecap:butt;stroke-linejoin:miter;stroke-opacity:1" d="M 491.432,119.968 505.242,137.9 z" id="boundary" inkscape:connector-curvature="0" />
	<path style="fill:none;stroke:red;stroke-width:1px;stroke-linecap:butt;stroke-linejoin:miter;stroke-opacity:1" d="M 505.242,137.9 539.593,170.514 z" id="boundary" inkscape:connector-curvature="0" />
	<path style="fill:none;stroke:red;stroke-width:1px;stroke-linecap:butt;stroke-linejoin:miter;stroke-opacity:1" d="M 539.593,170.514 554.569,232.617 z" id="boundary" inkscape:connector-curvature="0" />
	<path style="fill:none;stroke:red;stroke-width:1px;stroke-linecap:butt;stroke-linejoin:miter;stroke-opacity:1" d="M 554.569,232.617 566.442,245.592 z" id="boundary" inkscape:connector-curvature="0" />
	<path style="fill:none;stroke:red;stroke-width:1px;stroke-linecap:butt;stroke-linejoin:miter;stroke-opacity:1" d="M 566.442,245.592 585.629,277.309 z" id="boundary" inkscape:connector-curvature="0" />
	<path style="fill:none;stroke:red;stroke-width:1px;stroke-linecap:butt;stroke-linejoin:miter;stroke-opacity:1" d="M 585.629,277.309 642.32,296.726 z" id="boundary" inkscape:connector-curvature="0" />
	<path style="fill:none;stroke:red;stroke-width:1px;stroke-linecap:butt;stroke-linejoin:miter;stroke-opacity:1" d="M 642.32,296.726 661.849,302.654 z" id="boundary" inkscape:connector-curvature="0" />
	<path style="fill:none;stroke:red;stroke-width:1px;stroke-linecap:butt;stroke-linejoin:miter;stroke-opacity:1" d="M 661.849,302.654 705.371,321.765 z" id="boundary" inkscape:connector-curvature="0" />
	<path style="fill:none;stroke:red;stroke-width:1px;stroke-linecap:butt;stroke-linejoin:miter;stroke-opacity:1" d="M 705.371,321.765 754.422,357.292 z" id="boundary" inkscape:connector-curvature="0" />
	<path style="fill:none;stroke:red;stroke-width:1px;stroke-linecap:butt;stroke-linejoin:miter;stroke-opacity:1" d="M 754.422,357.292 742.63,371.887 z" id="boundary" inkscape:connector-curvature="0" />
	<path style="fill:none;stroke:red;stroke-width:1px;stroke-linecap:butt;stroke-linejoin:miter;stroke-opacity:1" d="M 742.63,371.887 710.522,375.265 z" id="boundary" inkscape:connector-curvature="0" />
	<path style="fill:none;stroke:red;stroke-width:1px;stroke-linecap:butt;stroke-linejoin:miter;stroke-opacity:1" d="M 710.522,375.265 692.107,338.469 z" id="boundary" inkscape:connector-curvature="0" />
	<path style="fill:none;stroke:red;stroke-width:1px;stroke-linecap:butt;stroke-linejoin:miter;stroke-opacity:1" d="M 692.107,338.469 638.655,314.369 z" id="boundary" inkscape:connector-curvature="0" />
	<path style="fill:none;stroke:red;stroke-width:1px;stroke-linecap:butt;stroke-linejoin:miter;stroke-opacity:1" d="M 638.655,314.369 611.213,326.403 z" id="boundary" inkscape:connector-curvature="0" />
	<path style="fill:none;stroke:red;stroke-width:1px;stroke-linecap:butt;stroke-linejoin:miter;stroke-opacity:1" d="M 611.213,326.403 569.059,266.595 z" id="boundary" inkscape:connector-curvature="0" />
	<path style="fill:none;stroke:red;stroke-width:1px;stroke-linecap:butt;stroke-linejoin:miter;stroke-opacity:1" d="M 569.059,266.595 505.837,254.218 z" id="boundary" inkscape:connector-curvature="0" />
	<path style="fill:none;stroke:red;stroke-width:1px;stroke-linecap:butt;stroke-linejoin:miter;stroke-opacity:1" d="M 505.837,254.218 518.784,208.391 z" id="boundary" inkscape:connector-curvature="0" />
	<path style="fill:none;stroke:red;stroke-width:1px;stroke-linecap:butt;stroke-linejoin:miter;stroke-opacity:1" d="M 518.784,208.391 509.548,174.046 z" id="boundary" inkscape:connector-curvature="0" />
	<path style="fill:none;stroke:red;stroke-width:1px;stroke-linecap:butt;stroke-linejoin:miter;stroke-opacity:1" d="M 509.548,174.046 417.004,149.03 z" id="boundary" inkscape:connector-curvature="0" />
	<path style="fill:none;stroke:red;stroke-width:1px;stroke-linecap:butt;stroke-linejoin:miter;stroke-opacity:1" d="M 417.004,149.03 421.017,189.143 z" id="boundary" inkscape:connector-curvature="0" />
	<path style="fill:none;stroke:red;stroke-width:1px;stroke-linecap:butt;stroke-linejoin:miter;stroke-opacity:1" d="M 421.017,189.143 406.3,219.093 z" id="boundary" inkscape:connector-curvature="0" />
	<path style="fill:none;stroke:red;stroke-width:1px;stroke-linecap:butt;stroke-linejoin:miter;stroke-opacity:1" d="M 406.3,219.093 386.674,250.574 z" id="boundary" inkscape:connector-curvature="0" />
	<path style="fill:none;stroke:red;stroke-width:1px;stroke-linecap:butt;stroke-linejoin:miter;stroke-opacity:1" d="M 386.674,250.574 344.176,276.658 z" id="boundary" inkscape:connector-curvature="0" />
	<path style="fill:none;stroke:red;stroke-width:1px;stroke-linecap:butt;stroke-linejoin:miter;stroke-opacity:1" d="M 344.176,276.658 293.191,301.277 z" id="boundary" inkscape:connector-curvature="0" />
	<path style="fill:none;stroke:red;stroke-width:1px;stroke-linecap:butt;stroke-linejoin:miter;stroke-opacity:1" d="M 293.191,301.277 262.841,301.186 z" id="boundary" inkscape:connector-curvature="0" />
	<path style="fill:none;stroke:red;stroke-width:1px;stroke-linecap:butt;stroke-linejoin:miter;stroke-opacity:1" d="M 262.841,301.186 248.825,345.65 z" id="boundary" inkscape:connector-curvature="0" />
	<path style="fill:none;stroke:red;stroke-width:1px;stroke-linecap:butt;stroke-linejoin:miter;stroke-opacity:1" d="M 248.825,345.65 223.007,321.426 z" id="boundary" inkscape:connector-curvature="0" />
	<path style="fill:none;stroke:red;stroke-width:1px;stroke-linecap:butt;stroke-linejoin:miter;stroke-opacity:1" d="M 223.007,321.426 199.841,340.719 z" id="boundary" inkscape:connector-curvature="0" />
	<path style="fill:none;stroke:red;stroke-width:1px;stroke-linecap:butt;stroke-linejoin:miter;stroke-opacity:1" d="M 199.841,340.719 164.86,383.885 z" id="boundary" inkscape:connector-curvature="0" />
	<path style="fill:none;stroke:red;stroke-width:1px;stroke-linecap:butt;stroke-linejoin:miter;stroke-opacity:1" d="M 164.86,383.885 145.86,427.668 z" id="boundary" inkscape:connector-curvature="0" />
	<path style="fill:none;stroke:red;stroke-width:1px;stroke-linecap:butt;stroke-linejoin:miter;stroke-opacity:1" d="M 145.86,427.668 159.669,424.282 z" id="boundary" inkscape:connector-curvature="0" />
	<path style="fill:none;stroke:red;stroke-width:1px;stroke-linecap:butt;stroke-linejoin:miter;stroke-opacity:1" d="M 159.669,424.282 186.233,459.208 z" id="boundary" inkscape:connector-curvature="0" />
	<path style="fill:none;stroke:red;stroke-width:1px;stroke-linecap:butt;stroke-linejoin:miter;stroke-opacity:1" d="M 186.233,459.208 130.07,494.664 z" id="boundary" inkscape:connector-curvature="0" />
	<path style="fill:none;stroke:red;stroke-width:1px;stroke-linecap:butt;stroke-linejoin:miter;stroke-opacity:1" d="M 130.07,494.664 120.816,553.83 z" id="boundary" inkscape:connector-curvature="0" />
	<path style="fill:none;stroke:red;stroke-width:1px;stroke-linecap:butt;stroke-linejoin:miter;stroke-opacity:1" d="M 120.816,553.83 177.389,510.198 z" id="boundary" inkscape:connector-curvature="0" />
	<path style="fill:none;stroke:red;stroke-width:1px;stroke-linecap:butt;stroke-linejoin:miter;stroke-opacity:1" d="M 177.389,510.198 190.164,546.332 z" id="boundary" inkscape:connector-curvature="0" />
	<path style="fill:none;stroke:red;stroke-width:1px;stroke-linecap:butt;stroke-linejoin:miter;stroke-opacity:1" d="M 190.164,546.332 186.099,596.664 z" id="boundary" inkscape:connector-curvature="0" />
	<path style="fill:none;stroke:red;stroke-width:1px;stroke-linecap:butt;stroke-linejoin:miter;stroke-opacity:1" d="M 186.099,596.664 207.674,653.481 z" id="boundary" inkscape:connector-curvature="0" />
	<path style="fill:none;stroke:red;stroke-width:1px;stroke-linecap:butt;stroke-linejoin:miter;stroke-opacity:1" d="M 207.674,653.481 204.072,657.425 z" id="boundary" inkscape:connector-curvature="0" />
	<path style="fill:none;stroke:red;stroke-width:1px;stroke-linecap:butt;stroke-linejoin:miter;stroke-opacity:1" d="M 204.072,657.425 139.593,650.666 z" id="boundary" inkscape:connector-curvature="0" />
	<path style="fill:none;stroke:red;stroke-width:1px;stroke-linecap:butt;stroke-linejoin:miter;stroke-opacity:1" d="M 139.593,650.666 105.185,723.625 z" id="boundary" inkscape:connector-curvature="0" />
	<path style="fill:none;stroke:red;stroke-width:1px;stroke-linecap:butt;stroke-linejoin:miter;stroke-opacity:1" d="M 105.185,723.625 178.308,722.557 z" id="boundary" inkscape:connector-curvature="0" />
	<path style="fill:none;stroke:red;stroke-width:1px;stroke-linecap:butt;stroke-linejoin:miter;stroke-opacity:1" d="M 178.308,722.557 232.497,713.241 z" id="boundary" inkscape:connector-curvature="0" />
	<path style="fill:none;stroke:red;stroke-width:1px;stroke-linecap:butt;stroke-linejoin:miter;stroke-opacity:1" d="M 232.497,713.241 248.148,747.539 z" id="boundary" inkscape:connector-curvature="0" />
	<path style="fill:none;stroke:red;stroke-width:1px;stroke-linecap:butt;stroke-linejoin:miter;stroke-opacity:1" d="M 248.148,747.539 232.369,758.121 z" id="boundary" inkscape:connector-curvature="0" />
	<path style="fill:none;stroke:red;stroke-width:1px;stroke-linecap:butt;stroke-linejoin:miter;stroke-opacity:1" d="M 232.369,758.121 275.473,781.113 z" id="boundary" inkscape:connector-curvature="0" />
	<path style="fill:none;stroke:red;stroke-width:1px;stroke-linecap:butt;stroke-linejoin:miter;stroke-opacity:1" d="M 275.473,781.113 290.456,762.298 z" id="boundary" inkscape:connector-curvature="0" />
	<path style="fill:none;stroke:red;stroke-width:1px;stroke-linecap:butt;stroke-linejoin:miter;stroke-opacity:1" d="M 290.456,762.298 295.583,809.398 z" id="boundary" inkscape:connector-curvature="0" />
	<path style="fill:none;stroke:red;stroke-width:1px;stroke-linecap:butt;stroke-linejoin:miter;stroke-opacity:1" d="M 295.583,809.398 343.946,782.144 z" id="boundary" inkscape:connector-curvature="0" />
	<path style="fill:none;stroke:red;stroke-width:1px;stroke-linecap:butt;stroke-linejoin:miter;stroke-opacity:1" d="M 343.946,782.144 383.198,797.634 z" id="boundary" inkscape:connector-curvature="0" />
	<path style="fill:none;stroke:red;stroke-width:1px;stroke-linecap:butt;stroke-linejoin:miter;stroke-opacity:1" d="M 383.198,797.634 352.128,846.65 z" id="boundary" inkscape:connector-curvature="0" />
	<path style="fill:none;stroke:red;stroke-width:1px;stroke-linecap:butt;stroke-linejoin:miter;stroke-opacity:1" d="M 352.128,846.65 389.937,970.216 z" id="boundary" inkscape:connector-curvature="0" />
	<path style="fill:none;stroke:red;stroke-width:1px;stroke-linecap:butt;stroke-linejoin:miter;stroke-opacity:1" d="M 389.937,970.216 419.028,871.662 z" id="boundary" inkscape:connector-curvature="0" />
	<path style="fill:none;stroke:red;stroke-width:1px;stroke-linecap:butt;stroke-linejoin:miter;stroke-opacity:1" d="M 419.028,871.662 449.8,860.14 z" id="boundary" inkscape:connector-curvature="0" />
	<path style="fill:none;stroke:red;stroke-width:1px;stroke-linecap:butt;stroke-linejoin:miter;stroke-opacity:1" d="M 449.8,860.14 494.297,832.674 z" id="boundary" inkscape:connector-curvature="0" />
	<path style="fill:none;stroke:red;stroke-width:1px;stroke-linecap:butt;stroke-linejoin:miter;stroke-opacity:1" d="M 494.297,832.674 509.373,858.826 z" id="boundary" inkscape:connector-curvature="0" />
	<path style="fill:none;stroke:red;stroke-width:1px;stroke-linecap:butt;stroke-linejoin:miter;stroke-opacity:1" d="M 509.373,858.826 517.091,876.647 z" id="boundary" inkscape:connector-curvature="0" />
	<path style="fill:none;stroke:red;stroke-width:1px;stroke-linecap:butt;stroke-linejoin:miter;stroke-opacity:1" d="M 517.091,876.647 571.421,837.574 z" id="boundary" inkscape:connector-curvature="0" />
	<path style="fill:none;stroke:red;stroke-width:1px;stroke-linecap:butt;stroke-linejoin:miter;stroke-opacity:1" d="M 571.421,837.574 553.092,822.288 z" id="boundary" inkscape:connector-curvature="0" />
	<path style="fill:none;stroke:red;stroke-width:1px;stroke-linecap:butt;stroke-linejoin:miter;stroke-opacity:1" d="M 553.092,822.288 575.022,789.92 z" id="boundary" inkscape:connector-curvature="0" />
	<path style="fill:none;stroke:red;stroke-width:1px;stroke-linecap:butt;stroke-linejoin:miter;stroke-opacity:1" d="M 575.022,789.92 590.905,790.676 z" id="boundary" inkscape:connector-curvature="0" />
	<path style="fill:none;stroke:red;stroke-width:1px;stroke-linecap:butt;stroke-linejoin:miter;stroke-opacity:1" d="M 590.905,790.676 681.625,781.52 z" id="boundary" inkscape:connector-curvature="0" />
	<path style="fill:none;stroke:red;stroke-width:1px;stroke-linecap:butt;stroke-linejoin:miter;stroke-opacity:1" d="M 681.625,781.52 655.747,757.474 z" id="boundary" inkscape:connector-curvature="0" />
	<path style="fill:none;stroke:red;stroke-width:1px;stroke-linecap:butt;stroke-linejoin:miter;stroke-opacity:1" d="M 655.747,757.474 725.128,756.008 z" id="boundary" inkscape:connector-curvature="0" />
	<path style="fill:none;stroke:red;stroke-width:1px;stroke-linecap:butt;stroke-linejoin:miter;stroke-opacity:1" d="M 725.128,756.008 687.688,698.581 z" id="boundary" inkscape:connector-curvature="0" />
	<path style="fill:none;stroke:red;stroke-width:1px;stroke-linecap:butt;stroke-linejoin:miter;stroke-opacity:1" d="M 687.688,698.581 719.89,706.563 z" id="boundary" inkscape:connector-curvature="0" />
	<path style="fill:none;stroke:red;stroke-width:1px;stroke-linecap:butt;stroke-linejoin:miter;stroke-opacity:1" d="M 719.89,706.563 717.542,700.89 z" id="boundary" inkscape:connector-curvature="0" />
	<path style="fill:none;stroke:red;stroke-width:1px;stroke-linecap:butt;stroke-linejoin:miter;stroke-opacity:1" d="M 717.542,700.89 754.228,651.013 z" id="boundary" inkscape:connector-curvature="0" />
	<path style="fill:none;stroke:red;stroke-width:1px;stroke-linecap:butt;stroke-linejoin:miter;stroke-opacity:1" d="M 754.228,651.013 771.252,643.484 z" id="boundary" inkscape:connector-curvature="0" />
	<path style="fill:none;stroke:red;stroke-width:1px;stroke-linecap:butt;stroke-linejoin:miter;stroke-opacity:1" d="M 771.252,643.484 741.454,583.377 z" id="boundary" inkscape:connector-curvature="0" />
	<path style="fill:none;stroke:red;stroke-width:1px;stroke-linecap:butt;stroke-linejoin:miter;stroke-opacity:1" d="M 741.454,583.377 767.384,581.022 z" id="boundary" inkscape:connector-curvature="0" />
	<path style="fill:none;stroke:red;stroke-width:1px;stroke-linecap:butt;stroke-linejoin:miter;stroke-opacity:1" d="M 767.384,581.022 797.531,572.795 z" id="boundary" inkscape:connector-curvature="0" />
	<path style="fill:none;stroke:red;stroke-width:1px;stroke-linecap:butt;stroke-linejoin:miter;stroke-opacity:1" d="M 797.531,572.795 771.867,521.176 z" id="boundary" inkscape:connector-curvature="0" />
	<path style="fill:none;stroke:red;stroke-width:1px;stroke-linecap:butt;stroke-linejoin:miter;stroke-opacity:1" d="M 771.867,521.176 740.38,471.088 z" id="boundary" inkscape:connector-curvature="0" />
	<path style="fill:none;stroke:red;stroke-width:1px;stroke-linecap:butt;stroke-linejoin:miter;stroke-opacity:1" d="M 740.38,471.088 726.226,449.982 z" id="boundary" inkscape:connector-curvature="0" />
	<path style="fill:none;stroke:red;stroke-width:1px;stroke-linecap:butt;stroke-linejoin:miter;stroke-opacity:1" d="M 726.226,449.982 737.385,448.548 z" id="boundary" inkscape:connector-curvature="0" />
	<path style="fill:none;stroke:red;stroke-width:1px;stroke-linecap:butt;stroke-linejoin:miter;stroke-opacity:1" d="M 737.385,448.548 781.302,446.167 z" id="boundary" inkscape:connector-curvature="0" />
	<path style="fill:none;stroke:red;stroke-width:1px;stroke-linecap:butt;stroke-linejoin:miter;stroke-opacity:1" d="M 781.302,446.167 853.542,469.162 z" id="boundary" inkscape:connector-curvature="0" />
	<path style="fill:none;stroke:red;stroke-width:1px;stroke-linecap:butt;stroke-linejoin:miter;stroke-opacity:1" d="M 853.542,469.162 877.784,482.187 z" id="boundary" inkscape:connector-curvature="0" />
	<path style="fill:none;stroke:red;stroke-width:1px;stroke-linecap:butt;stroke-linejoin:miter;stroke-opacity:1" d="M 877.784,482.187 881.706,513.309 z" id="boundary" inkscape:connector-curvature="0" />
	<path style="fill:none;stroke:red;stroke-width:1px;stroke-linecap:butt;stroke-linejoin:miter;stroke-opacity:1" d="M 881.706,513.309 877.449,531.523 z" id="boundary" inkscape:connector-curvature="0" />
	<path style="fill:none;stroke:red;stroke-width:1px;stroke-linecap:butt;stroke-linejoin:miter;stroke-opacity:1" d="M 877.449,531.523 925.386,557.182 z" id="boundary" inkscape:connector-curvature="0" />
	<circle cx="283.947" cy="35.3564" r="4" fill="#0" id="circle0"/>
	<circle cx="307.308" cy="4.43806" r="4" fill="#0" id="circle1"/>
	<circle cx="316.463" cy="50.4178" r="4" fill="#0" id="circle2"/>
	<circle cx="376.002" cy="7.93676" r="4" fill="#0" id="circle3"/>
	<circle cx="401.764" cy="24.3318" r="4" fill="#0" id="circle4"/>
	<circle cx="401.92" cy="17.4134" r="4" fill="#0" id="circle5"/>
	<circle cx="428.343" cy="26.2491" r="4" fill="#0" id="circle6"/>
	<circle cx="272.999" cy="12.0456" r="4" fill="#0" id="circle7"/>
	<circle cx="297.219" cy="42.6964" r="4" fill="#0" id="circle8"/>
	<circle cx="335.028" cy="68.9438" r="4" fill="#0" id="circle9"/>
	<circle cx="343.429" cy="113.421" r="4" fill="#0" id="circle10"/>
	<circle cx="334.176" cy="89.4639" r="4" fill="#0" id="circle11"/>
	<circle cx="332.688" cy="140.498" r="4" fill="#0" id="circle12"/>
	<circle cx="316.94" cy="169.974" r="4" fill="#0" id="circle13"/>
	<circle cx="235.003" cy="169.909" r="4" fill="#0" id="circle14"/>
	<circle cx="253.199" cy="135.458" r="4" fill="#0" id="circle15"/>
	<circle cx="230.138" cy="186.511" r="4" fill="#0" id="circle16"/>
	<circle cx="210.427" cy="177.354" r="4" fill="#0" id="circle17"/>
	<circle cx="204.825" cy="153.719" r="4" fill="#0" id="circle18"/>
	<circle cx="204.779" cy="183.375" r="4" fill="#0" id="circle19"/>
	<circle cx="171.425" cy="200.104" r="4" fill="#0" id="circle20"/>
	<circle cx="168.049" cy="205.042" r="4" fill="#0" id="circle21"/>
	<circle cx="162.751" cy="259.348" r="4" fill="#0" id="circle22"/>
	<circle cx="109.566" cy="231.426" r="4" fill="#0" id="circle23"/>
	<circle cx="152.978" cy="244.539" r="4" fill="#0" id="circle24"/>
	<circle cx="103.823" cy="327.214" r="4" fill="#0" id="circle25"/>
	<circle cx="119.868" cy="298.48" r="4" fill="#0" id="circle26"/>
	<circle cx="56.9594" cy="342.712" r="4" fill="#0" id="circle27"/>
	<circle cx="104.738" cy="390.43" r="4" fill="#0" id="circle28"/>
	<circle cx="62.7553" cy="414.436" r="4" fill="#0" id="circle29"/>
	<circle cx="73.6103" cy="371.105" r="4" fill="#0" id="circle30"/>
	<circle cx="15.6847" cy="409.941" r="4" fill="#0" id="circle31"/>
	<circle cx="56.0071" cy="459.865" r="4" fill="#0" id="circle32"/>
	<circle cx="44.1405" cy="472.669" r="4" fill="#0" id="circle33"/>
	<circle cx="30.0712" cy="510.611" r="4" fill="#0" id="circle34"/>
	<circle cx="28.6118" cy="587.188" r="4" fill="#0" id="circle35"/>
	<circle cx="38.1763" cy="546.191" r="4" fill="#0" id="circle36"/>
	<circle cx="4" cy="588.442" r="4" fill="#0" id="circle37"/>
	<circle cx="57.0322" cy="613.211" r="4" fill="#0" id="circle38"/>
	<circle cx="35.7504" cy="668.746" r="4" fill="#0" id="circle39"/>
	<circle cx="39.2085" cy="708.064" r="4" fill="#0" id="circle40"/>
	<circle cx="70.0369" cy="678.349" r="4" fill="#0" id="circle41"/>
	<circle cx="52.1334" cy="744.155" r="4" fill="#0" id="circle42"/>
	<circle cx="105.185" cy="723.625" r="4" fill="#0" id="circle43"/>
	<circle cx="111.327" cy="760.808" r="4" fill="#0" id="circle44"/>
	<circle cx="79.1923" cy="789.675" r="4" fill="#0" id="circle45"/>
	<circle cx="117.515" cy="784.443" r="4" fill="#0" id="circle46"/>
	<circle cx="147.234" cy="798.439" r="4" fill="#0" id="circle47"/>
	<circle cx="169.373" cy="825.787" r="4" fill="#0" id="circle48"/>
	<circle cx="166.497" cy="833.857" r="4" fill="#0" id="circle49"/>
	<circle cx="202.113" cy="904.855" r="4" fill="#0" id="circle50"/>
	<circle cx="186.499" cy="866.393" r="4" fill="#0" id="circle51"/>
	<circle cx="271.653" cy="882.439" r="4" fill="#0" id="circle52"/>
	<circle cx="256.45" cy="928.675" r="4" fill="#0" id="circle53"/>
	<circle cx="285.395" cy="953.278" r="4" fill="#0" id="circle54"/>
	<circle cx="297.589" cy="960.754" r="4" fill="#0" id="circle55"/>
	<circle cx="348.454" cy="972.914" r="4" fill="#0" id="circle56"/>
	<circle cx="393.238" cy="975.014" r="4" fill="#0" id="circle57"/>
	<circle cx="389.937" cy="970.216" r="4" fill="#0" id="circle58"/>
	<circle cx="443.278" cy="935.072" r="4" fill="#0" id="circle59"/>
	<circle cx="474.475" cy="996" r="4" fill="#0" id="circle60"/>
	<circle cx="471.76" cy="947.456" r="4" fill="#0" id="circle61"/>
	<circle cx="465.181" cy="934.101" r="4" fill="#0" id="circle62"/>
	<circle cx="511.9" cy="972.765" r="4" fill="#0" id="circle63"/>
	<circle cx="529.455" cy="970.315" r="4" fill="#0" id="circle64"/>
	<circle cx="589.245" cy="974.818" r="4" fill="#0" id="circle65"/>
	<circle cx="590.77" cy="965.579" r="4" fill="#0" id="circle66"/>
	<circle cx="648.761" cy="921.135" r="4" fill="#0" id="circle67"/>
	<circle cx="675.748" cy="906.947" r="4" fill="#0" id="circle68"/>
	<circle cx="694.158" cy="896.406" r="4" fill="#0" id="circle69"/>
	<circle cx="723.565" cy="867.66" r="4" fill="#0" id="circle70"/>
	<circle cx="747.802" cy="888.582" r="4" fill="#0" id="circle71"/>
	<circle cx="756.143" cy="894.691" r="4" fill="#0" id="circle72"/>
	<circle cx="727.572" cy="838.006" r="4" fill="#0" id="circle73"/>
	<circle cx="757.371" cy="801.051" r="4" fill="#0" id="circle74"/>
	<circle cx="778.859" cy="795.575" r="4" fill="#0" id="circle75"/>
	<circle cx="837.255" cy="822.021" r="4" fill="#0" id="circle76"/>
	<circle cx="820.033" cy="801.43" r="4" fill="#0" id="circle77"/>
	<circle cx="560.112" cy="51.0613" r="4" fill="#0" id="circle78"/>
	<circle cx="553.893" cy="4" r="4" fill="#0" id="circle79"/>
	<circle cx="565.51" cy="11.2787" r="4" fill="#0" id="circle80"/>
	<circle cx="625.585" cy="57.0201" r="4" fill="#0" id="circle81"/>
	<circle cx="573.219" cy="53.4603" r="4" fill="#0" id="circle82"/>
	<circle cx="601.819" cy="57.1206" r="4" fill="#0" id="circle83"/>
	<circle cx="594.754" cy="83.9511" r="4" fill="#0" id="circle84"/>
	<circle cx="603.304" cy="105.106" r="4" fill="#0" id="circle85"/>
	<circle cx="669.599" cy="60.1871" r="4" fill="#0" id="circle86"/>
	<circle cx="624.473" cy="139.571" r="4" fill="#0" id="circle87"/>
	<circle cx="657.435" cy="144.767" r="4" fill="#0" id="circle88"/>
	<circle cx="616.672" cy="123.887" r="4" fill="#0" id="circle89"/>
	<circle cx="680.424" cy="153.83" r="4" fill="#0" id="circle90"/>
	<circle cx="684.931" cy="174.532" r="4" fill="#0" id="circle91"/>
	<circle cx="703.971" cy="216.969" r="4" fill="#0" id="circle92"/>
	<circle cx="734.945" cy="182.077" r="4" fill="#0" id="circle93"/>
	<circle cx="771.269" cy="179.531" r="4" fill="#0" id="circle94"/>
	<circle cx="768.21" cy="207.294" r="4" fill="#0" id="circle95"/>
	<circle cx="771.755" cy="244.13" r="4" fill="#0" id="circle96"/>
	<circle cx="844.072" cy="256.398" r="4" fill="#0" id="circle97"/>
	<circle cx="796.08" cy="262.989" r="4" fill="#0" id="circle98"/>
	<circle cx="808.448" cy="293.948" r="4" fill="#0" id="circle99"/>
	<circle cx="812.195" cy="321.989" r="4" fill="#0" id="circle100"/>
	<circle cx="829.886" cy="326.194" r="4" fill="#0" id="circle101"/>
	<circle cx="855.104" cy="390.71" r="4" fill="#0" id="circle102"/>
	<circle cx="903.082" cy="386.614" r="4" fill="#0" id="circle103"/>
	<circle cx="853.542" cy="469.162" r="4" fill="#0" id="circle104"/>
	<circle cx="877.784" cy="482.187" r="4" fill="#0" id="circle105"/>
	<circle cx="881.706" cy="513.309" r="4" fill="#0" id="circle106"/>
	<circle cx="877.449" cy="531.523" r="4" fill="#0" id="circle107"/>
	<circle cx="905.902" cy="565.362" r="4" fill="#0" id="circle108"/>
	<circle cx="925.386" cy="557.182" r="4" fill="#0" id="circle109"/>
	<circle cx="910.385" cy="580.727" r="4" fill="#0" id="circle110"/>
	<circle cx="884.861" cy="581.143" r="4" fill="#0" id="circle111"/>
	<circle cx="894.2" cy="642.179" r="4" fill="#0" id="circle112"/>
	<circle cx="853.469" cy="701.413" r="4" fill="#0" id="circle113"/>
	<circle cx="862.933" cy="689.668" r="4" fill="#0" id="circle114"/>
	<circle cx="817.256" cy="725.432" r="4" fill="#0" id="circle115"/>
	<circle cx="849.533" cy="719.999" r="4" fill="#0" id="circle116"/>
	<circle cx="424.194" cy="84.2793" r="4" fill="#0" id="circle117"/>
	<circle cx="429.861" cy="60.0972" r="4" fill="#0" id="circle118"/>
	<circle cx="390.122" cy="110.549" r="4" fill="#0" id="circle119"/>
	<circle cx="402.195" cy="114.044" r="4" fill="#0" id="circle120"/>
	<circle cx="417.004" cy="149.03" r="4" fill="#0" id="circle121"/>
	<circle cx="398.206" cy="182.137" r="4" fill="#0" id="circle122"/>
	<circle cx="406.3" cy="219.093" r="4" fill="#0" id="circle123"/>
	<circle cx="421.017" cy="189.143" r="4" fill="#0" id="circle124"/>
	<circle cx="401.125" cy="216.16" r="4" fill="#0" id="circle125"/>
	<circle cx="537.713" cy="77.5214" r="4" fill="#0" id="circle126"/>
	<circle cx="515.291" cy="67.399" r="4" fill="#0" id="circle127"/>
	<circle cx="505.985" cy="105.693" r="4" fill="#0" id="circle128"/>
	<circle cx="505.242" cy="137.9" r="4" fill="#0" id="circle129"/>
	<circle cx="491.432" cy="119.968" r="4" fill="#0" id="circle130"/>
	<circle cx="509.548" cy="174.046" r="4" fill="#0" id="circle131"/>
	<circle cx="518.784" cy="208.391" r="4" fill="#0" id="circle132"/>
	<circle cx="539.593" cy="170.514" r="4" fill="#0" id="circle133"/>
	<circle cx="505.837" cy="254.218" r="4" fill="#0" id="circle134"/>
	<circle cx="566.442" cy="245.592" r="4" fill="#0" id="circle135"/>
	<circle cx="554.569" cy="232.617" r="4" fill="#0" id="circle136"/>
	<circle cx="569.059" cy="266.595" r="4" fill="#0" id="circle137"/>
	<circle cx="585.629" cy="277.309" r="4" fill="#0" id="circle138"/>
	<circle cx="642.32" cy="296.726" r="4" fill="#0" id="circle139"/>
	<circle cx="611.213" cy="326.403" r="4" fill="#0" id="circle140"/>
	<circle cx="638.655" cy="314.369" r="4" fill="#0" id="circle141"/>
	<circle cx="705.371" cy="321.765" r="4" fill="#0" id="circle142"/>
	<circle cx="661.849" cy="302.654" r="4" fill="#0" id="circle143"/>
	<circle cx="692.107" cy="338.469" r="4" fill="#0" id="circle144"/>
	<circle cx="754.422" cy="357.292" r="4" fill="#0" id="circle145"/>
	<circle cx="742.63" cy="371.887" r="4" fill="#0" id="circle146"/>
	<circle cx="710.522" cy="375.265" r="4" fill="#0" id="circle147"/>
	<circle cx="726.226" cy="449.982" r="4" fill="#0" id="circle148"/>
	<circle cx="737.385" cy="448.548" r="4" fill="#0" id="circle149"/>
	<circle cx="781.302" cy="446.167" r="4" fill="#0" id="circle150"/>
	<circle cx="740.38" cy="471.088" r="4" fill="#0" id="circle151"/>
	<circle cx="771.867" cy="521.176" r="4" fill="#0" id="circle152"/>
	<circle cx="797.531" cy="572.795" r="4" fill="#0" id="circle153"/>
	<circle cx="741.454" cy="583.377" r="4" fill="#0" id="circle154"/>
	<circle cx="767.384" cy="581.022" r="4" fill="#0" id="circle155"/>
	<circle cx="754.228" cy="651.013" r="4" fill="#0" id="circle156"/>
	<circle cx="771.252" cy="643.484" r="4" fill="#0" id="circle157"/>
	<circle cx="719.89" cy="706.563" r="4" fill="#0" id="circle158"/>
	<circle cx="717.542" cy="700.89" r="4" fill="#0" id="circle159"/>
	<circle cx="687.688" cy="698.581" r="4" fill="#0" id="circle160"/>
	<circle cx="725.128" cy="756.008" r="4" fill="#0" id="circle161"/>
	<circle cx="681.625" cy="781.52" r="4" fill="#0" id="circle162"/>
	<circle cx="690.202" cy="783.396" r="4" fill="#0" id="circle163"/>
	<circle cx="655.747" cy="757.474" r="4" fill="#0" id="circle164"/>
	<circle cx="590.905" cy="790.676" r="4" fill="#0" id="circle165"/>
	<circle cx="575.022" cy="789.92" r="4" fill="#0" id="circle166"/>
	<circle cx="571.421" cy="837.574" r="4" fill="#0" id="circle167"/>
	<circle cx="553.092" cy="822.288" r="4" fill="#0" id="circle168"/>
	<circle cx="509.373" cy="858.826" r="4" fill="#0" id="circle169"/>
	<circle cx="517.091" cy="876.647" r="4" fill="#0" id="circle170"/>
	<circle cx="494.297" cy="832.674" r="4" fill="#0" id="circle171"/>
	<circle cx="449.8" cy="860.14" r="4" fill="#0" id="circle172"/>
	<circle cx="419.028" cy="871.662" r="4" fill="#0" id="circle173"/>
	<circle cx="383.198" cy="797.634" r="4" fill="#0" id="circle174"/>
	<circle cx="386.674" cy="250.574" r="4" fill="#0" id="circle175"/>
	<circle cx="355.994" cy="222.092" r="4" fill="#0" id="circle176"/>
	<circle cx="344.176" cy="276.658" r="4" fill="#0" id="circle177"/>
	<circle cx="286.603" cy="253.874" r="4" fill="#0" id="circle178"/>
	<circle cx="293.191" cy="301.277" r="4" fill="#0" id="circle179"/>
	<circle cx="262.841" cy="301.186" r="4" fill="#0" id="circle180"/>
	<circle cx="223.007" cy="321.426" r="4" fill="#0" id="circle181"/>
	<circle cx="248.825" cy="345.65" r="4" fill="#0" id="circle182"/>
	<circle cx="199.841" cy="340.719" r="4" fill="#0" id="circle183"/>
	<circle cx="164.86" cy="383.885" r="4" fill="#0" id="circle184"/>
	<circle cx="159.669" cy="424.282" r="4" fill="#0" id="circle185"/>
	<circle cx="186.233" cy="459.208" r="4" fill="#0" id="circle186"/>
	<circle cx="145.86" cy="427.668" r="4" fill="#0" id="circle187"/>
	<circle cx="177.389" cy="510.198" r="4" fill="#0" id="circle188"/>
	<circle cx="130.07" cy="494.664" r="4" fill="#0" id="circle189"/>
	<circle cx="190.164" cy="546.332" r="4" fill="#0" id="circle190"/>
	<circle cx="120.816" cy="553.83" r="4" fill="#0" id="circle191"/>
	<circle cx="186.099" cy="596.664" r="4" fill="#0" id="circle192"/>
	<circle cx="139.593" cy="650.666" r="4" fill="#0" id="circle193"/>
	<circle cx="207.674" cy="653.481" r="4" fill="#0" id="circle194"/>
	<circle cx="204.072" cy="657.425" r="4" fill="#0" id="circle195"/>
	<circle cx="178.308" cy="722.557" r="4" fill="#0" id="circle196"/>
	<circle cx="248.148" cy="747.539" r="4" fill="#0" id="circle197"/>
	<circle cx="232.497" cy="713.241" r="4" fill="#0" id="circle198"/>
	<circle cx="232.369" cy="758.121" r="4" fill="#0" id="circle199"/>
	<circle cx="290.456" cy="762.298" r="4" fill="#0" id="circle200"/>
	<circle cx="275.473" cy="781.113" r="4" fill="#0" id="circle201"/>
	<circle cx="295.583" cy="809.398" r="4" fill="#0" id="circle202"/>
	<circle cx="343.946" cy="782.144" r="4" fill="#0" id="circle203"/>
	<circle cx="352.128" cy="846.65" r="4" fill="#0" id="circle204"/>
	<circle cx="330.07" cy="69.2238" r="4" fill="#0" id="circle205"/>
	<circle cx="343.61" cy="48.4019" r="4" fill="#0" id="circle206"/>
	<circle cx="389.709" cy="28.152" r="4" fill="#0" id="circle207"/>
	<circle cx="416.469" cy="93.5817" r="4" fill="#0" id="circle208"/>
	<circle cx="354.71" cy="100.033" r="4" fill="#0" id="circle209"/>
	<circle cx="339.864" cy="108.817" r="4" fill="#0" id="circle210"/>
	<circle cx="322.958" cy="118.062" r="4" fill="#0" id="circle211"/>
	<circle cx="374.321" cy="76.6716" r="4" fill="#0" id="circle212"/>
	<circle cx="393.117" cy="79.1466" r="4" fill="#0" id="circle213"/>
	<circle cx="376.143" cy="123.292" r="4" fill="#0" id="circle214"/>
	<circle cx="582.557" cy="41.5928" r="4" fill="#0" id="circle215"/>
	<circle cx="572.165" cy="31.2313" r="4" fill="#0" id="circle216"/>
	<circle cx="611.914" cy="84.2332" r="4" fill="#0" id="circle217"/>
	<circle cx="627.464" cy="69.712" r="4" fill="#0" id="circle218"/>
	<circle cx="630.659" cy="80.3865" r="4" fill="#0" id="circle219"/>
	<circle cx="532.904" cy="57.9619" r="4" fill="#0" id="circle220"/>
	<circle cx="575.057" cy="97.7473" r="4" fill="#0" id="circle221"/>
	<circle cx="574.543" cy="107.106" r="4" fill="#0" id="circle222"/>
	<circle cx="596.453" cy="120.295" r="4" fill="#0" id="circle223"/>
	<circle cx="589.973" cy="134.412" r="4" fill="#0" id="circle224"/>
	</g>
</svg>