<?xml version="1.0" encoding="UTF-8" standalone="no"?>
<!-- Created with CurveBenchmark -->
<svg
	xmlns:dc="http://purl.org/dc/elements/1.1/"
	xmlns:cc="http://creativecommons.org/ns#"
	xmlns:rdf="http://www.w3.org/1999/02/22-rdf-syntax-ns#"
	xmlns:svg="http://www.w3.org/2000/svg"
	xmlns="http://www.w3.org/2000/svg"
	xmlns:sodipodi="http://sodipodi.sourceforge.net/DTD/sodipodi-0.dtd"
	xmlns:inkscape="http://www.inkscape.org/namespaces/inkscape"
	width="1000"
	height="1000"
	id="svg2"
	version="1.1"
	sodipodi:docname="noisy-0.03/connect2d-mc10.txt">
<defs
	id="defs4" />
<metadata
	id="metadata7">
	<rdf:RDF>
		<cc:Work
			rdf:about="">
			<dc:format>image/svg+xml</dc:format>
			<dc:type
				rdf:resource="http://purl.org/dc/dcmitype/StillImage" />
			<dc:title></dc:title>
		</cc:Work>
	</rdf:RDF>
</metadata>
<g
	inkscape:label="Layer 1"
	inkscape:groupmode="layer"
	id="layer1">
	<path style="fill:none;stroke:red;stroke-width:1px;stroke-linecap:butt;stroke-linejoin:miter;stroke-opacity:1" d="M 962.402,677.167 943.59,650.748 z" id="boundary" inkscape:connector-curvature="0" />
	<path style="fill:none;stroke:red;stroke-width:1px;stroke-linecap:butt;stroke-linejoin:miter;stroke-opacity:1" d="M 943.59,650.748 894.012,679.505 z" id="boundary" inkscape:connector-curvature="0" />
	<path style="fill:none;stroke:red;stroke-width:1px;stroke-linecap:butt;stroke-linejoin:miter;stroke-opacity:1" d="M 894.012,679.505 866.674,671.811 z" id="boundary" inkscape:connector-curvature="0" />
	<path style="fill:none;stroke:red;stroke-width:1px;stroke-linecap:butt;stroke-linejoin:miter;stroke-opacity:1" d="M 866.674,671.811 865.052,677.836 z" id="boundary" inkscape:connector-curvature="0" />
	<path style="fill:none;stroke:red;stroke-width:1px;stroke-linecap:butt;stroke-linejoin:miter;stroke-opacity:1" d="M 865.052,677.836 746.288,671.952 z" id="boundary" inkscape:connector-curvature="0" />
	<path style="fill:none;stroke:red;stroke-width:1px;stroke-linecap:butt;stroke-linejoin:miter;stroke-opacity:1" d="M 746.288,671.952 730.044,679.942 z" id="boundary" inkscape:connector-curvature="0" />
	<path style="fill:none;stroke:red;stroke-width:1px;stroke-linecap:butt;stroke-linejoin:miter;stroke-opacity:1" d="M 730.044,679.942 698.432,673.962 z" id="boundary" inkscape:connector-curvature="0" />
	<path style="fill:none;stroke:red;stroke-width:1px;stroke-linecap:butt;stroke-linejoin:miter;stroke-opacity:1" d="M 698.432,673.962 680.811,646.918 z" id="boundary" inkscape:connector-curvature="0" />
	<path style="fill:none;stroke:red;stroke-width:1px;stroke-linecap:butt;stroke-linejoin:miter;stroke-opacity:1" d="M 680.811,646.918 627.336,629.061 z" id="boundary" inkscape:connector-curvature="0" />
	<path style="fill:none;stroke:red;stroke-width:1px;stroke-linecap:butt;stroke-linejoin:miter;stroke-opacity:1" d="M 627.336,629.061 607.174,593.139 z" id="boundary" inkscape:connector-curvature="0" />
	<path style="fill:none;stroke:red;stroke-width:1px;stroke-linecap:butt;stroke-linejoin:miter;stroke-opacity:1" d="M 607.174,593.139 593.974,585.35 z" id="boundary" inkscape:connector-curvature="0" />
	<path style="fill:none;stroke:red;stroke-width:1px;stroke-linecap:butt;stroke-linejoin:miter;stroke-opacity:1" d="M 593.974,585.35 535.619,540.719 z" id="boundary" inkscape:connector-curvature="0" />
	<path style="fill:none;stroke:red;stroke-width:1px;stroke-linecap:butt;stroke-linejoin:miter;stroke-opacity:1" d="M 535.619,540.719 514.959,526.647 z" id="boundary" inkscape:connector-curvature="0" />
	<path style="fill:none;stroke:red;stroke-width:1px;stroke-linecap:butt;stroke-linejoin:miter;stroke-opacity:1" d="M 514.959,526.647 505.265,526.982 z" id="boundary" inkscape:connector-curvature="0" />
	<path style="fill:none;stroke:red;stroke-width:1px;stroke-linecap:butt;stroke-linejoin:miter;stroke-opacity:1" d="M 505.265,526.982 472.252,452.126 z" id="boundary" inkscape:connector-curvature="0" />
	<path style="fill:none;stroke:red;stroke-width:1px;stroke-linecap:butt;stroke-linejoin:miter;stroke-opacity:1" d="M 472.252,452.126 467.958,442.706 z" id="boundary" inkscape:connector-curvature="0" />
	<path style="fill:none;stroke:red;stroke-width:1px;stroke-linecap:butt;stroke-linejoin:miter;stroke-opacity:1" d="M 467.958,442.706 430.918,465.781 z" id="boundary" inkscape:connector-curvature="0" />
	<path style="fill:none;stroke:red;stroke-width:1px;stroke-linecap:butt;stroke-linejoin:miter;stroke-opacity:1" d="M 430.918,465.781 427.806,493.58 z" id="boundary" inkscape:connector-curvature="0" />
	<path style="fill:none;stroke:red;stroke-width:1px;stroke-linecap:butt;stroke-linejoin:miter;stroke-opacity:1" d="M 427.806,493.58 439.094,507.648 z" id="boundary" inkscape:connector-curvature="0" />
	<path style="fill:none;stroke:red;stroke-width:1px;stroke-linecap:butt;stroke-linejoin:miter;stroke-opacity:1" d="M 439.094,507.648 423.703,547.367 z" id="boundary" inkscape:connector-curvature="0" />
	<path style="fill:none;stroke:red;stroke-width:1px;stroke-linecap:butt;stroke-linejoin:miter;stroke-opacity:1" d="M 423.703,547.367 441.932,574.687 z" id="boundary" inkscape:connector-curvature="0" />
	<path style="fill:none;stroke:red;stroke-width:1px;stroke-linecap:butt;stroke-linejoin:miter;stroke-opacity:1" d="M 441.932,574.687 437.433,573.908 z" id="boundary" inkscape:connector-curvature="0" />
	<path style="fill:none;stroke:red;stroke-width:1px;stroke-linecap:butt;stroke-linejoin:miter;stroke-opacity:1" d="M 437.433,573.908 439.133,585.582 z" id="boundary" inkscape:connector-curvature="0" />
	<path style="fill:none;stroke:red;stroke-width:1px;stroke-linecap:butt;stroke-linejoin:miter;stroke-opacity:1" d="M 439.133,585.582 426.756,609.577 z" id="boundary" inkscape:connector-curvature="0" />
	<path style="fill:none;stroke:red;stroke-width:1px;stroke-linecap:butt;stroke-linejoin:miter;stroke-opacity:1" d="M 426.756,609.577 406.394,646.284 z" id="boundary" inkscape:connector-curvature="0" />
	<path style="fill:none;stroke:red;stroke-width:1px;stroke-linecap:butt;stroke-linejoin:miter;stroke-opacity:1" d="M 406.394,646.284 420.698,647.565 z" id="boundary" inkscape:connector-curvature="0" />
	<path style="fill:none;stroke:red;stroke-width:1px;stroke-linecap:butt;stroke-linejoin:miter;stroke-opacity:1" d="M 420.698,647.565 428.574,684.528 z" id="boundary" inkscape:connector-curvature="0" />
	<path style="fill:none;stroke:red;stroke-width:1px;stroke-linecap:butt;stroke-linejoin:miter;stroke-opacity:1" d="M 428.574,684.528 406.453,697.271 z" id="boundary" inkscape:connector-curvature="0" />
	<path style="fill:none;stroke:red;stroke-width:1px;stroke-linecap:butt;stroke-linejoin:miter;stroke-opacity:1" d="M 406.453,697.271 380.185,677.388 z" id="boundary" inkscape:connector-curvature="0" />
	<path style="fill:none;stroke:red;stroke-width:1px;stroke-linecap:butt;stroke-linejoin:miter;stroke-opacity:1" d="M 380.185,677.388 365.625,689.822 z" id="boundary" inkscape:connector-curvature="0" />
	<path style="fill:none;stroke:red;stroke-width:1px;stroke-linecap:butt;stroke-linejoin:miter;stroke-opacity:1" d="M 365.625,689.822 346.974,686.924 z" id="boundary" inkscape:connector-curvature="0" />
	<path style="fill:none;stroke:red;stroke-width:1px;stroke-linecap:butt;stroke-linejoin:miter;stroke-opacity:1" d="M 346.974,686.924 215.73,667.29 z" id="boundary" inkscape:connector-curvature="0" />
	<path style="fill:none;stroke:red;stroke-width:1px;stroke-linecap:butt;stroke-linejoin:miter;stroke-opacity:1" d="M 215.73,667.29 176.297,659.431 z" id="boundary" inkscape:connector-curvature="0" />
	<path style="fill:none;stroke:red;stroke-width:1px;stroke-linecap:butt;stroke-linejoin:miter;stroke-opacity:1" d="M 176.297,659.431 159.335,664.529 z" id="boundary" inkscape:connector-curvature="0" />
	<path style="fill:none;stroke:red;stroke-width:1px;stroke-linecap:butt;stroke-linejoin:miter;stroke-opacity:1" d="M 159.335,664.529 126.101,649.945 z" id="boundary" inkscape:connector-curvature="0" />
	<path style="fill:none;stroke:red;stroke-width:1px;stroke-linecap:butt;stroke-linejoin:miter;stroke-opacity:1" d="M 126.101,649.945 205.072,638.653 z" id="boundary" inkscape:connector-curvature="0" />
	<path style="fill:none;stroke:red;stroke-width:1px;stroke-linecap:butt;stroke-linejoin:miter;stroke-opacity:1" d="M 205.072,638.653 253.497,652.19 z" id="boundary" inkscape:connector-curvature="0" />
	<path style="fill:none;stroke:red;stroke-width:1px;stroke-linecap:butt;stroke-linejoin:miter;stroke-opacity:1" d="M 253.497,652.19 314.008,662.143 z" id="boundary" inkscape:connector-curvature="0" />
	<path style="fill:none;stroke:red;stroke-width:1px;stroke-linecap:butt;stroke-linejoin:miter;stroke-opacity:1" d="M 314.008,662.143 360.737,648.721 z" id="boundary" inkscape:connector-curvature="0" />
	<path style="fill:none;stroke:red;stroke-width:1px;stroke-linecap:butt;stroke-linejoin:miter;stroke-opacity:1" d="M 360.737,648.721 344.031,541.866 z" id="boundary" inkscape:connector-curvature="0" />
	<path style="fill:none;stroke:red;stroke-width:1px;stroke-linecap:butt;stroke-linejoin:miter;stroke-opacity:1" d="M 344.031,541.866 328.963,529.066 z" id="boundary" inkscape:connector-curvature="0" />
	<path style="fill:none;stroke:red;stroke-width:1px;stroke-linecap:butt;stroke-linejoin:miter;stroke-opacity:1" d="M 328.963,529.066 332.399,504.118 z" id="boundary" inkscape:connector-curvature="0" />
	<path style="fill:none;stroke:red;stroke-width:1px;stroke-linecap:butt;stroke-linejoin:miter;stroke-opacity:1" d="M 332.399,504.118 282.862,489.74 z" id="boundary" inkscape:connector-curvature="0" />
	<path style="fill:none;stroke:red;stroke-width:1px;stroke-linecap:butt;stroke-linejoin:miter;stroke-opacity:1" d="M 282.862,489.74 268.846,504.093 z" id="boundary" inkscape:connector-curvature="0" />
	<path style="fill:none;stroke:red;stroke-width:1px;stroke-linecap:butt;stroke-linejoin:miter;stroke-opacity:1" d="M 268.846,504.093 255.695,550.49 z" id="boundary" inkscape:connector-curvature="0" />
	<path style="fill:none;stroke:red;stroke-width:1px;stroke-linecap:butt;stroke-linejoin:miter;stroke-opacity:1" d="M 255.695,550.49 237.442,506.494 z" id="boundary" inkscape:connector-curvature="0" />
	<path style="fill:none;stroke:red;stroke-width:1px;stroke-linecap:butt;stroke-linejoin:miter;stroke-opacity:1" d="M 237.442,506.494 226.018,500.197 z" id="boundary" inkscape:connector-curvature="0" />
	<path style="fill:none;stroke:red;stroke-width:1px;stroke-linecap:butt;stroke-linejoin:miter;stroke-opacity:1" d="M 226.018,500.197 211.411,516.426 z" id="boundary" inkscape:connector-curvature="0" />
	<path style="fill:none;stroke:red;stroke-width:1px;stroke-linecap:butt;stroke-linejoin:miter;stroke-opacity:1" d="M 211.411,516.426 165.689,487.099 z" id="boundary" inkscape:connector-curvature="0" />
	<path style="fill:none;stroke:red;stroke-width:1px;stroke-linecap:butt;stroke-linejoin:miter;stroke-opacity:1" d="M 165.689,487.099 143.717,495.247 z" id="boundary" inkscape:connector-curvature="0" />
	<path style="fill:none;stroke:red;stroke-width:1px;stroke-linecap:butt;stroke-linejoin:miter;stroke-opacity:1" d="M 143.717,495.247 140.883,550.578 z" id="boundary" inkscape:connector-curvature="0" />
	<path style="fill:none;stroke:red;stroke-width:1px;stroke-linecap:butt;stroke-linejoin:miter;stroke-opacity:1" d="M 140.883,550.578 132.427,547.647 z" id="boundary" inkscape:connector-curvature="0" />
	<path style="fill:none;stroke:red;stroke-width:1px;stroke-linecap:butt;stroke-linejoin:miter;stroke-opacity:1" d="M 132.427,547.647 91.8465,509.244 z" id="boundary" inkscape:connector-curvature="0" />
	<path style="fill:none;stroke:red;stroke-width:1px;stroke-linecap:butt;stroke-linejoin:miter;stroke-opacity:1" d="M 91.8465,509.244 66.332,528.195 z" id="boundary" inkscape:connector-curvature="0" />
	<path style="fill:none;stroke:red;stroke-width:1px;stroke-linecap:butt;stroke-linejoin:miter;stroke-opacity:1" d="M 66.332,528.195 50.8009,546.084 z" id="boundary" inkscape:connector-curvature="0" />
	<path style="fill:none;stroke:red;stroke-width:1px;stroke-linecap:butt;stroke-linejoin:miter;stroke-opacity:1" d="M 50.8009,546.084 51.4335,564.608 z" id="boundary" inkscape:connector-curvature="0" />
	<path style="fill:none;stroke:red;stroke-width:1px;stroke-linecap:butt;stroke-linejoin:miter;stroke-opacity:1" d="M 51.4335,564.608 53.251,593.526 z" id="boundary" inkscape:connector-curvature="0" />
	<path style="fill:none;stroke:red;stroke-width:1px;stroke-linecap:butt;stroke-linejoin:miter;stroke-opacity:1" d="M 53.251,593.526 46.7416,647.889 z" id="boundary" inkscape:connector-curvature="0" />
	<path style="fill:none;stroke:red;stroke-width:1px;stroke-linecap:butt;stroke-linejoin:miter;stroke-opacity:1" d="M 46.7416,647.889 61.2087,688.787 z" id="boundary" inkscape:connector-curvature="0" />
	<path style="fill:none;stroke:red;stroke-width:1px;stroke-linecap:butt;stroke-linejoin:miter;stroke-opacity:1" d="M 61.2087,688.787 15.9751,675.39 z" id="boundary" inkscape:connector-curvature="0" />
	<path style="fill:none;stroke:red;stroke-width:1px;stroke-linecap:butt;stroke-linejoin:miter;stroke-opacity:1" d="M 15.9751,675.39 29.767,644.554 z" id="boundary" inkscape:connector-curvature="0" />
	<path style="fill:none;stroke:red;stroke-width:1px;stroke-linecap:butt;stroke-linejoin:miter;stroke-opacity:1" d="M 29.767,644.554 39.5659,596.923 z" id="boundary" inkscape:connector-curvature="0" />
	<path style="fill:none;stroke:red;stroke-width:1px;stroke-linecap:butt;stroke-linejoin:miter;stroke-opacity:1" d="M 39.5659,596.923 36.0869,575.296 z" id="boundary" inkscape:connector-curvature="0" />
	<path style="fill:none;stroke:red;stroke-width:1px;stroke-linecap:butt;stroke-linejoin:miter;stroke-opacity:1" d="M 36.0869,575.296 44.6979,546.246 z" id="boundary" inkscape:connector-curvature="0" />
	<path style="fill:none;stroke:red;stroke-width:1px;stroke-linecap:butt;stroke-linejoin:miter;stroke-opacity:1" d="M 44.6979,546.246 15.7408,507.719 z" id="boundary" inkscape:connector-curvature="0" />
	<path style="fill:none;stroke:red;stroke-width:1px;stroke-linecap:butt;stroke-linejoin:miter;stroke-opacity:1" d="M 15.7408,507.719 67.1908,489.771 z" id="boundary" inkscape:connector-curvature="0" />
	<path style="fill:none;stroke:red;stroke-width:1px;stroke-linecap:butt;stroke-linejoin:miter;stroke-opacity:1" d="M 67.1908,489.771 84.4658,467.604 z" id="boundary" inkscape:connector-curvature="0" />
	<path style="fill:none;stroke:red;stroke-width:1px;stroke-linecap:butt;stroke-linejoin:miter;stroke-opacity:1" d="M 84.4658,467.604 61.8884,414.995 z" id="boundary" inkscape:connector-curvature="0" />
	<path style="fill:none;stroke:red;stroke-width:1px;stroke-linecap:butt;stroke-linejoin:miter;stroke-opacity:1" d="M 61.8884,414.995 54.2721,409.874 z" id="boundary" inkscape:connector-curvature="0" />
	<path style="fill:none;stroke:red;stroke-width:1px;stroke-linecap:butt;stroke-linejoin:miter;stroke-opacity:1" d="M 54.2721,409.874 20.5394,382.943 z" id="boundary" inkscape:connector-curvature="0" />
	<path style="fill:none;stroke:red;stroke-width:1px;stroke-linecap:butt;stroke-linejoin:miter;stroke-opacity:1" d="M 20.5394,382.943 4,319.64 z" id="boundary" inkscape:connector-curvature="0" />
	<path style="fill:none;stroke:red;stroke-width:1px;stroke-linecap:butt;stroke-linejoin:miter;stroke-opacity:1" d="M 4,319.64 12.782,251.324 z" id="boundary" inkscape:connector-curvature="0" />
	<path style="fill:none;stroke:red;stroke-width:1px;stroke-linecap:butt;stroke-linejoin:miter;stroke-opacity:1" d="M 12.782,251.324 22.2981,214.822 z" id="boundary" inkscape:connector-curvature="0" />
	<path style="fill:none;stroke:red;stroke-width:1px;stroke-linecap:butt;stroke-linejoin:miter;stroke-opacity:1" d="M 22.2981,214.822 18.5843,193.723 z" id="boundary" inkscape:connector-curvature="0" />
	<path style="fill:none;stroke:red;stroke-width:1px;stroke-linecap:butt;stroke-linejoin:miter;stroke-opacity:1" d="M 18.5843,193.723 25.9499,181.374 z" id="boundary" inkscape:connector-curvature="0" />
	<path style="fill:none;stroke:red;stroke-width:1px;stroke-linecap:butt;stroke-linejoin:miter;stroke-opacity:1" d="M 25.9499,181.374 34.2491,204.943 z" id="boundary" inkscape:connector-curvature="0" />
	<path style="fill:none;stroke:red;stroke-width:1px;stroke-linecap:butt;stroke-linejoin:miter;stroke-opacity:1" d="M 34.2491,204.943 44.7951,248.502 z" id="boundary" inkscape:connector-curvature="0" />
	<path style="fill:none;stroke:red;stroke-width:1px;stroke-linecap:butt;stroke-linejoin:miter;stroke-opacity:1" d="M 44.7951,248.502 45.3799,275.529 z" id="boundary" inkscape:connector-curvature="0" />
	<path style="fill:none;stroke:red;stroke-width:1px;stroke-linecap:butt;stroke-linejoin:miter;stroke-opacity:1" d="M 45.3799,275.529 38.6987,314.677 z" id="boundary" inkscape:connector-curvature="0" />
	<path style="fill:none;stroke:red;stroke-width:1px;stroke-linecap:butt;stroke-linejoin:miter;stroke-opacity:1" d="M 38.6987,314.677 36.1824,330.774 z" id="boundary" inkscape:connector-curvature="0" />
	<path style="fill:none;stroke:red;stroke-width:1px;stroke-linecap:butt;stroke-linejoin:miter;stroke-opacity:1" d="M 36.1824,330.774 33.5142,367.298 z" id="boundary" inkscape:connector-curvature="0" />
	<path style="fill:none;stroke:red;stroke-width:1px;stroke-linecap:butt;stroke-linejoin:miter;stroke-opacity:1" d="M 33.5142,367.298 50.4343,374.256 z" id="boundary" inkscape:connector-curvature="0" />
	<path style="fill:none;stroke:red;stroke-width:1px;stroke-linecap:butt;stroke-linejoin:miter;stroke-opacity:1" d="M 50.4343,374.256 77.0043,412.546 z" id="boundary" inkscape:connector-curvature="0" />
	<path style="fill:none;stroke:red;stroke-width:1px;stroke-linecap:butt;stroke-linejoin:miter;stroke-opacity:1" d="M 77.0043,412.546 84.6489,424.425 z" id="boundary" inkscape:connector-curvature="0" />
	<path style="fill:none;stroke:red;stroke-width:1px;stroke-linecap:butt;stroke-linejoin:miter;stroke-opacity:1" d="M 84.6489,424.425 123.104,451.326 z" id="boundary" inkscape:connector-curvature="0" />
	<path style="fill:none;stroke:red;stroke-width:1px;stroke-linecap:butt;stroke-linejoin:miter;stroke-opacity:1" d="M 123.104,451.326 140.651,451.093 z" id="boundary" inkscape:connector-curvature="0" />
	<path style="fill:none;stroke:red;stroke-width:1px;stroke-linecap:butt;stroke-linejoin:miter;stroke-opacity:1" d="M 140.651,451.093 194.667,459.549 z" id="boundary" inkscape:connector-curvature="0" />
	<path style="fill:none;stroke:red;stroke-width:1px;stroke-linecap:butt;stroke-linejoin:miter;stroke-opacity:1" d="M 194.667,459.549 194.878,457.933 z" id="boundary" inkscape:connector-curvature="0" />
	<path style="fill:none;stroke:red;stroke-width:1px;stroke-linecap:butt;stroke-linejoin:miter;stroke-opacity:1" d="M 194.878,457.933 246.071,426.353 z" id="boundary" inkscape:connector-curvature="0" />
	<path style="fill:none;stroke:red;stroke-width:1px;stroke-linecap:butt;stroke-linejoin:miter;stroke-opacity:1" d="M 246.071,426.353 268.674,422.179 z" id="boundary" inkscape:connector-curvature="0" />
	<path style="fill:none;stroke:red;stroke-width:1px;stroke-linecap:butt;stroke-linejoin:miter;stroke-opacity:1" d="M 268.674,422.179 285.596,426.695 z" id="boundary" inkscape:connector-curvature="0" />
	<path style="fill:none;stroke:red;stroke-width:1px;stroke-linecap:butt;stroke-linejoin:miter;stroke-opacity:1" d="M 285.596,426.695 311.242,413.962 z" id="boundary" inkscape:connector-curvature="0" />
	<path style="fill:none;stroke:red;stroke-width:1px;stroke-linecap:butt;stroke-linejoin:miter;stroke-opacity:1" d="M 311.242,413.962 318.221,426.318 z" id="boundary" inkscape:connector-curvature="0" />
	<path style="fill:none;stroke:red;stroke-width:1px;stroke-linecap:butt;stroke-linejoin:miter;stroke-opacity:1" d="M 318.221,426.318 349.827,409.119 z" id="boundary" inkscape:connector-curvature="0" />
	<path style="fill:none;stroke:red;stroke-width:1px;stroke-linecap:butt;stroke-linejoin:miter;stroke-opacity:1" d="M 349.827,409.119 372.986,423.253 z" id="boundary" inkscape:connector-curvature="0" />
	<path style="fill:none;stroke:red;stroke-width:1px;stroke-linecap:butt;stroke-linejoin:miter;stroke-opacity:1" d="M 372.986,423.253 328.624,443.13 z" id="boundary" inkscape:connector-curvature="0" />
	<path style="fill:none;stroke:red;stroke-width:1px;stroke-linecap:butt;stroke-linejoin:miter;stroke-opacity:1" d="M 328.624,443.13 339.755,462.289 z" id="boundary" inkscape:connector-curvature="0" />
	<path style="fill:none;stroke:red;stroke-width:1px;stroke-linecap:butt;stroke-linejoin:miter;stroke-opacity:1" d="M 339.755,462.289 378.001,493.263 z" id="boundary" inkscape:connector-curvature="0" />
	<path style="fill:none;stroke:red;stroke-width:1px;stroke-linecap:butt;stroke-linejoin:miter;stroke-opacity:1" d="M 378.001,493.263 371.069,530.679 z" id="boundary" inkscape:connector-curvature="0" />
	<path style="fill:none;stroke:red;stroke-width:1px;stroke-linecap:butt;stroke-linejoin:miter;stroke-opacity:1" d="M 371.069,530.679 405.596,507.644 z" id="boundary" inkscape:connector-curvature="0" />
	<path style="fill:none;stroke:red;stroke-width:1px;stroke-linecap:butt;stroke-linejoin:miter;stroke-opacity:1" d="M 405.596,507.644 420.202,469.638 z" id="boundary" inkscape:connector-curvature="0" />
	<path style="fill:none;stroke:red;stroke-width:1px;stroke-linecap:butt;stroke-linejoin:miter;stroke-opacity:1" d="M 420.202,469.638 426.639,446.785 z" id="boundary" inkscape:connector-curvature="0" />
	<path style="fill:none;stroke:red;stroke-width:1px;stroke-linecap:butt;stroke-linejoin:miter;stroke-opacity:1" d="M 426.639,446.785 441.311,380.073 z" id="boundary" inkscape:connector-curvature="0" />
	<path style="fill:none;stroke:red;stroke-width:1px;stroke-linecap:butt;stroke-linejoin:miter;stroke-opacity:1" d="M 441.311,380.073 434.916,359.999 z" id="boundary" inkscape:connector-curvature="0" />
	<path style="fill:none;stroke:red;stroke-width:1px;stroke-linecap:butt;stroke-linejoin:miter;stroke-opacity:1" d="M 434.916,359.999 403.432,346.199 z" id="boundary" inkscape:connector-curvature="0" />
	<path style="fill:none;stroke:red;stroke-width:1px;stroke-linecap:butt;stroke-linejoin:miter;stroke-opacity:1" d="M 403.432,346.199 412.143,332.016 z" id="boundary" inkscape:connector-curvature="0" />
	<path style="fill:none;stroke:red;stroke-width:1px;stroke-linecap:butt;stroke-linejoin:miter;stroke-opacity:1" d="M 412.143,332.016 426.879,306.764 z" id="boundary" inkscape:connector-curvature="0" />
	<path style="fill:none;stroke:red;stroke-width:1px;stroke-linecap:butt;stroke-linejoin:miter;stroke-opacity:1" d="M 426.879,306.764 409.706,271.907 z" id="boundary" inkscape:connector-curvature="0" />
	<path style="fill:none;stroke:red;stroke-width:1px;stroke-linecap:butt;stroke-linejoin:miter;stroke-opacity:1" d="M 409.706,271.907 378.277,315.446 z" id="boundary" inkscape:connector-curvature="0" />
	<path style="fill:none;stroke:red;stroke-width:1px;stroke-linecap:butt;stroke-linejoin:miter;stroke-opacity:1" d="M 378.277,315.446 366.074,292.647 z" id="boundary" inkscape:connector-curvature="0" />
	<path style="fill:none;stroke:red;stroke-width:1px;stroke-linecap:butt;stroke-linejoin:miter;stroke-opacity:1" d="M 366.074,292.647 367.63,284.625 z" id="boundary" inkscape:connector-curvature="0" />
	<path style="fill:none;stroke:red;stroke-width:1px;stroke-linecap:butt;stroke-linejoin:miter;stroke-opacity:1" d="M 367.63,284.625 336.98,294.347 z" id="boundary" inkscape:connector-curvature="0" />
	<path style="fill:none;stroke:red;stroke-width:1px;stroke-linecap:butt;stroke-linejoin:miter;stroke-opacity:1" d="M 336.98,294.347 306.256,261.846 z" id="boundary" inkscape:connector-curvature="0" />
	<path style="fill:none;stroke:red;stroke-width:1px;stroke-linecap:butt;stroke-linejoin:miter;stroke-opacity:1" d="M 306.256,261.846 305.491,266.438 z" id="boundary" inkscape:connector-curvature="0" />
	<path style="fill:none;stroke:red;stroke-width:1px;stroke-linecap:butt;stroke-linejoin:miter;stroke-opacity:1" d="M 305.491,266.438 288.112,309.952 z" id="boundary" inkscape:connector-curvature="0" />
	<path style="fill:none;stroke:red;stroke-width:1px;stroke-linecap:butt;stroke-linejoin:miter;stroke-opacity:1" d="M 288.112,309.952 222.851,319.749 z" id="boundary" inkscape:connector-curvature="0" />
	<path style="fill:none;stroke:red;stroke-width:1px;stroke-linecap:butt;stroke-linejoin:miter;stroke-opacity:1" d="M 222.851,319.749 192.196,319.771 z" id="boundary" inkscape:connector-curvature="0" />
	<path style="fill:none;stroke:red;stroke-width:1px;stroke-linecap:butt;stroke-linejoin:miter;stroke-opacity:1" d="M 192.196,319.771 188.283,304.968 z" id="boundary" inkscape:connector-curvature="0" />
	<path style="fill:none;stroke:red;stroke-width:1px;stroke-linecap:butt;stroke-linejoin:miter;stroke-opacity:1" d="M 188.283,304.968 221.069,242.475 z" id="boundary" inkscape:connector-curvature="0" />
	<path style="fill:none;stroke:red;stroke-width:1px;stroke-linecap:butt;stroke-linejoin:miter;stroke-opacity:1" d="M 221.069,242.475 201.288,231.948 z" id="boundary" inkscape:connector-curvature="0" />
	<path style="fill:none;stroke:red;stroke-width:1px;stroke-linecap:butt;stroke-linejoin:miter;stroke-opacity:1" d="M 201.288,231.948 190.882,230.548 z" id="boundary" inkscape:connector-curvature="0" />
	<path style="fill:none;stroke:red;stroke-width:1px;stroke-linecap:butt;stroke-linejoin:miter;stroke-opacity:1" d="M 190.882,230.548 210.132,223.751 z" id="boundary" inkscape:connector-curvature="0" />
	<path style="fill:none;stroke:red;stroke-width:1px;stroke-linecap:butt;stroke-linejoin:miter;stroke-opacity:1" d="M 210.132,223.751 198.509,173.713 z" id="boundary" inkscape:connector-curvature="0" />
	<path style="fill:none;stroke:red;stroke-width:1px;stroke-linecap:butt;stroke-linejoin:miter;stroke-opacity:1" d="M 198.509,173.713 214.111,181.356 z" id="boundary" inkscape:connector-curvature="0" />
	<path style="fill:none;stroke:red;stroke-width:1px;stroke-linecap:butt;stroke-linejoin:miter;stroke-opacity:1" d="M 214.111,181.356 223.993,189.737 z" id="boundary" inkscape:connector-curvature="0" />
	<path style="fill:none;stroke:red;stroke-width:1px;stroke-linecap:butt;stroke-linejoin:miter;stroke-opacity:1" d="M 223.993,189.737 238.147,206.57 z" id="boundary" inkscape:connector-curvature="0" />
	<path style="fill:none;stroke:red;stroke-width:1px;stroke-linecap:butt;stroke-linejoin:miter;stroke-opacity:1" d="M 238.147,206.57 249.941,173.416 z" id="boundary" inkscape:connector-curvature="0" />
	<path style="fill:none;stroke:red;stroke-width:1px;stroke-linecap:butt;stroke-linejoin:miter;stroke-opacity:1" d="M 249.941,173.416 281.922,206.518 z" id="boundary" inkscape:connector-curvature="0" />
	<path style="fill:none;stroke:red;stroke-width:1px;stroke-linecap:butt;stroke-linejoin:miter;stroke-opacity:1" d="M 281.922,206.518 332.037,181.426 z" id="boundary" inkscape:connector-curvature="0" />
	<path style="fill:none;stroke:red;stroke-width:1px;stroke-linecap:butt;stroke-linejoin:miter;stroke-opacity:1" d="M 332.037,181.426 335.632,221.036 z" id="boundary" inkscape:connector-curvature="0" />
	<path style="fill:none;stroke:red;stroke-width:1px;stroke-linecap:butt;stroke-linejoin:miter;stroke-opacity:1" d="M 335.632,221.036 354.114,222.323 z" id="boundary" inkscape:connector-curvature="0" />
	<path style="fill:none;stroke:red;stroke-width:1px;stroke-linecap:butt;stroke-linejoin:miter;stroke-opacity:1" d="M 354.114,222.323 365.157,216.352 z" id="boundary" inkscape:connector-curvature="0" />
	<path style="fill:none;stroke:red;stroke-width:1px;stroke-linecap:butt;stroke-linejoin:miter;stroke-opacity:1" d="M 365.157,216.352 408.795,222.167 z" id="boundary" inkscape:connector-curvature="0" />
	<path style="fill:none;stroke:red;stroke-width:1px;stroke-linecap:butt;stroke-linejoin:miter;stroke-opacity:1" d="M 408.795,222.167 411.608,140.977 z" id="boundary" inkscape:connector-curvature="0" />
	<path style="fill:none;stroke:red;stroke-width:1px;stroke-linecap:butt;stroke-linejoin:miter;stroke-opacity:1" d="M 411.608,140.977 404.864,110.794 z" id="boundary" inkscape:connector-curvature="0" />
	<path style="fill:none;stroke:red;stroke-width:1px;stroke-linecap:butt;stroke-linejoin:miter;stroke-opacity:1" d="M 404.864,110.794 390.259,71.3584 z" id="boundary" inkscape:connector-curvature="0" />
	<path style="fill:none;stroke:red;stroke-width:1px;stroke-linecap:butt;stroke-linejoin:miter;stroke-opacity:1" d="M 390.259,71.3584 328.426,77.2842 z" id="boundary" inkscape:connector-curvature="0" />
	<path style="fill:none;stroke:red;stroke-width:1px;stroke-linecap:butt;stroke-linejoin:miter;stroke-opacity:1" d="M 328.426,77.2842 323.204,85.7087 z" id="boundary" inkscape:connector-curvature="0" />
	<path style="fill:none;stroke:red;stroke-width:1px;stroke-linecap:butt;stroke-linejoin:miter;stroke-opacity:1" d="M 323.204,85.7087 296.97,98.3801 z" id="boundary" inkscape:connector-curvature="0" />
	<path style="fill:none;stroke:red;stroke-width:1px;stroke-linecap:butt;stroke-linejoin:miter;stroke-opacity:1" d="M 296.97,98.3801 273.289,76.552 z" id="boundary" inkscape:connector-curvature="0" />
	<path style="fill:none;stroke:red;stroke-width:1px;stroke-linecap:butt;stroke-linejoin:miter;stroke-opacity:1" d="M 273.289,76.552 259.95,78.9687 z" id="boundary" inkscape:connector-curvature="0" />
	<path style="fill:none;stroke:red;stroke-width:1px;stroke-linecap:butt;stroke-linejoin:miter;stroke-opacity:1" d="M 259.95,78.9687 254.978,75.2341 z" id="boundary" inkscape:connector-curvature="0" />
	<path style="fill:none;stroke:red;stroke-width:1px;stroke-linecap:butt;stroke-linejoin:miter;stroke-opacity:1" d="M 254.978,75.2341 192.637,93.4654 z" id="boundary" inkscape:connector-curvature="0" />
	<path style="fill:none;stroke:red;stroke-width:1px;stroke-linecap:butt;stroke-linejoin:miter;stroke-opacity:1" d="M 192.637,93.4654 154.221,91.4365 z" id="boundary" inkscape:connector-curvature="0" />
	<path style="fill:none;stroke:red;stroke-width:1px;stroke-linecap:butt;stroke-linejoin:miter;stroke-opacity:1" d="M 154.221,91.4365 128.901,79.8916 z" id="boundary" inkscape:connector-curvature="0" />
	<path style="fill:none;stroke:red;stroke-width:1px;stroke-linecap:butt;stroke-linejoin:miter;stroke-opacity:1" d="M 128.901,79.8916 86.3014,83.6386 z" id="boundary" inkscape:connector-curvature="0" />
	<path style="fill:none;stroke:red;stroke-width:1px;stroke-linecap:butt;stroke-linejoin:miter;stroke-opacity:1" d="M 86.3014,83.6386 43.4253,111.717 z" id="boundary" inkscape:connector-curvature="0" />
	<path style="fill:none;stroke:red;stroke-width:1px;stroke-linecap:butt;stroke-linejoin:miter;stroke-opacity:1" d="M 43.4253,111.717 40.096,118.456 z" id="boundary" inkscape:connector-curvature="0" />
	<path style="fill:none;stroke:red;stroke-width:1px;stroke-linecap:butt;stroke-linejoin:miter;stroke-opacity:1" d="M 40.096,118.456 21.181,102.878 z" id="boundary" inkscape:connector-curvature="0" />
	<path style="fill:none;stroke:red;stroke-width:1px;stroke-linecap:butt;stroke-linejoin:miter;stroke-opacity:1" d="M 21.181,102.878 67.4129,73.8298 z" id="boundary" inkscape:connector-curvature="0" />
	<path style="fill:none;stroke:red;stroke-width:1px;stroke-linecap:butt;stroke-linejoin:miter;stroke-opacity:1" d="M 67.4129,73.8298 53.6963,53.4938 z" id="boundary" inkscape:connector-curvature="0" />
	<path style="fill:none;stroke:red;stroke-width:1px;stroke-linecap:butt;stroke-linejoin:miter;stroke-opacity:1" d="M 53.6963,53.4938 60.3947,36.9042 z" id="boundary" inkscape:connector-curvature="0" />
	<path style="fill:none;stroke:red;stroke-width:1px;stroke-linecap:butt;stroke-linejoin:miter;stroke-opacity:1" d="M 60.3947,36.9042 93.5685,50.7954 z" id="boundary" inkscape:connector-curvature="0" />
	<path style="fill:none;stroke:red;stroke-width:1px;stroke-linecap:butt;stroke-linejoin:miter;stroke-opacity:1" d="M 93.5685,50.7954 197.169,40.1285 z" id="boundary" inkscape:connector-curvature="0" />
	<path style="fill:none;stroke:red;stroke-width:1px;stroke-linecap:butt;stroke-linejoin:miter;stroke-opacity:1" d="M 197.169,40.1285 245.295,59.47 z" id="boundary" inkscape:connector-curvature="0" />
	<path style="fill:none;stroke:red;stroke-width:1px;stroke-linecap:butt;stroke-linejoin:miter;stroke-opacity:1" d="M 245.295,59.47 356.149,38.5227 z" id="boundary" inkscape:connector-curvature="0" />
	<path style="fill:none;stroke:red;stroke-width:1px;stroke-linecap:butt;stroke-linejoin:miter;stroke-opacity:1" d="M 356.149,38.5227 392.553,52.2647 z" id="boundary" inkscape:connector-curvature="0" />
	<path style="fill:none;stroke:red;stroke-width:1px;stroke-linecap:butt;stroke-linejoin:miter;stroke-opacity:1" d="M 392.553,52.2647 450.038,54.1371 z" id="boundary" inkscape:connector-curvature="0" />
	<path style="fill:none;stroke:red;stroke-width:1px;stroke-linecap:butt;stroke-linejoin:miter;stroke-opacity:1" d="M 450.038,54.1371 429.955,69.0536 z" id="boundary" inkscape:connector-curvature="0" />
	<path style="fill:none;stroke:red;stroke-width:1px;stroke-linecap:butt;stroke-linejoin:miter;stroke-opacity:1" d="M 429.955,69.0536 416.254,97.9787 z" id="boundary" inkscape:connector-curvature="0" />
	<path style="fill:none;stroke:red;stroke-width:1px;stroke-linecap:butt;stroke-linejoin:miter;stroke-opacity:1" d="M 416.254,97.9787 442.926,138.788 z" id="boundary" inkscape:connector-curvature="0" />
	<path style="fill:none;stroke:red;stroke-width:1px;stroke-linecap:butt;stroke-linejoin:miter;stroke-opacity:1" d="M 442.926,138.788 464.471,165.582 z" id="boundary" inkscape:connector-curvature="0" />
	<path style="fill:none;stroke:red;stroke-width:1px;stroke-linecap:butt;stroke-linejoin:miter;stroke-opacity:1" d="M 464.471,165.582 445.674,194.83 z" id="boundary" inkscape:connector-curvature="0" />
	<path style="fill:none;stroke:red;stroke-width:1px;stroke-linecap:butt;stroke-linejoin:miter;stroke-opacity:1" d="M 445.674,194.83 456.286,219.117 z" id="boundary" inkscape:connector-curvature="0" />
	<path style="fill:none;stroke:red;stroke-width:1px;stroke-linecap:butt;stroke-linejoin:miter;stroke-opacity:1" d="M 456.286,219.117 476.001,247.463 z" id="boundary" inkscape:connector-curvature="0" />
	<path style="fill:none;stroke:red;stroke-width:1px;stroke-linecap:butt;stroke-linejoin:miter;stroke-opacity:1" d="M 476.001,247.463 538.694,222.559 z" id="boundary" inkscape:connector-curvature="0" />
	<path style="fill:none;stroke:red;stroke-width:1px;stroke-linecap:butt;stroke-linejoin:miter;stroke-opacity:1" d="M 538.694,222.559 525.86,158.778 z" id="boundary" inkscape:connector-curvature="0" />
	<path style="fill:none;stroke:red;stroke-width:1px;stroke-linecap:butt;stroke-linejoin:miter;stroke-opacity:1" d="M 525.86,158.778 553.149,120.662 z" id="boundary" inkscape:connector-curvature="0" />
	<path style="fill:none;stroke:red;stroke-width:1px;stroke-linecap:butt;stroke-linejoin:miter;stroke-opacity:1" d="M 553.149,120.662 568.88,136.043 z" id="boundary" inkscape:connector-curvature="0" />
	<path style="fill:none;stroke:red;stroke-width:1px;stroke-linecap:butt;stroke-linejoin:miter;stroke-opacity:1" d="M 568.88,136.043 567.544,140.842 z" id="boundary" inkscape:connector-curvature="0" />
	<path style="fill:none;stroke:red;stroke-width:1px;stroke-linecap:butt;stroke-linejoin:miter;stroke-opacity:1" d="M 567.544,140.842 574.02,175.585 z" id="boundary" inkscape:connector-curvature="0" />
	<path style="fill:none;stroke:red;stroke-width:1px;stroke-linecap:butt;stroke-linejoin:miter;stroke-opacity:1" d="M 574.02,175.585 548.396,260.745 z" id="boundary" inkscape:connector-curvature="0" />
	<path style="fill:none;stroke:red;stroke-width:1px;stroke-linecap:butt;stroke-linejoin:miter;stroke-opacity:1" d="M 548.396,260.745 507.891,272.987 z" id="boundary" inkscape:connector-curvature="0" />
	<path style="fill:none;stroke:red;stroke-width:1px;stroke-linecap:butt;stroke-linejoin:miter;stroke-opacity:1" d="M 507.891,272.987 463.392,290.446 z" id="boundary" inkscape:connector-curvature="0" />
	<path style="fill:none;stroke:red;stroke-width:1px;stroke-linecap:butt;stroke-linejoin:miter;stroke-opacity:1" d="M 463.392,290.446 488.629,318.453 z" id="boundary" inkscape:connector-curvature="0" />
	<path style="fill:none;stroke:red;stroke-width:1px;stroke-linecap:butt;stroke-linejoin:miter;stroke-opacity:1" d="M 488.629,318.453 474.855,343.046 z" id="boundary" inkscape:connector-curvature="0" />
	<path style="fill:none;stroke:red;stroke-width:1px;stroke-linecap:butt;stroke-linejoin:miter;stroke-opacity:1" d="M 474.855,343.046 469.181,375.025 z" id="boundary" inkscape:connector-curvature="0" />
	<path style="fill:none;stroke:red;stroke-width:1px;stroke-linecap:butt;stroke-linejoin:miter;stroke-opacity:1" d="M 469.181,375.025 478.826,402.551 z" id="boundary" inkscape:connector-curvature="0" />
	<path style="fill:none;stroke:red;stroke-width:1px;stroke-linecap:butt;stroke-linejoin:miter;stroke-opacity:1" d="M 478.826,402.551 475.106,428.699 z" id="boundary" inkscape:connector-curvature="0" />
	<path style="fill:none;stroke:red;stroke-width:1px;stroke-linecap:butt;stroke-linejoin:miter;stroke-opacity:1" d="M 475.106,428.699 480.959,437.285 z" id="boundary" inkscape:connector-curvature="0" />
	<path style="fill:none;stroke:red;stroke-width:1px;stroke-linecap:butt;stroke-linejoin:miter;stroke-opacity:1" d="M 480.959,437.285 532.252,475.838 z" id="boundary" inkscape:connector-curvature="0" />
	<path style="fill:none;stroke:red;stroke-width:1px;stroke-linecap:butt;stroke-linejoin:miter;stroke-opacity:1" d="M 532.252,475.838 586.326,566.592 z" id="boundary" inkscape:connector-curvature="0" />
	<path style="fill:none;stroke:red;stroke-width:1px;stroke-linecap:butt;stroke-linejoin:miter;stroke-opacity:1" d="M 586.326,566.592 625.485,582.522 z" id="boundary" inkscape:connector-curvature="0" />
	<path style="fill:none;stroke:red;stroke-width:1px;stroke-linecap:butt;stroke-linejoin:miter;stroke-opacity:1" d="M 625.485,582.522 651.611,601.509 z" id="boundary" inkscape:connector-curvature="0" />
	<path style="fill:none;stroke:red;stroke-width:1px;stroke-linecap:butt;stroke-linejoin:miter;stroke-opacity:1" d="M 651.611,601.509 727.959,639.376 z" id="boundary" inkscape:connector-curvature="0" />
	<path style="fill:none;stroke:red;stroke-width:1px;stroke-linecap:butt;stroke-linejoin:miter;stroke-opacity:1" d="M 727.959,639.376 781.771,642.536 z" id="boundary" inkscape:connector-curvature="0" />
	<path style="fill:none;stroke:red;stroke-width:1px;stroke-linecap:butt;stroke-linejoin:miter;stroke-opacity:1" d="M 781.771,642.536 788.658,648.006 z" id="boundary" inkscape:connector-curvature="0" />
	<path style="fill:none;stroke:red;stroke-width:1px;stroke-linecap:butt;stroke-linejoin:miter;stroke-opacity:1" d="M 788.658,648.006 807.411,656.138 z" id="boundary" inkscape:connector-curvature="0" />
	<path style="fill:none;stroke:red;stroke-width:1px;stroke-linecap:butt;stroke-linejoin:miter;stroke-opacity:1" d="M 807.411,656.138 893.947,643.729 z" id="boundary" inkscape:connector-curvature="0" />
	<path style="fill:none;stroke:red;stroke-width:1px;stroke-linecap:butt;stroke-linejoin:miter;stroke-opacity:1" d="M 893.947,643.729 941.657,636.053 z" id="boundary" inkscape:connector-curvature="0" />
	<path style="fill:none;stroke:red;stroke-width:1px;stroke-linecap:butt;stroke-linejoin:miter;stroke-opacity:1" d="M 941.657,636.053 941.682,607.865 z" id="boundary" inkscape:connector-curvature="0" />
	<path style="fill:none;stroke:red;stroke-width:1px;stroke-linecap:butt;stroke-linejoin:miter;stroke-opacity:1" d="M 941.682,607.865 933.426,599.066 z" id="boundary" inkscape:connector-curvature="0" />
	<path style="fill:none;stroke:red;stroke-width:1px;stroke-linecap:butt;stroke-linejoin:miter;stroke-opacity:1" d="M 933.426,599.066 942.471,542.827 z" id="boundary" inkscape:connector-curvature="0" />
	<path style="fill:none;stroke:red;stroke-width:1px;stroke-linecap:butt;stroke-linejoin:miter;stroke-opacity:1" d="M 942.471,542.827 890.421,533.418 z" id="boundary" inkscape:connector-curvature="0" />
	<path style="fill:none;stroke:red;stroke-width:1px;stroke-linecap:butt;stroke-linejoin:miter;stroke-opacity:1" d="M 890.421,533.418 867.099,521.984 z" id="boundary" inkscape:connector-curvature="0" />
	<path style="fill:none;stroke:red;stroke-width:1px;stroke-linecap:butt;stroke-linejoin:miter;stroke-opacity:1" d="M 867.099,521.984 871.495,516.697 z" id="boundary" inkscape:connector-curvature="0" />
	<path style="fill:none;stroke:red;stroke-width:1px;stroke-linecap:butt;stroke-linejoin:miter;stroke-opacity:1" d="M 871.495,516.697 930.982,496.34 z" id="boundary" inkscape:connector-curvature="0" />
	<path style="fill:none;stroke:red;stroke-width:1px;stroke-linecap:butt;stroke-linejoin:miter;stroke-opacity:1" d="M 930.982,496.34 908.931,470.589 z" id="boundary" inkscape:connector-curvature="0" />
	<path style="fill:none;stroke:red;stroke-width:1px;stroke-linecap:butt;stroke-linejoin:miter;stroke-opacity:1" d="M 908.931,470.589 895.963,456.439 z" id="boundary" inkscape:connector-curvature="0" />
	<path style="fill:none;stroke:red;stroke-width:1px;stroke-linecap:butt;stroke-linejoin:miter;stroke-opacity:1" d="M 895.963,456.439 884.661,458.051 z" id="boundary" inkscape:connector-curvature="0" />
	<path style="fill:none;stroke:red;stroke-width:1px;stroke-linecap:butt;stroke-linejoin:miter;stroke-opacity:1" d="M 884.661,458.051 881.279,435.16 z" id="boundary" inkscape:connector-curvature="0" />
	<path style="fill:none;stroke:red;stroke-width:1px;stroke-linecap:butt;stroke-linejoin:miter;stroke-opacity:1" d="M 881.279,435.16 841.653,448.398 z" id="boundary" inkscape:connector-curvature="0" />
	<path style="fill:none;stroke:red;stroke-width:1px;stroke-linecap:butt;stroke-linejoin:miter;stroke-opacity:1" d="M 841.653,448.398 840.221,451.786 z" id="boundary" inkscape:connector-curvature="0" />
	<path style="fill:none;stroke:red;stroke-width:1px;stroke-linecap:butt;stroke-linejoin:miter;stroke-opacity:1" d="M 840.221,451.786 829.702,463.26 z" id="boundary" inkscape:connector-curvature="0" />
	<path style="fill:none;stroke:red;stroke-width:1px;stroke-linecap:butt;stroke-linejoin:miter;stroke-opacity:1" d="M 829.702,463.26 811.726,525.485 z" id="boundary" inkscape:connector-curvature="0" />
	<path style="fill:none;stroke:red;stroke-width:1px;stroke-linecap:butt;stroke-linejoin:miter;stroke-opacity:1" d="M 811.726,525.485 800.34,542.195 z" id="boundary" inkscape:connector-curvature="0" />
	<path style="fill:none;stroke:red;stroke-width:1px;stroke-linecap:butt;stroke-linejoin:miter;stroke-opacity:1" d="M 800.34,542.195 798.351,498.793 z" id="boundary" inkscape:connector-curvature="0" />
	<path style="fill:none;stroke:red;stroke-width:1px;stroke-linecap:butt;stroke-linejoin:miter;stroke-opacity:1" d="M 798.351,498.793 801.217,467.924 z" id="boundary" inkscape:connector-curvature="0" />
	<path style="fill:none;stroke:red;stroke-width:1px;stroke-linecap:butt;stroke-linejoin:miter;stroke-opacity:1" d="M 801.217,467.924 790.175,434.822 z" id="boundary" inkscape:connector-curvature="0" />
	<path style="fill:none;stroke:red;stroke-width:1px;stroke-linecap:butt;stroke-linejoin:miter;stroke-opacity:1" d="M 790.175,434.822 790.344,367.303 z" id="boundary" inkscape:connector-curvature="0" />
	<path style="fill:none;stroke:red;stroke-width:1px;stroke-linecap:butt;stroke-linejoin:miter;stroke-opacity:1" d="M 790.344,367.303 769.844,396.41 z" id="boundary" inkscape:connector-curvature="0" />
	<path style="fill:none;stroke:red;stroke-width:1px;stroke-linecap:butt;stroke-linejoin:miter;stroke-opacity:1" d="M 769.844,396.41 768.866,416.053 z" id="boundary" inkscape:connector-curvature="0" />
	<path style="fill:none;stroke:red;stroke-width:1px;stroke-linecap:butt;stroke-linejoin:miter;stroke-opacity:1" d="M 768.866,416.053 772.451,425.558 z" id="boundary" inkscape:connector-curvature="0" />
	<path style="fill:none;stroke:red;stroke-width:1px;stroke-linecap:butt;stroke-linejoin:miter;stroke-opacity:1" d="M 772.451,425.558 715.914,494.164 z" id="boundary" inkscape:connector-curvature="0" />
	<path style="fill:none;stroke:red;stroke-width:1px;stroke-linecap:butt;stroke-linejoin:miter;stroke-opacity:1" d="M 715.914,494.164 723.116,531.981 z" id="boundary" inkscape:connector-curvature="0" />
	<path style="fill:none;stroke:red;stroke-width:1px;stroke-linecap:butt;stroke-linejoin:miter;stroke-opacity:1" d="M 723.116,531.981 695.738,475.928 z" id="boundary" inkscape:connector-curvature="0" />
	<path style="fill:none;stroke:red;stroke-width:1px;stroke-linecap:butt;stroke-linejoin:miter;stroke-opacity:1" d="M 695.738,475.928 701.324,470.68 z" id="boundary" inkscape:connector-curvature="0" />
	<path style="fill:none;stroke:red;stroke-width:1px;stroke-linecap:butt;stroke-linejoin:miter;stroke-opacity:1" d="M 701.324,470.68 704.855,441.7 z" id="boundary" inkscape:connector-curvature="0" />
	<path style="fill:none;stroke:red;stroke-width:1px;stroke-linecap:butt;stroke-linejoin:miter;stroke-opacity:1" d="M 704.855,441.7 739.489,415.478 z" id="boundary" inkscape:connector-curvature="0" />
	<path style="fill:none;stroke:red;stroke-width:1px;stroke-linecap:butt;stroke-linejoin:miter;stroke-opacity:1" d="M 739.489,415.478 751.883,384.854 z" id="boundary" inkscape:connector-curvature="0" />
	<path style="fill:none;stroke:red;stroke-width:1px;stroke-linecap:butt;stroke-linejoin:miter;stroke-opacity:1" d="M 751.883,384.854 657.422,420.515 z" id="boundary" inkscape:connector-curvature="0" />
	<path style="fill:none;stroke:red;stroke-width:1px;stroke-linecap:butt;stroke-linejoin:miter;stroke-opacity:1" d="M 657.422,420.515 634.67,445.089 z" id="boundary" inkscape:connector-curvature="0" />
	<path style="fill:none;stroke:red;stroke-width:1px;stroke-linecap:butt;stroke-linejoin:miter;stroke-opacity:1" d="M 634.67,445.089 632.717,395.297 z" id="boundary" inkscape:connector-curvature="0" />
	<path style="fill:none;stroke:red;stroke-width:1px;stroke-linecap:butt;stroke-linejoin:miter;stroke-opacity:1" d="M 632.717,395.297 647.79,350.302 z" id="boundary" inkscape:connector-curvature="0" />
	<path style="fill:none;stroke:red;stroke-width:1px;stroke-linecap:butt;stroke-linejoin:miter;stroke-opacity:1" d="M 647.79,350.302 663.456,333.319 z" id="boundary" inkscape:connector-curvature="0" />
	<path style="fill:none;stroke:red;stroke-width:1px;stroke-linecap:butt;stroke-linejoin:miter;stroke-opacity:1" d="M 663.456,333.319 664.337,319.303 z" id="boundary" inkscape:connector-curvature="0" />
	<path style="fill:none;stroke:red;stroke-width:1px;stroke-linecap:butt;stroke-linejoin:miter;stroke-opacity:1" d="M 664.337,319.303 743.134,304.702 z" id="boundary" inkscape:connector-curvature="0" />
	<path style="fill:none;stroke:red;stroke-width:1px;stroke-linecap:butt;stroke-linejoin:miter;stroke-opacity:1" d="M 743.134,304.702 694.896,283.969 z" id="boundary" inkscape:connector-curvature="0" />
	<path style="fill:none;stroke:red;stroke-width:1px;stroke-linecap:butt;stroke-linejoin:miter;stroke-opacity:1" d="M 694.896,283.969 683.683,279.032 z" id="boundary" inkscape:connector-curvature="0" />
	<path style="fill:none;stroke:red;stroke-width:1px;stroke-linecap:butt;stroke-linejoin:miter;stroke-opacity:1" d="M 683.683,279.032 664.712,259.211 z" id="boundary" inkscape:connector-curvature="0" />
	<path style="fill:none;stroke:red;stroke-width:1px;stroke-linecap:butt;stroke-linejoin:miter;stroke-opacity:1" d="M 664.712,259.211 710.946,242.666 z" id="boundary" inkscape:connector-curvature="0" />
	<path style="fill:none;stroke:red;stroke-width:1px;stroke-linecap:butt;stroke-linejoin:miter;stroke-opacity:1" d="M 710.946,242.666 698.062,207.277 z" id="boundary" inkscape:connector-curvature="0" />
	<path style="fill:none;stroke:red;stroke-width:1px;stroke-linecap:butt;stroke-linejoin:miter;stroke-opacity:1" d="M 698.062,207.277 727.951,224.994 z" id="boundary" inkscape:connector-curvature="0" />
	<path style="fill:none;stroke:red;stroke-width:1px;stroke-linecap:butt;stroke-linejoin:miter;stroke-opacity:1" d="M 727.951,224.994 751.109,215.5 z" id="boundary" inkscape:connector-curvature="0" />
	<path style="fill:none;stroke:red;stroke-width:1px;stroke-linecap:butt;stroke-linejoin:miter;stroke-opacity:1" d="M 751.109,215.5 760.367,204.713 z" id="boundary" inkscape:connector-curvature="0" />
	<path style="fill:none;stroke:red;stroke-width:1px;stroke-linecap:butt;stroke-linejoin:miter;stroke-opacity:1" d="M 760.367,204.713 784.684,211.503 z" id="boundary" inkscape:connector-curvature="0" />
	<path style="fill:none;stroke:red;stroke-width:1px;stroke-linecap:butt;stroke-linejoin:miter;stroke-opacity:1" d="M 784.684,211.503 805.144,216.154 z" id="boundary" inkscape:connector-curvature="0" />
	<path style="fill:none;stroke:red;stroke-width:1px;stroke-linecap:butt;stroke-linejoin:miter;stroke-opacity:1" d="M 805.144,216.154 784.458,199.444 z" id="boundary" inkscape:connector-curvature="0" />
	<path style="fill:none;stroke:red;stroke-width:1px;stroke-linecap:butt;stroke-linejoin:miter;stroke-opacity:1" d="M 784.458,199.444 840.282,192.356 z" id="boundary" inkscape:connector-curvature="0" />
	<path style="fill:none;stroke:red;stroke-width:1px;stroke-linecap:butt;stroke-linejoin:miter;stroke-opacity:1" d="M 840.282,192.356 862.382,258.801 z" id="boundary" inkscape:connector-curvature="0" />
	<path style="fill:none;stroke:red;stroke-width:1px;stroke-linecap:butt;stroke-linejoin:miter;stroke-opacity:1" d="M 862.382,258.801 845.871,279.887 z" id="boundary" inkscape:connector-curvature="0" />
	<path style="fill:none;stroke:red;stroke-width:1px;stroke-linecap:butt;stroke-linejoin:miter;stroke-opacity:1" d="M 845.871,279.887 792.768,308.473 z" id="boundary" inkscape:connector-curvature="0" />
	<path style="fill:none;stroke:red;stroke-width:1px;stroke-linecap:butt;stroke-linejoin:miter;stroke-opacity:1" d="M 792.768,308.473 811.266,309.565 z" id="boundary" inkscape:connector-curvature="0" />
	<path style="fill:none;stroke:red;stroke-width:1px;stroke-linecap:butt;stroke-linejoin:miter;stroke-opacity:1" d="M 811.266,309.565 811.459,313.975 z" id="boundary" inkscape:connector-curvature="0" />
	<path style="fill:none;stroke:red;stroke-width:1px;stroke-linecap:butt;stroke-linejoin:miter;stroke-opacity:1" d="M 811.459,313.975 856.752,295.252 z" id="boundary" inkscape:connector-curvature="0" />
	<path style="fill:none;stroke:red;stroke-width:1px;stroke-linecap:butt;stroke-linejoin:miter;stroke-opacity:1" d="M 856.752,295.252 872.743,266.544 z" id="boundary" inkscape:connector-curvature="0" />
	<path style="fill:none;stroke:red;stroke-width:1px;stroke-linecap:butt;stroke-linejoin:miter;stroke-opacity:1" d="M 872.743,266.544 898.937,261.597 z" id="boundary" inkscape:connector-curvature="0" />
	<path style="fill:none;stroke:red;stroke-width:1px;stroke-linecap:butt;stroke-linejoin:miter;stroke-opacity:1" d="M 898.937,261.597 902.559,209.683 z" id="boundary" inkscape:connector-curvature="0" />
	<path style="fill:none;stroke:red;stroke-width:1px;stroke-linecap:butt;stroke-linejoin:miter;stroke-opacity:1" d="M 902.559,209.683 893.644,193.701 z" id="boundary" inkscape:connector-curvature="0" />
	<path style="fill:none;stroke:red;stroke-width:1px;stroke-linecap:butt;stroke-linejoin:miter;stroke-opacity:1" d="M 893.644,193.701 893.329,188.768 z" id="boundary" inkscape:connector-curvature="0" />
	<path style="fill:none;stroke:red;stroke-width:1px;stroke-linecap:butt;stroke-linejoin:miter;stroke-opacity:1" d="M 893.329,188.768 868.59,175.509 z" id="boundary" inkscape:connector-curvature="0" />
	<path style="fill:none;stroke:red;stroke-width:1px;stroke-linecap:butt;stroke-linejoin:miter;stroke-opacity:1" d="M 868.59,175.509 826.903,56.9838 z" id="boundary" inkscape:connector-curvature="0" />
	<path style="fill:none;stroke:red;stroke-width:1px;stroke-linecap:butt;stroke-linejoin:miter;stroke-opacity:1" d="M 826.903,56.9838 791.199,28.8359 z" id="boundary" inkscape:connector-curvature="0" />
	<path style="fill:none;stroke:red;stroke-width:1px;stroke-linecap:butt;stroke-linejoin:miter;stroke-opacity:1" d="M 791.199,28.8359 771.417,34.1335 z" id="boundary" inkscape:connector-curvature="0" />
	<path style="fill:none;stroke:red;stroke-width:1px;stroke-linecap:butt;stroke-linejoin:miter;stroke-opacity:1" d="M 771.417,34.1335 674.355,50.5669 z" id="boundary" inkscape:connector-curvature="0" />
	<path style="fill:none;stroke:red;stroke-width:1px;stroke-linecap:butt;stroke-linejoin:miter;stroke-opacity:1" d="M 674.355,50.5669 665.282,54.0348 z" id="boundary" inkscape:connector-curvature="0" />
	<path style="fill:none;stroke:red;stroke-width:1px;stroke-linecap:butt;stroke-linejoin:miter;stroke-opacity:1" d="M 665.282,54.0348 633.084,101.013 z" id="boundary" inkscape:connector-curvature="0" />
	<path style="fill:none;stroke:red;stroke-width:1px;stroke-linecap:butt;stroke-linejoin:miter;stroke-opacity:1" d="M 633.084,101.013 620.117,94.1695 z" id="boundary" inkscape:connector-curvature="0" />
	<path style="fill:none;stroke:red;stroke-width:1px;stroke-linecap:butt;stroke-linejoin:miter;stroke-opacity:1" d="M 620.117,94.1695 605.686,74.6301 z" id="boundary" inkscape:connector-curvature="0" />
	<path style="fill:none;stroke:red;stroke-width:1px;stroke-linecap:butt;stroke-linejoin:miter;stroke-opacity:1" d="M 605.686,74.6301 697.343,19.2713 z" id="boundary" inkscape:connector-curvature="0" />
	<path style="fill:none;stroke:red;stroke-width:1px;stroke-linecap:butt;stroke-linejoin:miter;stroke-opacity:1" d="M 697.343,19.2713 747.984,9.43231 z" id="boundary" inkscape:connector-curvature="0" />
	<path style="fill:none;stroke:red;stroke-width:1px;stroke-linecap:butt;stroke-linejoin:miter;stroke-opacity:1" d="M 747.984,9.43231 750.101,12.342 z" id="boundary" inkscape:connector-curvature="0" />
	<path style="fill:none;stroke:red;stroke-width:1px;stroke-linecap:butt;stroke-linejoin:miter;stroke-opacity:1" d="M 750.101,12.342 763.141,18.5374 z" id="boundary" inkscape:connector-curvature="0" />
	<path style="fill:none;stroke:red;stroke-width:1px;stroke-linecap:butt;stroke-linejoin:miter;stroke-opacity:1" d="M 763.141,18.5374 826.318,4 z" id="boundary" inkscape:connector-curvature="0" />
	<path style="fill:none;stroke:red;stroke-width:1px;stroke-linecap:butt;stroke-linejoin:miter;stroke-opacity:1" d="M 826.318,4 851.863,45.083 z" id="boundary" inkscape:connector-curvature="0" />
	<path style="fill:none;stroke:red;stroke-width:1px;stroke-linecap:butt;stroke-linejoin:miter;stroke-opacity:1" d="M 851.863,45.083 886.291,44.4982 z" id="boundary" inkscape:connector-curvature="0" />
	<path style="fill:none;stroke:red;stroke-width:1px;stroke-linecap:butt;stroke-linejoin:miter;stroke-opacity:1" d="M 886.291,44.4982 896.472,50.6296 z" id="boundary" inkscape:connector-curvature="0" />
	<path style="fill:none;stroke:red;stroke-width:1px;stroke-linecap:butt;stroke-linejoin:miter;stroke-opacity:1" d="M 896.472,50.6296 934.576,90.5222 z" id="boundary" inkscape:connector-curvature="0" />
	<path style="fill:none;stroke:red;stroke-width:1px;stroke-linecap:butt;stroke-linejoin:miter;stroke-opacity:1" d="M 934.576,90.5222 947.248,74.5936 z" id="boundary" inkscape:connector-curvature="0" />
	<path style="fill:none;stroke:red;stroke-width:1px;stroke-linecap:butt;stroke-linejoin:miter;stroke-opacity:1" d="M 947.248,74.5936 970.693,104.149 z" id="boundary" inkscape:connector-curvature="0" />
	<path style="fill:none;stroke:red;stroke-width:1px;stroke-linecap:butt;stroke-linejoin:miter;stroke-opacity:1" d="M 970.693,104.149 977.914,121.598 z" id="boundary" inkscape:connector-curvature="0" />
	<path style="fill:none;stroke:red;stroke-width:1px;stroke-linecap:butt;stroke-linejoin:miter;stroke-opacity:1" d="M 977.914,121.598 928.883,162.459 z" id="boundary" inkscape:connector-curvature="0" />
	<path style="fill:none;stroke:red;stroke-width:1px;stroke-linecap:butt;stroke-linejoin:miter;stroke-opacity:1" d="M 928.883,162.459 958.813,180.437 z" id="boundary" inkscape:connector-curvature="0" />
	<path style="fill:none;stroke:red;stroke-width:1px;stroke-linecap:butt;stroke-linejoin:miter;stroke-opacity:1" d="M 958.813,180.437 970.614,184.36 z" id="boundary" inkscape:connector-curvature="0" />
	<path style="fill:none;stroke:red;stroke-width:1px;stroke-linecap:butt;stroke-linejoin:miter;stroke-opacity:1" d="M 970.614,184.36 948.171,220.419 z" id="boundary" inkscape:connector-curvature="0" />
	<path style="fill:none;stroke:red;stroke-width:1px;stroke-linecap:butt;stroke-linejoin:miter;stroke-opacity:1" d="M 948.171,220.419 942.591,222.278 z" id="boundary" inkscape:connector-curvature="0" />
	<path style="fill:none;stroke:red;stroke-width:1px;stroke-linecap:butt;stroke-linejoin:miter;stroke-opacity:1" d="M 942.591,222.278 947.276,225.327 z" id="boundary" inkscape:connector-curvature="0" />
	<path style="fill:none;stroke:red;stroke-width:1px;stroke-linecap:butt;stroke-linejoin:miter;stroke-opacity:1" d="M 947.276,225.327 946.242,274.949 z" id="boundary" inkscape:connector-curvature="0" />
	<path style="fill:none;stroke:red;stroke-width:1px;stroke-linecap:butt;stroke-linejoin:miter;stroke-opacity:1" d="M 946.242,274.949 941.961,278.608 z" id="boundary" inkscape:connector-curvature="0" />
	<path style="fill:none;stroke:red;stroke-width:1px;stroke-linecap:butt;stroke-linejoin:miter;stroke-opacity:1" d="M 941.961,278.608 921.507,270.019 z" id="boundary" inkscape:connector-curvature="0" />
	<path style="fill:none;stroke:red;stroke-width:1px;stroke-linecap:butt;stroke-linejoin:miter;stroke-opacity:1" d="M 921.507,270.019 925.839,292.38 z" id="boundary" inkscape:connector-curvature="0" />
	<path style="fill:none;stroke:red;stroke-width:1px;stroke-linecap:butt;stroke-linejoin:miter;stroke-opacity:1" d="M 925.839,292.38 916.707,300.651 z" id="boundary" inkscape:connector-curvature="0" />
	<path style="fill:none;stroke:red;stroke-width:1px;stroke-linecap:butt;stroke-linejoin:miter;stroke-opacity:1" d="M 916.707,300.651 938.378,296.903 z" id="boundary" inkscape:connector-curvature="0" />
	<path style="fill:none;stroke:red;stroke-width:1px;stroke-linecap:butt;stroke-linejoin:miter;stroke-opacity:1" d="M 938.378,296.903 970.261,301.39 z" id="boundary" inkscape:connector-curvature="0" />
	<path style="fill:none;stroke:red;stroke-width:1px;stroke-linecap:butt;stroke-linejoin:miter;stroke-opacity:1" d="M 970.261,301.39 959.627,331.041 z" id="boundary" inkscape:connector-curvature="0" />
	<path style="fill:none;stroke:red;stroke-width:1px;stroke-linecap:butt;stroke-linejoin:miter;stroke-opacity:1" d="M 959.627,331.041 976.791,375.896 z" id="boundary" inkscape:connector-curvature="0" />
	<path style="fill:none;stroke:red;stroke-width:1px;stroke-linecap:butt;stroke-linejoin:miter;stroke-opacity:1" d="M 976.791,375.896 994.45,371.041 z" id="boundary" inkscape:connector-curvature="0" />
	<path style="fill:none;stroke:red;stroke-width:1px;stroke-linecap:butt;stroke-linejoin:miter;stroke-opacity:1" d="M 994.45,371.041 973.377,379.586 z" id="boundary" inkscape:connector-curvature="0" />
	<path style="fill:none;stroke:red;stroke-width:1px;stroke-linecap:butt;stroke-linejoin:miter;stroke-opacity:1" d="M 973.377,379.586 991.497,429.703 z" id="boundary" inkscape:connector-curvature="0" />
	<path style="fill:none;stroke:red;stroke-width:1px;stroke-linecap:butt;stroke-linejoin:miter;stroke-opacity:1" d="M 991.497,429.703 961.775,436.967 z" id="boundary" inkscape:connector-curvature="0" />
	<path style="fill:none;stroke:red;stroke-width:1px;stroke-linecap:butt;stroke-linejoin:miter;stroke-opacity:1" d="M 961.775,436.967 957.904,436.57 z" id="boundary" inkscape:connector-curvature="0" />
	<path style="fill:none;stroke:red;stroke-width:1px;stroke-linecap:butt;stroke-linejoin:miter;stroke-opacity:1" d="M 957.904,436.57 957.947,479.482 z" id="boundary" inkscape:connector-curvature="0" />
	<path style="fill:none;stroke:red;stroke-width:1px;stroke-linecap:butt;stroke-linejoin:miter;stroke-opacity:1" d="M 957.947,479.482 980.029,530.432 z" id="boundary" inkscape:connector-curvature="0" />
	<path style="fill:none;stroke:red;stroke-width:1px;stroke-linecap:butt;stroke-linejoin:miter;stroke-opacity:1" d="M 980.029,530.432 975.692,544.137 z" id="boundary" inkscape:connector-curvature="0" />
	<path style="fill:none;stroke:red;stroke-width:1px;stroke-linecap:butt;stroke-linejoin:miter;stroke-opacity:1" d="M 975.692,544.137 992.57,569.868 z" id="boundary" inkscape:connector-curvature="0" />
	<path style="fill:none;stroke:red;stroke-width:1px;stroke-linecap:butt;stroke-linejoin:miter;stroke-opacity:1" d="M 992.57,569.868 986.215,597.888 z" id="boundary" inkscape:connector-curvature="0" />
	<path style="fill:none;stroke:red;stroke-width:1px;stroke-linecap:butt;stroke-linejoin:miter;stroke-opacity:1" d="M 986.215,597.888 996,635.01 z" id="boundary" inkscape:connector-curvature="0" />
	<path style="fill:none;stroke:red;stroke-width:1px;stroke-linecap:butt;stroke-linejoin:miter;stroke-opacity:1" d="M 996,635.01 962.402,677.167 z" id="boundary" inkscape:connector-curvature="0" />
	<circle cx="15.9751" cy="675.39" r="4" fill="#0" id="circle0"/>
	<circle cx="46.7416" cy="647.889" r="4" fill="#0" id="circle1"/>
	<circle cx="61.2087" cy="688.787" r="4" fill="#0" id="circle2"/>
	<circle cx="126.101" cy="649.945" r="4" fill="#0" id="circle3"/>
	<circle cx="159.335" cy="664.529" r="4" fill="#0" id="circle4"/>
	<circle cx="176.297" cy="659.431" r="4" fill="#0" id="circle5"/>
	<circle cx="215.73" cy="667.29" r="4" fill="#0" id="circle6"/>
	<circle cx="205.072" cy="638.653" r="4" fill="#0" id="circle7"/>
	<circle cx="253.497" cy="652.19" r="4" fill="#0" id="circle8"/>
	<circle cx="314.008" cy="662.143" r="4" fill="#0" id="circle9"/>
	<circle cx="346.974" cy="686.924" r="4" fill="#0" id="circle10"/>
	<circle cx="360.737" cy="648.721" r="4" fill="#0" id="circle11"/>
	<circle cx="380.185" cy="677.388" r="4" fill="#0" id="circle12"/>
	<circle cx="406.453" cy="697.271" r="4" fill="#0" id="circle13"/>
	<circle cx="365.625" cy="689.822" r="4" fill="#0" id="circle14"/>
	<circle cx="420.698" cy="647.565" r="4" fill="#0" id="circle15"/>
	<circle cx="428.574" cy="684.528" r="4" fill="#0" id="circle16"/>
	<circle cx="29.767" cy="644.554" r="4" fill="#0" id="circle17"/>
	<circle cx="39.5659" cy="596.923" r="4" fill="#0" id="circle18"/>
	<circle cx="53.251" cy="593.526" r="4" fill="#0" id="circle19"/>
	<circle cx="36.0869" cy="575.296" r="4" fill="#0" id="circle20"/>
	<circle cx="44.6979" cy="546.246" r="4" fill="#0" id="circle21"/>
	<circle cx="51.4335" cy="564.608" r="4" fill="#0" id="circle22"/>
	<circle cx="15.7408" cy="507.719" r="4" fill="#0" id="circle23"/>
	<circle cx="67.1908" cy="489.771" r="4" fill="#0" id="circle24"/>
	<circle cx="50.8009" cy="546.084" r="4" fill="#0" id="circle25"/>
	<circle cx="91.8465" cy="509.244" r="4" fill="#0" id="circle26"/>
	<circle cx="66.332" cy="528.195" r="4" fill="#0" id="circle27"/>
	<circle cx="140.883" cy="550.578" r="4" fill="#0" id="circle28"/>
	<circle cx="132.427" cy="547.647" r="4" fill="#0" id="circle29"/>
	<circle cx="165.689" cy="487.099" r="4" fill="#0" id="circle30"/>
	<circle cx="143.717" cy="495.247" r="4" fill="#0" id="circle31"/>
	<circle cx="211.411" cy="516.426" r="4" fill="#0" id="circle32"/>
	<circle cx="226.018" cy="500.197" r="4" fill="#0" id="circle33"/>
	<circle cx="237.442" cy="506.494" r="4" fill="#0" id="circle34"/>
	<circle cx="255.695" cy="550.49" r="4" fill="#0" id="circle35"/>
	<circle cx="282.862" cy="489.74" r="4" fill="#0" id="circle36"/>
	<circle cx="268.846" cy="504.093" r="4" fill="#0" id="circle37"/>
	<circle cx="332.399" cy="504.118" r="4" fill="#0" id="circle38"/>
	<circle cx="328.963" cy="529.066" r="4" fill="#0" id="circle39"/>
	<circle cx="344.031" cy="541.866" r="4" fill="#0" id="circle40"/>
	<circle cx="378.001" cy="493.263" r="4" fill="#0" id="circle41"/>
	<circle cx="371.069" cy="530.679" r="4" fill="#0" id="circle42"/>
	<circle cx="427.806" cy="493.58" r="4" fill="#0" id="circle43"/>
	<circle cx="439.094" cy="507.648" r="4" fill="#0" id="circle44"/>
	<circle cx="406.394" cy="646.284" r="4" fill="#0" id="circle45"/>
	<circle cx="426.756" cy="609.577" r="4" fill="#0" id="circle46"/>
	<circle cx="439.133" cy="585.582" r="4" fill="#0" id="circle47"/>
	<circle cx="441.932" cy="574.687" r="4" fill="#0" id="circle48"/>
	<circle cx="423.703" cy="547.367" r="4" fill="#0" id="circle49"/>
	<circle cx="437.433" cy="573.908" r="4" fill="#0" id="circle50"/>
	<circle cx="405.596" cy="507.644" r="4" fill="#0" id="circle51"/>
	<circle cx="61.8884" cy="414.995" r="4" fill="#0" id="circle52"/>
	<circle cx="426.639" cy="446.785" r="4" fill="#0" id="circle53"/>
	<circle cx="426.879" cy="306.764" r="4" fill="#0" id="circle54"/>
	<circle cx="188.283" cy="304.968" r="4" fill="#0" id="circle55"/>
	<circle cx="210.132" cy="223.751" r="4" fill="#0" id="circle56"/>
	<circle cx="456.286" cy="219.117" r="4" fill="#0" id="circle57"/>
	<circle cx="429.955" cy="69.0536" r="4" fill="#0" id="circle58"/>
	<circle cx="60.3947" cy="36.9042" r="4" fill="#0" id="circle59"/>
	<circle cx="84.4658" cy="467.604" r="4" fill="#0" id="circle60"/>
	<circle cx="84.6489" cy="424.425" r="4" fill="#0" id="circle61"/>
	<circle cx="77.0043" cy="412.546" r="4" fill="#0" id="circle62"/>
	<circle cx="123.104" cy="451.326" r="4" fill="#0" id="circle63"/>
	<circle cx="140.651" cy="451.093" r="4" fill="#0" id="circle64"/>
	<circle cx="194.878" cy="457.933" r="4" fill="#0" id="circle65"/>
	<circle cx="194.667" cy="459.549" r="4" fill="#0" id="circle66"/>
	<circle cx="246.071" cy="426.353" r="4" fill="#0" id="circle67"/>
	<circle cx="268.674" cy="422.179" r="4" fill="#0" id="circle68"/>
	<circle cx="285.596" cy="426.695" r="4" fill="#0" id="circle69"/>
	<circle cx="311.242" cy="413.962" r="4" fill="#0" id="circle70"/>
	<circle cx="328.624" cy="443.13" r="4" fill="#0" id="circle71"/>
	<circle cx="339.755" cy="462.289" r="4" fill="#0" id="circle72"/>
	<circle cx="318.221" cy="426.318" r="4" fill="#0" id="circle73"/>
	<circle cx="349.827" cy="409.119" r="4" fill="#0" id="circle74"/>
	<circle cx="372.986" cy="423.253" r="4" fill="#0" id="circle75"/>
	<circle cx="430.918" cy="465.781" r="4" fill="#0" id="circle76"/>
	<circle cx="420.202" cy="469.638" r="4" fill="#0" id="circle77"/>
	<circle cx="467.958" cy="442.706" r="4" fill="#0" id="circle78"/>
	<circle cx="441.311" cy="380.073" r="4" fill="#0" id="circle79"/>
	<circle cx="434.916" cy="359.999" r="4" fill="#0" id="circle80"/>
	<circle cx="469.181" cy="375.025" r="4" fill="#0" id="circle81"/>
	<circle cx="403.432" cy="346.199" r="4" fill="#0" id="circle82"/>
	<circle cx="412.143" cy="332.016" r="4" fill="#0" id="circle83"/>
	<circle cx="192.196" cy="319.771" r="4" fill="#0" id="circle84"/>
	<circle cx="222.851" cy="319.749" r="4" fill="#0" id="circle85"/>
	<circle cx="306.256" cy="261.846" r="4" fill="#0" id="circle86"/>
	<circle cx="288.112" cy="309.952" r="4" fill="#0" id="circle87"/>
	<circle cx="336.98" cy="294.347" r="4" fill="#0" id="circle88"/>
	<circle cx="305.491" cy="266.438" r="4" fill="#0" id="circle89"/>
	<circle cx="367.63" cy="284.625" r="4" fill="#0" id="circle90"/>
	<circle cx="366.074" cy="292.647" r="4" fill="#0" id="circle91"/>
	<circle cx="378.277" cy="315.446" r="4" fill="#0" id="circle92"/>
	<circle cx="409.706" cy="271.907" r="4" fill="#0" id="circle93"/>
	<circle cx="221.069" cy="242.475" r="4" fill="#0" id="circle94"/>
	<circle cx="201.288" cy="231.948" r="4" fill="#0" id="circle95"/>
	<circle cx="190.882" cy="230.548" r="4" fill="#0" id="circle96"/>
	<circle cx="238.147" cy="206.57" r="4" fill="#0" id="circle97"/>
	<circle cx="198.509" cy="173.713" r="4" fill="#0" id="circle98"/>
	<circle cx="214.111" cy="181.356" r="4" fill="#0" id="circle99"/>
	<circle cx="223.993" cy="189.737" r="4" fill="#0" id="circle100"/>
	<circle cx="249.941" cy="173.416" r="4" fill="#0" id="circle101"/>
	<circle cx="281.922" cy="206.518" r="4" fill="#0" id="circle102"/>
	<circle cx="332.037" cy="181.426" r="4" fill="#0" id="circle103"/>
	<circle cx="299.798" cy="232.678" r="4" fill="#0" id="circle104"/>
	<circle cx="335.632" cy="221.036" r="4" fill="#0" id="circle105"/>
	<circle cx="354.114" cy="222.323" r="4" fill="#0" id="circle106"/>
	<circle cx="365.157" cy="216.352" r="4" fill="#0" id="circle107"/>
	<circle cx="408.795" cy="222.167" r="4" fill="#0" id="circle108"/>
	<circle cx="445.674" cy="194.83" r="4" fill="#0" id="circle109"/>
	<circle cx="54.2721" cy="409.874" r="4" fill="#0" id="circle110"/>
	<circle cx="33.5142" cy="367.298" r="4" fill="#0" id="circle111"/>
	<circle cx="50.4343" cy="374.256" r="4" fill="#0" id="circle112"/>
	<circle cx="20.5394" cy="382.943" r="4" fill="#0" id="circle113"/>
	<circle cx="36.1824" cy="330.774" r="4" fill="#0" id="circle114"/>
	<circle cx="4" cy="319.64" r="4" fill="#0" id="circle115"/>
	<circle cx="45.3799" cy="275.529" r="4" fill="#0" id="circle116"/>
	<circle cx="38.6987" cy="314.677" r="4" fill="#0" id="circle117"/>
	<circle cx="44.7951" cy="248.502" r="4" fill="#0" id="circle118"/>
	<circle cx="12.782" cy="251.324" r="4" fill="#0" id="circle119"/>
	<circle cx="22.2981" cy="214.822" r="4" fill="#0" id="circle120"/>
	<circle cx="34.2491" cy="204.943" r="4" fill="#0" id="circle121"/>
	<circle cx="18.5843" cy="193.723" r="4" fill="#0" id="circle122"/>
	<circle cx="25.9499" cy="181.374" r="4" fill="#0" id="circle123"/>
	<circle cx="40.096" cy="118.456" r="4" fill="#0" id="circle124"/>
	<circle cx="21.181" cy="102.878" r="4" fill="#0" id="circle125"/>
	<circle cx="43.4253" cy="111.717" r="4" fill="#0" id="circle126"/>
	<circle cx="53.6963" cy="53.4938" r="4" fill="#0" id="circle127"/>
	<circle cx="67.4129" cy="73.8298" r="4" fill="#0" id="circle128"/>
	<circle cx="86.3014" cy="83.6386" r="4" fill="#0" id="circle129"/>
	<circle cx="93.5685" cy="50.7954" r="4" fill="#0" id="circle130"/>
	<circle cx="128.901" cy="79.8916" r="4" fill="#0" id="circle131"/>
	<circle cx="154.221" cy="91.4365" r="4" fill="#0" id="circle132"/>
	<circle cx="197.169" cy="40.1285" r="4" fill="#0" id="circle133"/>
	<circle cx="192.637" cy="93.4654" r="4" fill="#0" id="circle134"/>
	<circle cx="254.978" cy="75.2341" r="4" fill="#0" id="circle135"/>
	<circle cx="245.295" cy="59.47" r="4" fill="#0" id="circle136"/>
	<circle cx="259.95" cy="78.9687" r="4" fill="#0" id="circle137"/>
	<circle cx="273.289" cy="76.552" r="4" fill="#0" id="circle138"/>
	<circle cx="323.204" cy="85.7087" r="4" fill="#0" id="circle139"/>
	<circle cx="296.97" cy="98.3801" r="4" fill="#0" id="circle140"/>
	<circle cx="328.426" cy="77.2842" r="4" fill="#0" id="circle141"/>
	<circle cx="390.259" cy="71.3584" r="4" fill="#0" id="circle142"/>
	<circle cx="356.149" cy="38.5227" r="4" fill="#0" id="circle143"/>
	<circle cx="392.553" cy="52.2647" r="4" fill="#0" id="circle144"/>
	<circle cx="464.471" cy="165.582" r="4" fill="#0" id="circle145"/>
	<circle cx="442.926" cy="138.788" r="4" fill="#0" id="circle146"/>
	<circle cx="404.864" cy="110.794" r="4" fill="#0" id="circle147"/>
	<circle cx="411.608" cy="140.977" r="4" fill="#0" id="circle148"/>
	<circle cx="416.254" cy="97.9787" r="4" fill="#0" id="circle149"/>
	<circle cx="450.038" cy="54.1371" r="4" fill="#0" id="circle150"/>
	<circle cx="739.489" cy="415.478" r="4" fill="#0" id="circle151"/>
	<circle cx="961.775" cy="436.967" r="4" fill="#0" id="circle152"/>
	<circle cx="792.768" cy="308.473" r="4" fill="#0" id="circle153"/>
	<circle cx="925.839" cy="292.38" r="4" fill="#0" id="circle154"/>
	<circle cx="769.844" cy="396.41" r="4" fill="#0" id="circle155"/>
	<circle cx="768.866" cy="416.053" r="4" fill="#0" id="circle156"/>
	<circle cx="790.344" cy="367.303" r="4" fill="#0" id="circle157"/>
	<circle cx="751.883" cy="384.854" r="4" fill="#0" id="circle158"/>
	<circle cx="759.131" cy="338.81" r="4" fill="#0" id="circle159"/>
	<circle cx="743.134" cy="304.702" r="4" fill="#0" id="circle160"/>
	<circle cx="811.266" cy="309.565" r="4" fill="#0" id="circle161"/>
	<circle cx="811.459" cy="313.975" r="4" fill="#0" id="circle162"/>
	<circle cx="856.752" cy="295.252" r="4" fill="#0" id="circle163"/>
	<circle cx="862.382" cy="258.801" r="4" fill="#0" id="circle164"/>
	<circle cx="845.871" cy="279.887" r="4" fill="#0" id="circle165"/>
	<circle cx="872.743" cy="266.544" r="4" fill="#0" id="circle166"/>
	<circle cx="916.707" cy="300.651" r="4" fill="#0" id="circle167"/>
	<circle cx="941.961" cy="278.608" r="4" fill="#0" id="circle168"/>
	<circle cx="957.904" cy="436.57" r="4" fill="#0" id="circle169"/>
	<circle cx="991.497" cy="429.703" r="4" fill="#0" id="circle170"/>
	<circle cx="994.45" cy="371.041" r="4" fill="#0" id="circle171"/>
	<circle cx="973.377" cy="379.586" r="4" fill="#0" id="circle172"/>
	<circle cx="976.791" cy="375.896" r="4" fill="#0" id="circle173"/>
	<circle cx="970.261" cy="301.39" r="4" fill="#0" id="circle174"/>
	<circle cx="959.627" cy="331.041" r="4" fill="#0" id="circle175"/>
	<circle cx="772.451" cy="425.558" r="4" fill="#0" id="circle176"/>
	<circle cx="801.217" cy="467.924" r="4" fill="#0" id="circle177"/>
	<circle cx="790.175" cy="434.822" r="4" fill="#0" id="circle178"/>
	<circle cx="829.702" cy="463.26" r="4" fill="#0" id="circle179"/>
	<circle cx="841.653" cy="448.398" r="4" fill="#0" id="circle180"/>
	<circle cx="840.221" cy="451.786" r="4" fill="#0" id="circle181"/>
	<circle cx="895.963" cy="456.439" r="4" fill="#0" id="circle182"/>
	<circle cx="881.279" cy="435.16" r="4" fill="#0" id="circle183"/>
	<circle cx="884.661" cy="458.051" r="4" fill="#0" id="circle184"/>
	<circle cx="908.931" cy="470.589" r="4" fill="#0" id="circle185"/>
	<circle cx="957.947" cy="479.482" r="4" fill="#0" id="circle186"/>
	<circle cx="943.59" cy="650.748" r="4" fill="#0" id="circle187"/>
	<circle cx="975.692" cy="544.137" r="4" fill="#0" id="circle188"/>
	<circle cx="941.657" cy="636.053" r="4" fill="#0" id="circle189"/>
	<circle cx="996" cy="635.01" r="4" fill="#0" id="circle190"/>
	<circle cx="933.426" cy="599.066" r="4" fill="#0" id="circle191"/>
	<circle cx="986.215" cy="597.888" r="4" fill="#0" id="circle192"/>
	<circle cx="941.682" cy="607.865" r="4" fill="#0" id="circle193"/>
	<circle cx="992.57" cy="569.868" r="4" fill="#0" id="circle194"/>
	<circle cx="980.029" cy="530.432" r="4" fill="#0" id="circle195"/>
	<circle cx="723.116" cy="531.981" r="4" fill="#0" id="circle196"/>
	<circle cx="800.34" cy="542.195" r="4" fill="#0" id="circle197"/>
	<circle cx="798.351" cy="498.793" r="4" fill="#0" id="circle198"/>
	<circle cx="811.726" cy="525.485" r="4" fill="#0" id="circle199"/>
	<circle cx="871.495" cy="516.697" r="4" fill="#0" id="circle200"/>
	<circle cx="867.099" cy="521.984" r="4" fill="#0" id="circle201"/>
	<circle cx="890.421" cy="533.418" r="4" fill="#0" id="circle202"/>
	<circle cx="930.982" cy="496.34" r="4" fill="#0" id="circle203"/>
	<circle cx="942.471" cy="542.827" r="4" fill="#0" id="circle204"/>
	<circle cx="715.914" cy="494.164" r="4" fill="#0" id="circle205"/>
	<circle cx="695.738" cy="475.928" r="4" fill="#0" id="circle206"/>
	<circle cx="704.855" cy="441.7" r="4" fill="#0" id="circle207"/>
	<circle cx="701.324" cy="470.68" r="4" fill="#0" id="circle208"/>
	<circle cx="634.67" cy="445.089" r="4" fill="#0" id="circle209"/>
	<circle cx="657.422" cy="420.515" r="4" fill="#0" id="circle210"/>
	<circle cx="632.717" cy="395.297" r="4" fill="#0" id="circle211"/>
	<circle cx="663.456" cy="333.319" r="4" fill="#0" id="circle212"/>
	<circle cx="664.337" cy="319.303" r="4" fill="#0" id="circle213"/>
	<circle cx="647.79" cy="350.302" r="4" fill="#0" id="circle214"/>
	<circle cx="683.683" cy="279.032" r="4" fill="#0" id="circle215"/>
	<circle cx="664.712" cy="259.211" r="4" fill="#0" id="circle216"/>
	<circle cx="694.896" cy="283.969" r="4" fill="#0" id="circle217"/>
	<circle cx="710.946" cy="242.666" r="4" fill="#0" id="circle218"/>
	<circle cx="727.951" cy="224.994" r="4" fill="#0" id="circle219"/>
	<circle cx="698.062" cy="207.277" r="4" fill="#0" id="circle220"/>
	<circle cx="751.109" cy="215.5" r="4" fill="#0" id="circle221"/>
	<circle cx="760.367" cy="204.713" r="4" fill="#0" id="circle222"/>
	<circle cx="784.458" cy="199.444" r="4" fill="#0" id="circle223"/>
	<circle cx="784.684" cy="211.503" r="4" fill="#0" id="circle224"/>
	<circle cx="805.144" cy="216.154" r="4" fill="#0" id="circle225"/>
	<circle cx="840.282" cy="192.356" r="4" fill="#0" id="circle226"/>
	<circle cx="868.59" cy="175.509" r="4" fill="#0" id="circle227"/>
	<circle cx="893.644" cy="193.701" r="4" fill="#0" id="circle228"/>
	<circle cx="893.329" cy="188.768" r="4" fill="#0" id="circle229"/>
	<circle cx="902.559" cy="209.683" r="4" fill="#0" id="circle230"/>
	<circle cx="921.507" cy="270.019" r="4" fill="#0" id="circle231"/>
	<circle cx="938.378" cy="296.903" r="4" fill="#0" id="circle232"/>
	<circle cx="947.276" cy="225.327" r="4" fill="#0" id="circle233"/>
	<circle cx="942.591" cy="222.278" r="4" fill="#0" id="circle234"/>
	<circle cx="948.171" cy="220.419" r="4" fill="#0" id="circle235"/>
	<circle cx="958.813" cy="180.437" r="4" fill="#0" id="circle236"/>
	<circle cx="928.883" cy="162.459" r="4" fill="#0" id="circle237"/>
	<circle cx="970.614" cy="184.36" r="4" fill="#0" id="circle238"/>
	<circle cx="977.914" cy="121.598" r="4" fill="#0" id="circle239"/>
	<circle cx="970.693" cy="104.149" r="4" fill="#0" id="circle240"/>
	<circle cx="934.576" cy="90.5222" r="4" fill="#0" id="circle241"/>
	<circle cx="548.396" cy="260.745" r="4" fill="#0" id="circle242"/>
	<circle cx="538.694" cy="222.559" r="4" fill="#0" id="circle243"/>
	<circle cx="525.86" cy="158.778" r="4" fill="#0" id="circle244"/>
	<circle cx="574.02" cy="175.585" r="4" fill="#0" id="circle245"/>
	<circle cx="553.149" cy="120.662" r="4" fill="#0" id="circle246"/>
	<circle cx="567.544" cy="140.842" r="4" fill="#0" id="circle247"/>
	<circle cx="568.88" cy="136.043" r="4" fill="#0" id="circle248"/>
	<circle cx="633.084" cy="101.013" r="4" fill="#0" id="circle249"/>
	<circle cx="605.686" cy="74.6301" r="4" fill="#0" id="circle250"/>
	<circle cx="620.117" cy="94.1695" r="4" fill="#0" id="circle251"/>
	<circle cx="674.355" cy="50.5669" r="4" fill="#0" id="circle252"/>
	<circle cx="665.282" cy="54.0348" r="4" fill="#0" id="circle253"/>
	<circle cx="697.343" cy="19.2713" r="4" fill="#0" id="circle254"/>
	<circle cx="750.101" cy="12.342" r="4" fill="#0" id="circle255"/>
	<circle cx="747.984" cy="9.43231" r="4" fill="#0" id="circle256"/>
	<circle cx="771.417" cy="34.1335" r="4" fill="#0" id="circle257"/>
	<circle cx="763.141" cy="18.5374" r="4" fill="#0" id="circle258"/>
	<circle cx="791.199" cy="28.8359" r="4" fill="#0" id="circle259"/>
	<circle cx="826.318" cy="4" r="4" fill="#0" id="circle260"/>
	<circle cx="826.903" cy="56.9838" r="4" fill="#0" id="circle261"/>
	<circle cx="851.863" cy="45.083" r="4" fill="#0" id="circle262"/>
	<circle cx="886.291" cy="44.4982" r="4" fill="#0" id="circle263"/>
	<circle cx="896.472" cy="50.6296" r="4" fill="#0" id="circle264"/>
	<circle cx="947.248" cy="74.5936" r="4" fill="#0" id="circle265"/>
	<circle cx="507.891" cy="272.987" r="4" fill="#0" id="circle266"/>
	<circle cx="476.001" cy="247.463" r="4" fill="#0" id="circle267"/>
	<circle cx="463.392" cy="290.446" r="4" fill="#0" id="circle268"/>
	<circle cx="488.629" cy="318.453" r="4" fill="#0" id="circle269"/>
	<circle cx="474.855" cy="343.046" r="4" fill="#0" id="circle270"/>
	<circle cx="478.826" cy="402.551" r="4" fill="#0" id="circle271"/>
	<circle cx="480.959" cy="437.285" r="4" fill="#0" id="circle272"/>
	<circle cx="475.106" cy="428.699" r="4" fill="#0" id="circle273"/>
	<circle cx="472.252" cy="452.126" r="4" fill="#0" id="circle274"/>
	<circle cx="532.252" cy="475.838" r="4" fill="#0" id="circle275"/>
	<circle cx="514.959" cy="526.647" r="4" fill="#0" id="circle276"/>
	<circle cx="505.265" cy="526.982" r="4" fill="#0" id="circle277"/>
	<circle cx="535.619" cy="540.719" r="4" fill="#0" id="circle278"/>
	<circle cx="586.326" cy="566.592" r="4" fill="#0" id="circle279"/>
	<circle cx="593.974" cy="585.35" r="4" fill="#0" id="circle280"/>
	<circle cx="625.485" cy="582.522" r="4" fill="#0" id="circle281"/>
	<circle cx="607.174" cy="593.139" r="4" fill="#0" id="circle282"/>
	<circle cx="627.336" cy="629.061" r="4" fill="#0" id="circle283"/>
	<circle cx="651.611" cy="601.509" r="4" fill="#0" id="circle284"/>
	<circle cx="698.432" cy="673.962" r="4" fill="#0" id="circle285"/>
	<circle cx="680.811" cy="646.918" r="4" fill="#0" id="circle286"/>
	<circle cx="730.044" cy="679.942" r="4" fill="#0" id="circle287"/>
	<circle cx="727.959" cy="639.376" r="4" fill="#0" id="circle288"/>
	<circle cx="746.288" cy="671.952" r="4" fill="#0" id="circle289"/>
	<circle cx="788.658" cy="648.006" r="4" fill="#0" id="circle290"/>
	<circle cx="781.771" cy="642.536" r="4" fill="#0" id="circle291"/>
	<circle cx="807.411" cy="656.138" r="4" fill="#0" id="circle292"/>
	<circle cx="866.674" cy="671.811" r="4" fill="#0" id="circle293"/>
	<circle cx="894.012" cy="679.505" r="4" fill="#0" id="circle294"/>
	<circle cx="865.052" cy="677.836" r="4" fill="#0" id="circle295"/>
	<circle cx="893.947" cy="643.729" r="4" fill="#0" id="circle296"/>
	<circle cx="962.402" cy="677.167" r="4" fill="#0" id="circle297"/>
	<circle cx="946.242" cy="274.949" r="4" fill="#0" id="circle298"/>
	<circle cx="898.937" cy="261.597" r="4" fill="#0" id="circle299"/>
	</g>
</svg>