<?xml version="1.0" encoding="UTF-8" standalone="no"?>
<!-- Created with CurveBenchmark -->
<svg
	xmlns:dc="http://purl.org/dc/elements/1.1/"
	xmlns:cc="http://creativecommons.org/ns#"
	xmlns:rdf="http://www.w3.org/1999/02/22-rdf-syntax-ns#"
	xmlns:svg="http://www.w3.org/2000/svg"
	xmlns="http://www.w3.org/2000/svg"
	xmlns:sodipodi="http://sodipodi.sourceforge.net/DTD/sodipodi-0.dtd"
	xmlns:inkscape="http://www.inkscape.org/namespaces/inkscape"
	width="1000"
	height="1000"
	id="svg2"
	version="1.1"
	sodipodi:docname="noisy-0.03/fitconnect-mc13.txt">
<defs
	id="defs4" />
<metadata
	id="metadata7">
	<rdf:RDF>
		<cc:Work
			rdf:about="">
			<dc:format>image/svg+xml</dc:format>
			<dc:type
				rdf:resource="http://purl.org/dc/dcmitype/StillImage" />
			<dc:title></dc:title>
		</cc:Work>
	</rdf:RDF>
</metadata>
<g
	inkscape:label="Layer 1"
	inkscape:groupmode="layer"
	id="layer1">
	<path style="fill:none;stroke:red;stroke-width:1px;stroke-linecap:butt;stroke-linejoin:miter;stroke-opacity:1" d="M 426.603,37.2958 341.93,13.9756 z" id="boundary" inkscape:connector-curvature="0" />
	<path style="fill:none;stroke:red;stroke-width:1px;stroke-linecap:butt;stroke-linejoin:miter;stroke-opacity:1" d="M 426.603,37.2958 552.353,7.9957 z" id="boundary" inkscape:connector-curvature="0" />
	<path style="fill:none;stroke:red;stroke-width:1px;stroke-linecap:butt;stroke-linejoin:miter;stroke-opacity:1" d="M 766.427,155.821 552.353,7.9957 z" id="boundary" inkscape:connector-curvature="0" />
	<path style="fill:none;stroke:red;stroke-width:1px;stroke-linecap:butt;stroke-linejoin:miter;stroke-opacity:1" d="M 766.427,155.821 814.578,20.5538 z" id="boundary" inkscape:connector-curvature="0" />
	<path style="fill:none;stroke:red;stroke-width:1px;stroke-linecap:butt;stroke-linejoin:miter;stroke-opacity:1" d="M 195.337,35.6123 341.93,13.9756 z" id="boundary" inkscape:connector-curvature="0" />
	<path style="fill:none;stroke:red;stroke-width:1px;stroke-linecap:butt;stroke-linejoin:miter;stroke-opacity:1" d="M 195.337,35.6123 51.0946,105.088 z" id="boundary" inkscape:connector-curvature="0" />
	<path style="fill:none;stroke:red;stroke-width:1px;stroke-linecap:butt;stroke-linejoin:miter;stroke-opacity:1" d="M 814.578,20.5538 867.216,34.6863 z" id="boundary" inkscape:connector-curvature="0" />
	<path style="fill:none;stroke:red;stroke-width:1px;stroke-linecap:butt;stroke-linejoin:miter;stroke-opacity:1" d="M 867.216,34.6863 907.114,59.8085 z" id="boundary" inkscape:connector-curvature="0" />
	<path style="fill:none;stroke:red;stroke-width:1px;stroke-linecap:butt;stroke-linejoin:miter;stroke-opacity:1" d="M 907.114,59.8085 958.913,95.0896 z" id="boundary" inkscape:connector-curvature="0" />
	<path style="fill:none;stroke:red;stroke-width:1px;stroke-linecap:butt;stroke-linejoin:miter;stroke-opacity:1" d="M 958.913,95.0896 958.835,149.08 z" id="boundary" inkscape:connector-curvature="0" />
	<path style="fill:none;stroke:red;stroke-width:1px;stroke-linecap:butt;stroke-linejoin:miter;stroke-opacity:1" d="M 958.835,149.08 953.245,221.31 z" id="boundary" inkscape:connector-curvature="0" />
	<path style="fill:none;stroke:red;stroke-width:1px;stroke-linecap:butt;stroke-linejoin:miter;stroke-opacity:1" d="M 953.245,221.31 953.477,251.253 z" id="boundary" inkscape:connector-curvature="0" />
	<path style="fill:none;stroke:red;stroke-width:1px;stroke-linecap:butt;stroke-linejoin:miter;stroke-opacity:1" d="M 953.477,251.253 954.351,302.125 z" id="boundary" inkscape:connector-curvature="0" />
	<path style="fill:none;stroke:red;stroke-width:1px;stroke-linecap:butt;stroke-linejoin:miter;stroke-opacity:1" d="M 954.351,302.125 961.314,401.584 z" id="boundary" inkscape:connector-curvature="0" />
	<path style="fill:none;stroke:red;stroke-width:1px;stroke-linecap:butt;stroke-linejoin:miter;stroke-opacity:1" d="M 961.314,401.584 905.516,430.254 z" id="boundary" inkscape:connector-curvature="0" />
	<path style="fill:none;stroke:red;stroke-width:1px;stroke-linecap:butt;stroke-linejoin:miter;stroke-opacity:1" d="M 51.0946,105.088 48.8671,176.343 z" id="boundary" inkscape:connector-curvature="0" />
	<path style="fill:none;stroke:red;stroke-width:1px;stroke-linecap:butt;stroke-linejoin:miter;stroke-opacity:1" d="M 48.8671,176.343 16.2866,230.285 z" id="boundary" inkscape:connector-curvature="0" />
	<path style="fill:none;stroke:red;stroke-width:1px;stroke-linecap:butt;stroke-linejoin:miter;stroke-opacity:1" d="M 16.2866,230.285 23.9079,299.06 z" id="boundary" inkscape:connector-curvature="0" />
	<path style="fill:none;stroke:red;stroke-width:1px;stroke-linecap:butt;stroke-linejoin:miter;stroke-opacity:1" d="M 23.9079,299.06 46.1663,431.369 z" id="boundary" inkscape:connector-curvature="0" />
	<path style="fill:none;stroke:red;stroke-width:1px;stroke-linecap:butt;stroke-linejoin:miter;stroke-opacity:1" d="M 46.1663,431.369 82.1388,406.486 z" id="boundary" inkscape:connector-curvature="0" />
	<path style="fill:none;stroke:red;stroke-width:1px;stroke-linecap:butt;stroke-linejoin:miter;stroke-opacity:1" d="M 82.1388,406.486 148.586,397.458 z" id="boundary" inkscape:connector-curvature="0" />
	<path style="fill:none;stroke:red;stroke-width:1px;stroke-linecap:butt;stroke-linejoin:miter;stroke-opacity:1" d="M 148.586,397.458 181.09,360.552 z" id="boundary" inkscape:connector-curvature="0" />
	<path style="fill:none;stroke:red;stroke-width:1px;stroke-linecap:butt;stroke-linejoin:miter;stroke-opacity:1" d="M 181.09,360.552 233.449,347.401 z" id="boundary" inkscape:connector-curvature="0" />
	<path style="fill:none;stroke:red;stroke-width:1px;stroke-linecap:butt;stroke-linejoin:miter;stroke-opacity:1" d="M 233.449,347.401 288.194,391.036 z" id="boundary" inkscape:connector-curvature="0" />
	<path style="fill:none;stroke:red;stroke-width:1px;stroke-linecap:butt;stroke-linejoin:miter;stroke-opacity:1" d="M 288.194,391.036 316.488,388.334 z" id="boundary" inkscape:connector-curvature="0" />
	<path style="fill:none;stroke:red;stroke-width:1px;stroke-linecap:butt;stroke-linejoin:miter;stroke-opacity:1" d="M 329.576,398.187 320.483,402.768 z" id="boundary" inkscape:connector-curvature="0" />
	<path style="fill:none;stroke:red;stroke-width:1px;stroke-linecap:butt;stroke-linejoin:miter;stroke-opacity:1" d="M 329.576,398.187 346.087,442.389 z" id="boundary" inkscape:connector-curvature="0" />
	<path style="fill:none;stroke:red;stroke-width:1px;stroke-linecap:butt;stroke-linejoin:miter;stroke-opacity:1" d="M 316.488,388.334 320.483,402.768 z" id="boundary" inkscape:connector-curvature="0" />
	<path style="fill:none;stroke:red;stroke-width:1px;stroke-linecap:butt;stroke-linejoin:miter;stroke-opacity:1" d="M 365.789,413.774 346.087,442.389 z" id="boundary" inkscape:connector-curvature="0" />
	<path style="fill:none;stroke:red;stroke-width:1px;stroke-linecap:butt;stroke-linejoin:miter;stroke-opacity:1" d="M 365.789,413.774 387.719,408.529 z" id="boundary" inkscape:connector-curvature="0" />
	<path style="fill:none;stroke:red;stroke-width:1px;stroke-linecap:butt;stroke-linejoin:miter;stroke-opacity:1" d="M 409.943,399.001 386.541,398.404 z" id="boundary" inkscape:connector-curvature="0" />
	<path style="fill:none;stroke:red;stroke-width:1px;stroke-linecap:butt;stroke-linejoin:miter;stroke-opacity:1" d="M 409.943,399.001 444.65,406.023 z" id="boundary" inkscape:connector-curvature="0" />
	<path style="fill:none;stroke:red;stroke-width:1px;stroke-linecap:butt;stroke-linejoin:miter;stroke-opacity:1" d="M 387.719,408.529 386.541,398.404 z" id="boundary" inkscape:connector-curvature="0" />
	<path style="fill:none;stroke:red;stroke-width:1px;stroke-linecap:butt;stroke-linejoin:miter;stroke-opacity:1" d="M 445.672,428.624 444.65,406.023 z" id="boundary" inkscape:connector-curvature="0" />
	<path style="fill:none;stroke:red;stroke-width:1px;stroke-linecap:butt;stroke-linejoin:miter;stroke-opacity:1" d="M 445.672,428.624 479.711,431.772 z" id="boundary" inkscape:connector-curvature="0" />
	<path style="fill:none;stroke:red;stroke-width:1px;stroke-linecap:butt;stroke-linejoin:miter;stroke-opacity:1" d="M 502.492,435.349 479.711,431.772 z" id="boundary" inkscape:connector-curvature="0" />
	<path style="fill:none;stroke:red;stroke-width:1px;stroke-linecap:butt;stroke-linejoin:miter;stroke-opacity:1" d="M 502.492,435.349 540.211,448.903 z" id="boundary" inkscape:connector-curvature="0" />
	<path style="fill:none;stroke:red;stroke-width:1px;stroke-linecap:butt;stroke-linejoin:miter;stroke-opacity:1" d="M 548.026,439.521 540.211,448.903 z" id="boundary" inkscape:connector-curvature="0" />
	<path style="fill:none;stroke:red;stroke-width:1px;stroke-linecap:butt;stroke-linejoin:miter;stroke-opacity:1" d="M 548.026,439.521 565.779,417.713 z" id="boundary" inkscape:connector-curvature="0" />
	<path style="fill:none;stroke:red;stroke-width:1px;stroke-linecap:butt;stroke-linejoin:miter;stroke-opacity:1" d="M 565.779,417.713 593.506,398.948 z" id="boundary" inkscape:connector-curvature="0" />
	<path style="fill:none;stroke:red;stroke-width:1px;stroke-linecap:butt;stroke-linejoin:miter;stroke-opacity:1" d="M 593.506,398.948 650.255,439.919 z" id="boundary" inkscape:connector-curvature="0" />
	<path style="fill:none;stroke:red;stroke-width:1px;stroke-linecap:butt;stroke-linejoin:miter;stroke-opacity:1" d="M 650.255,439.919 663.781,445.545 z" id="boundary" inkscape:connector-curvature="0" />
	<path style="fill:none;stroke:red;stroke-width:1px;stroke-linecap:butt;stroke-linejoin:miter;stroke-opacity:1" d="M 671.834,446.813 663.781,445.545 z" id="boundary" inkscape:connector-curvature="0" />
	<path style="fill:none;stroke:red;stroke-width:1px;stroke-linecap:butt;stroke-linejoin:miter;stroke-opacity:1" d="M 671.834,446.813 674.106,454.679 z" id="boundary" inkscape:connector-curvature="0" />
	<path style="fill:none;stroke:red;stroke-width:1px;stroke-linecap:butt;stroke-linejoin:miter;stroke-opacity:1" d="M 674.106,454.679 698.562,417.983 z" id="boundary" inkscape:connector-curvature="0" />
	<path style="fill:none;stroke:red;stroke-width:1px;stroke-linecap:butt;stroke-linejoin:miter;stroke-opacity:1" d="M 720.929,393.653 698.562,417.983 z" id="boundary" inkscape:connector-curvature="0" />
	<path style="fill:none;stroke:red;stroke-width:1px;stroke-linecap:butt;stroke-linejoin:miter;stroke-opacity:1" d="M 720.929,393.653 764.269,378.688 z" id="boundary" inkscape:connector-curvature="0" />
	<path style="fill:none;stroke:red;stroke-width:1px;stroke-linecap:butt;stroke-linejoin:miter;stroke-opacity:1" d="M 764.269,378.688 786.038,391.345 z" id="boundary" inkscape:connector-curvature="0" />
	<path style="fill:none;stroke:red;stroke-width:1px;stroke-linecap:butt;stroke-linejoin:miter;stroke-opacity:1" d="M 786.038,391.345 832.707,398.703 z" id="boundary" inkscape:connector-curvature="0" />
	<path style="fill:none;stroke:red;stroke-width:1px;stroke-linecap:butt;stroke-linejoin:miter;stroke-opacity:1" d="M 832.707,398.703 905.516,430.254 z" id="boundary" inkscape:connector-curvature="0" />
	<circle cx="136.304" cy="169.023" r="4" fill="#0" id="circle0"/>
	<circle cx="124.22" cy="142.884" r="4" fill="#0" id="circle1"/>
	<circle cx="117.192" cy="172.483" r="4" fill="#0" id="circle2"/>
	<circle cx="158.951" cy="130.104" r="4" fill="#0" id="circle3"/>
	<circle cx="166.439" cy="135.626" r="4" fill="#0" id="circle4"/>
	<circle cx="155.963" cy="123.142" r="4" fill="#0" id="circle5"/>
	<circle cx="167.863" cy="124.468" r="4" fill="#0" id="circle6"/>
	<circle cx="135.192" cy="91.5658" r="4" fill="#0" id="circle7"/>
	<circle cx="158.812" cy="97.1091" r="4" fill="#0" id="circle8"/>
	<circle cx="192.513" cy="97.137" r="4" fill="#0" id="circle9"/>
	<circle cx="203.248" cy="112.966" r="4" fill="#0" id="circle10"/>
	<circle cx="200.605" cy="70.1947" r="4" fill="#0" id="circle11"/>
	<circle cx="202.326" cy="88.4621" r="4" fill="#0" id="circle12"/>
	<circle cx="207.91" cy="100.789" r="4" fill="#0" id="circle13"/>
	<circle cx="156.721" cy="86.1537" r="4" fill="#0" id="circle14"/>
	<circle cx="158.637" cy="133.51" r="4" fill="#0" id="circle15"/>
	<circle cx="156.338" cy="157.553" r="4" fill="#0" id="circle16"/>
	<circle cx="159.674" cy="135.52" r="4" fill="#0" id="circle17"/>
	<circle cx="171.572" cy="100.75" r="4" fill="#0" id="circle18"/>
	<circle cx="187.025" cy="105.472" r="4" fill="#0" id="circle19"/>
	<circle cx="176.349" cy="99.6974" r="4" fill="#0" id="circle20"/>
	<circle cx="187.16" cy="83.327" r="4" fill="#0" id="circle21"/>
	<circle cx="199.328" cy="109.076" r="4" fill="#0" id="circle22"/>
	<circle cx="168.627" cy="69.8852" r="4" fill="#0" id="circle23"/>
	<circle cx="218.491" cy="62.1336" r="4" fill="#0" id="circle24"/>
	<circle cx="193.99" cy="108.07" r="4" fill="#0" id="circle25"/>
	<circle cx="217.708" cy="63.3323" r="4" fill="#0" id="circle26"/>
	<circle cx="179.129" cy="76.0639" r="4" fill="#0" id="circle27"/>
	<circle cx="241.32" cy="96.5429" r="4" fill="#0" id="circle28"/>
	<circle cx="225.612" cy="93.8607" r="4" fill="#0" id="circle29"/>
	<circle cx="247.095" cy="37.3476" r="4" fill="#0" id="circle30"/>
	<circle cx="213.572" cy="44.8023" r="4" fill="#0" id="circle31"/>
	<circle cx="263.9" cy="64.1784" r="4" fill="#0" id="circle32"/>
	<circle cx="267.893" cy="50.4484" r="4" fill="#0" id="circle33"/>
	<circle cx="270.093" cy="57.1875" r="4" fill="#0" id="circle34"/>
	<circle cx="278.68" cy="96.3212" r="4" fill="#0" id="circle35"/>
	<circle cx="299.194" cy="40.7411" r="4" fill="#0" id="circle36"/>
	<circle cx="278.258" cy="53.8729" r="4" fill="#0" id="circle37"/>
	<circle cx="331.225" cy="52.7781" r="4" fill="#0" id="circle38"/>
	<circle cx="317.873" cy="76.7203" r="4" fill="#0" id="circle39"/>
	<circle cx="324.666" cy="88.4319" r="4" fill="#0" id="circle40"/>
	<circle cx="351.824" cy="43.9642" r="4" fill="#0" id="circle41"/>
	<circle cx="338.346" cy="81.1293" r="4" fill="#0" id="circle42"/>
	<circle cx="380.611" cy="53.8883" r="4" fill="#0" id="circle43"/>
	<circle cx="375.006" cy="74.5796" r="4" fill="#0" id="circle44"/>
	<circle cx="335.309" cy="92.4136" r="4" fill="#0" id="circle45"/>
	<circle cx="353.938" cy="86.3503" r="4" fill="#0" id="circle46"/>
	<circle cx="367.497" cy="91.0816" r="4" fill="#0" id="circle47"/>
	<circle cx="370.058" cy="105.702" r="4" fill="#0" id="circle48"/>
	<circle cx="354.217" cy="109.485" r="4" fill="#0" id="circle49"/>
	<circle cx="364.824" cy="162.547" r="4" fill="#0" id="circle50"/>
	<circle cx="335.696" cy="131.397" r="4" fill="#0" id="circle51"/>
	<circle cx="186.271" cy="138.717" r="4" fill="#0" id="circle52"/>
	<circle cx="168.252" cy="166.683" r="4" fill="#0" id="circle53"/>
	<circle cx="181.319" cy="177.057" r="4" fill="#0" id="circle54"/>
	<circle cx="185.619" cy="175.413" r="4" fill="#0" id="circle55"/>
	<circle cx="221.389" cy="179.502" r="4" fill="#0" id="circle56"/>
	<circle cx="253.188" cy="176.38" r="4" fill="#0" id="circle57"/>
	<circle cx="241.945" cy="167.646" r="4" fill="#0" id="circle58"/>
	<circle cx="280.696" cy="138.091" r="4" fill="#0" id="circle59"/>
	<circle cx="297.54" cy="184.753" r="4" fill="#0" id="circle60"/>
	<circle cx="286.797" cy="145.249" r="4" fill="#0" id="circle61"/>
	<circle cx="272.944" cy="134.381" r="4" fill="#0" id="circle62"/>
	<circle cx="305.329" cy="168.743" r="4" fill="#0" id="circle63"/>
	<circle cx="313.968" cy="169.647" r="4" fill="#0" id="circle64"/>
	<circle cx="352.114" cy="178.141" r="4" fill="#0" id="circle65"/>
	<circle cx="348.697" cy="178.362" r="4" fill="#0" id="circle66"/>
	<circle cx="96.0492" cy="147.012" r="4" fill="#0" id="circle67"/>
	<circle cx="105.545" cy="145.149" r="4" fill="#0" id="circle68"/>
	<circle cx="110.959" cy="148.163" r="4" fill="#0" id="circle69"/>
	<circle cx="128.267" cy="134.418" r="4" fill="#0" id="circle70"/>
	<circle cx="140.389" cy="161.103" r="4" fill="#0" id="circle71"/>
	<circle cx="143.439" cy="177.655" r="4" fill="#0" id="circle72"/>
	<circle cx="114.507" cy="146.981" r="4" fill="#0" id="circle73"/>
	<circle cx="68.5637" cy="124.543" r="4" fill="#0" id="circle74"/>
	<circle cx="76.4711" cy="130.633" r="4" fill="#0" id="circle75"/>
	<circle cx="115.357" cy="161.722" r="4" fill="#0" id="circle76"/>
	<circle cx="92.694" cy="156.453" r="4" fill="#0" id="circle77"/>
	<circle cx="126.6" cy="139.784" r="4" fill="#0" id="circle78"/>
	<circle cx="110.039" cy="93.6662" r="4" fill="#0" id="circle79"/>
	<circle cx="109.914" cy="87.8828" r="4" fill="#0" id="circle80"/>
	<circle cx="149.223" cy="112.4" r="4" fill="#0" id="circle81"/>
	<circle cx="95.0739" cy="99.728" r="4" fill="#0" id="circle82"/>
	<circle cx="108.768" cy="96.819" r="4" fill="#0" id="circle83"/>
	<circle cx="109.873" cy="97.356" r="4" fill="#0" id="circle84"/>
	<circle cx="126.594" cy="95.2407" r="4" fill="#0" id="circle85"/>
	<circle cx="188.364" cy="40.3095" r="4" fill="#0" id="circle86"/>
	<circle cx="162.393" cy="86.5578" r="4" fill="#0" id="circle87"/>
	<circle cx="198.992" cy="71.4439" r="4" fill="#0" id="circle88"/>
	<circle cx="384.932" cy="48.7016" r="4" fill="#0" id="circle89"/>
	<circle cx="410.629" cy="74.1382" r="4" fill="#0" id="circle90"/>
	<circle cx="392.998" cy="92.0892" r="4" fill="#0" id="circle91"/>
	<circle cx="386.276" cy="128.729" r="4" fill="#0" id="circle92"/>
	<circle cx="395.049" cy="103.416" r="4" fill="#0" id="circle93"/>
	<circle cx="408.176" cy="108.335" r="4" fill="#0" id="circle94"/>
	<circle cx="393.152" cy="128.18" r="4" fill="#0" id="circle95"/>
	<circle cx="391.31" cy="153.441" r="4" fill="#0" id="circle96"/>
	<circle cx="445.446" cy="147.015" r="4" fill="#0" id="circle97"/>
	<circle cx="410.427" cy="135.957" r="4" fill="#0" id="circle98"/>
	<circle cx="423.574" cy="143.787" r="4" fill="#0" id="circle99"/>
	<circle cx="431.625" cy="149.219" r="4" fill="#0" id="circle100"/>
	<circle cx="452.001" cy="134.287" r="4" fill="#0" id="circle101"/>
	<circle cx="483.345" cy="164.572" r="4" fill="#0" id="circle102"/>
	<circle cx="527.368" cy="143.851" r="4" fill="#0" id="circle103"/>
	<circle cx="494.93" cy="190.742" r="4" fill="#0" id="circle104"/>
	<circle cx="523.513" cy="170.316" r="4" fill="#0" id="circle105"/>
	<circle cx="523.795" cy="96.2283" r="4" fill="#0" id="circle106"/>
	<circle cx="520.342" cy="106.405" r="4" fill="#0" id="circle107"/>
	<circle cx="543.497" cy="125.41" r="4" fill="#0" id="circle108"/>
	<circle cx="559.352" cy="113.106" r="4" fill="#0" id="circle109"/>
	<circle cx="551.021" cy="126.643" r="4" fill="#0" id="circle110"/>
	<circle cx="426.603" cy="37.2958" r="4" fill="#0" id="circle111"/>
	<circle cx="453.673" cy="64.7607" r="4" fill="#0" id="circle112"/>
	<circle cx="436.096" cy="91.7131" r="4" fill="#0" id="circle113"/>
	<circle cx="469.12" cy="61.8693" r="4" fill="#0" id="circle114"/>
	<circle cx="452.384" cy="70.6882" r="4" fill="#0" id="circle115"/>
	<circle cx="503.927" cy="47.9361" r="4" fill="#0" id="circle116"/>
	<circle cx="512.476" cy="99.5435" r="4" fill="#0" id="circle117"/>
	<circle cx="530.761" cy="63.4542" r="4" fill="#0" id="circle118"/>
	<circle cx="546.295" cy="89.0899" r="4" fill="#0" id="circle119"/>
	<circle cx="567.849" cy="69.671" r="4" fill="#0" id="circle120"/>
	<circle cx="589.675" cy="80.7548" r="4" fill="#0" id="circle121"/>
	<circle cx="585.118" cy="88.3768" r="4" fill="#0" id="circle122"/>
	<circle cx="604.424" cy="98.1775" r="4" fill="#0" id="circle123"/>
	<circle cx="630.073" cy="57.3827" r="4" fill="#0" id="circle124"/>
	<circle cx="627.57" cy="61.0158" r="4" fill="#0" id="circle125"/>
	<circle cx="662.584" cy="89.2256" r="4" fill="#0" id="circle126"/>
	<circle cx="663.864" cy="59.7136" r="4" fill="#0" id="circle127"/>
	<circle cx="666.065" cy="82.2289" r="4" fill="#0" id="circle128"/>
	<circle cx="671.325" cy="101.815" r="4" fill="#0" id="circle129"/>
	<circle cx="661.064" cy="83.4959" r="4" fill="#0" id="circle130"/>
	<circle cx="677.739" cy="120.868" r="4" fill="#0" id="circle131"/>
	<circle cx="685.255" cy="142.183" r="4" fill="#0" id="circle132"/>
	<circle cx="704.144" cy="107.667" r="4" fill="#0" id="circle133"/>
	<circle cx="676.662" cy="166.24" r="4" fill="#0" id="circle134"/>
	<circle cx="710.503" cy="161.29" r="4" fill="#0" id="circle135"/>
	<circle cx="669.792" cy="154.687" r="4" fill="#0" id="circle136"/>
	<circle cx="564.494" cy="175.599" r="4" fill="#0" id="circle137"/>
	<circle cx="572.356" cy="175.624" r="4" fill="#0" id="circle138"/>
	<circle cx="612.843" cy="181.766" r="4" fill="#0" id="circle139"/>
	<circle cx="584.78" cy="193.359" r="4" fill="#0" id="circle140"/>
	<circle cx="607.262" cy="171.963" r="4" fill="#0" id="circle141"/>
	<circle cx="658.795" cy="165.423" r="4" fill="#0" id="circle142"/>
	<circle cx="624.504" cy="135.381" r="4" fill="#0" id="circle143"/>
	<circle cx="649.277" cy="150.049" r="4" fill="#0" id="circle144"/>
	<circle cx="584.773" cy="70.7248" r="4" fill="#0" id="circle145"/>
	<circle cx="566.46" cy="76.9441" r="4" fill="#0" id="circle146"/>
	<circle cx="530.66" cy="79.8313" r="4" fill="#0" id="circle147"/>
	<circle cx="536.69" cy="139.853" r="4" fill="#0" id="circle148"/>
	<circle cx="540.94" cy="130.13" r="4" fill="#0" id="circle149"/>
	<circle cx="571.85" cy="119.636" r="4" fill="#0" id="circle150"/>
	<circle cx="536.65" cy="131.338" r="4" fill="#0" id="circle151"/>
	<circle cx="713.782" cy="68.7516" r="4" fill="#0" id="circle152"/>
	<circle cx="734.667" cy="102.237" r="4" fill="#0" id="circle153"/>
	<circle cx="689.986" cy="100.362" r="4" fill="#0" id="circle154"/>
	<circle cx="715.929" cy="91.8438" r="4" fill="#0" id="circle155"/>
	<circle cx="714.894" cy="136.359" r="4" fill="#0" id="circle156"/>
	<circle cx="734.544" cy="121.653" r="4" fill="#0" id="circle157"/>
	<circle cx="700.474" cy="167.328" r="4" fill="#0" id="circle158"/>
	<circle cx="714.088" cy="156.076" r="4" fill="#0" id="circle159"/>
	<circle cx="711.182" cy="147.504" r="4" fill="#0" id="circle160"/>
	<circle cx="766.938" cy="181.714" r="4" fill="#0" id="circle161"/>
	<circle cx="758.722" cy="187.986" r="4" fill="#0" id="circle162"/>
	<circle cx="791.909" cy="172.114" r="4" fill="#0" id="circle163"/>
	<circle cx="790.066" cy="136.529" r="4" fill="#0" id="circle164"/>
	<circle cx="766.427" cy="155.821" r="4" fill="#0" id="circle165"/>
	<circle cx="783.596" cy="143.613" r="4" fill="#0" id="circle166"/>
	<circle cx="816.545" cy="171.745" r="4" fill="#0" id="circle167"/>
	<circle cx="833.633" cy="150.601" r="4" fill="#0" id="circle168"/>
	<circle cx="722.525" cy="84.5999" r="4" fill="#0" id="circle169"/>
	<circle cx="762.754" cy="94.2498" r="4" fill="#0" id="circle170"/>
	<circle cx="779.139" cy="57.4876" r="4" fill="#0" id="circle171"/>
	<circle cx="776.898" cy="79.839" r="4" fill="#0" id="circle172"/>
	<circle cx="795.521" cy="93.0913" r="4" fill="#0" id="circle173"/>
	<circle cx="800.299" cy="40.5755" r="4" fill="#0" id="circle174"/>
	<circle cx="801.322" cy="83.2142" r="4" fill="#0" id="circle175"/>
	<circle cx="809.347" cy="52.3082" r="4" fill="#0" id="circle176"/>
	<circle cx="830.768" cy="97.771" r="4" fill="#0" id="circle177"/>
	<circle cx="808.088" cy="79.3559" r="4" fill="#0" id="circle178"/>
	<circle cx="830.837" cy="116.126" r="4" fill="#0" id="circle179"/>
	<circle cx="828.355" cy="114.258" r="4" fill="#0" id="circle180"/>
	<circle cx="811.394" cy="128.946" r="4" fill="#0" id="circle181"/>
	<circle cx="847.861" cy="150.799" r="4" fill="#0" id="circle182"/>
	<circle cx="819.612" cy="144.037" r="4" fill="#0" id="circle183"/>
	<circle cx="75.4904" cy="79.6595" r="4" fill="#0" id="circle184"/>
	<circle cx="73.106" cy="85.4064" r="4" fill="#0" id="circle185"/>
	<circle cx="109.282" cy="84.7459" r="4" fill="#0" id="circle186"/>
	<circle cx="96.8391" cy="29.0413" r="4" fill="#0" id="circle187"/>
	<circle cx="142.967" cy="65.2352" r="4" fill="#0" id="circle188"/>
	<circle cx="125.928" cy="20.6357" r="4" fill="#0" id="circle189"/>
	<circle cx="195.337" cy="35.6123" r="4" fill="#0" id="circle190"/>
	<circle cx="155.542" cy="18.5189" r="4" fill="#0" id="circle191"/>
	<circle cx="226.32" cy="34.0687" r="4" fill="#0" id="circle192"/>
	<circle cx="207.08" cy="57.73" r="4" fill="#0" id="circle193"/>
	<circle cx="280.17" cy="39.7352" r="4" fill="#0" id="circle194"/>
	<circle cx="288.106" cy="21.6816" r="4" fill="#0" id="circle195"/>
	<circle cx="278.018" cy="53.4223" r="4" fill="#0" id="circle196"/>
	<circle cx="342.788" cy="58.2968" r="4" fill="#0" id="circle197"/>
	<circle cx="341.93" cy="13.9756" r="4" fill="#0" id="circle198"/>
	<circle cx="346.885" cy="35.0424" r="4" fill="#0" id="circle199"/>
	<circle cx="405.046" cy="25.8838" r="4" fill="#0" id="circle200"/>
	<circle cx="395.003" cy="29.6037" r="4" fill="#0" id="circle201"/>
	<circle cx="416.463" cy="37.1317" r="4" fill="#0" id="circle202"/>
	<circle cx="456.073" cy="4.32701" r="4" fill="#0" id="circle203"/>
	<circle cx="469.78" cy="49.0937" r="4" fill="#0" id="circle204"/>
	<circle cx="488.858" cy="26.9298" r="4" fill="#0" id="circle205"/>
	<circle cx="509.79" cy="22.5429" r="4" fill="#0" id="circle206"/>
	<circle cx="552.353" cy="7.9957" r="4" fill="#0" id="circle207"/>
	<circle cx="585.997" cy="53.5139" r="4" fill="#0" id="circle208"/>
	<circle cx="558.255" cy="49.1044" r="4" fill="#0" id="circle209"/>
	<circle cx="614.125" cy="47.582" r="4" fill="#0" id="circle210"/>
	<circle cx="618.053" cy="41.5584" r="4" fill="#0" id="circle211"/>
	<circle cx="669.776" cy="4" r="4" fill="#0" id="circle212"/>
	<circle cx="690.131" cy="7.94605" r="4" fill="#0" id="circle213"/>
	<circle cx="693.981" cy="56.429" r="4" fill="#0" id="circle214"/>
	<circle cx="744.408" cy="11.2058" r="4" fill="#0" id="circle215"/>
	<circle cx="743.944" cy="6.62621" r="4" fill="#0" id="circle216"/>
	<circle cx="789.148" cy="44.9287" r="4" fill="#0" id="circle217"/>
	<circle cx="814.578" cy="20.5538" r="4" fill="#0" id="circle218"/>
	<circle cx="837.67" cy="15.7054" r="4" fill="#0" id="circle219"/>
	<circle cx="814.363" cy="12.9121" r="4" fill="#0" id="circle220"/>
	<circle cx="867.216" cy="34.6863" r="4" fill="#0" id="circle221"/>
	<circle cx="879.585" cy="36.5524" r="4" fill="#0" id="circle222"/>
	<circle cx="907.339" cy="43.4674" r="4" fill="#0" id="circle223"/>
	<circle cx="907.114" cy="59.8085" r="4" fill="#0" id="circle224"/>
	<circle cx="924.282" cy="73.4227" r="4" fill="#0" id="circle225"/>
	<circle cx="951.807" cy="57.375" r="4" fill="#0" id="circle226"/>
	<circle cx="969.173" cy="43.0736" r="4" fill="#0" id="circle227"/>
	<circle cx="964.153" cy="55.38" r="4" fill="#0" id="circle228"/>
	<circle cx="951.843" cy="46.3909" r="4" fill="#0" id="circle229"/>
	<circle cx="947.429" cy="66.9131" r="4" fill="#0" id="circle230"/>
	<circle cx="946.69" cy="109.643" r="4" fill="#0" id="circle231"/>
	<circle cx="951.881" cy="138.469" r="4" fill="#0" id="circle232"/>
	<circle cx="958.913" cy="95.0896" r="4" fill="#0" id="circle233"/>
	<circle cx="952.612" cy="119.349" r="4" fill="#0" id="circle234"/>
	<circle cx="958.835" cy="149.08" r="4" fill="#0" id="circle235"/>
	<circle cx="969.549" cy="140.997" r="4" fill="#0" id="circle236"/>
	<circle cx="942.166" cy="155.283" r="4" fill="#0" id="circle237"/>
	<circle cx="984.536" cy="204.24" r="4" fill="#0" id="circle238"/>
	<circle cx="994.007" cy="173.363" r="4" fill="#0" id="circle239"/>
	<circle cx="983.35" cy="188.272" r="4" fill="#0" id="circle240"/>
	<circle cx="951.425" cy="201.231" r="4" fill="#0" id="circle241"/>
	<circle cx="995.94" cy="246.987" r="4" fill="#0" id="circle242"/>
	<circle cx="975.048" cy="245.716" r="4" fill="#0" id="circle243"/>
	<circle cx="953.245" cy="221.31" r="4" fill="#0" id="circle244"/>
	<circle cx="982.775" cy="271.049" r="4" fill="#0" id="circle245"/>
	<circle cx="953.477" cy="251.253" r="4" fill="#0" id="circle246"/>
	<circle cx="954.351" cy="302.125" r="4" fill="#0" id="circle247"/>
	<circle cx="947.742" cy="316.873" r="4" fill="#0" id="circle248"/>
	<circle cx="996" cy="308.85" r="4" fill="#0" id="circle249"/>
	<circle cx="953.188" cy="309.857" r="4" fill="#0" id="circle250"/>
	<circle cx="949.482" cy="351.76" r="4" fill="#0" id="circle251"/>
	<circle cx="980.241" cy="331.423" r="4" fill="#0" id="circle252"/>
	<circle cx="941.902" cy="347.168" r="4" fill="#0" id="circle253"/>
	<circle cx="948.04" cy="334.918" r="4" fill="#0" id="circle254"/>
	<circle cx="979.539" cy="347.993" r="4" fill="#0" id="circle255"/>
	<circle cx="960.694" cy="362.229" r="4" fill="#0" id="circle256"/>
	<circle cx="961.314" cy="401.584" r="4" fill="#0" id="circle257"/>
	<circle cx="928.733" cy="398.906" r="4" fill="#0" id="circle258"/>
	<circle cx="78.3007" cy="73.477" r="4" fill="#0" id="circle259"/>
	<circle cx="81.2311" cy="59.2708" r="4" fill="#0" id="circle260"/>
	<circle cx="55.082" cy="111.792" r="4" fill="#0" id="circle261"/>
	<circle cx="51.0946" cy="105.088" r="4" fill="#0" id="circle262"/>
	<circle cx="58.9818" cy="105.244" r="4" fill="#0" id="circle263"/>
	<circle cx="42.5904" cy="116.713" r="4" fill="#0" id="circle264"/>
	<circle cx="68.648" cy="139.329" r="4" fill="#0" id="circle265"/>
	<circle cx="48.8671" cy="176.343" r="4" fill="#0" id="circle266"/>
	<circle cx="21.7914" cy="143.622" r="4" fill="#0" id="circle267"/>
	<circle cx="11.0987" cy="165.892" r="4" fill="#0" id="circle268"/>
	<circle cx="29.0247" cy="176" r="4" fill="#0" id="circle269"/>
	<circle cx="11.6761" cy="186.613" r="4" fill="#0" id="circle270"/>
	<circle cx="16.2866" cy="230.285" r="4" fill="#0" id="circle271"/>
	<circle cx="17.6767" cy="248.222" r="4" fill="#0" id="circle272"/>
	<circle cx="13.019" cy="230.716" r="4" fill="#0" id="circle273"/>
	<circle cx="4.818" cy="243.616" r="4" fill="#0" id="circle274"/>
	<circle cx="49.6506" cy="259.85" r="4" fill="#0" id="circle275"/>
	<circle cx="23.9079" cy="299.06" r="4" fill="#0" id="circle276"/>
	<circle cx="4" cy="294.744" r="4" fill="#0" id="circle277"/>
	<circle cx="15.0029" cy="303.25" r="4" fill="#0" id="circle278"/>
	<circle cx="44.767" cy="320.344" r="4" fill="#0" id="circle279"/>
	<circle cx="37.3725" cy="336.376" r="4" fill="#0" id="circle280"/>
	<circle cx="51.6684" cy="331.682" r="4" fill="#0" id="circle281"/>
	<circle cx="17.0293" cy="344.317" r="4" fill="#0" id="circle282"/>
	<circle cx="16.4713" cy="380.805" r="4" fill="#0" id="circle283"/>
	<circle cx="21.0748" cy="358.384" r="4" fill="#0" id="circle284"/>
	<circle cx="46.1663" cy="431.369" r="4" fill="#0" id="circle285"/>
	<circle cx="12.8544" cy="415.417" r="4" fill="#0" id="circle286"/>
	<circle cx="53.5558" cy="445.766" r="4" fill="#0" id="circle287"/>
	<circle cx="38.9238" cy="401.944" r="4" fill="#0" id="circle288"/>
	<circle cx="45.902" cy="430.63" r="4" fill="#0" id="circle289"/>
	<circle cx="82.1388" cy="406.486" r="4" fill="#0" id="circle290"/>
	<circle cx="68.6973" cy="400.363" r="4" fill="#0" id="circle291"/>
	<circle cx="88.6504" cy="408.757" r="4" fill="#0" id="circle292"/>
	<circle cx="132.663" cy="411.367" r="4" fill="#0" id="circle293"/>
	<circle cx="148.586" cy="397.458" r="4" fill="#0" id="circle294"/>
	<circle cx="107.973" cy="382.528" r="4" fill="#0" id="circle295"/>
	<circle cx="120.849" cy="338.616" r="4" fill="#0" id="circle296"/>
	<circle cx="181.09" cy="360.552" r="4" fill="#0" id="circle297"/>
	<circle cx="162.52" cy="332.55" r="4" fill="#0" id="circle298"/>
	<circle cx="166.493" cy="358.373" r="4" fill="#0" id="circle299"/>
	<circle cx="192.025" cy="312.46" r="4" fill="#0" id="circle300"/>
	<circle cx="233.449" cy="347.401" r="4" fill="#0" id="circle301"/>
	<circle cx="234.832" cy="338.909" r="4" fill="#0" id="circle302"/>
	<circle cx="245.672" cy="362.517" r="4" fill="#0" id="circle303"/>
	<circle cx="270.291" cy="352.966" r="4" fill="#0" id="circle304"/>
	<circle cx="276.931" cy="322.227" r="4" fill="#0" id="circle305"/>
	<circle cx="315.281" cy="349.35" r="4" fill="#0" id="circle306"/>
	<circle cx="288.194" cy="391.036" r="4" fill="#0" id="circle307"/>
	<circle cx="329.576" cy="398.187" r="4" fill="#0" id="circle308"/>
	<circle cx="316.488" cy="388.334" r="4" fill="#0" id="circle309"/>
	<circle cx="320.483" cy="402.768" r="4" fill="#0" id="circle310"/>
	<circle cx="365.789" cy="413.774" r="4" fill="#0" id="circle311"/>
	<circle cx="346.087" cy="442.389" r="4" fill="#0" id="circle312"/>
	<circle cx="396.623" cy="436.086" r="4" fill="#0" id="circle313"/>
	<circle cx="409.943" cy="399.001" r="4" fill="#0" id="circle314"/>
	<circle cx="387.719" cy="408.529" r="4" fill="#0" id="circle315"/>
	<circle cx="386.541" cy="398.404" r="4" fill="#0" id="circle316"/>
	<circle cx="445.672" cy="428.624" r="4" fill="#0" id="circle317"/>
	<circle cx="444.65" cy="406.023" r="4" fill="#0" id="circle318"/>
	<circle cx="453.801" cy="395.409" r="4" fill="#0" id="circle319"/>
	<circle cx="502.492" cy="435.349" r="4" fill="#0" id="circle320"/>
	<circle cx="479.711" cy="431.772" r="4" fill="#0" id="circle321"/>
	<circle cx="497.21" cy="408.009" r="4" fill="#0" id="circle322"/>
	<circle cx="548.026" cy="439.521" r="4" fill="#0" id="circle323"/>
	<circle cx="540.211" cy="448.903" r="4" fill="#0" id="circle324"/>
	<circle cx="565.779" cy="417.713" r="4" fill="#0" id="circle325"/>
	<circle cx="593.506" cy="398.948" r="4" fill="#0" id="circle326"/>
	<circle cx="650.255" cy="439.919" r="4" fill="#0" id="circle327"/>
	<circle cx="671.834" cy="446.813" r="4" fill="#0" id="circle328"/>
	<circle cx="663.781" cy="445.545" r="4" fill="#0" id="circle329"/>
	<circle cx="711.5" cy="442.35" r="4" fill="#0" id="circle330"/>
	<circle cx="674.106" cy="454.679" r="4" fill="#0" id="circle331"/>
	<circle cx="728.922" cy="438.296" r="4" fill="#0" id="circle332"/>
	<circle cx="720.929" cy="393.653" r="4" fill="#0" id="circle333"/>
	<circle cx="698.562" cy="417.983" r="4" fill="#0" id="circle334"/>
	<circle cx="730.99" cy="411.073" r="4" fill="#0" id="circle335"/>
	<circle cx="764.269" cy="378.688" r="4" fill="#0" id="circle336"/>
	<circle cx="786.038" cy="391.345" r="4" fill="#0" id="circle337"/>
	<circle cx="830.282" cy="353.764" r="4" fill="#0" id="circle338"/>
	<circle cx="832.707" cy="398.703" r="4" fill="#0" id="circle339"/>
	<circle cx="885.35" cy="383.688" r="4" fill="#0" id="circle340"/>
	<circle cx="852.469" cy="362.688" r="4" fill="#0" id="circle341"/>
	<circle cx="899.531" cy="352.344" r="4" fill="#0" id="circle342"/>
	<circle cx="928.299" cy="394.594" r="4" fill="#0" id="circle343"/>
	<circle cx="926.804" cy="396.738" r="4" fill="#0" id="circle344"/>
	<circle cx="905.516" cy="430.254" r="4" fill="#0" id="circle345"/>
	<circle cx="905.442" cy="415.271" r="4" fill="#0" id="circle346"/>
	<circle cx="952.264" cy="452.418" r="4" fill="#0" id="circle347"/>
	</g>
</svg>