<?xml version="1.0" encoding="UTF-8" standalone="no"?>
<!-- Created with CurveBenchmark -->
<svg
	xmlns:dc="http://purl.org/dc/elements/1.1/"
	xmlns:cc="http://creativecommons.org/ns#"
	xmlns:rdf="http://www.w3.org/1999/02/22-rdf-syntax-ns#"
	xmlns:svg="http://www.w3.org/2000/svg"
	xmlns="http://www.w3.org/2000/svg"
	xmlns:sodipodi="http://sodipodi.sourceforge.net/DTD/sodipodi-0.dtd"
	xmlns:inkscape="http://www.inkscape.org/namespaces/inkscape"
	width="1000"
	height="1000"
	id="svg2"
	version="1.1"
	sodipodi:docname="noisy-0.03/gathang-mc15.txt">
<defs
	id="defs4" />
<metadata
	id="metadata7">
	<rdf:RDF>
		<cc:Work
			rdf:about="">
			<dc:format>image/svg+xml</dc:format>
			<dc:type
				rdf:resource="http://purl.org/dc/dcmitype/StillImage" />
			<dc:title></dc:title>
		</cc:Work>
	</rdf:RDF>
</metadata>
<g
	inkscape:label="Layer 1"
	inkscape:groupmode="layer"
	id="layer1">
	<path style="fill:none;stroke:red;stroke-width:1px;stroke-linecap:butt;stroke-linejoin:miter;stroke-opacity:1" d="M 29.2725,85.1875 40.7079,50.1732 z" id="boundary" inkscape:connector-curvature="0" />
	<path style="fill:none;stroke:red;stroke-width:1px;stroke-linecap:butt;stroke-linejoin:miter;stroke-opacity:1" d="M 29.2725,85.1875 4,100.835 z" id="boundary" inkscape:connector-curvature="0" />
	<path style="fill:none;stroke:red;stroke-width:1px;stroke-linecap:butt;stroke-linejoin:miter;stroke-opacity:1" d="M 83.9626,42.4062 113.118,51.0492 z" id="boundary" inkscape:connector-curvature="0" />
	<path style="fill:none;stroke:red;stroke-width:1px;stroke-linecap:butt;stroke-linejoin:miter;stroke-opacity:1" d="M 40.7079,50.1732 83.9626,42.4062 z" id="boundary" inkscape:connector-curvature="0" />
	<path style="fill:none;stroke:red;stroke-width:1px;stroke-linecap:butt;stroke-linejoin:miter;stroke-opacity:1" d="M 77.2605,69.6816 49.3579,88.862 z" id="boundary" inkscape:connector-curvature="0" />
	<path style="fill:none;stroke:red;stroke-width:1px;stroke-linecap:butt;stroke-linejoin:miter;stroke-opacity:1" d="M 13.2357,122.143 4,100.835 z" id="boundary" inkscape:connector-curvature="0" />
	<path style="fill:none;stroke:red;stroke-width:1px;stroke-linecap:butt;stroke-linejoin:miter;stroke-opacity:1" d="M 61.773,133.981 13.2357,122.143 z" id="boundary" inkscape:connector-curvature="0" />
	<path style="fill:none;stroke:red;stroke-width:1px;stroke-linecap:butt;stroke-linejoin:miter;stroke-opacity:1" d="M 43.486,90.9523 49.3579,88.862 z" id="boundary" inkscape:connector-curvature="0" />
	<path style="fill:none;stroke:red;stroke-width:1px;stroke-linecap:butt;stroke-linejoin:miter;stroke-opacity:1" d="M 61.773,133.981 118.393,185.098 z" id="boundary" inkscape:connector-curvature="0" />
	<path style="fill:none;stroke:red;stroke-width:1px;stroke-linecap:butt;stroke-linejoin:miter;stroke-opacity:1" d="M 113.118,51.0492 147.803,64.3652 z" id="boundary" inkscape:connector-curvature="0" />
	<path style="fill:none;stroke:red;stroke-width:1px;stroke-linecap:butt;stroke-linejoin:miter;stroke-opacity:1" d="M 196.995,84.1222 165.225,73.5221 z" id="boundary" inkscape:connector-curvature="0" />
	<path style="fill:none;stroke:red;stroke-width:1px;stroke-linecap:butt;stroke-linejoin:miter;stroke-opacity:1" d="M 165.225,73.5221 147.803,64.3652 z" id="boundary" inkscape:connector-curvature="0" />
	<path style="fill:none;stroke:red;stroke-width:1px;stroke-linecap:butt;stroke-linejoin:miter;stroke-opacity:1" d="M 217.225,106.192 196.995,84.1222 z" id="boundary" inkscape:connector-curvature="0" />
	<path style="fill:none;stroke:red;stroke-width:1px;stroke-linecap:butt;stroke-linejoin:miter;stroke-opacity:1" d="M 288.393,36.4121 235.433,37.5523 z" id="boundary" inkscape:connector-curvature="0" />
	<path style="fill:none;stroke:red;stroke-width:1px;stroke-linecap:butt;stroke-linejoin:miter;stroke-opacity:1" d="M 227.308,116.815 217.225,106.192 z" id="boundary" inkscape:connector-curvature="0" />
	<path style="fill:none;stroke:red;stroke-width:1px;stroke-linecap:butt;stroke-linejoin:miter;stroke-opacity:1" d="M 253.421,123.38 227.308,116.815 z" id="boundary" inkscape:connector-curvature="0" />
	<path style="fill:none;stroke:red;stroke-width:1px;stroke-linecap:butt;stroke-linejoin:miter;stroke-opacity:1" d="M 151.239,153.37 138.521,154.635 z" id="boundary" inkscape:connector-curvature="0" />
	<path style="fill:none;stroke:red;stroke-width:1px;stroke-linecap:butt;stroke-linejoin:miter;stroke-opacity:1" d="M 145.921,219.222 118.393,185.098 z" id="boundary" inkscape:connector-curvature="0" />
	<path style="fill:none;stroke:red;stroke-width:1px;stroke-linecap:butt;stroke-linejoin:miter;stroke-opacity:1" d="M 156.568,193.101 169.996,209.497 z" id="boundary" inkscape:connector-curvature="0" />
	<path style="fill:none;stroke:red;stroke-width:1px;stroke-linecap:butt;stroke-linejoin:miter;stroke-opacity:1" d="M 169.996,209.497 177.968,224.433 z" id="boundary" inkscape:connector-curvature="0" />
	<path style="fill:none;stroke:red;stroke-width:1px;stroke-linecap:butt;stroke-linejoin:miter;stroke-opacity:1" d="M 177.968,224.433 185.773,245.758 z" id="boundary" inkscape:connector-curvature="0" />
	<path style="fill:none;stroke:red;stroke-width:1px;stroke-linecap:butt;stroke-linejoin:miter;stroke-opacity:1" d="M 172.485,318.887 191.67,350.59 z" id="boundary" inkscape:connector-curvature="0" />
	<path style="fill:none;stroke:red;stroke-width:1px;stroke-linecap:butt;stroke-linejoin:miter;stroke-opacity:1" d="M 185.773,245.758 199.571,271.417 z" id="boundary" inkscape:connector-curvature="0" />
	<path style="fill:none;stroke:red;stroke-width:1px;stroke-linecap:butt;stroke-linejoin:miter;stroke-opacity:1" d="M 202.844,293.201 199.571,271.417 z" id="boundary" inkscape:connector-curvature="0" />
	<path style="fill:none;stroke:red;stroke-width:1px;stroke-linecap:butt;stroke-linejoin:miter;stroke-opacity:1" d="M 202.844,293.201 205.813,324.676 z" id="boundary" inkscape:connector-curvature="0" />
	<path style="fill:none;stroke:red;stroke-width:1px;stroke-linecap:butt;stroke-linejoin:miter;stroke-opacity:1" d="M 212.636,366.737 191.67,350.59 z" id="boundary" inkscape:connector-curvature="0" />
	<path style="fill:none;stroke:red;stroke-width:1px;stroke-linecap:butt;stroke-linejoin:miter;stroke-opacity:1" d="M 216.52,348.702 205.813,324.676 z" id="boundary" inkscape:connector-curvature="0" />
	<path style="fill:none;stroke:red;stroke-width:1px;stroke-linecap:butt;stroke-linejoin:miter;stroke-opacity:1" d="M 270.466,321.764 242.881,317.051 z" id="boundary" inkscape:connector-curvature="0" />
	<path style="fill:none;stroke:red;stroke-width:1px;stroke-linecap:butt;stroke-linejoin:miter;stroke-opacity:1" d="M 286.133,134.702 253.421,123.38 z" id="boundary" inkscape:connector-curvature="0" />
	<path style="fill:none;stroke:red;stroke-width:1px;stroke-linecap:butt;stroke-linejoin:miter;stroke-opacity:1" d="M 288.393,36.4121 346.853,30.1786 z" id="boundary" inkscape:connector-curvature="0" />
	<path style="fill:none;stroke:red;stroke-width:1px;stroke-linecap:butt;stroke-linejoin:miter;stroke-opacity:1" d="M 286.133,134.702 318.35,171.221 z" id="boundary" inkscape:connector-curvature="0" />
	<path style="fill:none;stroke:red;stroke-width:1px;stroke-linecap:butt;stroke-linejoin:miter;stroke-opacity:1" d="M 273.923,213.376 250.42,194.063 z" id="boundary" inkscape:connector-curvature="0" />
	<path style="fill:none;stroke:red;stroke-width:1px;stroke-linecap:butt;stroke-linejoin:miter;stroke-opacity:1" d="M 273.923,213.376 303.396,222.766 z" id="boundary" inkscape:connector-curvature="0" />
	<path style="fill:none;stroke:red;stroke-width:1px;stroke-linecap:butt;stroke-linejoin:miter;stroke-opacity:1" d="M 346.853,30.1786 398.639,62.1598 z" id="boundary" inkscape:connector-curvature="0" />
	<path style="fill:none;stroke:red;stroke-width:1px;stroke-linecap:butt;stroke-linejoin:miter;stroke-opacity:1" d="M 374.633,129.709 347.322,107.041 z" id="boundary" inkscape:connector-curvature="0" />
	<path style="fill:none;stroke:red;stroke-width:1px;stroke-linecap:butt;stroke-linejoin:miter;stroke-opacity:1" d="M 395.329,134.054 374.633,129.709 z" id="boundary" inkscape:connector-curvature="0" />
	<path style="fill:none;stroke:red;stroke-width:1px;stroke-linecap:butt;stroke-linejoin:miter;stroke-opacity:1" d="M 333.516,232.384 325.905,230.894 z" id="boundary" inkscape:connector-curvature="0" />
	<path style="fill:none;stroke:red;stroke-width:1px;stroke-linecap:butt;stroke-linejoin:miter;stroke-opacity:1" d="M 325.905,230.894 303.396,222.766 z" id="boundary" inkscape:connector-curvature="0" />
	<path style="fill:none;stroke:red;stroke-width:1px;stroke-linecap:butt;stroke-linejoin:miter;stroke-opacity:1" d="M 318.35,171.221 342.411,206.273 z" id="boundary" inkscape:connector-curvature="0" />
	<path style="fill:none;stroke:red;stroke-width:1px;stroke-linecap:butt;stroke-linejoin:miter;stroke-opacity:1" d="M 395.329,134.054 423.778,152.324 z" id="boundary" inkscape:connector-curvature="0" />
	<path style="fill:none;stroke:red;stroke-width:1px;stroke-linecap:butt;stroke-linejoin:miter;stroke-opacity:1" d="M 342.411,206.273 371.818,236.662 z" id="boundary" inkscape:connector-curvature="0" />
	<path style="fill:none;stroke:red;stroke-width:1px;stroke-linecap:butt;stroke-linejoin:miter;stroke-opacity:1" d="M 398.639,62.1598 435.572,74.8494 z" id="boundary" inkscape:connector-curvature="0" />
	<path style="fill:none;stroke:red;stroke-width:1px;stroke-linecap:butt;stroke-linejoin:miter;stroke-opacity:1" d="M 317.693,283.238 325.05,304.787 z" id="boundary" inkscape:connector-curvature="0" />
	<path style="fill:none;stroke:red;stroke-width:1px;stroke-linecap:butt;stroke-linejoin:miter;stroke-opacity:1" d="M 325.05,304.787 324.565,317.762 z" id="boundary" inkscape:connector-curvature="0" />
	<path style="fill:none;stroke:red;stroke-width:1px;stroke-linecap:butt;stroke-linejoin:miter;stroke-opacity:1" d="M 325.062,366.387 311.088,347.66 z" id="boundary" inkscape:connector-curvature="0" />
	<path style="fill:none;stroke:red;stroke-width:1px;stroke-linecap:butt;stroke-linejoin:miter;stroke-opacity:1" d="M 372.694,354.35 347.262,365.733 z" id="boundary" inkscape:connector-curvature="0" />
	<path style="fill:none;stroke:red;stroke-width:1px;stroke-linecap:butt;stroke-linejoin:miter;stroke-opacity:1" d="M 311.088,347.66 324.565,317.762 z" id="boundary" inkscape:connector-curvature="0" />
	<path style="fill:none;stroke:red;stroke-width:1px;stroke-linecap:butt;stroke-linejoin:miter;stroke-opacity:1" d="M 325.062,366.387 319.077,392.217 z" id="boundary" inkscape:connector-curvature="0" />
	<path style="fill:none;stroke:red;stroke-width:1px;stroke-linecap:butt;stroke-linejoin:miter;stroke-opacity:1" d="M 371.818,236.662 379.283,263.043 z" id="boundary" inkscape:connector-curvature="0" />
	<path style="fill:none;stroke:red;stroke-width:1px;stroke-linecap:butt;stroke-linejoin:miter;stroke-opacity:1" d="M 400.348,305.451 378.205,299.335 z" id="boundary" inkscape:connector-curvature="0" />
	<path style="fill:none;stroke:red;stroke-width:1px;stroke-linecap:butt;stroke-linejoin:miter;stroke-opacity:1" d="M 378.205,299.335 376.617,278.65 z" id="boundary" inkscape:connector-curvature="0" />
	<path style="fill:none;stroke:red;stroke-width:1px;stroke-linecap:butt;stroke-linejoin:miter;stroke-opacity:1" d="M 379.283,263.043 376.617,278.65 z" id="boundary" inkscape:connector-curvature="0" />
	<path style="fill:none;stroke:red;stroke-width:1px;stroke-linecap:butt;stroke-linejoin:miter;stroke-opacity:1" d="M 421.976,243.379 425.995,249.659 z" id="boundary" inkscape:connector-curvature="0" />
	<path style="fill:none;stroke:red;stroke-width:1px;stroke-linecap:butt;stroke-linejoin:miter;stroke-opacity:1" d="M 425.995,249.659 413.581,273.692 z" id="boundary" inkscape:connector-curvature="0" />
	<path style="fill:none;stroke:red;stroke-width:1px;stroke-linecap:butt;stroke-linejoin:miter;stroke-opacity:1" d="M 403.962,362.839 401.298,379.522 z" id="boundary" inkscape:connector-curvature="0" />
	<path style="fill:none;stroke:red;stroke-width:1px;stroke-linecap:butt;stroke-linejoin:miter;stroke-opacity:1" d="M 400.348,305.451 404.257,342.645 z" id="boundary" inkscape:connector-curvature="0" />
	<path style="fill:none;stroke:red;stroke-width:1px;stroke-linecap:butt;stroke-linejoin:miter;stroke-opacity:1" d="M 403.962,362.839 404.257,342.645 z" id="boundary" inkscape:connector-curvature="0" />
	<path style="fill:none;stroke:red;stroke-width:1px;stroke-linecap:butt;stroke-linejoin:miter;stroke-opacity:1" d="M 441.48,388.104 422.39,402.411 z" id="boundary" inkscape:connector-curvature="0" />
	<path style="fill:none;stroke:red;stroke-width:1px;stroke-linecap:butt;stroke-linejoin:miter;stroke-opacity:1" d="M 191.969,413.593 191.909,410.463 z" id="boundary" inkscape:connector-curvature="0" />
	<path style="fill:none;stroke:red;stroke-width:1px;stroke-linecap:butt;stroke-linejoin:miter;stroke-opacity:1" d="M 191.909,410.463 207.551,398.323 z" id="boundary" inkscape:connector-curvature="0" />
	<path style="fill:none;stroke:red;stroke-width:1px;stroke-linecap:butt;stroke-linejoin:miter;stroke-opacity:1" d="M 219.022,391.715 259.537,388.637 z" id="boundary" inkscape:connector-curvature="0" />
	<path style="fill:none;stroke:red;stroke-width:1px;stroke-linecap:butt;stroke-linejoin:miter;stroke-opacity:1" d="M 207.551,398.323 219.022,391.715 z" id="boundary" inkscape:connector-curvature="0" />
	<path style="fill:none;stroke:red;stroke-width:1px;stroke-linecap:butt;stroke-linejoin:miter;stroke-opacity:1" d="M 191.969,413.593 216.616,451.987 z" id="boundary" inkscape:connector-curvature="0" />
	<path style="fill:none;stroke:red;stroke-width:1px;stroke-linecap:butt;stroke-linejoin:miter;stroke-opacity:1" d="M 216.616,451.987 229.93,464.058 z" id="boundary" inkscape:connector-curvature="0" />
	<path style="fill:none;stroke:red;stroke-width:1px;stroke-linecap:butt;stroke-linejoin:miter;stroke-opacity:1" d="M 153.388,378.756 210.029,504.337 z" id="boundary" inkscape:connector-curvature="0" />
	<path style="fill:none;stroke:red;stroke-width:1px;stroke-linecap:butt;stroke-linejoin:miter;stroke-opacity:1" d="M 229.93,464.058 254.637,481.718 z" id="boundary" inkscape:connector-curvature="0" />
	<path style="fill:none;stroke:red;stroke-width:1px;stroke-linecap:butt;stroke-linejoin:miter;stroke-opacity:1" d="M 244.45,526.517 234.075,529.328 z" id="boundary" inkscape:connector-curvature="0" />
	<path style="fill:none;stroke:red;stroke-width:1px;stroke-linecap:butt;stroke-linejoin:miter;stroke-opacity:1" d="M 234.075,529.328 210.029,504.337 z" id="boundary" inkscape:connector-curvature="0" />
	<path style="fill:none;stroke:red;stroke-width:1px;stroke-linecap:butt;stroke-linejoin:miter;stroke-opacity:1" d="M 275.613,398.81 268.411,433.532 z" id="boundary" inkscape:connector-curvature="0" />
	<path style="fill:none;stroke:red;stroke-width:1px;stroke-linecap:butt;stroke-linejoin:miter;stroke-opacity:1" d="M 259.537,388.637 268.38,387.49 z" id="boundary" inkscape:connector-curvature="0" />
	<path style="fill:none;stroke:red;stroke-width:1px;stroke-linecap:butt;stroke-linejoin:miter;stroke-opacity:1" d="M 268.38,387.49 270.018,389.761 z" id="boundary" inkscape:connector-curvature="0" />
	<path style="fill:none;stroke:red;stroke-width:1px;stroke-linecap:butt;stroke-linejoin:miter;stroke-opacity:1" d="M 275.613,398.81 270.018,389.761 z" id="boundary" inkscape:connector-curvature="0" />
	<path style="fill:none;stroke:red;stroke-width:1px;stroke-linecap:butt;stroke-linejoin:miter;stroke-opacity:1" d="M 319.077,392.217 332.146,438.809 z" id="boundary" inkscape:connector-curvature="0" />
	<path style="fill:none;stroke:red;stroke-width:1px;stroke-linecap:butt;stroke-linejoin:miter;stroke-opacity:1" d="M 254.637,481.718 288.303,492.716 z" id="boundary" inkscape:connector-curvature="0" />
	<path style="fill:none;stroke:red;stroke-width:1px;stroke-linecap:butt;stroke-linejoin:miter;stroke-opacity:1" d="M 304.954,524.71 271.011,522.277 z" id="boundary" inkscape:connector-curvature="0" />
	<path style="fill:none;stroke:red;stroke-width:1px;stroke-linecap:butt;stroke-linejoin:miter;stroke-opacity:1" d="M 271.011,522.277 244.45,526.517 z" id="boundary" inkscape:connector-curvature="0" />
	<path style="fill:none;stroke:red;stroke-width:1px;stroke-linecap:butt;stroke-linejoin:miter;stroke-opacity:1" d="M 288.303,492.716 312.583,505.598 z" id="boundary" inkscape:connector-curvature="0" />
	<path style="fill:none;stroke:red;stroke-width:1px;stroke-linecap:butt;stroke-linejoin:miter;stroke-opacity:1" d="M 306.731,528.965 312.583,505.598 z" id="boundary" inkscape:connector-curvature="0" />
	<path style="fill:none;stroke:red;stroke-width:1px;stroke-linecap:butt;stroke-linejoin:miter;stroke-opacity:1" d="M 261.816,586.983 242.652,608.99 z" id="boundary" inkscape:connector-curvature="0" />
	<path style="fill:none;stroke:red;stroke-width:1px;stroke-linecap:butt;stroke-linejoin:miter;stroke-opacity:1" d="M 242.652,608.99 226.949,637.437 z" id="boundary" inkscape:connector-curvature="0" />
	<path style="fill:none;stroke:red;stroke-width:1px;stroke-linecap:butt;stroke-linejoin:miter;stroke-opacity:1" d="M 261.816,586.983 277.421,578.94 z" id="boundary" inkscape:connector-curvature="0" />
	<path style="fill:none;stroke:red;stroke-width:1px;stroke-linecap:butt;stroke-linejoin:miter;stroke-opacity:1" d="M 269.892,700.192 226.949,637.437 z" id="boundary" inkscape:connector-curvature="0" />
	<path style="fill:none;stroke:red;stroke-width:1px;stroke-linecap:butt;stroke-linejoin:miter;stroke-opacity:1" d="M 269.892,700.192 297.187,739.142 z" id="boundary" inkscape:connector-curvature="0" />
	<path style="fill:none;stroke:red;stroke-width:1px;stroke-linecap:butt;stroke-linejoin:miter;stroke-opacity:1" d="M 299.891,548.581 303.578,533.056 z" id="boundary" inkscape:connector-curvature="0" />
	<path style="fill:none;stroke:red;stroke-width:1px;stroke-linecap:butt;stroke-linejoin:miter;stroke-opacity:1" d="M 303.578,533.056 306.731,528.965 z" id="boundary" inkscape:connector-curvature="0" />
	<path style="fill:none;stroke:red;stroke-width:1px;stroke-linecap:butt;stroke-linejoin:miter;stroke-opacity:1" d="M 369.995,565.489 332.342,590.332 z" id="boundary" inkscape:connector-curvature="0" />
	<path style="fill:none;stroke:red;stroke-width:1px;stroke-linecap:butt;stroke-linejoin:miter;stroke-opacity:1" d="M 332.342,590.332 325.378,603.083 z" id="boundary" inkscape:connector-curvature="0" />
	<path style="fill:none;stroke:red;stroke-width:1px;stroke-linecap:butt;stroke-linejoin:miter;stroke-opacity:1" d="M 297.187,739.142 333.189,760.278 z" id="boundary" inkscape:connector-curvature="0" />
	<path style="fill:none;stroke:red;stroke-width:1px;stroke-linecap:butt;stroke-linejoin:miter;stroke-opacity:1" d="M 333.189,760.278 319.76,774.646 z" id="boundary" inkscape:connector-curvature="0" />
	<path style="fill:none;stroke:red;stroke-width:1px;stroke-linecap:butt;stroke-linejoin:miter;stroke-opacity:1" d="M 332.56,629.061 304.589,632.298 z" id="boundary" inkscape:connector-curvature="0" />
	<path style="fill:none;stroke:red;stroke-width:1px;stroke-linecap:butt;stroke-linejoin:miter;stroke-opacity:1" d="M 304.589,632.298 325.378,603.083 z" id="boundary" inkscape:connector-curvature="0" />
	<path style="fill:none;stroke:red;stroke-width:1px;stroke-linecap:butt;stroke-linejoin:miter;stroke-opacity:1" d="M 319.76,774.646 337.578,789.212 z" id="boundary" inkscape:connector-curvature="0" />
	<path style="fill:none;stroke:red;stroke-width:1px;stroke-linecap:butt;stroke-linejoin:miter;stroke-opacity:1" d="M 358.44,500.387 368.914,488.516 z" id="boundary" inkscape:connector-curvature="0" />
	<path style="fill:none;stroke:red;stroke-width:1px;stroke-linecap:butt;stroke-linejoin:miter;stroke-opacity:1" d="M 354.234,624.926 332.56,629.061 z" id="boundary" inkscape:connector-curvature="0" />
	<path style="fill:none;stroke:red;stroke-width:1px;stroke-linecap:butt;stroke-linejoin:miter;stroke-opacity:1" d="M 354.234,624.926 353.598,636.155 z" id="boundary" inkscape:connector-curvature="0" />
	<path style="fill:none;stroke:red;stroke-width:1px;stroke-linecap:butt;stroke-linejoin:miter;stroke-opacity:1" d="M 358.39,511.068 358.44,500.387 z" id="boundary" inkscape:connector-curvature="0" />
	<path style="fill:none;stroke:red;stroke-width:1px;stroke-linecap:butt;stroke-linejoin:miter;stroke-opacity:1" d="M 390.442,547.755 369.995,565.489 z" id="boundary" inkscape:connector-curvature="0" />
	<path style="fill:none;stroke:red;stroke-width:1px;stroke-linecap:butt;stroke-linejoin:miter;stroke-opacity:1" d="M 390.774,408.867 410.649,414.114 z" id="boundary" inkscape:connector-curvature="0" />
	<path style="fill:none;stroke:red;stroke-width:1px;stroke-linecap:butt;stroke-linejoin:miter;stroke-opacity:1" d="M 390.774,408.867 401.298,379.522 z" id="boundary" inkscape:connector-curvature="0" />
	<path style="fill:none;stroke:red;stroke-width:1px;stroke-linecap:butt;stroke-linejoin:miter;stroke-opacity:1" d="M 410.649,414.114 422.39,402.411 z" id="boundary" inkscape:connector-curvature="0" />
	<path style="fill:none;stroke:red;stroke-width:1px;stroke-linecap:butt;stroke-linejoin:miter;stroke-opacity:1" d="M 423.922,548.878 390.442,547.755 z" id="boundary" inkscape:connector-curvature="0" />
	<path style="fill:none;stroke:red;stroke-width:1px;stroke-linecap:butt;stroke-linejoin:miter;stroke-opacity:1" d="M 368.914,488.516 403.468,472.798 z" id="boundary" inkscape:connector-curvature="0" />
	<path style="fill:none;stroke:red;stroke-width:1px;stroke-linecap:butt;stroke-linejoin:miter;stroke-opacity:1" d="M 403.468,472.798 408.072,469.359 z" id="boundary" inkscape:connector-curvature="0" />
	<path style="fill:none;stroke:red;stroke-width:1px;stroke-linecap:butt;stroke-linejoin:miter;stroke-opacity:1" d="M 339.991,660.683 351.425,669.392 z" id="boundary" inkscape:connector-curvature="0" />
	<path style="fill:none;stroke:red;stroke-width:1px;stroke-linecap:butt;stroke-linejoin:miter;stroke-opacity:1" d="M 351.425,669.392 352.91,688.119 z" id="boundary" inkscape:connector-curvature="0" />
	<path style="fill:none;stroke:red;stroke-width:1px;stroke-linecap:butt;stroke-linejoin:miter;stroke-opacity:1" d="M 354.001,644.188 353.598,636.155 z" id="boundary" inkscape:connector-curvature="0" />
	<path style="fill:none;stroke:red;stroke-width:1px;stroke-linecap:butt;stroke-linejoin:miter;stroke-opacity:1" d="M 353.18,692.933 352.91,688.119 z" id="boundary" inkscape:connector-curvature="0" />
	<path style="fill:none;stroke:red;stroke-width:1px;stroke-linecap:butt;stroke-linejoin:miter;stroke-opacity:1" d="M 346.368,802.323 337.578,789.212 z" id="boundary" inkscape:connector-curvature="0" />
	<path style="fill:none;stroke:red;stroke-width:1px;stroke-linecap:butt;stroke-linejoin:miter;stroke-opacity:1" d="M 348.778,706.345 353.18,692.933 z" id="boundary" inkscape:connector-curvature="0" />
	<path style="fill:none;stroke:red;stroke-width:1px;stroke-linecap:butt;stroke-linejoin:miter;stroke-opacity:1" d="M 318.209,728.915 348.074,737.575 z" id="boundary" inkscape:connector-curvature="0" />
	<path style="fill:none;stroke:red;stroke-width:1px;stroke-linecap:butt;stroke-linejoin:miter;stroke-opacity:1" d="M 366.576,745.882 348.074,737.575 z" id="boundary" inkscape:connector-curvature="0" />
	<path style="fill:none;stroke:red;stroke-width:1px;stroke-linecap:butt;stroke-linejoin:miter;stroke-opacity:1" d="M 450.533,782.185 424.77,796.246 z" id="boundary" inkscape:connector-curvature="0" />
	<path style="fill:none;stroke:red;stroke-width:1px;stroke-linecap:butt;stroke-linejoin:miter;stroke-opacity:1" d="M 401.978,752.111 366.576,745.882 z" id="boundary" inkscape:connector-curvature="0" />
	<path style="fill:none;stroke:red;stroke-width:1px;stroke-linecap:butt;stroke-linejoin:miter;stroke-opacity:1" d="M 403.242,780.174 401.978,752.111 z" id="boundary" inkscape:connector-curvature="0" />
	<path style="fill:none;stroke:red;stroke-width:1px;stroke-linecap:butt;stroke-linejoin:miter;stroke-opacity:1" d="M 402.298,834.474 396.314,842.672 z" id="boundary" inkscape:connector-curvature="0" />
	<path style="fill:none;stroke:red;stroke-width:1px;stroke-linecap:butt;stroke-linejoin:miter;stroke-opacity:1" d="M 424.77,796.246 402.298,834.474 z" id="boundary" inkscape:connector-curvature="0" />
	<path style="fill:none;stroke:red;stroke-width:1px;stroke-linecap:butt;stroke-linejoin:miter;stroke-opacity:1" d="M 478.712,149.117 423.778,152.324 z" id="boundary" inkscape:connector-curvature="0" />
	<path style="fill:none;stroke:red;stroke-width:1px;stroke-linecap:butt;stroke-linejoin:miter;stroke-opacity:1" d="M 482.769,74.3933 458.999,107.38 z" id="boundary" inkscape:connector-curvature="0" />
	<path style="fill:none;stroke:red;stroke-width:1px;stroke-linecap:butt;stroke-linejoin:miter;stroke-opacity:1" d="M 466.195,217.752 467.026,204.899 z" id="boundary" inkscape:connector-curvature="0" />
	<path style="fill:none;stroke:red;stroke-width:1px;stroke-linecap:butt;stroke-linejoin:miter;stroke-opacity:1" d="M 478.712,149.117 511.423,160.488 z" id="boundary" inkscape:connector-curvature="0" />
	<path style="fill:none;stroke:red;stroke-width:1px;stroke-linecap:butt;stroke-linejoin:miter;stroke-opacity:1" d="M 512.929,203.795 492.931,221.33 z" id="boundary" inkscape:connector-curvature="0" />
	<path style="fill:none;stroke:red;stroke-width:1px;stroke-linecap:butt;stroke-linejoin:miter;stroke-opacity:1" d="M 511.423,160.488 550.389,166.293 z" id="boundary" inkscape:connector-curvature="0" />
	<path style="fill:none;stroke:red;stroke-width:1px;stroke-linecap:butt;stroke-linejoin:miter;stroke-opacity:1" d="M 472.407,231.149 466.195,217.752 z" id="boundary" inkscape:connector-curvature="0" />
	<path style="fill:none;stroke:red;stroke-width:1px;stroke-linecap:butt;stroke-linejoin:miter;stroke-opacity:1" d="M 551.26,114.784 548.636,134.052 z" id="boundary" inkscape:connector-curvature="0" />
	<path style="fill:none;stroke:red;stroke-width:1px;stroke-linecap:butt;stroke-linejoin:miter;stroke-opacity:1" d="M 571.564,137.59 548.636,134.052 z" id="boundary" inkscape:connector-curvature="0" />
	<path style="fill:none;stroke:red;stroke-width:1px;stroke-linecap:butt;stroke-linejoin:miter;stroke-opacity:1" d="M 577.566,55.9535 553.678,54.3543 z" id="boundary" inkscape:connector-curvature="0" />
	<path style="fill:none;stroke:red;stroke-width:1px;stroke-linecap:butt;stroke-linejoin:miter;stroke-opacity:1" d="M 553.678,54.3543 550.612,35.1028 z" id="boundary" inkscape:connector-curvature="0" />
	<path style="fill:none;stroke:red;stroke-width:1px;stroke-linecap:butt;stroke-linejoin:miter;stroke-opacity:1" d="M 571.564,137.59 583.523,142.633 z" id="boundary" inkscape:connector-curvature="0" />
	<path style="fill:none;stroke:red;stroke-width:1px;stroke-linecap:butt;stroke-linejoin:miter;stroke-opacity:1" d="M 589.602,55.9833 577.566,55.9535 z" id="boundary" inkscape:connector-curvature="0" />
	<path style="fill:none;stroke:red;stroke-width:1px;stroke-linecap:butt;stroke-linejoin:miter;stroke-opacity:1" d="M 571.53,189.044 546.666,224.369 z" id="boundary" inkscape:connector-curvature="0" />
	<path style="fill:none;stroke:red;stroke-width:1px;stroke-linecap:butt;stroke-linejoin:miter;stroke-opacity:1" d="M 566.18,167.788 550.389,166.293 z" id="boundary" inkscape:connector-curvature="0" />
	<path style="fill:none;stroke:red;stroke-width:1px;stroke-linecap:butt;stroke-linejoin:miter;stroke-opacity:1" d="M 572.679,170.279 578.774,182.395 z" id="boundary" inkscape:connector-curvature="0" />
	<path style="fill:none;stroke:red;stroke-width:1px;stroke-linecap:butt;stroke-linejoin:miter;stroke-opacity:1" d="M 578.774,182.395 571.53,189.044 z" id="boundary" inkscape:connector-curvature="0" />
	<path style="fill:none;stroke:red;stroke-width:1px;stroke-linecap:butt;stroke-linejoin:miter;stroke-opacity:1" d="M 566.18,167.788 572.679,170.279 z" id="boundary" inkscape:connector-curvature="0" />
	<path style="fill:none;stroke:red;stroke-width:1px;stroke-linecap:butt;stroke-linejoin:miter;stroke-opacity:1" d="M 546.666,224.369 527.003,232.484 z" id="boundary" inkscape:connector-curvature="0" />
	<path style="fill:none;stroke:red;stroke-width:1px;stroke-linecap:butt;stroke-linejoin:miter;stroke-opacity:1" d="M 477.503,250.332 472.407,231.149 z" id="boundary" inkscape:connector-curvature="0" />
	<path style="fill:none;stroke:red;stroke-width:1px;stroke-linecap:butt;stroke-linejoin:miter;stroke-opacity:1" d="M 477.503,250.332 494.803,258.201 z" id="boundary" inkscape:connector-curvature="0" />
	<path style="fill:none;stroke:red;stroke-width:1px;stroke-linecap:butt;stroke-linejoin:miter;stroke-opacity:1" d="M 482.143,240.797 492.931,221.33 z" id="boundary" inkscape:connector-curvature="0" />
	<path style="fill:none;stroke:red;stroke-width:1px;stroke-linecap:butt;stroke-linejoin:miter;stroke-opacity:1" d="M 491.25,294.581 459.219,301.81 z" id="boundary" inkscape:connector-curvature="0" />
	<path style="fill:none;stroke:red;stroke-width:1px;stroke-linecap:butt;stroke-linejoin:miter;stroke-opacity:1" d="M 459.219,301.81 427.334,308.309 z" id="boundary" inkscape:connector-curvature="0" />
	<path style="fill:none;stroke:red;stroke-width:1px;stroke-linecap:butt;stroke-linejoin:miter;stroke-opacity:1" d="M 494.803,258.201 527.068,265.101 z" id="boundary" inkscape:connector-curvature="0" />
	<path style="fill:none;stroke:red;stroke-width:1px;stroke-linecap:butt;stroke-linejoin:miter;stroke-opacity:1" d="M 527.068,265.101 552.014,291.975 z" id="boundary" inkscape:connector-curvature="0" />
	<path style="fill:none;stroke:red;stroke-width:1px;stroke-linecap:butt;stroke-linejoin:miter;stroke-opacity:1" d="M 552.014,291.975 577.141,320.915 z" id="boundary" inkscape:connector-curvature="0" />
	<path style="fill:none;stroke:red;stroke-width:1px;stroke-linecap:butt;stroke-linejoin:miter;stroke-opacity:1" d="M 542.237,348.182 530.657,339.091 z" id="boundary" inkscape:connector-curvature="0" />
	<path style="fill:none;stroke:red;stroke-width:1px;stroke-linecap:butt;stroke-linejoin:miter;stroke-opacity:1" d="M 517.465,340.685 530.657,339.091 z" id="boundary" inkscape:connector-curvature="0" />
	<path style="fill:none;stroke:red;stroke-width:1px;stroke-linecap:butt;stroke-linejoin:miter;stroke-opacity:1" d="M 566.401,391.206 563.197,396.928 z" id="boundary" inkscape:connector-curvature="0" />
	<path style="fill:none;stroke:red;stroke-width:1px;stroke-linecap:butt;stroke-linejoin:miter;stroke-opacity:1" d="M 564.928,356.603 544.249,373.88 z" id="boundary" inkscape:connector-curvature="0" />
	<path style="fill:none;stroke:red;stroke-width:1px;stroke-linecap:butt;stroke-linejoin:miter;stroke-opacity:1" d="M 576.393,340.746 564.928,356.603 z" id="boundary" inkscape:connector-curvature="0" />
	<path style="fill:none;stroke:red;stroke-width:1px;stroke-linecap:butt;stroke-linejoin:miter;stroke-opacity:1" d="M 577.141,320.915 589.327,328.34 z" id="boundary" inkscape:connector-curvature="0" />
	<path style="fill:none;stroke:red;stroke-width:1px;stroke-linecap:butt;stroke-linejoin:miter;stroke-opacity:1" d="M 589.327,328.34 576.393,340.746 z" id="boundary" inkscape:connector-curvature="0" />
	<path style="fill:none;stroke:red;stroke-width:1px;stroke-linecap:butt;stroke-linejoin:miter;stroke-opacity:1" d="M 563.197,396.928 553.039,404.795 z" id="boundary" inkscape:connector-curvature="0" />
	<path style="fill:none;stroke:red;stroke-width:1px;stroke-linecap:butt;stroke-linejoin:miter;stroke-opacity:1" d="M 589.602,55.9833 636.54,75.3652 z" id="boundary" inkscape:connector-curvature="0" />
	<path style="fill:none;stroke:red;stroke-width:1px;stroke-linecap:butt;stroke-linejoin:miter;stroke-opacity:1" d="M 652.806,63.3618 636.54,75.3652 z" id="boundary" inkscape:connector-curvature="0" />
	<path style="fill:none;stroke:red;stroke-width:1px;stroke-linecap:butt;stroke-linejoin:miter;stroke-opacity:1" d="M 652.806,63.3618 676.187,48.9102 z" id="boundary" inkscape:connector-curvature="0" />
	<path style="fill:none;stroke:red;stroke-width:1px;stroke-linecap:butt;stroke-linejoin:miter;stroke-opacity:1" d="M 624.685,152.361 619.003,157.97 z" id="boundary" inkscape:connector-curvature="0" />
	<path style="fill:none;stroke:red;stroke-width:1px;stroke-linecap:butt;stroke-linejoin:miter;stroke-opacity:1" d="M 632.389,161.996 619.003,157.97 z" id="boundary" inkscape:connector-curvature="0" />
	<path style="fill:none;stroke:red;stroke-width:1px;stroke-linecap:butt;stroke-linejoin:miter;stroke-opacity:1" d="M 624.685,152.361 640.176,142.789 z" id="boundary" inkscape:connector-curvature="0" />
	<path style="fill:none;stroke:red;stroke-width:1px;stroke-linecap:butt;stroke-linejoin:miter;stroke-opacity:1" d="M 632.389,161.996 640.966,180.771 z" id="boundary" inkscape:connector-curvature="0" />
	<path style="fill:none;stroke:red;stroke-width:1px;stroke-linecap:butt;stroke-linejoin:miter;stroke-opacity:1" d="M 676.187,48.9102 731.798,4 z" id="boundary" inkscape:connector-curvature="0" />
	<path style="fill:none;stroke:red;stroke-width:1px;stroke-linecap:butt;stroke-linejoin:miter;stroke-opacity:1" d="M 731.798,4 776.122,20.4476 z" id="boundary" inkscape:connector-curvature="0" />
	<path style="fill:none;stroke:red;stroke-width:1px;stroke-linecap:butt;stroke-linejoin:miter;stroke-opacity:1" d="M 795.413,35.1638 776.122,20.4476 z" id="boundary" inkscape:connector-curvature="0" />
	<path style="fill:none;stroke:red;stroke-width:1px;stroke-linecap:butt;stroke-linejoin:miter;stroke-opacity:1" d="M 817.269,50.1042 795.413,35.1638 z" id="boundary" inkscape:connector-curvature="0" />
	<path style="fill:none;stroke:red;stroke-width:1px;stroke-linecap:butt;stroke-linejoin:miter;stroke-opacity:1" d="M 758.713,112.203 754.406,119.635 z" id="boundary" inkscape:connector-curvature="0" />
	<path style="fill:none;stroke:red;stroke-width:1px;stroke-linecap:butt;stroke-linejoin:miter;stroke-opacity:1" d="M 758.713,112.203 799.891,80.2309 z" id="boundary" inkscape:connector-curvature="0" />
	<path style="fill:none;stroke:red;stroke-width:1px;stroke-linecap:butt;stroke-linejoin:miter;stroke-opacity:1" d="M 817.269,50.1042 816.611,75.9932 z" id="boundary" inkscape:connector-curvature="0" />
	<path style="fill:none;stroke:red;stroke-width:1px;stroke-linecap:butt;stroke-linejoin:miter;stroke-opacity:1" d="M 816.611,75.9932 799.891,80.2309 z" id="boundary" inkscape:connector-curvature="0" />
	<path style="fill:none;stroke:red;stroke-width:1px;stroke-linecap:butt;stroke-linejoin:miter;stroke-opacity:1" d="M 727.19,170.151 754.406,119.635 z" id="boundary" inkscape:connector-curvature="0" />
	<path style="fill:none;stroke:red;stroke-width:1px;stroke-linecap:butt;stroke-linejoin:miter;stroke-opacity:1" d="M 629.741,299.721 618.439,266.122 z" id="boundary" inkscape:connector-curvature="0" />
	<path style="fill:none;stroke:red;stroke-width:1px;stroke-linecap:butt;stroke-linejoin:miter;stroke-opacity:1" d="M 618.439,266.122 623.376,233.518 z" id="boundary" inkscape:connector-curvature="0" />
	<path style="fill:none;stroke:red;stroke-width:1px;stroke-linecap:butt;stroke-linejoin:miter;stroke-opacity:1" d="M 669.11,213.59 645.726,241.39 z" id="boundary" inkscape:connector-curvature="0" />
	<path style="fill:none;stroke:red;stroke-width:1px;stroke-linecap:butt;stroke-linejoin:miter;stroke-opacity:1" d="M 635.455,203.999 623.376,233.518 z" id="boundary" inkscape:connector-curvature="0" />
	<path style="fill:none;stroke:red;stroke-width:1px;stroke-linecap:butt;stroke-linejoin:miter;stroke-opacity:1" d="M 635.455,203.999 640.966,180.771 z" id="boundary" inkscape:connector-curvature="0" />
	<path style="fill:none;stroke:red;stroke-width:1px;stroke-linecap:butt;stroke-linejoin:miter;stroke-opacity:1" d="M 623.224,345.191 626.315,354.673 z" id="boundary" inkscape:connector-curvature="0" />
	<path style="fill:none;stroke:red;stroke-width:1px;stroke-linecap:butt;stroke-linejoin:miter;stroke-opacity:1" d="M 629.741,299.721 623.224,345.191 z" id="boundary" inkscape:connector-curvature="0" />
	<path style="fill:none;stroke:red;stroke-width:1px;stroke-linecap:butt;stroke-linejoin:miter;stroke-opacity:1" d="M 634.303,361.181 626.315,354.673 z" id="boundary" inkscape:connector-curvature="0" />
	<path style="fill:none;stroke:red;stroke-width:1px;stroke-linecap:butt;stroke-linejoin:miter;stroke-opacity:1" d="M 648.341,332.656 661.437,332.4 z" id="boundary" inkscape:connector-curvature="0" />
	<path style="fill:none;stroke:red;stroke-width:1px;stroke-linecap:butt;stroke-linejoin:miter;stroke-opacity:1" d="M 645.726,241.39 650.717,292.816 z" id="boundary" inkscape:connector-curvature="0" />
	<path style="fill:none;stroke:red;stroke-width:1px;stroke-linecap:butt;stroke-linejoin:miter;stroke-opacity:1" d="M 687.774,203.016 669.11,213.59 z" id="boundary" inkscape:connector-curvature="0" />
	<path style="fill:none;stroke:red;stroke-width:1px;stroke-linecap:butt;stroke-linejoin:miter;stroke-opacity:1" d="M 727.19,170.151 687.774,203.016 z" id="boundary" inkscape:connector-curvature="0" />
	<path style="fill:none;stroke:red;stroke-width:1px;stroke-linecap:butt;stroke-linejoin:miter;stroke-opacity:1" d="M 658.174,313.116 661.437,332.4 z" id="boundary" inkscape:connector-curvature="0" />
	<path style="fill:none;stroke:red;stroke-width:1px;stroke-linecap:butt;stroke-linejoin:miter;stroke-opacity:1" d="M 658.174,313.116 650.717,292.816 z" id="boundary" inkscape:connector-curvature="0" />
	<path style="fill:none;stroke:red;stroke-width:1px;stroke-linecap:butt;stroke-linejoin:miter;stroke-opacity:1" d="M 703.751,254.165 679.468,279.662 z" id="boundary" inkscape:connector-curvature="0" />
	<path style="fill:none;stroke:red;stroke-width:1px;stroke-linecap:butt;stroke-linejoin:miter;stroke-opacity:1" d="M 441.643,438.918 449.548,430.172 z" id="boundary" inkscape:connector-curvature="0" />
	<path style="fill:none;stroke:red;stroke-width:1px;stroke-linecap:butt;stroke-linejoin:miter;stroke-opacity:1" d="M 477.814,400.581 467.497,410.992 z" id="boundary" inkscape:connector-curvature="0" />
	<path style="fill:none;stroke:red;stroke-width:1px;stroke-linecap:butt;stroke-linejoin:miter;stroke-opacity:1" d="M 449.548,430.172 467.497,410.992 z" id="boundary" inkscape:connector-curvature="0" />
	<path style="fill:none;stroke:red;stroke-width:1px;stroke-linecap:butt;stroke-linejoin:miter;stroke-opacity:1" d="M 460.154,476.62 427.979,481.87 z" id="boundary" inkscape:connector-curvature="0" />
	<path style="fill:none;stroke:red;stroke-width:1px;stroke-linecap:butt;stroke-linejoin:miter;stroke-opacity:1" d="M 475.444,565.244 443.721,553.174 z" id="boundary" inkscape:connector-curvature="0" />
	<path style="fill:none;stroke:red;stroke-width:1px;stroke-linecap:butt;stroke-linejoin:miter;stroke-opacity:1" d="M 423.922,548.878 443.721,553.174 z" id="boundary" inkscape:connector-curvature="0" />
	<path style="fill:none;stroke:red;stroke-width:1px;stroke-linecap:butt;stroke-linejoin:miter;stroke-opacity:1" d="M 473.534,638.718 462.305,626.399 z" id="boundary" inkscape:connector-curvature="0" />
	<path style="fill:none;stroke:red;stroke-width:1px;stroke-linecap:butt;stroke-linejoin:miter;stroke-opacity:1" d="M 475.444,565.244 505.256,590.47 z" id="boundary" inkscape:connector-curvature="0" />
	<path style="fill:none;stroke:red;stroke-width:1px;stroke-linecap:butt;stroke-linejoin:miter;stroke-opacity:1" d="M 460.154,476.62 480.763,496.124 z" id="boundary" inkscape:connector-curvature="0" />
	<path style="fill:none;stroke:red;stroke-width:1px;stroke-linecap:butt;stroke-linejoin:miter;stroke-opacity:1" d="M 477.814,400.581 489.13,398.889 z" id="boundary" inkscape:connector-curvature="0" />
	<path style="fill:none;stroke:red;stroke-width:1px;stroke-linecap:butt;stroke-linejoin:miter;stroke-opacity:1" d="M 489.13,398.889 530.075,410.35 z" id="boundary" inkscape:connector-curvature="0" />
	<path style="fill:none;stroke:red;stroke-width:1px;stroke-linecap:butt;stroke-linejoin:miter;stroke-opacity:1" d="M 543.45,520.578 517.585,500.432 z" id="boundary" inkscape:connector-curvature="0" />
	<path style="fill:none;stroke:red;stroke-width:1px;stroke-linecap:butt;stroke-linejoin:miter;stroke-opacity:1" d="M 517.585,500.432 510.162,491.633 z" id="boundary" inkscape:connector-curvature="0" />
	<path style="fill:none;stroke:red;stroke-width:1px;stroke-linecap:butt;stroke-linejoin:miter;stroke-opacity:1" d="M 499.441,648.308 473.534,638.718 z" id="boundary" inkscape:connector-curvature="0" />
	<path style="fill:none;stroke:red;stroke-width:1px;stroke-linecap:butt;stroke-linejoin:miter;stroke-opacity:1" d="M 519.585,663.969 499.441,648.308 z" id="boundary" inkscape:connector-curvature="0" />
	<path style="fill:none;stroke:red;stroke-width:1px;stroke-linecap:butt;stroke-linejoin:miter;stroke-opacity:1" d="M 545.662,559.055 532.282,557.476 z" id="boundary" inkscape:connector-curvature="0" />
	<path style="fill:none;stroke:red;stroke-width:1px;stroke-linecap:butt;stroke-linejoin:miter;stroke-opacity:1" d="M 543.45,520.578 572.867,526.335 z" id="boundary" inkscape:connector-curvature="0" />
	<path style="fill:none;stroke:red;stroke-width:1px;stroke-linecap:butt;stroke-linejoin:miter;stroke-opacity:1" d="M 461.906,692.438 455.286,696.806 z" id="boundary" inkscape:connector-curvature="0" />
	<path style="fill:none;stroke:red;stroke-width:1px;stroke-linecap:butt;stroke-linejoin:miter;stroke-opacity:1" d="M 455.286,696.806 447.735,684.239 z" id="boundary" inkscape:connector-curvature="0" />
	<path style="fill:none;stroke:red;stroke-width:1px;stroke-linecap:butt;stroke-linejoin:miter;stroke-opacity:1" d="M 472.472,697.007 461.906,692.438 z" id="boundary" inkscape:connector-curvature="0" />
	<path style="fill:none;stroke:red;stroke-width:1px;stroke-linecap:butt;stroke-linejoin:miter;stroke-opacity:1" d="M 522.75,731.978 477.806,762.328 z" id="boundary" inkscape:connector-curvature="0" />
	<path style="fill:none;stroke:red;stroke-width:1px;stroke-linecap:butt;stroke-linejoin:miter;stroke-opacity:1" d="M 477.806,762.328 450.533,782.185 z" id="boundary" inkscape:connector-curvature="0" />
	<path style="fill:none;stroke:red;stroke-width:1px;stroke-linecap:butt;stroke-linejoin:miter;stroke-opacity:1" d="M 471.706,938.165 447.969,924.505 z" id="boundary" inkscape:connector-curvature="0" />
	<path style="fill:none;stroke:red;stroke-width:1px;stroke-linecap:butt;stroke-linejoin:miter;stroke-opacity:1" d="M 471.706,938.165 489.67,965.811 z" id="boundary" inkscape:connector-curvature="0" />
	<path style="fill:none;stroke:red;stroke-width:1px;stroke-linecap:butt;stroke-linejoin:miter;stroke-opacity:1" d="M 495.503,976.345 489.67,965.811 z" id="boundary" inkscape:connector-curvature="0" />
	<path style="fill:none;stroke:red;stroke-width:1px;stroke-linecap:butt;stroke-linejoin:miter;stroke-opacity:1" d="M 491.3,889.171 517.094,930.181 z" id="boundary" inkscape:connector-curvature="0" />
	<path style="fill:none;stroke:red;stroke-width:1px;stroke-linecap:butt;stroke-linejoin:miter;stroke-opacity:1" d="M 517.348,880.031 491.3,889.171 z" id="boundary" inkscape:connector-curvature="0" />
	<path style="fill:none;stroke:red;stroke-width:1px;stroke-linecap:butt;stroke-linejoin:miter;stroke-opacity:1" d="M 472.472,697.007 510.332,707.159 z" id="boundary" inkscape:connector-curvature="0" />
	<path style="fill:none;stroke:red;stroke-width:1px;stroke-linecap:butt;stroke-linejoin:miter;stroke-opacity:1" d="M 510.332,707.159 523.085,691.362 z" id="boundary" inkscape:connector-curvature="0" />
	<path style="fill:none;stroke:red;stroke-width:1px;stroke-linecap:butt;stroke-linejoin:miter;stroke-opacity:1" d="M 523.085,691.362 538.652,687.123 z" id="boundary" inkscape:connector-curvature="0" />
	<path style="fill:none;stroke:red;stroke-width:1px;stroke-linecap:butt;stroke-linejoin:miter;stroke-opacity:1" d="M 522.75,731.978 533.369,749.242 z" id="boundary" inkscape:connector-curvature="0" />
	<path style="fill:none;stroke:red;stroke-width:1px;stroke-linecap:butt;stroke-linejoin:miter;stroke-opacity:1" d="M 546.064,861.081 517.348,880.031 z" id="boundary" inkscape:connector-curvature="0" />
	<path style="fill:none;stroke:red;stroke-width:1px;stroke-linecap:butt;stroke-linejoin:miter;stroke-opacity:1" d="M 520.76,934.725 517.094,930.181 z" id="boundary" inkscape:connector-curvature="0" />
	<path style="fill:none;stroke:red;stroke-width:1px;stroke-linecap:butt;stroke-linejoin:miter;stroke-opacity:1" d="M 520.76,934.725 530.76,948.43 z" id="boundary" inkscape:connector-curvature="0" />
	<path style="fill:none;stroke:red;stroke-width:1px;stroke-linecap:butt;stroke-linejoin:miter;stroke-opacity:1" d="M 540.106,995.901 495.503,976.345 z" id="boundary" inkscape:connector-curvature="0" />
	<path style="fill:none;stroke:red;stroke-width:1px;stroke-linecap:butt;stroke-linejoin:miter;stroke-opacity:1" d="M 534.651,964.686 548.362,965.782 z" id="boundary" inkscape:connector-curvature="0" />
	<path style="fill:none;stroke:red;stroke-width:1px;stroke-linecap:butt;stroke-linejoin:miter;stroke-opacity:1" d="M 530.76,948.43 534.651,964.686 z" id="boundary" inkscape:connector-curvature="0" />
	<path style="fill:none;stroke:red;stroke-width:1px;stroke-linecap:butt;stroke-linejoin:miter;stroke-opacity:1" d="M 545.662,559.055 557.38,568.748 z" id="boundary" inkscape:connector-curvature="0" />
	<path style="fill:none;stroke:red;stroke-width:1px;stroke-linecap:butt;stroke-linejoin:miter;stroke-opacity:1" d="M 530.075,410.35 553.039,404.795 z" id="boundary" inkscape:connector-curvature="0" />
	<path style="fill:none;stroke:red;stroke-width:1px;stroke-linecap:butt;stroke-linejoin:miter;stroke-opacity:1" d="M 592.892,442.604 578.738,454.541 z" id="boundary" inkscape:connector-curvature="0" />
	<path style="fill:none;stroke:red;stroke-width:1px;stroke-linecap:butt;stroke-linejoin:miter;stroke-opacity:1" d="M 580.139,469.335 580.057,473.527 z" id="boundary" inkscape:connector-curvature="0" />
	<path style="fill:none;stroke:red;stroke-width:1px;stroke-linecap:butt;stroke-linejoin:miter;stroke-opacity:1" d="M 578.738,454.541 580.139,469.335 z" id="boundary" inkscape:connector-curvature="0" />
	<path style="fill:none;stroke:red;stroke-width:1px;stroke-linecap:butt;stroke-linejoin:miter;stroke-opacity:1" d="M 557.38,568.748 572.949,593.822 z" id="boundary" inkscape:connector-curvature="0" />
	<path style="fill:none;stroke:red;stroke-width:1px;stroke-linecap:butt;stroke-linejoin:miter;stroke-opacity:1" d="M 505.256,590.47 565.74,602.932 z" id="boundary" inkscape:connector-curvature="0" />
	<path style="fill:none;stroke:red;stroke-width:1px;stroke-linecap:butt;stroke-linejoin:miter;stroke-opacity:1" d="M 593.9,528.193 572.867,526.335 z" id="boundary" inkscape:connector-curvature="0" />
	<path style="fill:none;stroke:red;stroke-width:1px;stroke-linecap:butt;stroke-linejoin:miter;stroke-opacity:1" d="M 589.163,580.109 572.949,593.822 z" id="boundary" inkscape:connector-curvature="0" />
	<path style="fill:none;stroke:red;stroke-width:1px;stroke-linecap:butt;stroke-linejoin:miter;stroke-opacity:1" d="M 580.751,612.266 565.74,602.932 z" id="boundary" inkscape:connector-curvature="0" />
	<path style="fill:none;stroke:red;stroke-width:1px;stroke-linecap:butt;stroke-linejoin:miter;stroke-opacity:1" d="M 617.673,399.993 629.169,421.913 z" id="boundary" inkscape:connector-curvature="0" />
	<path style="fill:none;stroke:red;stroke-width:1px;stroke-linecap:butt;stroke-linejoin:miter;stroke-opacity:1" d="M 626.126,441.468 629.169,421.913 z" id="boundary" inkscape:connector-curvature="0" />
	<path style="fill:none;stroke:red;stroke-width:1px;stroke-linecap:butt;stroke-linejoin:miter;stroke-opacity:1" d="M 626.126,441.468 613.763,442.591 z" id="boundary" inkscape:connector-curvature="0" />
	<path style="fill:none;stroke:red;stroke-width:1px;stroke-linecap:butt;stroke-linejoin:miter;stroke-opacity:1" d="M 592.892,442.604 613.763,442.591 z" id="boundary" inkscape:connector-curvature="0" />
	<path style="fill:none;stroke:red;stroke-width:1px;stroke-linecap:butt;stroke-linejoin:miter;stroke-opacity:1" d="M 625.75,529.278 593.9,528.193 z" id="boundary" inkscape:connector-curvature="0" />
	<path style="fill:none;stroke:red;stroke-width:1px;stroke-linecap:butt;stroke-linejoin:miter;stroke-opacity:1" d="M 625.75,529.278 589.163,580.109 z" id="boundary" inkscape:connector-curvature="0" />
	<path style="fill:none;stroke:red;stroke-width:1px;stroke-linecap:butt;stroke-linejoin:miter;stroke-opacity:1" d="M 561.449,638.764 559.623,653.303 z" id="boundary" inkscape:connector-curvature="0" />
	<path style="fill:none;stroke:red;stroke-width:1px;stroke-linecap:butt;stroke-linejoin:miter;stroke-opacity:1" d="M 559.623,653.303 570.244,679.98 z" id="boundary" inkscape:connector-curvature="0" />
	<path style="fill:none;stroke:red;stroke-width:1px;stroke-linecap:butt;stroke-linejoin:miter;stroke-opacity:1" d="M 570.244,679.98 538.652,687.123 z" id="boundary" inkscape:connector-curvature="0" />
	<path style="fill:none;stroke:red;stroke-width:1px;stroke-linecap:butt;stroke-linejoin:miter;stroke-opacity:1" d="M 567.103,631.231 561.449,638.764 z" id="boundary" inkscape:connector-curvature="0" />
	<path style="fill:none;stroke:red;stroke-width:1px;stroke-linecap:butt;stroke-linejoin:miter;stroke-opacity:1" d="M 550.029,818.449 577.522,843.413 z" id="boundary" inkscape:connector-curvature="0" />
	<path style="fill:none;stroke:red;stroke-width:1px;stroke-linecap:butt;stroke-linejoin:miter;stroke-opacity:1" d="M 546.064,861.081 552.097,861.113 z" id="boundary" inkscape:connector-curvature="0" />
	<path style="fill:none;stroke:red;stroke-width:1px;stroke-linecap:butt;stroke-linejoin:miter;stroke-opacity:1" d="M 569.851,977.894 548.362,965.782 z" id="boundary" inkscape:connector-curvature="0" />
	<path style="fill:none;stroke:red;stroke-width:1px;stroke-linecap:butt;stroke-linejoin:miter;stroke-opacity:1" d="M 562.757,880.232 590.368,896.268 z" id="boundary" inkscape:connector-curvature="0" />
	<path style="fill:none;stroke:red;stroke-width:1px;stroke-linecap:butt;stroke-linejoin:miter;stroke-opacity:1" d="M 549.772,938.234 578.366,955.436 z" id="boundary" inkscape:connector-curvature="0" />
	<path style="fill:none;stroke:red;stroke-width:1px;stroke-linecap:butt;stroke-linejoin:miter;stroke-opacity:1" d="M 581.65,996 540.106,995.901 z" id="boundary" inkscape:connector-curvature="0" />
	<path style="fill:none;stroke:red;stroke-width:1px;stroke-linecap:butt;stroke-linejoin:miter;stroke-opacity:1" d="M 616.668,926.696 590.368,896.268 z" id="boundary" inkscape:connector-curvature="0" />
	<path style="fill:none;stroke:red;stroke-width:1px;stroke-linecap:butt;stroke-linejoin:miter;stroke-opacity:1" d="M 567.103,631.231 580.751,612.266 z" id="boundary" inkscape:connector-curvature="0" />
	<path style="fill:none;stroke:red;stroke-width:1px;stroke-linecap:butt;stroke-linejoin:miter;stroke-opacity:1" d="M 581.65,996 576.182,977.809 z" id="boundary" inkscape:connector-curvature="0" />
	<path style="fill:none;stroke:red;stroke-width:1px;stroke-linecap:butt;stroke-linejoin:miter;stroke-opacity:1" d="M 578.366,955.436 576.182,977.809 z" id="boundary" inkscape:connector-curvature="0" />
	<path style="fill:none;stroke:red;stroke-width:1px;stroke-linecap:butt;stroke-linejoin:miter;stroke-opacity:1" d="M 616.668,926.696 624.525,962.01 z" id="boundary" inkscape:connector-curvature="0" />
	<circle cx="13.2357" cy="122.143" r="4" fill="#0" id="circle0"/>
	<circle cx="43.486" cy="90.9523" r="4" fill="#0" id="circle1"/>
	<circle cx="61.773" cy="133.981" r="4" fill="#0" id="circle2"/>
	<circle cx="132.8" cy="91.288" r="4" fill="#0" id="circle3"/>
	<circle cx="149.606" cy="131.372" r="4" fill="#0" id="circle4"/>
	<circle cx="138.521" cy="154.635" r="4" fill="#0" id="circle5"/>
	<circle cx="156.568" cy="193.101" r="4" fill="#0" id="circle6"/>
	<circle cx="118.393" cy="185.098" r="4" fill="#0" id="circle7"/>
	<circle cx="145.921" cy="219.222" r="4" fill="#0" id="circle8"/>
	<circle cx="185.773" cy="245.758" r="4" fill="#0" id="circle9"/>
	<circle cx="202.844" cy="293.201" r="4" fill="#0" id="circle10"/>
	<circle cx="199.571" cy="271.417" r="4" fill="#0" id="circle11"/>
	<circle cx="205.813" cy="324.676" r="4" fill="#0" id="circle12"/>
	<circle cx="212.636" cy="366.737" r="4" fill="#0" id="circle13"/>
	<circle cx="153.388" cy="378.756" r="4" fill="#0" id="circle14"/>
	<circle cx="191.67" cy="350.59" r="4" fill="#0" id="circle15"/>
	<circle cx="191.909" cy="410.463" r="4" fill="#0" id="circle16"/>
	<circle cx="191.969" cy="413.593" r="4" fill="#0" id="circle17"/>
	<circle cx="207.551" cy="398.323" r="4" fill="#0" id="circle18"/>
	<circle cx="228.366" cy="431.673" r="4" fill="#0" id="circle19"/>
	<circle cx="216.616" cy="451.987" r="4" fill="#0" id="circle20"/>
	<circle cx="229.93" cy="464.058" r="4" fill="#0" id="circle21"/>
	<circle cx="244.45" cy="526.517" r="4" fill="#0" id="circle22"/>
	<circle cx="210.029" cy="504.337" r="4" fill="#0" id="circle23"/>
	<circle cx="271.011" cy="522.277" r="4" fill="#0" id="circle24"/>
	<circle cx="242.652" cy="608.99" r="4" fill="#0" id="circle25"/>
	<circle cx="275.32" cy="595.639" r="4" fill="#0" id="circle26"/>
	<circle cx="226.949" cy="637.437" r="4" fill="#0" id="circle27"/>
	<circle cx="293.559" cy="683.208" r="4" fill="#0" id="circle28"/>
	<circle cx="269.892" cy="700.192" r="4" fill="#0" id="circle29"/>
	<circle cx="304.589" cy="632.298" r="4" fill="#0" id="circle30"/>
	<circle cx="274.163" cy="639.33" r="4" fill="#0" id="circle31"/>
	<circle cx="339.991" cy="660.683" r="4" fill="#0" id="circle32"/>
	<circle cx="354.001" cy="644.188" r="4" fill="#0" id="circle33"/>
	<circle cx="351.425" cy="669.392" r="4" fill="#0" id="circle34"/>
	<circle cx="348.074" cy="737.575" r="4" fill="#0" id="circle35"/>
	<circle cx="353.18" cy="692.933" r="4" fill="#0" id="circle36"/>
	<circle cx="318.209" cy="728.915" r="4" fill="#0" id="circle37"/>
	<circle cx="366.576" cy="745.882" r="4" fill="#0" id="circle38"/>
	<circle cx="319.76" cy="774.646" r="4" fill="#0" id="circle39"/>
	<circle cx="298.859" cy="790.64" r="4" fill="#0" id="circle40"/>
	<circle cx="297.187" cy="739.142" r="4" fill="#0" id="circle41"/>
	<circle cx="277.701" cy="792.777" r="4" fill="#0" id="circle42"/>
	<circle cx="333.189" cy="760.278" r="4" fill="#0" id="circle43"/>
	<circle cx="337.578" cy="789.212" r="4" fill="#0" id="circle44"/>
	<circle cx="308.592" cy="805.206" r="4" fill="#0" id="circle45"/>
	<circle cx="346.368" cy="802.323" r="4" fill="#0" id="circle46"/>
	<circle cx="380.94" cy="811.872" r="4" fill="#0" id="circle47"/>
	<circle cx="402.298" cy="834.474" r="4" fill="#0" id="circle48"/>
	<circle cx="396.314" cy="842.672" r="4" fill="#0" id="circle49"/>
	<circle cx="447.969" cy="924.505" r="4" fill="#0" id="circle50"/>
	<circle cx="394.693" cy="858.345" r="4" fill="#0" id="circle51"/>
	<circle cx="491.3" cy="889.171" r="4" fill="#0" id="circle52"/>
	<circle cx="471.706" cy="938.165" r="4" fill="#0" id="circle53"/>
	<circle cx="489.67" cy="965.811" r="4" fill="#0" id="circle54"/>
	<circle cx="495.503" cy="976.345" r="4" fill="#0" id="circle55"/>
	<circle cx="540.106" cy="995.901" r="4" fill="#0" id="circle56"/>
	<circle cx="581.65" cy="996" r="4" fill="#0" id="circle57"/>
	<circle cx="576.182" cy="977.809" r="4" fill="#0" id="circle58"/>
	<circle cx="616.668" cy="926.696" r="4" fill="#0" id="circle59"/>
	<circle cx="624.525" cy="962.01" r="4" fill="#0" id="circle60"/>
	<circle cx="590.368" cy="896.268" r="4" fill="#0" id="circle61"/>
	<circle cx="546.064" cy="861.081" r="4" fill="#0" id="circle62"/>
	<circle cx="562.757" cy="880.232" r="4" fill="#0" id="circle63"/>
	<circle cx="552.097" cy="861.113" r="4" fill="#0" id="circle64"/>
	<circle cx="577.522" cy="843.413" r="4" fill="#0" id="circle65"/>
	<circle cx="550.029" cy="818.449" r="4" fill="#0" id="circle66"/>
	<circle cx="576.582" cy="755.982" r="4" fill="#0" id="circle67"/>
	<circle cx="560.313" cy="745.621" r="4" fill="#0" id="circle68"/>
	<circle cx="533.369" cy="749.242" r="4" fill="#0" id="circle69"/>
	<circle cx="522.75" cy="731.978" r="4" fill="#0" id="circle70"/>
	<circle cx="519.585" cy="663.969" r="4" fill="#0" id="circle71"/>
	<circle cx="510.332" cy="707.159" r="4" fill="#0" id="circle72"/>
	<circle cx="461.906" cy="692.438" r="4" fill="#0" id="circle73"/>
	<circle cx="472.472" cy="697.007" r="4" fill="#0" id="circle74"/>
	<circle cx="473.752" cy="727.938" r="4" fill="#0" id="circle75"/>
	<circle cx="538.652" cy="687.123" r="4" fill="#0" id="circle76"/>
	<circle cx="523.085" cy="691.362" r="4" fill="#0" id="circle77"/>
	<circle cx="570.244" cy="679.98" r="4" fill="#0" id="circle78"/>
	<circle cx="553.463" cy="633.969" r="4" fill="#0" id="circle79"/>
	<circle cx="561.449" cy="638.764" r="4" fill="#0" id="circle80"/>
	<circle cx="754.406" cy="119.635" r="4" fill="#0" id="circle81"/>
	<circle cx="674.821" cy="135.399" r="4" fill="#0" id="circle82"/>
	<circle cx="677.28" cy="165.353" r="4" fill="#0" id="circle83"/>
	<circle cx="663.439" cy="194.751" r="4" fill="#0" id="circle84"/>
	<circle cx="669.11" cy="213.59" r="4" fill="#0" id="circle85"/>
	<circle cx="727.19" cy="170.151" r="4" fill="#0" id="circle86"/>
	<circle cx="677.298" cy="243.995" r="4" fill="#0" id="circle87"/>
	<circle cx="703.751" cy="254.165" r="4" fill="#0" id="circle88"/>
	<circle cx="645.726" cy="241.39" r="4" fill="#0" id="circle89"/>
	<circle cx="679.468" cy="279.662" r="4" fill="#0" id="circle90"/>
	<circle cx="658.174" cy="313.116" r="4" fill="#0" id="circle91"/>
	<circle cx="642.4" cy="359.726" r="4" fill="#0" id="circle92"/>
	<circle cx="648.341" cy="332.656" r="4" fill="#0" id="circle93"/>
	<circle cx="661.437" cy="332.4" r="4" fill="#0" id="circle94"/>
	<circle cx="634.303" cy="361.181" r="4" fill="#0" id="circle95"/>
	<circle cx="617.673" cy="399.993" r="4" fill="#0" id="circle96"/>
	<circle cx="667.119" cy="409.38" r="4" fill="#0" id="circle97"/>
	<circle cx="601.66" cy="416.302" r="4" fill="#0" id="circle98"/>
	<circle cx="592.892" cy="442.604" r="4" fill="#0" id="circle99"/>
	<circle cx="580.139" cy="469.335" r="4" fill="#0" id="circle100"/>
	<circle cx="580.057" cy="473.527" r="4" fill="#0" id="circle101"/>
	<circle cx="593.9" cy="528.193" r="4" fill="#0" id="circle102"/>
	<circle cx="625.75" cy="529.278" r="4" fill="#0" id="circle103"/>
	<circle cx="565.74" cy="602.932" r="4" fill="#0" id="circle104"/>
	<circle cx="580.751" cy="612.266" r="4" fill="#0" id="circle105"/>
	<circle cx="572.643" cy="635.811" r="4" fill="#0" id="circle106"/>
	<circle cx="559.623" cy="653.303" r="4" fill="#0" id="circle107"/>
	<circle cx="758.713" cy="112.203" r="4" fill="#0" id="circle108"/>
	<circle cx="799.891" cy="80.2309" r="4" fill="#0" id="circle109"/>
	<circle cx="816.611" cy="75.9932" r="4" fill="#0" id="circle110"/>
	<circle cx="817.269" cy="50.1042" r="4" fill="#0" id="circle111"/>
	<circle cx="40.7079" cy="50.1732" r="4" fill="#0" id="circle112"/>
	<circle cx="4" cy="100.835" r="4" fill="#0" id="circle113"/>
	<circle cx="29.2725" cy="85.1875" r="4" fill="#0" id="circle114"/>
	<circle cx="795.413" cy="35.1638" r="4" fill="#0" id="circle115"/>
	<circle cx="842.82" cy="27.6118" r="4" fill="#0" id="circle116"/>
	<circle cx="49.3579" cy="88.862" r="4" fill="#0" id="circle117"/>
	<circle cx="83.9626" cy="42.4062" r="4" fill="#0" id="circle118"/>
	<circle cx="77.2605" cy="69.6816" r="4" fill="#0" id="circle119"/>
	<circle cx="113.118" cy="51.0492" r="4" fill="#0" id="circle120"/>
	<circle cx="147.803" cy="64.3652" r="4" fill="#0" id="circle121"/>
	<circle cx="165.225" cy="73.5221" r="4" fill="#0" id="circle122"/>
	<circle cx="196.995" cy="84.1222" r="4" fill="#0" id="circle123"/>
	<circle cx="230.825" cy="33.1875" r="4" fill="#0" id="circle124"/>
	<circle cx="235.433" cy="37.5523" r="4" fill="#0" id="circle125"/>
	<circle cx="285.862" cy="69.5187" r="4" fill="#0" id="circle126"/>
	<circle cx="288.393" cy="36.4121" r="4" fill="#0" id="circle127"/>
	<circle cx="307.198" cy="58.7644" r="4" fill="#0" id="circle128"/>
	<circle cx="330.527" cy="68.2027" r="4" fill="#0" id="circle129"/>
	<circle cx="346.853" cy="30.1786" r="4" fill="#0" id="circle130"/>
	<circle cx="398.639" cy="62.1598" r="4" fill="#0" id="circle131"/>
	<circle cx="435.572" cy="74.8494" r="4" fill="#0" id="circle132"/>
	<circle cx="488.631" cy="15.768" r="4" fill="#0" id="circle133"/>
	<circle cx="482.769" cy="74.3933" r="4" fill="#0" id="circle134"/>
	<circle cx="553.678" cy="54.3543" r="4" fill="#0" id="circle135"/>
	<circle cx="550.612" cy="35.1028" r="4" fill="#0" id="circle136"/>
	<circle cx="577.566" cy="55.9535" r="4" fill="#0" id="circle137"/>
	<circle cx="589.602" cy="55.9833" r="4" fill="#0" id="circle138"/>
	<circle cx="652.806" cy="63.3618" r="4" fill="#0" id="circle139"/>
	<circle cx="636.54" cy="75.3652" r="4" fill="#0" id="circle140"/>
	<circle cx="676.187" cy="48.9102" r="4" fill="#0" id="circle141"/>
	<circle cx="753.834" cy="41.0536" r="4" fill="#0" id="circle142"/>
	<circle cx="731.798" cy="4" r="4" fill="#0" id="circle143"/>
	<circle cx="776.122" cy="20.4476" r="4" fill="#0" id="circle144"/>
	<circle cx="222.905" cy="128.246" r="4" fill="#0" id="circle145"/>
	<circle cx="227.308" cy="116.815" r="4" fill="#0" id="circle146"/>
	<circle cx="217.225" cy="106.192" r="4" fill="#0" id="circle147"/>
	<circle cx="249.274" cy="160.474" r="4" fill="#0" id="circle148"/>
	<circle cx="286.133" cy="134.702" r="4" fill="#0" id="circle149"/>
	<circle cx="347.322" cy="107.041" r="4" fill="#0" id="circle150"/>
	<circle cx="327.49" cy="107.432" r="4" fill="#0" id="circle151"/>
	<circle cx="374.633" cy="129.709" r="4" fill="#0" id="circle152"/>
	<circle cx="423.778" cy="152.324" r="4" fill="#0" id="circle153"/>
	<circle cx="395.329" cy="134.054" r="4" fill="#0" id="circle154"/>
	<circle cx="458.999" cy="107.38" r="4" fill="#0" id="circle155"/>
	<circle cx="478.712" cy="149.117" r="4" fill="#0" id="circle156"/>
	<circle cx="526.375" cy="119.707" r="4" fill="#0" id="circle157"/>
	<circle cx="511.423" cy="160.488" r="4" fill="#0" id="circle158"/>
	<circle cx="548.636" cy="134.052" r="4" fill="#0" id="circle159"/>
	<circle cx="551.26" cy="114.784" r="4" fill="#0" id="circle160"/>
	<circle cx="624.685" cy="152.361" r="4" fill="#0" id="circle161"/>
	<circle cx="619.003" cy="157.97" r="4" fill="#0" id="circle162"/>
	<circle cx="667.125" cy="142.001" r="4" fill="#0" id="circle163"/>
	<circle cx="645.47" cy="109.834" r="4" fill="#0" id="circle164"/>
	<circle cx="583.523" cy="142.633" r="4" fill="#0" id="circle165"/>
	<circle cx="571.564" cy="137.59" r="4" fill="#0" id="circle166"/>
	<circle cx="578.774" cy="182.395" r="4" fill="#0" id="circle167"/>
	<circle cx="566.18" cy="167.788" r="4" fill="#0" id="circle168"/>
	<circle cx="197.963" cy="169.804" r="4" fill="#0" id="circle169"/>
	<circle cx="250.482" cy="193.367" r="4" fill="#0" id="circle170"/>
	<circle cx="273.934" cy="157.112" r="4" fill="#0" id="circle171"/>
	<circle cx="276.932" cy="193.586" r="4" fill="#0" id="circle172"/>
	<circle cx="303.396" cy="222.766" r="4" fill="#0" id="circle173"/>
	<circle cx="318.35" cy="171.221" r="4" fill="#0" id="circle174"/>
	<circle cx="325.905" cy="230.894" r="4" fill="#0" id="circle175"/>
	<circle cx="342.411" cy="206.273" r="4" fill="#0" id="circle176"/>
	<circle cx="379.283" cy="263.043" r="4" fill="#0" id="circle177"/>
	<circle cx="371.818" cy="236.662" r="4" fill="#0" id="circle178"/>
	<circle cx="413.581" cy="273.692" r="4" fill="#0" id="circle179"/>
	<circle cx="425.995" cy="249.659" r="4" fill="#0" id="circle180"/>
	<circle cx="421.976" cy="243.379" r="4" fill="#0" id="circle181"/>
	<circle cx="482.143" cy="240.797" r="4" fill="#0" id="circle182"/>
	<circle cx="467.026" cy="204.899" r="4" fill="#0" id="circle183"/>
	<circle cx="466.195" cy="217.752" r="4" fill="#0" id="circle184"/>
	<circle cx="492.931" cy="221.33" r="4" fill="#0" id="circle185"/>
	<circle cx="546.666" cy="224.369" r="4" fill="#0" id="circle186"/>
	<circle cx="151.239" cy="153.37" r="4" fill="#0" id="circle187"/>
	<circle cx="187.867" cy="221.007" r="4" fill="#0" id="circle188"/>
	<circle cx="165.292" cy="165.062" r="4" fill="#0" id="circle189"/>
	<circle cx="250.42" cy="194.063" r="4" fill="#0" id="circle190"/>
	<circle cx="198.581" cy="184.323" r="4" fill="#0" id="circle191"/>
	<circle cx="273.923" cy="213.376" r="4" fill="#0" id="circle192"/>
	<circle cx="247.105" cy="252.387" r="4" fill="#0" id="circle193"/>
	<circle cx="328.437" cy="242.315" r="4" fill="#0" id="circle194"/>
	<circle cx="333.516" cy="232.384" r="4" fill="#0" id="circle195"/>
	<circle cx="317.693" cy="283.238" r="4" fill="#0" id="circle196"/>
	<circle cx="400.348" cy="305.451" r="4" fill="#0" id="circle197"/>
	<circle cx="343.98" cy="266.425" r="4" fill="#0" id="circle198"/>
	<circle cx="302.392" cy="304.243" r="4" fill="#0" id="circle199"/>
	<circle cx="325.05" cy="304.787" r="4" fill="#0" id="circle200"/>
	<circle cx="270.466" cy="321.764" r="4" fill="#0" id="circle201"/>
	<circle cx="247.108" cy="342.029" r="4" fill="#0" id="circle202"/>
	<circle cx="242.881" cy="317.051" r="4" fill="#0" id="circle203"/>
	<circle cx="216.52" cy="348.702" r="4" fill="#0" id="circle204"/>
	<circle cx="169.996" cy="209.497" r="4" fill="#0" id="circle205"/>
	<circle cx="177.968" cy="224.433" r="4" fill="#0" id="circle206"/>
	<circle cx="212.563" cy="223.314" r="4" fill="#0" id="circle207"/>
	<circle cx="230.573" cy="300.129" r="4" fill="#0" id="circle208"/>
	<circle cx="172.485" cy="318.887" r="4" fill="#0" id="circle209"/>
	<circle cx="270.018" cy="389.761" r="4" fill="#0" id="circle210"/>
	<circle cx="266.336" cy="365.629" r="4" fill="#0" id="circle211"/>
	<circle cx="311.088" cy="347.66" r="4" fill="#0" id="circle212"/>
	<circle cx="324.565" cy="317.762" r="4" fill="#0" id="circle213"/>
	<circle cx="325.062" cy="366.387" r="4" fill="#0" id="circle214"/>
	<circle cx="378.205" cy="299.335" r="4" fill="#0" id="circle215"/>
	<circle cx="376.617" cy="278.65" r="4" fill="#0" id="circle216"/>
	<circle cx="427.334" cy="308.309" r="4" fill="#0" id="circle217"/>
	<circle cx="458.666" cy="289.61" r="4" fill="#0" id="circle218"/>
	<circle cx="491.25" cy="294.581" r="4" fill="#0" id="circle219"/>
	<circle cx="459.219" cy="301.81" r="4" fill="#0" id="circle220"/>
	<circle cx="530.657" cy="339.091" r="4" fill="#0" id="circle221"/>
	<circle cx="542.237" cy="348.182" r="4" fill="#0" id="circle222"/>
	<circle cx="564.928" cy="356.603" r="4" fill="#0" id="circle223"/>
	<circle cx="566.401" cy="391.206" r="4" fill="#0" id="circle224"/>
	<circle cx="530.075" cy="410.35" r="4" fill="#0" id="circle225"/>
	<circle cx="343.043" cy="380.926" r="4" fill="#0" id="circle226"/>
	<circle cx="372.694" cy="354.35" r="4" fill="#0" id="circle227"/>
	<circle cx="403.962" cy="362.839" r="4" fill="#0" id="circle228"/>
	<circle cx="404.257" cy="342.645" r="4" fill="#0" id="circle229"/>
	<circle cx="422.161" cy="352.784" r="4" fill="#0" id="circle230"/>
	<circle cx="441.48" cy="388.104" r="4" fill="#0" id="circle231"/>
	<circle cx="467.497" cy="410.992" r="4" fill="#0" id="circle232"/>
	<circle cx="492.303" cy="348.307" r="4" fill="#0" id="circle233"/>
	<circle cx="505.152" cy="363.36" r="4" fill="#0" id="circle234"/>
	<circle cx="231.665" cy="413.216" r="4" fill="#0" id="circle235"/>
	<circle cx="268.38" cy="387.49" r="4" fill="#0" id="circle236"/>
	<circle cx="259.537" cy="388.637" r="4" fill="#0" id="circle237"/>
	<circle cx="332.146" cy="438.809" r="4" fill="#0" id="circle238"/>
	<circle cx="360.959" cy="386.121" r="4" fill="#0" id="circle239"/>
	<circle cx="375.733" cy="389.191" r="4" fill="#0" id="circle240"/>
	<circle cx="363.358" cy="394.94" r="4" fill="#0" id="circle241"/>
	<circle cx="441.643" cy="438.918" r="4" fill="#0" id="circle242"/>
	<circle cx="416.968" cy="435.172" r="4" fill="#0" id="circle243"/>
	<circle cx="390.774" cy="408.867" r="4" fill="#0" id="circle244"/>
	<circle cx="426.25" cy="467.691" r="4" fill="#0" id="circle245"/>
	<circle cx="389.879" cy="447.675" r="4" fill="#0" id="circle246"/>
	<circle cx="390.929" cy="511.17" r="4" fill="#0" id="circle247"/>
	<circle cx="234.075" cy="529.328" r="4" fill="#0" id="circle248"/>
	<circle cx="312.583" cy="505.598" r="4" fill="#0" id="circle249"/>
	<circle cx="288.303" cy="492.716" r="4" fill="#0" id="circle250"/>
	<circle cx="306.731" cy="528.965" r="4" fill="#0" id="circle251"/>
	<circle cx="368.914" cy="488.516" r="4" fill="#0" id="circle252"/>
	<circle cx="358.44" cy="500.387" r="4" fill="#0" id="circle253"/>
	<circle cx="219.022" cy="391.715" r="4" fill="#0" id="circle254"/>
	<circle cx="268.411" cy="433.532" r="4" fill="#0" id="circle255"/>
	<circle cx="238.824" cy="410.889" r="4" fill="#0" id="circle256"/>
	<circle cx="254.637" cy="481.718" r="4" fill="#0" id="circle257"/>
	<circle cx="401.298" cy="379.522" r="4" fill="#0" id="circle258"/>
	<circle cx="410.649" cy="414.114" r="4" fill="#0" id="circle259"/>
	<circle cx="422.39" cy="402.411" r="4" fill="#0" id="circle260"/>
	<circle cx="403.468" cy="472.798" r="4" fill="#0" id="circle261"/>
	<circle cx="408.072" cy="469.359" r="4" fill="#0" id="circle262"/>
	<circle cx="423.843" cy="477.797" r="4" fill="#0" id="circle263"/>
	<circle cx="427.979" cy="481.87" r="4" fill="#0" id="circle264"/>
	<circle cx="480.763" cy="496.124" r="4" fill="#0" id="circle265"/>
	<circle cx="504.669" cy="528.848" r="4" fill="#0" id="circle266"/>
	<circle cx="460.154" cy="476.62" r="4" fill="#0" id="circle267"/>
	<circle cx="510.162" cy="491.633" r="4" fill="#0" id="circle268"/>
	<circle cx="560.973" cy="497.48" r="4" fill="#0" id="circle269"/>
	<circle cx="569.307" cy="498.813" r="4" fill="#0" id="circle270"/>
	<circle cx="449.548" cy="430.172" r="4" fill="#0" id="circle271"/>
	<circle cx="468.651" cy="438.803" r="4" fill="#0" id="circle272"/>
	<circle cx="477.814" cy="400.581" r="4" fill="#0" id="circle273"/>
	<circle cx="489.13" cy="398.889" r="4" fill="#0" id="circle274"/>
	<circle cx="563.197" cy="396.928" r="4" fill="#0" id="circle275"/>
	<circle cx="551.727" cy="431.868" r="4" fill="#0" id="circle276"/>
	<circle cx="553.039" cy="404.795" r="4" fill="#0" id="circle277"/>
	<circle cx="590.313" cy="398.786" r="4" fill="#0" id="circle278"/>
	<circle cx="629.169" cy="421.913" r="4" fill="#0" id="circle279"/>
	<circle cx="613.763" cy="442.591" r="4" fill="#0" id="circle280"/>
	<circle cx="626.126" cy="441.468" r="4" fill="#0" id="circle281"/>
	<circle cx="578.738" cy="454.541" r="4" fill="#0" id="circle282"/>
	<circle cx="576.144" cy="501.181" r="4" fill="#0" id="circle283"/>
	<circle cx="472.407" cy="231.149" r="4" fill="#0" id="circle284"/>
	<circle cx="519.121" cy="313.514" r="4" fill="#0" id="circle285"/>
	<circle cx="477.503" cy="250.332" r="4" fill="#0" id="circle286"/>
	<circle cx="527.068" cy="265.101" r="4" fill="#0" id="circle287"/>
	<circle cx="512.929" cy="203.795" r="4" fill="#0" id="circle288"/>
	<circle cx="527.003" cy="232.484" r="4" fill="#0" id="circle289"/>
	<circle cx="571.53" cy="189.044" r="4" fill="#0" id="circle290"/>
	<circle cx="550.389" cy="166.293" r="4" fill="#0" id="circle291"/>
	<circle cx="572.679" cy="170.279" r="4" fill="#0" id="circle292"/>
	<circle cx="640.966" cy="180.771" r="4" fill="#0" id="circle293"/>
	<circle cx="667.808" cy="173.653" r="4" fill="#0" id="circle294"/>
	<circle cx="632.389" cy="161.996" r="4" fill="#0" id="circle295"/>
	<circle cx="640.176" cy="142.789" r="4" fill="#0" id="circle296"/>
	<circle cx="687.774" cy="203.016" r="4" fill="#0" id="circle297"/>
	<circle cx="635.455" cy="203.999" r="4" fill="#0" id="circle298"/>
	<circle cx="618.439" cy="266.122" r="4" fill="#0" id="circle299"/>
	<circle cx="623.376" cy="233.518" r="4" fill="#0" id="circle300"/>
	<circle cx="650.717" cy="292.816" r="4" fill="#0" id="circle301"/>
	<circle cx="629.741" cy="299.721" r="4" fill="#0" id="circle302"/>
	<circle cx="623.224" cy="345.191" r="4" fill="#0" id="circle303"/>
	<circle cx="626.315" cy="354.673" r="4" fill="#0" id="circle304"/>
	<circle cx="494.803" cy="258.201" r="4" fill="#0" id="circle305"/>
	<circle cx="552.014" cy="291.975" r="4" fill="#0" id="circle306"/>
	<circle cx="517.465" cy="340.685" r="4" fill="#0" id="circle307"/>
	<circle cx="576.393" cy="340.746" r="4" fill="#0" id="circle308"/>
	<circle cx="577.141" cy="320.915" r="4" fill="#0" id="circle309"/>
	<circle cx="589.327" cy="328.34" r="4" fill="#0" id="circle310"/>
	<circle cx="303.578" cy="533.056" r="4" fill="#0" id="circle311"/>
	<circle cx="291.796" cy="553.015" r="4" fill="#0" id="circle312"/>
	<circle cx="308.491" cy="577.196" r="4" fill="#0" id="circle313"/>
	<circle cx="318.849" cy="550.174" r="4" fill="#0" id="circle314"/>
	<circle cx="277.421" cy="578.94" r="4" fill="#0" id="circle315"/>
	<circle cx="261.816" cy="586.983" r="4" fill="#0" id="circle316"/>
	<circle cx="332.56" cy="629.061" r="4" fill="#0" id="circle317"/>
	<circle cx="325.378" cy="603.083" r="4" fill="#0" id="circle318"/>
	<circle cx="332.342" cy="590.332" r="4" fill="#0" id="circle319"/>
	<circle cx="386.808" cy="640.664" r="4" fill="#0" id="circle320"/>
	<circle cx="353.598" cy="636.155" r="4" fill="#0" id="circle321"/>
	<circle cx="354.234" cy="624.926" r="4" fill="#0" id="circle322"/>
	<circle cx="384.001" cy="678.717" r="4" fill="#0" id="circle323"/>
	<circle cx="348.778" cy="706.345" r="4" fill="#0" id="circle324"/>
	<circle cx="352.91" cy="688.119" r="4" fill="#0" id="circle325"/>
	<circle cx="363.908" cy="683.856" r="4" fill="#0" id="circle326"/>
	<circle cx="401.978" cy="752.111" r="4" fill="#0" id="circle327"/>
	<circle cx="403.242" cy="780.174" r="4" fill="#0" id="circle328"/>
	<circle cx="389.113" cy="786.023" r="4" fill="#0" id="circle329"/>
	<circle cx="450.533" cy="782.185" r="4" fill="#0" id="circle330"/>
	<circle cx="424.77" cy="796.246" r="4" fill="#0" id="circle331"/>
	<circle cx="477.806" cy="762.328" r="4" fill="#0" id="circle332"/>
	<circle cx="455.286" cy="696.806" r="4" fill="#0" id="circle333"/>
	<circle cx="421.369" cy="713.725" r="4" fill="#0" id="circle334"/>
	<circle cx="447.735" cy="684.239" r="4" fill="#0" id="circle335"/>
	<circle cx="462.305" cy="626.399" r="4" fill="#0" id="circle336"/>
	<circle cx="473.534" cy="638.718" r="4" fill="#0" id="circle337"/>
	<circle cx="505.256" cy="590.47" r="4" fill="#0" id="circle338"/>
	<circle cx="499.441" cy="648.308" r="4" fill="#0" id="circle339"/>
	<circle cx="567.103" cy="631.231" r="4" fill="#0" id="circle340"/>
	<circle cx="543.45" cy="520.578" r="4" fill="#0" id="circle341"/>
	<circle cx="572.867" cy="526.335" r="4" fill="#0" id="circle342"/>
	<circle cx="589.163" cy="580.109" r="4" fill="#0" id="circle343"/>
	<circle cx="572.949" cy="593.822" r="4" fill="#0" id="circle344"/>
	<circle cx="299.891" cy="548.581" r="4" fill="#0" id="circle345"/>
	<circle cx="304.954" cy="524.71" r="4" fill="#0" id="circle346"/>
	<circle cx="369.995" cy="565.489" r="4" fill="#0" id="circle347"/>
	<circle cx="358.39" cy="511.068" r="4" fill="#0" id="circle348"/>
	<circle cx="383.683" cy="520.151" r="4" fill="#0" id="circle349"/>
	<circle cx="390.442" cy="547.755" r="4" fill="#0" id="circle350"/>
	<circle cx="423.922" cy="548.878" r="4" fill="#0" id="circle351"/>
	<circle cx="443.721" cy="553.174" r="4" fill="#0" id="circle352"/>
	<circle cx="475.444" cy="565.244" r="4" fill="#0" id="circle353"/>
	<circle cx="532.282" cy="557.476" r="4" fill="#0" id="circle354"/>
	<circle cx="545.662" cy="559.055" r="4" fill="#0" id="circle355"/>
	<circle cx="557.38" cy="568.748" r="4" fill="#0" id="circle356"/>
	<circle cx="517.585" cy="500.432" r="4" fill="#0" id="circle357"/>
	<circle cx="550.114" cy="470.197" r="4" fill="#0" id="circle358"/>
	<circle cx="319.077" cy="392.217" r="4" fill="#0" id="circle359"/>
	<circle cx="275.613" cy="398.81" r="4" fill="#0" id="circle360"/>
	<circle cx="544.249" cy="373.88" r="4" fill="#0" id="circle361"/>
	<circle cx="517.348" cy="880.031" r="4" fill="#0" id="circle362"/>
	<circle cx="552.441" cy="903.828" r="4" fill="#0" id="circle363"/>
	<circle cx="549.772" cy="938.234" r="4" fill="#0" id="circle364"/>
	<circle cx="590.35" cy="919.232" r="4" fill="#0" id="circle365"/>
	<circle cx="569.851" cy="977.894" r="4" fill="#0" id="circle366"/>
	<circle cx="534.651" cy="964.686" r="4" fill="#0" id="circle367"/>
	<circle cx="578.366" cy="955.436" r="4" fill="#0" id="circle368"/>
	<circle cx="548.362" cy="965.782" r="4" fill="#0" id="circle369"/>
	<circle cx="520.76" cy="934.725" r="4" fill="#0" id="circle370"/>
	<circle cx="530.76" cy="948.43" r="4" fill="#0" id="circle371"/>
	<circle cx="517.094" cy="930.181" r="4" fill="#0" id="circle372"/>
	<circle cx="162.74" cy="158.82" r="4" fill="#0" id="circle373"/>
	<circle cx="253.421" cy="123.38" r="4" fill="#0" id="circle374"/>
	<circle cx="666.856" cy="104.118" r="4" fill="#0" id="circle375"/>
	<circle cx="347.262" cy="365.733" r="4" fill="#0" id="circle376"/>
	</g>
</svg>