<?xml version="1.0" encoding="UTF-8" standalone="no"?>
<!-- Created with CurveBenchmark -->
<svg
	xmlns:dc="http://purl.org/dc/elements/1.1/"
	xmlns:cc="http://creativecommons.org/ns#"
	xmlns:rdf="http://www.w3.org/1999/02/22-rdf-syntax-ns#"
	xmlns:svg="http://www.w3.org/2000/svg"
	xmlns="http://www.w3.org/2000/svg"
	xmlns:sodipodi="http://sodipodi.sourceforge.net/DTD/sodipodi-0.dtd"
	xmlns:inkscape="http://www.inkscape.org/namespaces/inkscape"
	width="1000"
	height="1000"
	id="svg2"
	version="1.1"
	sodipodi:docname="noisy-0.03/hnncrust-mc45.txt">
<defs
	id="defs4" />
<metadata
	id="metadata7">
	<rdf:RDF>
		<cc:Work
			rdf:about="">
			<dc:format>image/svg+xml</dc:format>
			<dc:type
				rdf:resource="http://purl.org/dc/dcmitype/StillImage" />
			<dc:title></dc:title>
		</cc:Work>
	</rdf:RDF>
</metadata>
<g
	inkscape:label="Layer 1"
	inkscape:groupmode="layer"
	id="layer1">
	<path style="fill:none;stroke:red;stroke-width:1px;stroke-linecap:butt;stroke-linejoin:miter;stroke-opacity:1" d="M 4,292.883 11.6898,240.076 z" id="boundary" inkscape:connector-curvature="0" />
	<path style="fill:none;stroke:red;stroke-width:1px;stroke-linecap:butt;stroke-linejoin:miter;stroke-opacity:1" d="M 4,292.883 11.0939,332.708 z" id="boundary" inkscape:connector-curvature="0" />
	<path style="fill:none;stroke:red;stroke-width:1px;stroke-linecap:butt;stroke-linejoin:miter;stroke-opacity:1" d="M 11.6898,240.076 62.7875,223.06 z" id="boundary" inkscape:connector-curvature="0" />
	<path style="fill:none;stroke:red;stroke-width:1px;stroke-linecap:butt;stroke-linejoin:miter;stroke-opacity:1" d="M 11.0939,332.708 40.5603,349.008 z" id="boundary" inkscape:connector-curvature="0" />
	<path style="fill:none;stroke:red;stroke-width:1px;stroke-linecap:butt;stroke-linejoin:miter;stroke-opacity:1" d="M 55.9197,318.322 58.8983,344.359 z" id="boundary" inkscape:connector-curvature="0" />
	<path style="fill:none;stroke:red;stroke-width:1px;stroke-linecap:butt;stroke-linejoin:miter;stroke-opacity:1" d="M 62.7875,223.06 70.0147,204.168 z" id="boundary" inkscape:connector-curvature="0" />
	<path style="fill:none;stroke:red;stroke-width:1px;stroke-linecap:butt;stroke-linejoin:miter;stroke-opacity:1" d="M 58.8983,344.359 40.5603,349.008 z" id="boundary" inkscape:connector-curvature="0" />
	<path style="fill:none;stroke:red;stroke-width:1px;stroke-linecap:butt;stroke-linejoin:miter;stroke-opacity:1" d="M 70.0147,204.168 85.4902,169.625 z" id="boundary" inkscape:connector-curvature="0" />
	<path style="fill:none;stroke:red;stroke-width:1px;stroke-linecap:butt;stroke-linejoin:miter;stroke-opacity:1" d="M 85.4902,169.625 148.556,154.171 z" id="boundary" inkscape:connector-curvature="0" />
	<path style="fill:none;stroke:red;stroke-width:1px;stroke-linecap:butt;stroke-linejoin:miter;stroke-opacity:1" d="M 123.488,384.454 142.322,345.292 z" id="boundary" inkscape:connector-curvature="0" />
	<path style="fill:none;stroke:red;stroke-width:1px;stroke-linecap:butt;stroke-linejoin:miter;stroke-opacity:1" d="M 123.488,384.454 147.712,408.915 z" id="boundary" inkscape:connector-curvature="0" />
	<path style="fill:none;stroke:red;stroke-width:1px;stroke-linecap:butt;stroke-linejoin:miter;stroke-opacity:1" d="M 163.455,306.957 142.322,345.292 z" id="boundary" inkscape:connector-curvature="0" />
	<path style="fill:none;stroke:red;stroke-width:1px;stroke-linecap:butt;stroke-linejoin:miter;stroke-opacity:1" d="M 163.455,306.957 172.83,295.186 z" id="boundary" inkscape:connector-curvature="0" />
	<path style="fill:none;stroke:red;stroke-width:1px;stroke-linecap:butt;stroke-linejoin:miter;stroke-opacity:1" d="M 154.941,155.251 148.556,154.171 z" id="boundary" inkscape:connector-curvature="0" />
	<path style="fill:none;stroke:red;stroke-width:1px;stroke-linecap:butt;stroke-linejoin:miter;stroke-opacity:1" d="M 154.941,155.251 171.173,175.175 z" id="boundary" inkscape:connector-curvature="0" />
	<path style="fill:none;stroke:red;stroke-width:1px;stroke-linecap:butt;stroke-linejoin:miter;stroke-opacity:1" d="M 155.48,412.594 147.712,408.915 z" id="boundary" inkscape:connector-curvature="0" />
	<path style="fill:none;stroke:red;stroke-width:1px;stroke-linecap:butt;stroke-linejoin:miter;stroke-opacity:1" d="M 155.48,412.594 198.033,408.81 z" id="boundary" inkscape:connector-curvature="0" />
	<path style="fill:none;stroke:red;stroke-width:1px;stroke-linecap:butt;stroke-linejoin:miter;stroke-opacity:1" d="M 161.368,280.258 172.83,295.186 z" id="boundary" inkscape:connector-curvature="0" />
	<path style="fill:none;stroke:red;stroke-width:1px;stroke-linecap:butt;stroke-linejoin:miter;stroke-opacity:1" d="M 161.368,280.258 185.841,254.029 z" id="boundary" inkscape:connector-curvature="0" />
	<path style="fill:none;stroke:red;stroke-width:1px;stroke-linecap:butt;stroke-linejoin:miter;stroke-opacity:1" d="M 187.363,175.406 171.173,175.175 z" id="boundary" inkscape:connector-curvature="0" />
	<path style="fill:none;stroke:red;stroke-width:1px;stroke-linecap:butt;stroke-linejoin:miter;stroke-opacity:1" d="M 185.841,254.029 217.423,249.765 z" id="boundary" inkscape:connector-curvature="0" />
	<path style="fill:none;stroke:red;stroke-width:1px;stroke-linecap:butt;stroke-linejoin:miter;stroke-opacity:1" d="M 198.033,408.81 245.613,356.15 z" id="boundary" inkscape:connector-curvature="0" />
	<path style="fill:none;stroke:red;stroke-width:1px;stroke-linecap:butt;stroke-linejoin:miter;stroke-opacity:1" d="M 245.613,356.15 262.691,376.483 z" id="boundary" inkscape:connector-curvature="0" />
	<path style="fill:none;stroke:red;stroke-width:1px;stroke-linecap:butt;stroke-linejoin:miter;stroke-opacity:1" d="M 227.066,252.458 217.423,249.765 z" id="boundary" inkscape:connector-curvature="0" />
	<path style="fill:none;stroke:red;stroke-width:1px;stroke-linecap:butt;stroke-linejoin:miter;stroke-opacity:1" d="M 227.066,252.458 270.788,264.565 z" id="boundary" inkscape:connector-curvature="0" />
	<path style="fill:none;stroke:red;stroke-width:1px;stroke-linecap:butt;stroke-linejoin:miter;stroke-opacity:1" d="M 264.977,378.558 295.34,419.091 z" id="boundary" inkscape:connector-curvature="0" />
	<path style="fill:none;stroke:red;stroke-width:1px;stroke-linecap:butt;stroke-linejoin:miter;stroke-opacity:1" d="M 264.977,378.558 262.691,376.483 z" id="boundary" inkscape:connector-curvature="0" />
	<path style="fill:none;stroke:red;stroke-width:1px;stroke-linecap:butt;stroke-linejoin:miter;stroke-opacity:1" d="M 295.34,419.091 297.775,438.29 z" id="boundary" inkscape:connector-curvature="0" />
	<path style="fill:none;stroke:red;stroke-width:1px;stroke-linecap:butt;stroke-linejoin:miter;stroke-opacity:1" d="M 270.788,264.565 300.924,213.511 z" id="boundary" inkscape:connector-curvature="0" />
	<path style="fill:none;stroke:red;stroke-width:1px;stroke-linecap:butt;stroke-linejoin:miter;stroke-opacity:1" d="M 304.151,516.742 302.978,503.81 z" id="boundary" inkscape:connector-curvature="0" />
	<path style="fill:none;stroke:red;stroke-width:1px;stroke-linecap:butt;stroke-linejoin:miter;stroke-opacity:1" d="M 304.151,516.742 293.152,589.474 z" id="boundary" inkscape:connector-curvature="0" />
	<path style="fill:none;stroke:red;stroke-width:1px;stroke-linecap:butt;stroke-linejoin:miter;stroke-opacity:1" d="M 310.51,209.578 300.924,213.511 z" id="boundary" inkscape:connector-curvature="0" />
	<path style="fill:none;stroke:red;stroke-width:1px;stroke-linecap:butt;stroke-linejoin:miter;stroke-opacity:1" d="M 310.51,209.578 318.261,149.457 z" id="boundary" inkscape:connector-curvature="0" />
	<path style="fill:none;stroke:red;stroke-width:1px;stroke-linecap:butt;stroke-linejoin:miter;stroke-opacity:1" d="M 302.978,503.81 272.697,472.518 z" id="boundary" inkscape:connector-curvature="0" />
	<path style="fill:none;stroke:red;stroke-width:1px;stroke-linecap:butt;stroke-linejoin:miter;stroke-opacity:1" d="M 293.152,589.474 303.824,595.558 z" id="boundary" inkscape:connector-curvature="0" />
	<path style="fill:none;stroke:red;stroke-width:1px;stroke-linecap:butt;stroke-linejoin:miter;stroke-opacity:1" d="M 292.852,605.472 303.824,595.558 z" id="boundary" inkscape:connector-curvature="0" />
	<path style="fill:none;stroke:red;stroke-width:1px;stroke-linecap:butt;stroke-linejoin:miter;stroke-opacity:1" d="M 292.852,605.472 322.152,646.974 z" id="boundary" inkscape:connector-curvature="0" />
	<path style="fill:none;stroke:red;stroke-width:1px;stroke-linecap:butt;stroke-linejoin:miter;stroke-opacity:1" d="M 322.152,646.974 298.11,707.791 z" id="boundary" inkscape:connector-curvature="0" />
	<path style="fill:none;stroke:red;stroke-width:1px;stroke-linecap:butt;stroke-linejoin:miter;stroke-opacity:1" d="M 297.775,438.29 318.528,427.398 z" id="boundary" inkscape:connector-curvature="0" />
	<path style="fill:none;stroke:red;stroke-width:1px;stroke-linecap:butt;stroke-linejoin:miter;stroke-opacity:1" d="M 298.11,707.791 348.052,726.042 z" id="boundary" inkscape:connector-curvature="0" />
	<path style="fill:none;stroke:red;stroke-width:1px;stroke-linecap:butt;stroke-linejoin:miter;stroke-opacity:1" d="M 352.97,148.864 318.261,149.457 z" id="boundary" inkscape:connector-curvature="0" />
	<path style="fill:none;stroke:red;stroke-width:1px;stroke-linecap:butt;stroke-linejoin:miter;stroke-opacity:1" d="M 352.732,717.286 348.052,726.042 z" id="boundary" inkscape:connector-curvature="0" />
	<path style="fill:none;stroke:red;stroke-width:1px;stroke-linecap:butt;stroke-linejoin:miter;stroke-opacity:1" d="M 352.732,717.286 377.746,719.818 z" id="boundary" inkscape:connector-curvature="0" />
	<path style="fill:none;stroke:red;stroke-width:1px;stroke-linecap:butt;stroke-linejoin:miter;stroke-opacity:1" d="M 376.7,113.754 375.475,93.7952 z" id="boundary" inkscape:connector-curvature="0" />
	<path style="fill:none;stroke:red;stroke-width:1px;stroke-linecap:butt;stroke-linejoin:miter;stroke-opacity:1" d="M 376.7,113.754 410.448,129.419 z" id="boundary" inkscape:connector-curvature="0" />
	<path style="fill:none;stroke:red;stroke-width:1px;stroke-linecap:butt;stroke-linejoin:miter;stroke-opacity:1" d="M 386.267,734.05 377.746,719.818 z" id="boundary" inkscape:connector-curvature="0" />
	<path style="fill:none;stroke:red;stroke-width:1px;stroke-linecap:butt;stroke-linejoin:miter;stroke-opacity:1" d="M 386.267,734.05 407.46,746.117 z" id="boundary" inkscape:connector-curvature="0" />
	<path style="fill:none;stroke:red;stroke-width:1px;stroke-linecap:butt;stroke-linejoin:miter;stroke-opacity:1" d="M 410.448,129.419 437.151,115.659 z" id="boundary" inkscape:connector-curvature="0" />
	<path style="fill:none;stroke:red;stroke-width:1px;stroke-linecap:butt;stroke-linejoin:miter;stroke-opacity:1" d="M 439.628,603.151 419.46,621.544 z" id="boundary" inkscape:connector-curvature="0" />
	<path style="fill:none;stroke:red;stroke-width:1px;stroke-linecap:butt;stroke-linejoin:miter;stroke-opacity:1" d="M 439.628,603.151 464.248,559.418 z" id="boundary" inkscape:connector-curvature="0" />
	<path style="fill:none;stroke:red;stroke-width:1px;stroke-linecap:butt;stroke-linejoin:miter;stroke-opacity:1" d="M 410.496,662.581 419.46,621.544 z" id="boundary" inkscape:connector-curvature="0" />
	<path style="fill:none;stroke:red;stroke-width:1px;stroke-linecap:butt;stroke-linejoin:miter;stroke-opacity:1" d="M 407.46,746.117 432.119,708.08 z" id="boundary" inkscape:connector-curvature="0" />
	<path style="fill:none;stroke:red;stroke-width:1px;stroke-linecap:butt;stroke-linejoin:miter;stroke-opacity:1" d="M 437.151,115.659 481.406,109.926 z" id="boundary" inkscape:connector-curvature="0" />
	<path style="fill:none;stroke:red;stroke-width:1px;stroke-linecap:butt;stroke-linejoin:miter;stroke-opacity:1" d="M 457.448,693.737 432.119,708.08 z" id="boundary" inkscape:connector-curvature="0" />
	<path style="fill:none;stroke:red;stroke-width:1px;stroke-linecap:butt;stroke-linejoin:miter;stroke-opacity:1" d="M 463.918,555.66 460.543,556.71 z" id="boundary" inkscape:connector-curvature="0" />
	<path style="fill:none;stroke:red;stroke-width:1px;stroke-linecap:butt;stroke-linejoin:miter;stroke-opacity:1" d="M 463.918,555.66 464.248,559.418 z" id="boundary" inkscape:connector-curvature="0" />
	<path style="fill:none;stroke:red;stroke-width:1px;stroke-linecap:butt;stroke-linejoin:miter;stroke-opacity:1" d="M 441.138,36.0947 523.256,31.2753 z" id="boundary" inkscape:connector-curvature="0" />
	<path style="fill:none;stroke:red;stroke-width:1px;stroke-linecap:butt;stroke-linejoin:miter;stroke-opacity:1" d="M 465.55,458.244 482.127,502.503 z" id="boundary" inkscape:connector-curvature="0" />
	<path style="fill:none;stroke:red;stroke-width:1px;stroke-linecap:butt;stroke-linejoin:miter;stroke-opacity:1" d="M 465.55,458.244 543.996,433.096 z" id="boundary" inkscape:connector-curvature="0" />
	<path style="fill:none;stroke:red;stroke-width:1px;stroke-linecap:butt;stroke-linejoin:miter;stroke-opacity:1" d="M 500.209,527.659 482.127,502.503 z" id="boundary" inkscape:connector-curvature="0" />
	<path style="fill:none;stroke:red;stroke-width:1px;stroke-linecap:butt;stroke-linejoin:miter;stroke-opacity:1" d="M 523.256,31.2753 552.162,22.2847 z" id="boundary" inkscape:connector-curvature="0" />
	<path style="fill:none;stroke:red;stroke-width:1px;stroke-linecap:butt;stroke-linejoin:miter;stroke-opacity:1" d="M 543.996,433.096 579.85,419.428 z" id="boundary" inkscape:connector-curvature="0" />
	<path style="fill:none;stroke:red;stroke-width:1px;stroke-linecap:butt;stroke-linejoin:miter;stroke-opacity:1" d="M 552.162,22.2847 560.499,8.88805 z" id="boundary" inkscape:connector-curvature="0" />
	<path style="fill:none;stroke:red;stroke-width:1px;stroke-linecap:butt;stroke-linejoin:miter;stroke-opacity:1" d="M 579.85,419.428 590.502,427.596 z" id="boundary" inkscape:connector-curvature="0" />
	<path style="fill:none;stroke:red;stroke-width:1px;stroke-linecap:butt;stroke-linejoin:miter;stroke-opacity:1" d="M 582.787,29.6785 560.499,8.88805 z" id="boundary" inkscape:connector-curvature="0" />
	<path style="fill:none;stroke:red;stroke-width:1px;stroke-linecap:butt;stroke-linejoin:miter;stroke-opacity:1" d="M 582.787,29.6785 610.103,4.88374 z" id="boundary" inkscape:connector-curvature="0" />
	<path style="fill:none;stroke:red;stroke-width:1px;stroke-linecap:butt;stroke-linejoin:miter;stroke-opacity:1" d="M 592.335,480.14 590.502,427.596 z" id="boundary" inkscape:connector-curvature="0" />
	<path style="fill:none;stroke:red;stroke-width:1px;stroke-linecap:butt;stroke-linejoin:miter;stroke-opacity:1" d="M 592.335,480.14 639.74,482.937 z" id="boundary" inkscape:connector-curvature="0" />
	<path style="fill:none;stroke:red;stroke-width:1px;stroke-linecap:butt;stroke-linejoin:miter;stroke-opacity:1" d="M 610.103,4.88374 672.066,4 z" id="boundary" inkscape:connector-curvature="0" />
	<path style="fill:none;stroke:red;stroke-width:1px;stroke-linecap:butt;stroke-linejoin:miter;stroke-opacity:1" d="M 650.487,481.441 639.74,482.937 z" id="boundary" inkscape:connector-curvature="0" />
	<path style="fill:none;stroke:red;stroke-width:1px;stroke-linecap:butt;stroke-linejoin:miter;stroke-opacity:1" d="M 650.487,481.441 666.139,467.495 z" id="boundary" inkscape:connector-curvature="0" />
	<path style="fill:none;stroke:red;stroke-width:1px;stroke-linecap:butt;stroke-linejoin:miter;stroke-opacity:1" d="M 677.377,41.9424 672.066,4 z" id="boundary" inkscape:connector-curvature="0" />
	<path style="fill:none;stroke:red;stroke-width:1px;stroke-linecap:butt;stroke-linejoin:miter;stroke-opacity:1" d="M 677.377,41.9424 688.23,69.3957 z" id="boundary" inkscape:connector-curvature="0" />
	<path style="fill:none;stroke:red;stroke-width:1px;stroke-linecap:butt;stroke-linejoin:miter;stroke-opacity:1" d="M 675.469,431.701 745.307,429.777 z" id="boundary" inkscape:connector-curvature="0" />
	<path style="fill:none;stroke:red;stroke-width:1px;stroke-linecap:butt;stroke-linejoin:miter;stroke-opacity:1" d="M 723.04,56.9761 709.83,82.9004 z" id="boundary" inkscape:connector-curvature="0" />
	<path style="fill:none;stroke:red;stroke-width:1px;stroke-linecap:butt;stroke-linejoin:miter;stroke-opacity:1" d="M 723.04,56.9761 758.429,86.7583 z" id="boundary" inkscape:connector-curvature="0" />
	<path style="fill:none;stroke:red;stroke-width:1px;stroke-linecap:butt;stroke-linejoin:miter;stroke-opacity:1" d="M 666.139,467.495 684.711,469.011 z" id="boundary" inkscape:connector-curvature="0" />
	<path style="fill:none;stroke:red;stroke-width:1px;stroke-linecap:butt;stroke-linejoin:miter;stroke-opacity:1" d="M 688.23,69.3957 709.83,82.9004 z" id="boundary" inkscape:connector-curvature="0" />
	<path style="fill:none;stroke:red;stroke-width:1px;stroke-linecap:butt;stroke-linejoin:miter;stroke-opacity:1" d="M 777.902,409.99 789.874,440.324 z" id="boundary" inkscape:connector-curvature="0" />
	<path style="fill:none;stroke:red;stroke-width:1px;stroke-linecap:butt;stroke-linejoin:miter;stroke-opacity:1" d="M 777.902,409.99 745.307,429.777 z" id="boundary" inkscape:connector-curvature="0" />
	<path style="fill:none;stroke:red;stroke-width:1px;stroke-linecap:butt;stroke-linejoin:miter;stroke-opacity:1" d="M 758.429,86.7583 783.739,112.396 z" id="boundary" inkscape:connector-curvature="0" />
	<path style="fill:none;stroke:red;stroke-width:1px;stroke-linecap:butt;stroke-linejoin:miter;stroke-opacity:1" d="M 789.874,440.324 793.934,496.489 z" id="boundary" inkscape:connector-curvature="0" />
	<path style="fill:none;stroke:red;stroke-width:1px;stroke-linecap:butt;stroke-linejoin:miter;stroke-opacity:1" d="M 793.934,496.489 788.587,528.341 z" id="boundary" inkscape:connector-curvature="0" />
	<path style="fill:none;stroke:red;stroke-width:1px;stroke-linecap:butt;stroke-linejoin:miter;stroke-opacity:1" d="M 788.587,528.341 806.444,529.731 z" id="boundary" inkscape:connector-curvature="0" />
	<path style="fill:none;stroke:red;stroke-width:1px;stroke-linecap:butt;stroke-linejoin:miter;stroke-opacity:1" d="M 783.739,112.396 825.98,120.419 z" id="boundary" inkscape:connector-curvature="0" />
	<path style="fill:none;stroke:red;stroke-width:1px;stroke-linecap:butt;stroke-linejoin:miter;stroke-opacity:1" d="M 806.444,529.731 825.854,542.777 z" id="boundary" inkscape:connector-curvature="0" />
	<path style="fill:none;stroke:red;stroke-width:1px;stroke-linecap:butt;stroke-linejoin:miter;stroke-opacity:1" d="M 825.854,542.777 846.52,592.321 z" id="boundary" inkscape:connector-curvature="0" />
	<path style="fill:none;stroke:red;stroke-width:1px;stroke-linecap:butt;stroke-linejoin:miter;stroke-opacity:1" d="M 825.98,120.419 846.371,113.517 z" id="boundary" inkscape:connector-curvature="0" />
	<path style="fill:none;stroke:red;stroke-width:1px;stroke-linecap:butt;stroke-linejoin:miter;stroke-opacity:1" d="M 888.096,580.359 864.319,602.136 z" id="boundary" inkscape:connector-curvature="0" />
	<path style="fill:none;stroke:red;stroke-width:1px;stroke-linecap:butt;stroke-linejoin:miter;stroke-opacity:1" d="M 888.096,580.359 929.026,626.651 z" id="boundary" inkscape:connector-curvature="0" />
	<path style="fill:none;stroke:red;stroke-width:1px;stroke-linecap:butt;stroke-linejoin:miter;stroke-opacity:1" d="M 846.371,113.517 850.097,146.387 z" id="boundary" inkscape:connector-curvature="0" />
	<path style="fill:none;stroke:red;stroke-width:1px;stroke-linecap:butt;stroke-linejoin:miter;stroke-opacity:1" d="M 846.52,592.321 864.319,602.136 z" id="boundary" inkscape:connector-curvature="0" />
	<path style="fill:none;stroke:red;stroke-width:1px;stroke-linecap:butt;stroke-linejoin:miter;stroke-opacity:1" d="M 850.097,146.387 884.696,189.652 z" id="boundary" inkscape:connector-curvature="0" />
	<path style="fill:none;stroke:red;stroke-width:1px;stroke-linecap:butt;stroke-linejoin:miter;stroke-opacity:1" d="M 884.696,189.652 903.981,229.025 z" id="boundary" inkscape:connector-curvature="0" />
	<path style="fill:none;stroke:red;stroke-width:1px;stroke-linecap:butt;stroke-linejoin:miter;stroke-opacity:1" d="M 929.534,327.072 934.508,325.487 z" id="boundary" inkscape:connector-curvature="0" />
	<path style="fill:none;stroke:red;stroke-width:1px;stroke-linecap:butt;stroke-linejoin:miter;stroke-opacity:1" d="M 929.534,327.072 920.544,319.637 z" id="boundary" inkscape:connector-curvature="0" />
	<path style="fill:none;stroke:red;stroke-width:1px;stroke-linecap:butt;stroke-linejoin:miter;stroke-opacity:1" d="M 901.679,345.41 905.409,390.046 z" id="boundary" inkscape:connector-curvature="0" />
	<path style="fill:none;stroke:red;stroke-width:1px;stroke-linecap:butt;stroke-linejoin:miter;stroke-opacity:1" d="M 901.679,345.41 920.544,319.637 z" id="boundary" inkscape:connector-curvature="0" />
	<path style="fill:none;stroke:red;stroke-width:1px;stroke-linecap:butt;stroke-linejoin:miter;stroke-opacity:1" d="M 903.981,229.025 948.999,226.189 z" id="boundary" inkscape:connector-curvature="0" />
	<path style="fill:none;stroke:red;stroke-width:1px;stroke-linecap:butt;stroke-linejoin:miter;stroke-opacity:1" d="M 956.031,396.083 941.744,419.86 z" id="boundary" inkscape:connector-curvature="0" />
	<path style="fill:none;stroke:red;stroke-width:1px;stroke-linecap:butt;stroke-linejoin:miter;stroke-opacity:1" d="M 948.999,226.189 950.279,262.294 z" id="boundary" inkscape:connector-curvature="0" />
	<path style="fill:none;stroke:red;stroke-width:1px;stroke-linecap:butt;stroke-linejoin:miter;stroke-opacity:1" d="M 929.026,626.651 976.852,633.954 z" id="boundary" inkscape:connector-curvature="0" />
	<path style="fill:none;stroke:red;stroke-width:1px;stroke-linecap:butt;stroke-linejoin:miter;stroke-opacity:1" d="M 941.744,419.86 921.724,449.224 z" id="boundary" inkscape:connector-curvature="0" />
	<path style="fill:none;stroke:red;stroke-width:1px;stroke-linecap:butt;stroke-linejoin:miter;stroke-opacity:1" d="M 921.724,449.224 980.42,525.257 z" id="boundary" inkscape:connector-curvature="0" />
	<path style="fill:none;stroke:red;stroke-width:1px;stroke-linecap:butt;stroke-linejoin:miter;stroke-opacity:1" d="M 976.852,633.954 996,615.185 z" id="boundary" inkscape:connector-curvature="0" />
	<path style="fill:none;stroke:red;stroke-width:1px;stroke-linecap:butt;stroke-linejoin:miter;stroke-opacity:1" d="M 980.42,525.257 963.568,553.737 z" id="boundary" inkscape:connector-curvature="0" />
	<path style="fill:none;stroke:red;stroke-width:1px;stroke-linecap:butt;stroke-linejoin:miter;stroke-opacity:1" d="M 996,615.185 979.16,590.495 z" id="boundary" inkscape:connector-curvature="0" />
	<path style="fill:none;stroke:red;stroke-width:1px;stroke-linecap:butt;stroke-linejoin:miter;stroke-opacity:1" d="M 979.16,590.495 975.379,585.649 z" id="boundary" inkscape:connector-curvature="0" />
	<path style="fill:none;stroke:red;stroke-width:1px;stroke-linecap:butt;stroke-linejoin:miter;stroke-opacity:1" d="M 993.719,569.89 975.379,585.649 z" id="boundary" inkscape:connector-curvature="0" />
	<circle cx="4" cy="292.883" r="4" fill="#0" id="circle0"/>
	<circle cx="11.6898" cy="240.076" r="4" fill="#0" id="circle1"/>
	<circle cx="11.0939" cy="332.708" r="4" fill="#0" id="circle2"/>
	<circle cx="55.9197" cy="318.322" r="4" fill="#0" id="circle3"/>
	<circle cx="62.7875" cy="223.06" r="4" fill="#0" id="circle4"/>
	<circle cx="58.8983" cy="344.359" r="4" fill="#0" id="circle5"/>
	<circle cx="70.0147" cy="204.168" r="4" fill="#0" id="circle6"/>
	<circle cx="40.5603" cy="349.008" r="4" fill="#0" id="circle7"/>
	<circle cx="85.4902" cy="169.625" r="4" fill="#0" id="circle8"/>
	<circle cx="123.488" cy="384.454" r="4" fill="#0" id="circle9"/>
	<circle cx="163.455" cy="306.957" r="4" fill="#0" id="circle10"/>
	<circle cx="154.941" cy="155.251" r="4" fill="#0" id="circle11"/>
	<circle cx="155.48" cy="412.594" r="4" fill="#0" id="circle12"/>
	<circle cx="161.368" cy="280.258" r="4" fill="#0" id="circle13"/>
	<circle cx="98.9597" cy="334.108" r="4" fill="#0" id="circle14"/>
	<circle cx="148.556" cy="154.171" r="4" fill="#0" id="circle15"/>
	<circle cx="142.322" cy="345.292" r="4" fill="#0" id="circle16"/>
	<circle cx="147.712" cy="408.915" r="4" fill="#0" id="circle17"/>
	<circle cx="169.854" cy="210.174" r="4" fill="#0" id="circle18"/>
	<circle cx="187.363" cy="175.406" r="4" fill="#0" id="circle19"/>
	<circle cx="172.83" cy="295.186" r="4" fill="#0" id="circle20"/>
	<circle cx="185.841" cy="254.029" r="4" fill="#0" id="circle21"/>
	<circle cx="198.033" cy="408.81" r="4" fill="#0" id="circle22"/>
	<circle cx="171.173" cy="175.175" r="4" fill="#0" id="circle23"/>
	<circle cx="245.613" cy="356.15" r="4" fill="#0" id="circle24"/>
	<circle cx="227.066" cy="252.458" r="4" fill="#0" id="circle25"/>
	<circle cx="264.977" cy="378.558" r="4" fill="#0" id="circle26"/>
	<circle cx="217.423" cy="249.765" r="4" fill="#0" id="circle27"/>
	<circle cx="295.34" cy="419.091" r="4" fill="#0" id="circle28"/>
	<circle cx="270.788" cy="264.565" r="4" fill="#0" id="circle29"/>
	<circle cx="304.151" cy="516.742" r="4" fill="#0" id="circle30"/>
	<circle cx="262.691" cy="376.483" r="4" fill="#0" id="circle31"/>
	<circle cx="310.51" cy="209.578" r="4" fill="#0" id="circle32"/>
	<circle cx="302.978" cy="503.81" r="4" fill="#0" id="circle33"/>
	<circle cx="293.152" cy="589.474" r="4" fill="#0" id="circle34"/>
	<circle cx="292.852" cy="605.472" r="4" fill="#0" id="circle35"/>
	<circle cx="303.824" cy="595.558" r="4" fill="#0" id="circle36"/>
	<circle cx="272.697" cy="472.518" r="4" fill="#0" id="circle37"/>
	<circle cx="322.152" cy="646.974" r="4" fill="#0" id="circle38"/>
	<circle cx="297.775" cy="438.29" r="4" fill="#0" id="circle39"/>
	<circle cx="300.924" cy="213.511" r="4" fill="#0" id="circle40"/>
	<circle cx="318.528" cy="427.398" r="4" fill="#0" id="circle41"/>
	<circle cx="298.11" cy="707.791" r="4" fill="#0" id="circle42"/>
	<circle cx="352.97" cy="148.864" r="4" fill="#0" id="circle43"/>
	<circle cx="352.732" cy="717.286" r="4" fill="#0" id="circle44"/>
	<circle cx="318.261" cy="149.457" r="4" fill="#0" id="circle45"/>
	<circle cx="348.052" cy="726.042" r="4" fill="#0" id="circle46"/>
	<circle cx="376.7" cy="113.754" r="4" fill="#0" id="circle47"/>
	<circle cx="386.267" cy="734.05" r="4" fill="#0" id="circle48"/>
	<circle cx="375.475" cy="93.7952" r="4" fill="#0" id="circle49"/>
	<circle cx="410.448" cy="129.419" r="4" fill="#0" id="circle50"/>
	<circle cx="377.746" cy="719.818" r="4" fill="#0" id="circle51"/>
	<circle cx="439.628" cy="603.151" r="4" fill="#0" id="circle52"/>
	<circle cx="410.496" cy="662.581" r="4" fill="#0" id="circle53"/>
	<circle cx="419.46" cy="621.544" r="4" fill="#0" id="circle54"/>
	<circle cx="407.46" cy="746.117" r="4" fill="#0" id="circle55"/>
	<circle cx="437.151" cy="115.659" r="4" fill="#0" id="circle56"/>
	<circle cx="457.448" cy="693.737" r="4" fill="#0" id="circle57"/>
	<circle cx="432.119" cy="708.08" r="4" fill="#0" id="circle58"/>
	<circle cx="463.918" cy="555.66" r="4" fill="#0" id="circle59"/>
	<circle cx="481.406" cy="109.926" r="4" fill="#0" id="circle60"/>
	<circle cx="460.543" cy="556.71" r="4" fill="#0" id="circle61"/>
	<circle cx="441.138" cy="36.0947" r="4" fill="#0" id="circle62"/>
	<circle cx="464.248" cy="559.418" r="4" fill="#0" id="circle63"/>
	<circle cx="465.55" cy="458.244" r="4" fill="#0" id="circle64"/>
	<circle cx="500.209" cy="527.659" r="4" fill="#0" id="circle65"/>
	<circle cx="482.127" cy="502.503" r="4" fill="#0" id="circle66"/>
	<circle cx="523.256" cy="31.2753" r="4" fill="#0" id="circle67"/>
	<circle cx="543.996" cy="433.096" r="4" fill="#0" id="circle68"/>
	<circle cx="552.162" cy="22.2847" r="4" fill="#0" id="circle69"/>
	<circle cx="579.85" cy="419.428" r="4" fill="#0" id="circle70"/>
	<circle cx="582.787" cy="29.6785" r="4" fill="#0" id="circle71"/>
	<circle cx="592.335" cy="480.14" r="4" fill="#0" id="circle72"/>
	<circle cx="560.499" cy="8.88805" r="4" fill="#0" id="circle73"/>
	<circle cx="590.502" cy="427.596" r="4" fill="#0" id="circle74"/>
	<circle cx="610.103" cy="4.88374" r="4" fill="#0" id="circle75"/>
	<circle cx="650.487" cy="481.441" r="4" fill="#0" id="circle76"/>
	<circle cx="639.74" cy="482.937" r="4" fill="#0" id="circle77"/>
	<circle cx="677.377" cy="41.9424" r="4" fill="#0" id="circle78"/>
	<circle cx="672.066" cy="4" r="4" fill="#0" id="circle79"/>
	<circle cx="675.469" cy="431.701" r="4" fill="#0" id="circle80"/>
	<circle cx="723.04" cy="56.9761" r="4" fill="#0" id="circle81"/>
	<circle cx="666.139" cy="467.495" r="4" fill="#0" id="circle82"/>
	<circle cx="688.23" cy="69.3957" r="4" fill="#0" id="circle83"/>
	<circle cx="684.711" cy="469.011" r="4" fill="#0" id="circle84"/>
	<circle cx="709.83" cy="82.9004" r="4" fill="#0" id="circle85"/>
	<circle cx="777.902" cy="409.99" r="4" fill="#0" id="circle86"/>
	<circle cx="758.429" cy="86.7583" r="4" fill="#0" id="circle87"/>
	<circle cx="789.874" cy="440.324" r="4" fill="#0" id="circle88"/>
	<circle cx="745.307" cy="429.777" r="4" fill="#0" id="circle89"/>
	<circle cx="793.934" cy="496.489" r="4" fill="#0" id="circle90"/>
	<circle cx="788.587" cy="528.341" r="4" fill="#0" id="circle91"/>
	<circle cx="783.739" cy="112.396" r="4" fill="#0" id="circle92"/>
	<circle cx="806.444" cy="529.731" r="4" fill="#0" id="circle93"/>
	<circle cx="831.412" cy="67.6017" r="4" fill="#0" id="circle94"/>
	<circle cx="825.854" cy="542.777" r="4" fill="#0" id="circle95"/>
	<circle cx="825.98" cy="120.419" r="4" fill="#0" id="circle96"/>
	<circle cx="888.096" cy="580.359" r="4" fill="#0" id="circle97"/>
	<circle cx="846.371" cy="113.517" r="4" fill="#0" id="circle98"/>
	<circle cx="846.52" cy="592.321" r="4" fill="#0" id="circle99"/>
	<circle cx="850.097" cy="146.387" r="4" fill="#0" id="circle100"/>
	<circle cx="864.319" cy="602.136" r="4" fill="#0" id="circle101"/>
	<circle cx="884.696" cy="189.652" r="4" fill="#0" id="circle102"/>
	<circle cx="929.534" cy="327.072" r="4" fill="#0" id="circle103"/>
	<circle cx="880.627" cy="687.934" r="4" fill="#0" id="circle104"/>
	<circle cx="901.679" cy="345.41" r="4" fill="#0" id="circle105"/>
	<circle cx="905.409" cy="390.046" r="4" fill="#0" id="circle106"/>
	<circle cx="903.981" cy="229.025" r="4" fill="#0" id="circle107"/>
	<circle cx="934.508" cy="325.487" r="4" fill="#0" id="circle108"/>
	<circle cx="956.031" cy="396.083" r="4" fill="#0" id="circle109"/>
	<circle cx="948.999" cy="226.189" r="4" fill="#0" id="circle110"/>
	<circle cx="929.026" cy="626.651" r="4" fill="#0" id="circle111"/>
	<circle cx="950.279" cy="262.294" r="4" fill="#0" id="circle112"/>
	<circle cx="920.544" cy="319.637" r="4" fill="#0" id="circle113"/>
	<circle cx="941.744" cy="419.86" r="4" fill="#0" id="circle114"/>
	<circle cx="921.724" cy="449.224" r="4" fill="#0" id="circle115"/>
	<circle cx="976.852" cy="633.954" r="4" fill="#0" id="circle116"/>
	<circle cx="980.42" cy="525.257" r="4" fill="#0" id="circle117"/>
	<circle cx="996" cy="615.185" r="4" fill="#0" id="circle118"/>
	<circle cx="963.568" cy="553.737" r="4" fill="#0" id="circle119"/>
	<circle cx="979.16" cy="590.495" r="4" fill="#0" id="circle120"/>
	<circle cx="993.719" cy="569.89" r="4" fill="#0" id="circle121"/>
	<circle cx="975.379" cy="585.649" r="4" fill="#0" id="circle122"/>
	</g>
</svg>