<?xml version="1.0" encoding="UTF-8" standalone="no"?>
<!-- Created with CurveBenchmark -->
<svg
	xmlns:dc="http://purl.org/dc/elements/1.1/"
	xmlns:cc="http://creativecommons.org/ns#"
	xmlns:rdf="http://www.w3.org/1999/02/22-rdf-syntax-ns#"
	xmlns:svg="http://www.w3.org/2000/svg"
	xmlns="http://www.w3.org/2000/svg"
	xmlns:sodipodi="http://sodipodi.sourceforge.net/DTD/sodipodi-0.dtd"
	xmlns:inkscape="http://www.inkscape.org/namespaces/inkscape"
	width="1000"
	height="1000"
	id="svg2"
	version="1.1"
	sodipodi:docname="noisy-0.03/hnncrust-mc14.txt">
<defs
	id="defs4" />
<metadata
	id="metadata7">
	<rdf:RDF>
		<cc:Work
			rdf:about="">
			<dc:format>image/svg+xml</dc:format>
			<dc:type
				rdf:resource="http://purl.org/dc/dcmitype/StillImage" />
			<dc:title></dc:title>
		</cc:Work>
	</rdf:RDF>
</metadata>
<g
	inkscape:label="Layer 1"
	inkscape:groupmode="layer"
	id="layer1">
	<path style="fill:none;stroke:red;stroke-width:1px;stroke-linecap:butt;stroke-linejoin:miter;stroke-opacity:1" d="M 162.614,94.8104 178.929,79.1112 z" id="boundary" inkscape:connector-curvature="0" />
	<path style="fill:none;stroke:red;stroke-width:1px;stroke-linecap:butt;stroke-linejoin:miter;stroke-opacity:1" d="M 162.614,94.8104 186.875,109.508 z" id="boundary" inkscape:connector-curvature="0" />
	<path style="fill:none;stroke:red;stroke-width:1px;stroke-linecap:butt;stroke-linejoin:miter;stroke-opacity:1" d="M 178.929,79.1112 159.98,64.0086 z" id="boundary" inkscape:connector-curvature="0" />
	<path style="fill:none;stroke:red;stroke-width:1px;stroke-linecap:butt;stroke-linejoin:miter;stroke-opacity:1" d="M 182.651,129.544 186.875,109.508 z" id="boundary" inkscape:connector-curvature="0" />
	<path style="fill:none;stroke:red;stroke-width:1px;stroke-linecap:butt;stroke-linejoin:miter;stroke-opacity:1" d="M 223.029,109.558 239.365,122.437 z" id="boundary" inkscape:connector-curvature="0" />
	<path style="fill:none;stroke:red;stroke-width:1px;stroke-linecap:butt;stroke-linejoin:miter;stroke-opacity:1" d="M 239.365,122.437 245.973,116.504 z" id="boundary" inkscape:connector-curvature="0" />
	<path style="fill:none;stroke:red;stroke-width:1px;stroke-linecap:butt;stroke-linejoin:miter;stroke-opacity:1" d="M 245.973,116.504 254.65,99.2331 z" id="boundary" inkscape:connector-curvature="0" />
	<path style="fill:none;stroke:red;stroke-width:1px;stroke-linecap:butt;stroke-linejoin:miter;stroke-opacity:1" d="M 272.784,123.445 293.714,109.755 z" id="boundary" inkscape:connector-curvature="0" />
	<path style="fill:none;stroke:red;stroke-width:1px;stroke-linecap:butt;stroke-linejoin:miter;stroke-opacity:1" d="M 272.784,123.445 257.205,132.836 z" id="boundary" inkscape:connector-curvature="0" />
	<path style="fill:none;stroke:red;stroke-width:1px;stroke-linecap:butt;stroke-linejoin:miter;stroke-opacity:1" d="M 293.714,109.755 316.784,104.435 z" id="boundary" inkscape:connector-curvature="0" />
	<path style="fill:none;stroke:red;stroke-width:1px;stroke-linecap:butt;stroke-linejoin:miter;stroke-opacity:1" d="M 279.041,39.0882 309.364,63.019 z" id="boundary" inkscape:connector-curvature="0" />
	<path style="fill:none;stroke:red;stroke-width:1px;stroke-linecap:butt;stroke-linejoin:miter;stroke-opacity:1" d="M 279.041,39.0882 219.501,15.115 z" id="boundary" inkscape:connector-curvature="0" />
	<path style="fill:none;stroke:red;stroke-width:1px;stroke-linecap:butt;stroke-linejoin:miter;stroke-opacity:1" d="M 302.32,75.2865 309.364,63.019 z" id="boundary" inkscape:connector-curvature="0" />
	<path style="fill:none;stroke:red;stroke-width:1px;stroke-linecap:butt;stroke-linejoin:miter;stroke-opacity:1" d="M 302.32,75.2865 316.784,104.435 z" id="boundary" inkscape:connector-curvature="0" />
	<path style="fill:none;stroke:red;stroke-width:1px;stroke-linecap:butt;stroke-linejoin:miter;stroke-opacity:1" d="M 178.116,50.4251 157.367,43.8461 z" id="boundary" inkscape:connector-curvature="0" />
	<path style="fill:none;stroke:red;stroke-width:1px;stroke-linecap:butt;stroke-linejoin:miter;stroke-opacity:1" d="M 157.367,43.8461 159.98,64.0086 z" id="boundary" inkscape:connector-curvature="0" />
	<path style="fill:none;stroke:red;stroke-width:1px;stroke-linecap:butt;stroke-linejoin:miter;stroke-opacity:1" d="M 86.0433,36.8996 73.2255,27.1183 z" id="boundary" inkscape:connector-curvature="0" />
	<path style="fill:none;stroke:red;stroke-width:1px;stroke-linecap:butt;stroke-linejoin:miter;stroke-opacity:1" d="M 86.0433,36.8996 69.5644,50.6785 z" id="boundary" inkscape:connector-curvature="0" />
	<path style="fill:none;stroke:red;stroke-width:1px;stroke-linecap:butt;stroke-linejoin:miter;stroke-opacity:1" d="M 69.5644,50.6785 38.3074,87.9845 z" id="boundary" inkscape:connector-curvature="0" />
	<path style="fill:none;stroke:red;stroke-width:1px;stroke-linecap:butt;stroke-linejoin:miter;stroke-opacity:1" d="M 38.3074,87.9845 47.3463,120.754 z" id="boundary" inkscape:connector-curvature="0" />
	<path style="fill:none;stroke:red;stroke-width:1px;stroke-linecap:butt;stroke-linejoin:miter;stroke-opacity:1" d="M 47.3463,120.754 74.384,170.633 z" id="boundary" inkscape:connector-curvature="0" />
	<path style="fill:none;stroke:red;stroke-width:1px;stroke-linecap:butt;stroke-linejoin:miter;stroke-opacity:1" d="M 75.8459,183.218 74.384,170.633 z" id="boundary" inkscape:connector-curvature="0" />
	<path style="fill:none;stroke:red;stroke-width:1px;stroke-linecap:butt;stroke-linejoin:miter;stroke-opacity:1" d="M 137.351,177.4 170.07,207.481 z" id="boundary" inkscape:connector-curvature="0" />
	<path style="fill:none;stroke:red;stroke-width:1px;stroke-linecap:butt;stroke-linejoin:miter;stroke-opacity:1" d="M 137.351,177.4 157.468,143.426 z" id="boundary" inkscape:connector-curvature="0" />
	<path style="fill:none;stroke:red;stroke-width:1px;stroke-linecap:butt;stroke-linejoin:miter;stroke-opacity:1" d="M 128.534,235.02 138.398,260.711 z" id="boundary" inkscape:connector-curvature="0" />
	<path style="fill:none;stroke:red;stroke-width:1px;stroke-linecap:butt;stroke-linejoin:miter;stroke-opacity:1" d="M 128.534,235.02 126.149,227.415 z" id="boundary" inkscape:connector-curvature="0" />
	<path style="fill:none;stroke:red;stroke-width:1px;stroke-linecap:butt;stroke-linejoin:miter;stroke-opacity:1" d="M 170.07,207.481 161.036,233.534 z" id="boundary" inkscape:connector-curvature="0" />
	<path style="fill:none;stroke:red;stroke-width:1px;stroke-linecap:butt;stroke-linejoin:miter;stroke-opacity:1" d="M 239.322,274.775 209.938,306.541 z" id="boundary" inkscape:connector-curvature="0" />
	<path style="fill:none;stroke:red;stroke-width:1px;stroke-linecap:butt;stroke-linejoin:miter;stroke-opacity:1" d="M 239.322,274.775 271.573,290.697 z" id="boundary" inkscape:connector-curvature="0" />
	<path style="fill:none;stroke:red;stroke-width:1px;stroke-linecap:butt;stroke-linejoin:miter;stroke-opacity:1" d="M 209.938,306.541 166.622,331.866 z" id="boundary" inkscape:connector-curvature="0" />
	<path style="fill:none;stroke:red;stroke-width:1px;stroke-linecap:butt;stroke-linejoin:miter;stroke-opacity:1" d="M 121.667,263.479 138.398,260.711 z" id="boundary" inkscape:connector-curvature="0" />
	<path style="fill:none;stroke:red;stroke-width:1px;stroke-linecap:butt;stroke-linejoin:miter;stroke-opacity:1" d="M 126.149,227.415 97.8525,231.547 z" id="boundary" inkscape:connector-curvature="0" />
	<path style="fill:none;stroke:red;stroke-width:1px;stroke-linecap:butt;stroke-linejoin:miter;stroke-opacity:1" d="M 97.8525,231.547 69.5098,269.323 z" id="boundary" inkscape:connector-curvature="0" />
	<path style="fill:none;stroke:red;stroke-width:1px;stroke-linecap:butt;stroke-linejoin:miter;stroke-opacity:1" d="M 69.5098,269.323 60.0398,293.136 z" id="boundary" inkscape:connector-curvature="0" />
	<path style="fill:none;stroke:red;stroke-width:1px;stroke-linecap:butt;stroke-linejoin:miter;stroke-opacity:1" d="M 30.7805,217.101 4,259.838 z" id="boundary" inkscape:connector-curvature="0" />
	<path style="fill:none;stroke:red;stroke-width:1px;stroke-linecap:butt;stroke-linejoin:miter;stroke-opacity:1" d="M 60.0398,293.136 67.2898,340.584 z" id="boundary" inkscape:connector-curvature="0" />
	<path style="fill:none;stroke:red;stroke-width:1px;stroke-linecap:butt;stroke-linejoin:miter;stroke-opacity:1" d="M 67.2898,340.584 100.197,369.066 z" id="boundary" inkscape:connector-curvature="0" />
	<path style="fill:none;stroke:red;stroke-width:1px;stroke-linecap:butt;stroke-linejoin:miter;stroke-opacity:1" d="M 166.622,331.866 189.041,364.911 z" id="boundary" inkscape:connector-curvature="0" />
	<path style="fill:none;stroke:red;stroke-width:1px;stroke-linecap:butt;stroke-linejoin:miter;stroke-opacity:1" d="M 268.065,319.618 295.123,309.137 z" id="boundary" inkscape:connector-curvature="0" />
	<path style="fill:none;stroke:red;stroke-width:1px;stroke-linecap:butt;stroke-linejoin:miter;stroke-opacity:1" d="M 268.065,319.618 271.573,290.697 z" id="boundary" inkscape:connector-curvature="0" />
	<path style="fill:none;stroke:red;stroke-width:1px;stroke-linecap:butt;stroke-linejoin:miter;stroke-opacity:1" d="M 309.799,229.027 310.841,206.961 z" id="boundary" inkscape:connector-curvature="0" />
	<path style="fill:none;stroke:red;stroke-width:1px;stroke-linecap:butt;stroke-linejoin:miter;stroke-opacity:1" d="M 309.799,229.027 321.725,234.132 z" id="boundary" inkscape:connector-curvature="0" />
	<path style="fill:none;stroke:red;stroke-width:1px;stroke-linecap:butt;stroke-linejoin:miter;stroke-opacity:1" d="M 310.841,206.961 317.708,191.088 z" id="boundary" inkscape:connector-curvature="0" />
	<path style="fill:none;stroke:red;stroke-width:1px;stroke-linecap:butt;stroke-linejoin:miter;stroke-opacity:1" d="M 283.643,171.117 274.297,191.431 z" id="boundary" inkscape:connector-curvature="0" />
	<path style="fill:none;stroke:red;stroke-width:1px;stroke-linecap:butt;stroke-linejoin:miter;stroke-opacity:1" d="M 224.708,137.646 213.232,155.537 z" id="boundary" inkscape:connector-curvature="0" />
	<path style="fill:none;stroke:red;stroke-width:1px;stroke-linecap:butt;stroke-linejoin:miter;stroke-opacity:1" d="M 213.232,155.537 198.776,158.883 z" id="boundary" inkscape:connector-curvature="0" />
	<path style="fill:none;stroke:red;stroke-width:1px;stroke-linecap:butt;stroke-linejoin:miter;stroke-opacity:1" d="M 198.776,158.883 173.026,153.002 z" id="boundary" inkscape:connector-curvature="0" />
	<path style="fill:none;stroke:red;stroke-width:1px;stroke-linecap:butt;stroke-linejoin:miter;stroke-opacity:1" d="M 173.026,153.002 171.93,152.164 z" id="boundary" inkscape:connector-curvature="0" />
	<path style="fill:none;stroke:red;stroke-width:1px;stroke-linecap:butt;stroke-linejoin:miter;stroke-opacity:1" d="M 171.93,152.164 157.468,143.426 z" id="boundary" inkscape:connector-curvature="0" />
	<path style="fill:none;stroke:red;stroke-width:1px;stroke-linecap:butt;stroke-linejoin:miter;stroke-opacity:1" d="M 472.49,91.4122 484.591,70.9023 z" id="boundary" inkscape:connector-curvature="0" />
	<path style="fill:none;stroke:red;stroke-width:1px;stroke-linecap:butt;stroke-linejoin:miter;stroke-opacity:1" d="M 484.591,70.9023 472.489,50.2091 z" id="boundary" inkscape:connector-curvature="0" />
	<path style="fill:none;stroke:red;stroke-width:1px;stroke-linecap:butt;stroke-linejoin:miter;stroke-opacity:1" d="M 535.563,114.091 557.161,131.495 z" id="boundary" inkscape:connector-curvature="0" />
	<path style="fill:none;stroke:red;stroke-width:1px;stroke-linecap:butt;stroke-linejoin:miter;stroke-opacity:1" d="M 551.678,137.87 529.36,151.831 z" id="boundary" inkscape:connector-curvature="0" />
	<path style="fill:none;stroke:red;stroke-width:1px;stroke-linecap:butt;stroke-linejoin:miter;stroke-opacity:1" d="M 551.678,137.87 557.161,131.495 z" id="boundary" inkscape:connector-curvature="0" />
	<path style="fill:none;stroke:red;stroke-width:1px;stroke-linecap:butt;stroke-linejoin:miter;stroke-opacity:1" d="M 458.823,150.363 434.213,191.147 z" id="boundary" inkscape:connector-curvature="0" />
	<path style="fill:none;stroke:red;stroke-width:1px;stroke-linecap:butt;stroke-linejoin:miter;stroke-opacity:1" d="M 458.823,150.363 504.596,150.839 z" id="boundary" inkscape:connector-curvature="0" />
	<path style="fill:none;stroke:red;stroke-width:1px;stroke-linecap:butt;stroke-linejoin:miter;stroke-opacity:1" d="M 434.213,191.147 457.326,206.202 z" id="boundary" inkscape:connector-curvature="0" />
	<path style="fill:none;stroke:red;stroke-width:1px;stroke-linecap:butt;stroke-linejoin:miter;stroke-opacity:1" d="M 457.326,206.202 477.551,244.03 z" id="boundary" inkscape:connector-curvature="0" />
	<path style="fill:none;stroke:red;stroke-width:1px;stroke-linecap:butt;stroke-linejoin:miter;stroke-opacity:1" d="M 509.584,266.977 509.65,258.393 z" id="boundary" inkscape:connector-curvature="0" />
	<path style="fill:none;stroke:red;stroke-width:1px;stroke-linecap:butt;stroke-linejoin:miter;stroke-opacity:1" d="M 540.735,257.517 553.086,240.527 z" id="boundary" inkscape:connector-curvature="0" />
	<path style="fill:none;stroke:red;stroke-width:1px;stroke-linecap:butt;stroke-linejoin:miter;stroke-opacity:1" d="M 540.735,257.517 509.65,258.393 z" id="boundary" inkscape:connector-curvature="0" />
	<path style="fill:none;stroke:red;stroke-width:1px;stroke-linecap:butt;stroke-linejoin:miter;stroke-opacity:1" d="M 563.529,280.412 583.291,287.314 z" id="boundary" inkscape:connector-curvature="0" />
	<path style="fill:none;stroke:red;stroke-width:1px;stroke-linecap:butt;stroke-linejoin:miter;stroke-opacity:1" d="M 563.529,280.412 562.498,254.986 z" id="boundary" inkscape:connector-curvature="0" />
	<path style="fill:none;stroke:red;stroke-width:1px;stroke-linecap:butt;stroke-linejoin:miter;stroke-opacity:1" d="M 553.086,240.527 562.498,254.986 z" id="boundary" inkscape:connector-curvature="0" />
	<path style="fill:none;stroke:red;stroke-width:1px;stroke-linecap:butt;stroke-linejoin:miter;stroke-opacity:1" d="M 563.005,203.514 548.29,218.858 z" id="boundary" inkscape:connector-curvature="0" />
	<path style="fill:none;stroke:red;stroke-width:1px;stroke-linecap:butt;stroke-linejoin:miter;stroke-opacity:1" d="M 563.005,203.514 549.52,184.967 z" id="boundary" inkscape:connector-curvature="0" />
	<path style="fill:none;stroke:red;stroke-width:1px;stroke-linecap:butt;stroke-linejoin:miter;stroke-opacity:1" d="M 548.29,218.858 530.994,217.869 z" id="boundary" inkscape:connector-curvature="0" />
	<path style="fill:none;stroke:red;stroke-width:1px;stroke-linecap:butt;stroke-linejoin:miter;stroke-opacity:1" d="M 504.596,150.839 529.36,151.831 z" id="boundary" inkscape:connector-curvature="0" />
	<path style="fill:none;stroke:red;stroke-width:1px;stroke-linecap:butt;stroke-linejoin:miter;stroke-opacity:1" d="M 583.606,187.764 583.331,189.708 z" id="boundary" inkscape:connector-curvature="0" />
	<path style="fill:none;stroke:red;stroke-width:1px;stroke-linecap:butt;stroke-linejoin:miter;stroke-opacity:1" d="M 583.331,189.708 606.909,194 z" id="boundary" inkscape:connector-curvature="0" />
	<path style="fill:none;stroke:red;stroke-width:1px;stroke-linecap:butt;stroke-linejoin:miter;stroke-opacity:1" d="M 606.909,194 640.325,192.902 z" id="boundary" inkscape:connector-curvature="0" />
	<path style="fill:none;stroke:red;stroke-width:1px;stroke-linecap:butt;stroke-linejoin:miter;stroke-opacity:1" d="M 640.325,192.902 629.319,151.247 z" id="boundary" inkscape:connector-curvature="0" />
	<path style="fill:none;stroke:red;stroke-width:1px;stroke-linecap:butt;stroke-linejoin:miter;stroke-opacity:1" d="M 690.973,168.96 692.793,159.076 z" id="boundary" inkscape:connector-curvature="0" />
	<path style="fill:none;stroke:red;stroke-width:1px;stroke-linecap:butt;stroke-linejoin:miter;stroke-opacity:1" d="M 690.973,168.96 709.282,195.493 z" id="boundary" inkscape:connector-curvature="0" />
	<path style="fill:none;stroke:red;stroke-width:1px;stroke-linecap:butt;stroke-linejoin:miter;stroke-opacity:1" d="M 654.094,239.37 637.771,258.197 z" id="boundary" inkscape:connector-curvature="0" />
	<path style="fill:none;stroke:red;stroke-width:1px;stroke-linecap:butt;stroke-linejoin:miter;stroke-opacity:1" d="M 682.848,255.298 692.226,229.061 z" id="boundary" inkscape:connector-curvature="0" />
	<path style="fill:none;stroke:red;stroke-width:1px;stroke-linecap:butt;stroke-linejoin:miter;stroke-opacity:1" d="M 682.848,255.298 697.553,281.223 z" id="boundary" inkscape:connector-curvature="0" />
	<path style="fill:none;stroke:red;stroke-width:1px;stroke-linecap:butt;stroke-linejoin:miter;stroke-opacity:1" d="M 671.068,295.731 688.812,323.519 z" id="boundary" inkscape:connector-curvature="0" />
	<path style="fill:none;stroke:red;stroke-width:1px;stroke-linecap:butt;stroke-linejoin:miter;stroke-opacity:1" d="M 632.058,320.348 591.213,358.741 z" id="boundary" inkscape:connector-curvature="0" />
	<path style="fill:none;stroke:red;stroke-width:1px;stroke-linecap:butt;stroke-linejoin:miter;stroke-opacity:1" d="M 591.213,358.741 567.704,332.092 z" id="boundary" inkscape:connector-curvature="0" />
	<path style="fill:none;stroke:red;stroke-width:1px;stroke-linecap:butt;stroke-linejoin:miter;stroke-opacity:1" d="M 567.704,332.092 548.395,320.83 z" id="boundary" inkscape:connector-curvature="0" />
	<path style="fill:none;stroke:red;stroke-width:1px;stroke-linecap:butt;stroke-linejoin:miter;stroke-opacity:1" d="M 490.491,324.859 444.315,314.051 z" id="boundary" inkscape:connector-curvature="0" />
	<path style="fill:none;stroke:red;stroke-width:1px;stroke-linecap:butt;stroke-linejoin:miter;stroke-opacity:1" d="M 441.573,334.081 444.315,314.051 z" id="boundary" inkscape:connector-curvature="0" />
	<path style="fill:none;stroke:red;stroke-width:1px;stroke-linecap:butt;stroke-linejoin:miter;stroke-opacity:1" d="M 367.728,286.199 339.555,260.379 z" id="boundary" inkscape:connector-curvature="0" />
	<path style="fill:none;stroke:red;stroke-width:1px;stroke-linecap:butt;stroke-linejoin:miter;stroke-opacity:1" d="M 339.555,260.379 321.725,234.132 z" id="boundary" inkscape:connector-curvature="0" />
	<path style="fill:none;stroke:red;stroke-width:1px;stroke-linecap:butt;stroke-linejoin:miter;stroke-opacity:1" d="M 317.708,191.088 330.49,190.261 z" id="boundary" inkscape:connector-curvature="0" />
	<path style="fill:none;stroke:red;stroke-width:1px;stroke-linecap:butt;stroke-linejoin:miter;stroke-opacity:1" d="M 330.49,190.261 322.869,155.402 z" id="boundary" inkscape:connector-curvature="0" />
	<path style="fill:none;stroke:red;stroke-width:1px;stroke-linecap:butt;stroke-linejoin:miter;stroke-opacity:1" d="M 360.72,137.335 322.869,155.402 z" id="boundary" inkscape:connector-curvature="0" />
	<path style="fill:none;stroke:red;stroke-width:1px;stroke-linecap:butt;stroke-linejoin:miter;stroke-opacity:1" d="M 360.72,137.335 348.699,115.06 z" id="boundary" inkscape:connector-curvature="0" />
	<path style="fill:none;stroke:red;stroke-width:1px;stroke-linecap:butt;stroke-linejoin:miter;stroke-opacity:1" d="M 348.699,115.06 369.957,90.4302 z" id="boundary" inkscape:connector-curvature="0" />
	<path style="fill:none;stroke:red;stroke-width:1px;stroke-linecap:butt;stroke-linejoin:miter;stroke-opacity:1" d="M 369.957,90.4302 400.035,60.8206 z" id="boundary" inkscape:connector-curvature="0" />
	<path style="fill:none;stroke:red;stroke-width:1px;stroke-linecap:butt;stroke-linejoin:miter;stroke-opacity:1" d="M 472.489,50.2091 539.327,20.3416 z" id="boundary" inkscape:connector-curvature="0" />
	<path style="fill:none;stroke:red;stroke-width:1px;stroke-linecap:butt;stroke-linejoin:miter;stroke-opacity:1" d="M 539.327,20.3416 577.579,19.256 z" id="boundary" inkscape:connector-curvature="0" />
	<path style="fill:none;stroke:red;stroke-width:1px;stroke-linecap:butt;stroke-linejoin:miter;stroke-opacity:1" d="M 577.579,19.256 600.405,14.3139 z" id="boundary" inkscape:connector-curvature="0" />
	<path style="fill:none;stroke:red;stroke-width:1px;stroke-linecap:butt;stroke-linejoin:miter;stroke-opacity:1" d="M 641.465,62.7883 681.216,47.2007 z" id="boundary" inkscape:connector-curvature="0" />
	<path style="fill:none;stroke:red;stroke-width:1px;stroke-linecap:butt;stroke-linejoin:miter;stroke-opacity:1" d="M 630.81,114.572 613.748,104.781 z" id="boundary" inkscape:connector-curvature="0" />
	<path style="fill:none;stroke:red;stroke-width:1px;stroke-linecap:butt;stroke-linejoin:miter;stroke-opacity:1" d="M 630.81,114.572 651.881,109.738 z" id="boundary" inkscape:connector-curvature="0" />
	<path style="fill:none;stroke:red;stroke-width:1px;stroke-linecap:butt;stroke-linejoin:miter;stroke-opacity:1" d="M 655.724,110.096 651.881,109.738 z" id="boundary" inkscape:connector-curvature="0" />
	<path style="fill:none;stroke:red;stroke-width:1px;stroke-linecap:butt;stroke-linejoin:miter;stroke-opacity:1" d="M 681.216,47.2007 690.7,76.6035 z" id="boundary" inkscape:connector-curvature="0" />
	<path style="fill:none;stroke:red;stroke-width:1px;stroke-linecap:butt;stroke-linejoin:miter;stroke-opacity:1" d="M 690.7,76.6035 706.628,118.794 z" id="boundary" inkscape:connector-curvature="0" />
	<path style="fill:none;stroke:red;stroke-width:1px;stroke-linecap:butt;stroke-linejoin:miter;stroke-opacity:1" d="M 706.628,118.794 692.793,159.076 z" id="boundary" inkscape:connector-curvature="0" />
	<path style="fill:none;stroke:red;stroke-width:1px;stroke-linecap:butt;stroke-linejoin:miter;stroke-opacity:1" d="M 698.219,201.948 709.282,195.493 z" id="boundary" inkscape:connector-curvature="0" />
	<path style="fill:none;stroke:red;stroke-width:1px;stroke-linecap:butt;stroke-linejoin:miter;stroke-opacity:1" d="M 698.219,201.948 692.226,229.061 z" id="boundary" inkscape:connector-curvature="0" />
	<path style="fill:none;stroke:red;stroke-width:1px;stroke-linecap:butt;stroke-linejoin:miter;stroke-opacity:1" d="M 713.302,284.922 697.553,281.223 z" id="boundary" inkscape:connector-curvature="0" />
	<path style="fill:none;stroke:red;stroke-width:1px;stroke-linecap:butt;stroke-linejoin:miter;stroke-opacity:1" d="M 688.812,323.519 675.946,345.041 z" id="boundary" inkscape:connector-curvature="0" />
	<path style="fill:none;stroke:red;stroke-width:1px;stroke-linecap:butt;stroke-linejoin:miter;stroke-opacity:1" d="M 688.229,354.005 675.946,345.041 z" id="boundary" inkscape:connector-curvature="0" />
	<path style="fill:none;stroke:red;stroke-width:1px;stroke-linecap:butt;stroke-linejoin:miter;stroke-opacity:1" d="M 688.229,354.005 726.398,370.737 z" id="boundary" inkscape:connector-curvature="0" />
	<path style="fill:none;stroke:red;stroke-width:1px;stroke-linecap:butt;stroke-linejoin:miter;stroke-opacity:1" d="M 726.398,370.737 760.853,379.499 z" id="boundary" inkscape:connector-curvature="0" />
	<path style="fill:none;stroke:red;stroke-width:1px;stroke-linecap:butt;stroke-linejoin:miter;stroke-opacity:1" d="M 760.853,379.499 790.264,379.133 z" id="boundary" inkscape:connector-curvature="0" />
	<path style="fill:none;stroke:red;stroke-width:1px;stroke-linecap:butt;stroke-linejoin:miter;stroke-opacity:1" d="M 798.671,332.028 824.818,338.7 z" id="boundary" inkscape:connector-curvature="0" />
	<path style="fill:none;stroke:red;stroke-width:1px;stroke-linecap:butt;stroke-linejoin:miter;stroke-opacity:1" d="M 798.671,332.028 795.408,288.988 z" id="boundary" inkscape:connector-curvature="0" />
	<path style="fill:none;stroke:red;stroke-width:1px;stroke-linecap:butt;stroke-linejoin:miter;stroke-opacity:1" d="M 795.408,288.988 792.87,267.209 z" id="boundary" inkscape:connector-curvature="0" />
	<path style="fill:none;stroke:red;stroke-width:1px;stroke-linecap:butt;stroke-linejoin:miter;stroke-opacity:1" d="M 792.87,267.209 787.736,235.742 z" id="boundary" inkscape:connector-curvature="0" />
	<path style="fill:none;stroke:red;stroke-width:1px;stroke-linecap:butt;stroke-linejoin:miter;stroke-opacity:1" d="M 837.459,243.101 826.73,252.861 z" id="boundary" inkscape:connector-curvature="0" />
	<path style="fill:none;stroke:red;stroke-width:1px;stroke-linecap:butt;stroke-linejoin:miter;stroke-opacity:1" d="M 837.459,243.101 867.66,233.151 z" id="boundary" inkscape:connector-curvature="0" />
	<path style="fill:none;stroke:red;stroke-width:1px;stroke-linecap:butt;stroke-linejoin:miter;stroke-opacity:1" d="M 936.142,221.11 919.892,174.933 z" id="boundary" inkscape:connector-curvature="0" />
	<path style="fill:none;stroke:red;stroke-width:1px;stroke-linecap:butt;stroke-linejoin:miter;stroke-opacity:1" d="M 919.892,174.933 953.011,156.658 z" id="boundary" inkscape:connector-curvature="0" />
	<path style="fill:none;stroke:red;stroke-width:1px;stroke-linecap:butt;stroke-linejoin:miter;stroke-opacity:1" d="M 953.011,156.658 996,123.102 z" id="boundary" inkscape:connector-curvature="0" />
	<path style="fill:none;stroke:red;stroke-width:1px;stroke-linecap:butt;stroke-linejoin:miter;stroke-opacity:1" d="M 996,123.102 977.345,86.2884 z" id="boundary" inkscape:connector-curvature="0" />
	<path style="fill:none;stroke:red;stroke-width:1px;stroke-linecap:butt;stroke-linejoin:miter;stroke-opacity:1" d="M 977.345,86.2884 927.983,37.6733 z" id="boundary" inkscape:connector-curvature="0" />
	<path style="fill:none;stroke:red;stroke-width:1px;stroke-linecap:butt;stroke-linejoin:miter;stroke-opacity:1" d="M 927.983,37.6733 895.645,50.4548 z" id="boundary" inkscape:connector-curvature="0" />
	<path style="fill:none;stroke:red;stroke-width:1px;stroke-linecap:butt;stroke-linejoin:miter;stroke-opacity:1" d="M 895.645,50.4548 845.352,25.4528 z" id="boundary" inkscape:connector-curvature="0" />
	<path style="fill:none;stroke:red;stroke-width:1px;stroke-linecap:butt;stroke-linejoin:miter;stroke-opacity:1" d="M 845.352,25.4528 822.226,4 z" id="boundary" inkscape:connector-curvature="0" />
	<path style="fill:none;stroke:red;stroke-width:1px;stroke-linecap:butt;stroke-linejoin:miter;stroke-opacity:1" d="M 822.226,4 736.745,7.29079 z" id="boundary" inkscape:connector-curvature="0" />
	<path style="fill:none;stroke:red;stroke-width:1px;stroke-linecap:butt;stroke-linejoin:miter;stroke-opacity:1" d="M 820.29,126.388 802.202,133.336 z" id="boundary" inkscape:connector-curvature="0" />
	<path style="fill:none;stroke:red;stroke-width:1px;stroke-linecap:butt;stroke-linejoin:miter;stroke-opacity:1" d="M 776.673,133.296 802.202,133.336 z" id="boundary" inkscape:connector-curvature="0" />
	<path style="fill:none;stroke:red;stroke-width:1px;stroke-linecap:butt;stroke-linejoin:miter;stroke-opacity:1" d="M 816.007,166.871 836.442,173.143 z" id="boundary" inkscape:connector-curvature="0" />
	<path style="fill:none;stroke:red;stroke-width:1px;stroke-linecap:butt;stroke-linejoin:miter;stroke-opacity:1" d="M 852.153,144.67 836.442,173.143 z" id="boundary" inkscape:connector-curvature="0" />
	<path style="fill:none;stroke:red;stroke-width:1px;stroke-linecap:butt;stroke-linejoin:miter;stroke-opacity:1" d="M 852.153,144.67 858.236,143.314 z" id="boundary" inkscape:connector-curvature="0" />
	<path style="fill:none;stroke:red;stroke-width:1px;stroke-linecap:butt;stroke-linejoin:miter;stroke-opacity:1" d="M 858.236,143.314 850.209,116.953 z" id="boundary" inkscape:connector-curvature="0" />
	<path style="fill:none;stroke:red;stroke-width:1px;stroke-linecap:butt;stroke-linejoin:miter;stroke-opacity:1" d="M 854.131,112.201 850.209,116.953 z" id="boundary" inkscape:connector-curvature="0" />
	<path style="fill:none;stroke:red;stroke-width:1px;stroke-linecap:butt;stroke-linejoin:miter;stroke-opacity:1" d="M 854.131,112.201 846.1,99.7148 z" id="boundary" inkscape:connector-curvature="0" />
	<circle cx="162.614" cy="94.8104" r="4" fill="#0" id="circle0"/>
	<circle cx="178.929" cy="79.1112" r="4" fill="#0" id="circle1"/>
	<circle cx="182.651" cy="129.544" r="4" fill="#0" id="circle2"/>
	<circle cx="223.029" cy="109.558" r="4" fill="#0" id="circle3"/>
	<circle cx="239.365" cy="122.437" r="4" fill="#0" id="circle4"/>
	<circle cx="245.973" cy="116.504" r="4" fill="#0" id="circle5"/>
	<circle cx="272.784" cy="123.445" r="4" fill="#0" id="circle6"/>
	<circle cx="254.65" cy="99.2331" r="4" fill="#0" id="circle7"/>
	<circle cx="293.714" cy="109.755" r="4" fill="#0" id="circle8"/>
	<circle cx="279.041" cy="39.0882" r="4" fill="#0" id="circle9"/>
	<circle cx="302.32" cy="75.2865" r="4" fill="#0" id="circle10"/>
	<circle cx="309.364" cy="63.019" r="4" fill="#0" id="circle11"/>
	<circle cx="316.784" cy="104.435" r="4" fill="#0" id="circle12"/>
	<circle cx="178.116" cy="50.4251" r="4" fill="#0" id="circle13"/>
	<circle cx="157.367" cy="43.8461" r="4" fill="#0" id="circle14"/>
	<circle cx="219.501" cy="15.115" r="4" fill="#0" id="circle15"/>
	<circle cx="116.171" cy="42.0314" r="4" fill="#0" id="circle16"/>
	<circle cx="86.0433" cy="36.8996" r="4" fill="#0" id="circle17"/>
	<circle cx="73.2255" cy="27.1183" r="4" fill="#0" id="circle18"/>
	<circle cx="69.5644" cy="50.6785" r="4" fill="#0" id="circle19"/>
	<circle cx="38.3074" cy="87.9845" r="4" fill="#0" id="circle20"/>
	<circle cx="47.3463" cy="120.754" r="4" fill="#0" id="circle21"/>
	<circle cx="75.8459" cy="183.218" r="4" fill="#0" id="circle22"/>
	<circle cx="74.384" cy="170.633" r="4" fill="#0" id="circle23"/>
	<circle cx="137.351" cy="177.4" r="4" fill="#0" id="circle24"/>
	<circle cx="128.534" cy="235.02" r="4" fill="#0" id="circle25"/>
	<circle cx="170.07" cy="207.481" r="4" fill="#0" id="circle26"/>
	<circle cx="161.036" cy="233.534" r="4" fill="#0" id="circle27"/>
	<circle cx="239.322" cy="274.775" r="4" fill="#0" id="circle28"/>
	<circle cx="209.938" cy="306.541" r="4" fill="#0" id="circle29"/>
	<circle cx="194.501" cy="262.007" r="4" fill="#0" id="circle30"/>
	<circle cx="121.667" cy="263.479" r="4" fill="#0" id="circle31"/>
	<circle cx="138.398" cy="260.711" r="4" fill="#0" id="circle32"/>
	<circle cx="126.149" cy="227.415" r="4" fill="#0" id="circle33"/>
	<circle cx="97.8525" cy="231.547" r="4" fill="#0" id="circle34"/>
	<circle cx="69.5098" cy="269.323" r="4" fill="#0" id="circle35"/>
	<circle cx="30.7805" cy="217.101" r="4" fill="#0" id="circle36"/>
	<circle cx="4" cy="259.838" r="4" fill="#0" id="circle37"/>
	<circle cx="60.0398" cy="293.136" r="4" fill="#0" id="circle38"/>
	<circle cx="67.2898" cy="340.584" r="4" fill="#0" id="circle39"/>
	<circle cx="100.197" cy="369.066" r="4" fill="#0" id="circle40"/>
	<circle cx="166.622" cy="331.866" r="4" fill="#0" id="circle41"/>
	<circle cx="189.041" cy="364.911" r="4" fill="#0" id="circle42"/>
	<circle cx="268.065" cy="319.618" r="4" fill="#0" id="circle43"/>
	<circle cx="295.123" cy="309.137" r="4" fill="#0" id="circle44"/>
	<circle cx="271.573" cy="290.697" r="4" fill="#0" id="circle45"/>
	<circle cx="295.28" cy="255.854" r="4" fill="#0" id="circle46"/>
	<circle cx="309.799" cy="229.027" r="4" fill="#0" id="circle47"/>
	<circle cx="310.841" cy="206.961" r="4" fill="#0" id="circle48"/>
	<circle cx="283.643" cy="171.117" r="4" fill="#0" id="circle49"/>
	<circle cx="274.297" cy="191.431" r="4" fill="#0" id="circle50"/>
	<circle cx="224.708" cy="137.646" r="4" fill="#0" id="circle51"/>
	<circle cx="257.205" cy="132.836" r="4" fill="#0" id="circle52"/>
	<circle cx="213.232" cy="155.537" r="4" fill="#0" id="circle53"/>
	<circle cx="198.776" cy="158.883" r="4" fill="#0" id="circle54"/>
	<circle cx="173.026" cy="153.002" r="4" fill="#0" id="circle55"/>
	<circle cx="171.93" cy="152.164" r="4" fill="#0" id="circle56"/>
	<circle cx="157.468" cy="143.426" r="4" fill="#0" id="circle57"/>
	<circle cx="125.274" cy="112.089" r="4" fill="#0" id="circle58"/>
	<circle cx="159.98" cy="64.0086" r="4" fill="#0" id="circle59"/>
	<circle cx="186.875" cy="109.508" r="4" fill="#0" id="circle60"/>
	<circle cx="472.49" cy="91.4122" r="4" fill="#0" id="circle61"/>
	<circle cx="484.591" cy="70.9023" r="4" fill="#0" id="circle62"/>
	<circle cx="535.563" cy="114.091" r="4" fill="#0" id="circle63"/>
	<circle cx="551.678" cy="137.87" r="4" fill="#0" id="circle64"/>
	<circle cx="458.823" cy="150.363" r="4" fill="#0" id="circle65"/>
	<circle cx="434.213" cy="191.147" r="4" fill="#0" id="circle66"/>
	<circle cx="457.326" cy="206.202" r="4" fill="#0" id="circle67"/>
	<circle cx="477.551" cy="244.03" r="4" fill="#0" id="circle68"/>
	<circle cx="509.584" cy="266.977" r="4" fill="#0" id="circle69"/>
	<circle cx="540.735" cy="257.517" r="4" fill="#0" id="circle70"/>
	<circle cx="563.529" cy="280.412" r="4" fill="#0" id="circle71"/>
	<circle cx="583.291" cy="287.314" r="4" fill="#0" id="circle72"/>
	<circle cx="553.086" cy="240.527" r="4" fill="#0" id="circle73"/>
	<circle cx="563.005" cy="203.514" r="4" fill="#0" id="circle74"/>
	<circle cx="548.29" cy="218.858" r="4" fill="#0" id="circle75"/>
	<circle cx="562.498" cy="254.986" r="4" fill="#0" id="circle76"/>
	<circle cx="509.65" cy="258.393" r="4" fill="#0" id="circle77"/>
	<circle cx="530.994" cy="217.869" r="4" fill="#0" id="circle78"/>
	<circle cx="504.596" cy="150.839" r="4" fill="#0" id="circle79"/>
	<circle cx="529.36" cy="151.831" r="4" fill="#0" id="circle80"/>
	<circle cx="583.606" cy="187.764" r="4" fill="#0" id="circle81"/>
	<circle cx="549.52" cy="184.967" r="4" fill="#0" id="circle82"/>
	<circle cx="583.331" cy="189.708" r="4" fill="#0" id="circle83"/>
	<circle cx="606.909" cy="194" r="4" fill="#0" id="circle84"/>
	<circle cx="640.325" cy="192.902" r="4" fill="#0" id="circle85"/>
	<circle cx="690.973" cy="168.96" r="4" fill="#0" id="circle86"/>
	<circle cx="654.094" cy="239.37" r="4" fill="#0" id="circle87"/>
	<circle cx="682.848" cy="255.298" r="4" fill="#0" id="circle88"/>
	<circle cx="637.771" cy="258.197" r="4" fill="#0" id="circle89"/>
	<circle cx="671.068" cy="295.731" r="4" fill="#0" id="circle90"/>
	<circle cx="632.058" cy="320.348" r="4" fill="#0" id="circle91"/>
	<circle cx="591.213" cy="358.741" r="4" fill="#0" id="circle92"/>
	<circle cx="567.704" cy="332.092" r="4" fill="#0" id="circle93"/>
	<circle cx="548.395" cy="320.83" r="4" fill="#0" id="circle94"/>
	<circle cx="490.491" cy="324.859" r="4" fill="#0" id="circle95"/>
	<circle cx="441.573" cy="334.081" r="4" fill="#0" id="circle96"/>
	<circle cx="444.315" cy="314.051" r="4" fill="#0" id="circle97"/>
	<circle cx="367.728" cy="286.199" r="4" fill="#0" id="circle98"/>
	<circle cx="339.555" cy="260.379" r="4" fill="#0" id="circle99"/>
	<circle cx="321.725" cy="234.132" r="4" fill="#0" id="circle100"/>
	<circle cx="317.708" cy="191.088" r="4" fill="#0" id="circle101"/>
	<circle cx="330.49" cy="190.261" r="4" fill="#0" id="circle102"/>
	<circle cx="360.72" cy="137.335" r="4" fill="#0" id="circle103"/>
	<circle cx="322.869" cy="155.402" r="4" fill="#0" id="circle104"/>
	<circle cx="348.699" cy="115.06" r="4" fill="#0" id="circle105"/>
	<circle cx="369.957" cy="90.4302" r="4" fill="#0" id="circle106"/>
	<circle cx="400.035" cy="60.8206" r="4" fill="#0" id="circle107"/>
	<circle cx="472.489" cy="50.2091" r="4" fill="#0" id="circle108"/>
	<circle cx="539.327" cy="20.3416" r="4" fill="#0" id="circle109"/>
	<circle cx="577.579" cy="19.256" r="4" fill="#0" id="circle110"/>
	<circle cx="600.405" cy="14.3139" r="4" fill="#0" id="circle111"/>
	<circle cx="641.465" cy="62.7883" r="4" fill="#0" id="circle112"/>
	<circle cx="630.81" cy="114.572" r="4" fill="#0" id="circle113"/>
	<circle cx="655.724" cy="110.096" r="4" fill="#0" id="circle114"/>
	<circle cx="557.161" cy="131.495" r="4" fill="#0" id="circle115"/>
	<circle cx="613.748" cy="104.781" r="4" fill="#0" id="circle116"/>
	<circle cx="629.319" cy="151.247" r="4" fill="#0" id="circle117"/>
	<circle cx="651.881" cy="109.738" r="4" fill="#0" id="circle118"/>
	<circle cx="681.216" cy="47.2007" r="4" fill="#0" id="circle119"/>
	<circle cx="690.7" cy="76.6035" r="4" fill="#0" id="circle120"/>
	<circle cx="706.628" cy="118.794" r="4" fill="#0" id="circle121"/>
	<circle cx="692.793" cy="159.076" r="4" fill="#0" id="circle122"/>
	<circle cx="698.219" cy="201.948" r="4" fill="#0" id="circle123"/>
	<circle cx="709.282" cy="195.493" r="4" fill="#0" id="circle124"/>
	<circle cx="692.226" cy="229.061" r="4" fill="#0" id="circle125"/>
	<circle cx="713.302" cy="284.922" r="4" fill="#0" id="circle126"/>
	<circle cx="697.553" cy="281.223" r="4" fill="#0" id="circle127"/>
	<circle cx="688.812" cy="323.519" r="4" fill="#0" id="circle128"/>
	<circle cx="688.229" cy="354.005" r="4" fill="#0" id="circle129"/>
	<circle cx="675.946" cy="345.041" r="4" fill="#0" id="circle130"/>
	<circle cx="726.398" cy="370.737" r="4" fill="#0" id="circle131"/>
	<circle cx="760.853" cy="379.499" r="4" fill="#0" id="circle132"/>
	<circle cx="798.671" cy="332.028" r="4" fill="#0" id="circle133"/>
	<circle cx="790.264" cy="379.133" r="4" fill="#0" id="circle134"/>
	<circle cx="824.818" cy="338.7" r="4" fill="#0" id="circle135"/>
	<circle cx="795.408" cy="288.988" r="4" fill="#0" id="circle136"/>
	<circle cx="792.87" cy="267.209" r="4" fill="#0" id="circle137"/>
	<circle cx="787.736" cy="235.742" r="4" fill="#0" id="circle138"/>
	<circle cx="837.459" cy="243.101" r="4" fill="#0" id="circle139"/>
	<circle cx="826.73" cy="252.861" r="4" fill="#0" id="circle140"/>
	<circle cx="867.66" cy="233.151" r="4" fill="#0" id="circle141"/>
	<circle cx="936.142" cy="221.11" r="4" fill="#0" id="circle142"/>
	<circle cx="919.892" cy="174.933" r="4" fill="#0" id="circle143"/>
	<circle cx="953.011" cy="156.658" r="4" fill="#0" id="circle144"/>
	<circle cx="996" cy="123.102" r="4" fill="#0" id="circle145"/>
	<circle cx="977.345" cy="86.2884" r="4" fill="#0" id="circle146"/>
	<circle cx="927.983" cy="37.6733" r="4" fill="#0" id="circle147"/>
	<circle cx="895.645" cy="50.4548" r="4" fill="#0" id="circle148"/>
	<circle cx="845.352" cy="25.4528" r="4" fill="#0" id="circle149"/>
	<circle cx="822.226" cy="4" r="4" fill="#0" id="circle150"/>
	<circle cx="736.745" cy="7.29079" r="4" fill="#0" id="circle151"/>
	<circle cx="801.564" cy="91.04" r="4" fill="#0" id="circle152"/>
	<circle cx="820.29" cy="126.388" r="4" fill="#0" id="circle153"/>
	<circle cx="776.673" cy="133.296" r="4" fill="#0" id="circle154"/>
	<circle cx="802.202" cy="133.336" r="4" fill="#0" id="circle155"/>
	<circle cx="816.007" cy="166.871" r="4" fill="#0" id="circle156"/>
	<circle cx="852.153" cy="144.67" r="4" fill="#0" id="circle157"/>
	<circle cx="836.442" cy="173.143" r="4" fill="#0" id="circle158"/>
	<circle cx="858.236" cy="143.314" r="4" fill="#0" id="circle159"/>
	<circle cx="854.131" cy="112.201" r="4" fill="#0" id="circle160"/>
	<circle cx="890.935" cy="115.193" r="4" fill="#0" id="circle161"/>
	<circle cx="850.209" cy="116.953" r="4" fill="#0" id="circle162"/>
	<circle cx="846.1" cy="99.7148" r="4" fill="#0" id="circle163"/>
	</g>
</svg>