<?xml version="1.0" encoding="UTF-8" standalone="no"?>
<!-- Created with CurveBenchmark -->
<svg
	xmlns:dc="http://purl.org/dc/elements/1.1/"
	xmlns:cc="http://creativecommons.org/ns#"
	xmlns:rdf="http://www.w3.org/1999/02/22-rdf-syntax-ns#"
	xmlns:svg="http://www.w3.org/2000/svg"
	xmlns="http://www.w3.org/2000/svg"
	xmlns:sodipodi="http://sodipodi.sourceforge.net/DTD/sodipodi-0.dtd"
	xmlns:inkscape="http://www.inkscape.org/namespaces/inkscape"
	width="1000"
	height="1000"
	id="svg2"
	version="1.1"
	sodipodi:docname="noisy-0.03/nncrust-mc32.txt">
<defs
	id="defs4" />
<metadata
	id="metadata7">
	<rdf:RDF>
		<cc:Work
			rdf:about="">
			<dc:format>image/svg+xml</dc:format>
			<dc:type
				rdf:resource="http://purl.org/dc/dcmitype/StillImage" />
			<dc:title></dc:title>
		</cc:Work>
	</rdf:RDF>
</metadata>
<g
	inkscape:label="Layer 1"
	inkscape:groupmode="layer"
	id="layer1">
	<path style="fill:none;stroke:red;stroke-width:1px;stroke-linecap:butt;stroke-linejoin:miter;stroke-opacity:1" d="M 63.187,51.2317 64.9309,86.6181 z" id="boundary" inkscape:connector-curvature="0" />
	<path style="fill:none;stroke:red;stroke-width:1px;stroke-linecap:butt;stroke-linejoin:miter;stroke-opacity:1" d="M 64.9309,86.6181 27.0166,137.098 z" id="boundary" inkscape:connector-curvature="0" />
	<path style="fill:none;stroke:red;stroke-width:1px;stroke-linecap:butt;stroke-linejoin:miter;stroke-opacity:1" d="M 161.528,85.6687 64.9309,86.6181 z" id="boundary" inkscape:connector-curvature="0" />
	<path style="fill:none;stroke:red;stroke-width:1px;stroke-linecap:butt;stroke-linejoin:miter;stroke-opacity:1" d="M 28.8504,168.777 4,160.009 z" id="boundary" inkscape:connector-curvature="0" />
	<path style="fill:none;stroke:red;stroke-width:1px;stroke-linecap:butt;stroke-linejoin:miter;stroke-opacity:1" d="M 27.0166,137.098 28.8504,168.777 z" id="boundary" inkscape:connector-curvature="0" />
	<path style="fill:none;stroke:red;stroke-width:1px;stroke-linecap:butt;stroke-linejoin:miter;stroke-opacity:1" d="M 161.528,85.6687 184.551,114.34 z" id="boundary" inkscape:connector-curvature="0" />
	<path style="fill:none;stroke:red;stroke-width:1px;stroke-linecap:butt;stroke-linejoin:miter;stroke-opacity:1" d="M 142.652,147.49 111.665,170.504 z" id="boundary" inkscape:connector-curvature="0" />
	<path style="fill:none;stroke:red;stroke-width:1px;stroke-linecap:butt;stroke-linejoin:miter;stroke-opacity:1" d="M 184.735,150.681 171.028,159.381 z" id="boundary" inkscape:connector-curvature="0" />
	<path style="fill:none;stroke:red;stroke-width:1px;stroke-linecap:butt;stroke-linejoin:miter;stroke-opacity:1" d="M 171.028,159.381 142.652,147.49 z" id="boundary" inkscape:connector-curvature="0" />
	<path style="fill:none;stroke:red;stroke-width:1px;stroke-linecap:butt;stroke-linejoin:miter;stroke-opacity:1" d="M 171.028,159.381 152.294,181.085 z" id="boundary" inkscape:connector-curvature="0" />
	<path style="fill:none;stroke:red;stroke-width:1px;stroke-linecap:butt;stroke-linejoin:miter;stroke-opacity:1" d="M 47.1627,174.269 28.8504,168.777 z" id="boundary" inkscape:connector-curvature="0" />
	<path style="fill:none;stroke:red;stroke-width:1px;stroke-linecap:butt;stroke-linejoin:miter;stroke-opacity:1" d="M 111.665,170.504 47.1627,174.269 z" id="boundary" inkscape:connector-curvature="0" />
	<path style="fill:none;stroke:red;stroke-width:1px;stroke-linecap:butt;stroke-linejoin:miter;stroke-opacity:1" d="M 114.609,205.784 83.4762,246.921 z" id="boundary" inkscape:connector-curvature="0" />
	<path style="fill:none;stroke:red;stroke-width:1px;stroke-linecap:butt;stroke-linejoin:miter;stroke-opacity:1" d="M 111.665,170.504 114.609,205.784 z" id="boundary" inkscape:connector-curvature="0" />
	<path style="fill:none;stroke:red;stroke-width:1px;stroke-linecap:butt;stroke-linejoin:miter;stroke-opacity:1" d="M 152.653,250.126 114.609,205.784 z" id="boundary" inkscape:connector-curvature="0" />
	<path style="fill:none;stroke:red;stroke-width:1px;stroke-linecap:butt;stroke-linejoin:miter;stroke-opacity:1" d="M 111.665,170.504 152.294,181.085 z" id="boundary" inkscape:connector-curvature="0" />
	<path style="fill:none;stroke:red;stroke-width:1px;stroke-linecap:butt;stroke-linejoin:miter;stroke-opacity:1" d="M 172.288,249.063 182.902,219.16 z" id="boundary" inkscape:connector-curvature="0" />
	<path style="fill:none;stroke:red;stroke-width:1px;stroke-linecap:butt;stroke-linejoin:miter;stroke-opacity:1" d="M 152.294,181.085 182.902,219.16 z" id="boundary" inkscape:connector-curvature="0" />
	<path style="fill:none;stroke:red;stroke-width:1px;stroke-linecap:butt;stroke-linejoin:miter;stroke-opacity:1" d="M 172.288,249.063 152.653,250.126 z" id="boundary" inkscape:connector-curvature="0" />
	<path style="fill:none;stroke:red;stroke-width:1px;stroke-linecap:butt;stroke-linejoin:miter;stroke-opacity:1" d="M 184.551,114.34 184.735,150.681 z" id="boundary" inkscape:connector-curvature="0" />
	<path style="fill:none;stroke:red;stroke-width:1px;stroke-linecap:butt;stroke-linejoin:miter;stroke-opacity:1" d="M 83.4762,246.921 51.798,295.301 z" id="boundary" inkscape:connector-curvature="0" />
	<path style="fill:none;stroke:red;stroke-width:1px;stroke-linecap:butt;stroke-linejoin:miter;stroke-opacity:1" d="M 276.836,86.2848 286.682,45.6376 z" id="boundary" inkscape:connector-curvature="0" />
	<path style="fill:none;stroke:red;stroke-width:1px;stroke-linecap:butt;stroke-linejoin:miter;stroke-opacity:1" d="M 325.802,32.8443 286.682,45.6376 z" id="boundary" inkscape:connector-curvature="0" />
	<path style="fill:none;stroke:red;stroke-width:1px;stroke-linecap:butt;stroke-linejoin:miter;stroke-opacity:1" d="M 338.755,21.4821 325.802,32.8443 z" id="boundary" inkscape:connector-curvature="0" />
	<path style="fill:none;stroke:red;stroke-width:1px;stroke-linecap:butt;stroke-linejoin:miter;stroke-opacity:1" d="M 276.836,86.2848 306.638,106.567 z" id="boundary" inkscape:connector-curvature="0" />
	<path style="fill:none;stroke:red;stroke-width:1px;stroke-linecap:butt;stroke-linejoin:miter;stroke-opacity:1" d="M 229.257,127.803 276.836,86.2848 z" id="boundary" inkscape:connector-curvature="0" />
	<path style="fill:none;stroke:red;stroke-width:1px;stroke-linecap:butt;stroke-linejoin:miter;stroke-opacity:1" d="M 325.802,32.8443 338.724,66.6344 z" id="boundary" inkscape:connector-curvature="0" />
	<path style="fill:none;stroke:red;stroke-width:1px;stroke-linecap:butt;stroke-linejoin:miter;stroke-opacity:1" d="M 346.544,64.2865 338.724,66.6344 z" id="boundary" inkscape:connector-curvature="0" />
	<path style="fill:none;stroke:red;stroke-width:1px;stroke-linecap:butt;stroke-linejoin:miter;stroke-opacity:1" d="M 346.544,64.2865 338.755,21.4821 z" id="boundary" inkscape:connector-curvature="0" />
	<path style="fill:none;stroke:red;stroke-width:1px;stroke-linecap:butt;stroke-linejoin:miter;stroke-opacity:1" d="M 338.755,21.4821 365.662,4 z" id="boundary" inkscape:connector-curvature="0" />
	<path style="fill:none;stroke:red;stroke-width:1px;stroke-linecap:butt;stroke-linejoin:miter;stroke-opacity:1" d="M 332.357,98.6669 338.724,66.6344 z" id="boundary" inkscape:connector-curvature="0" />
	<path style="fill:none;stroke:red;stroke-width:1px;stroke-linecap:butt;stroke-linejoin:miter;stroke-opacity:1" d="M 332.357,98.6669 306.638,106.567 z" id="boundary" inkscape:connector-curvature="0" />
	<path style="fill:none;stroke:red;stroke-width:1px;stroke-linecap:butt;stroke-linejoin:miter;stroke-opacity:1" d="M 356.607,188.159 338.742,177.535 z" id="boundary" inkscape:connector-curvature="0" />
	<path style="fill:none;stroke:red;stroke-width:1px;stroke-linecap:butt;stroke-linejoin:miter;stroke-opacity:1" d="M 289.45,182.633 243.563,204.598 z" id="boundary" inkscape:connector-curvature="0" />
	<path style="fill:none;stroke:red;stroke-width:1px;stroke-linecap:butt;stroke-linejoin:miter;stroke-opacity:1" d="M 223.77,135.392 184.735,150.681 z" id="boundary" inkscape:connector-curvature="0" />
	<path style="fill:none;stroke:red;stroke-width:1px;stroke-linecap:butt;stroke-linejoin:miter;stroke-opacity:1" d="M 223.77,135.392 229.257,127.803 z" id="boundary" inkscape:connector-curvature="0" />
	<path style="fill:none;stroke:red;stroke-width:1px;stroke-linecap:butt;stroke-linejoin:miter;stroke-opacity:1" d="M 356.607,188.159 330.065,243.599 z" id="boundary" inkscape:connector-curvature="0" />
	<path style="fill:none;stroke:red;stroke-width:1px;stroke-linecap:butt;stroke-linejoin:miter;stroke-opacity:1" d="M 289.45,182.633 327.721,180.898 z" id="boundary" inkscape:connector-curvature="0" />
	<path style="fill:none;stroke:red;stroke-width:1px;stroke-linecap:butt;stroke-linejoin:miter;stroke-opacity:1" d="M 322.559,250.776 330.065,243.599 z" id="boundary" inkscape:connector-curvature="0" />
	<path style="fill:none;stroke:red;stroke-width:1px;stroke-linecap:butt;stroke-linejoin:miter;stroke-opacity:1" d="M 338.742,177.535 327.721,180.898 z" id="boundary" inkscape:connector-curvature="0" />
	<path style="fill:none;stroke:red;stroke-width:1px;stroke-linecap:butt;stroke-linejoin:miter;stroke-opacity:1" d="M 243.563,204.598 229.814,258.261 z" id="boundary" inkscape:connector-curvature="0" />
	<path style="fill:none;stroke:red;stroke-width:1px;stroke-linecap:butt;stroke-linejoin:miter;stroke-opacity:1" d="M 63.187,51.2317 365.662,4 z" id="boundary" inkscape:connector-curvature="0" />
	<path style="fill:none;stroke:red;stroke-width:1px;stroke-linecap:butt;stroke-linejoin:miter;stroke-opacity:1" d="M 51.798,295.301 56.3233,309.127 z" id="boundary" inkscape:connector-curvature="0" />
	<path style="fill:none;stroke:red;stroke-width:1px;stroke-linecap:butt;stroke-linejoin:miter;stroke-opacity:1" d="M 56.3233,309.127 29.3552,347.73 z" id="boundary" inkscape:connector-curvature="0" />
	<path style="fill:none;stroke:red;stroke-width:1px;stroke-linecap:butt;stroke-linejoin:miter;stroke-opacity:1" d="M 149.23,372.182 56.3233,309.127 z" id="boundary" inkscape:connector-curvature="0" />
	<path style="fill:none;stroke:red;stroke-width:1px;stroke-linecap:butt;stroke-linejoin:miter;stroke-opacity:1" d="M 138.413,680.421 29.3552,347.73 z" id="boundary" inkscape:connector-curvature="0" />
	<path style="fill:none;stroke:red;stroke-width:1px;stroke-linecap:butt;stroke-linejoin:miter;stroke-opacity:1" d="M 224.043,301.242 222.491,310.685 z" id="boundary" inkscape:connector-curvature="0" />
	<path style="fill:none;stroke:red;stroke-width:1px;stroke-linecap:butt;stroke-linejoin:miter;stroke-opacity:1" d="M 149.23,372.182 158.336,368.931 z" id="boundary" inkscape:connector-curvature="0" />
	<path style="fill:none;stroke:red;stroke-width:1px;stroke-linecap:butt;stroke-linejoin:miter;stroke-opacity:1" d="M 222.491,310.685 158.336,368.931 z" id="boundary" inkscape:connector-curvature="0" />
	<path style="fill:none;stroke:red;stroke-width:1px;stroke-linecap:butt;stroke-linejoin:miter;stroke-opacity:1" d="M 326.373,586.85 138.413,680.421 z" id="boundary" inkscape:connector-curvature="0" />
	<path style="fill:none;stroke:red;stroke-width:1px;stroke-linecap:butt;stroke-linejoin:miter;stroke-opacity:1" d="M 131.949,710.642 138.413,680.421 z" id="boundary" inkscape:connector-curvature="0" />
	<path style="fill:none;stroke:red;stroke-width:1px;stroke-linecap:butt;stroke-linejoin:miter;stroke-opacity:1" d="M 143.114,717.44 131.949,710.642 z" id="boundary" inkscape:connector-curvature="0" />
	<path style="fill:none;stroke:red;stroke-width:1px;stroke-linecap:butt;stroke-linejoin:miter;stroke-opacity:1" d="M 129.154,764.82 143.114,717.44 z" id="boundary" inkscape:connector-curvature="0" />
	<path style="fill:none;stroke:red;stroke-width:1px;stroke-linecap:butt;stroke-linejoin:miter;stroke-opacity:1" d="M 143.114,717.44 164.881,720.532 z" id="boundary" inkscape:connector-curvature="0" />
	<path style="fill:none;stroke:red;stroke-width:1px;stroke-linecap:butt;stroke-linejoin:miter;stroke-opacity:1" d="M 164.881,720.532 206.845,695.805 z" id="boundary" inkscape:connector-curvature="0" />
	<path style="fill:none;stroke:red;stroke-width:1px;stroke-linecap:butt;stroke-linejoin:miter;stroke-opacity:1" d="M 205.35,763.657 164.881,720.532 z" id="boundary" inkscape:connector-curvature="0" />
	<path style="fill:none;stroke:red;stroke-width:1px;stroke-linecap:butt;stroke-linejoin:miter;stroke-opacity:1" d="M 256.084,824.614 129.154,764.82 z" id="boundary" inkscape:connector-curvature="0" />
	<path style="fill:none;stroke:red;stroke-width:1px;stroke-linecap:butt;stroke-linejoin:miter;stroke-opacity:1" d="M 229.101,773.093 205.35,763.657 z" id="boundary" inkscape:connector-curvature="0" />
	<path style="fill:none;stroke:red;stroke-width:1px;stroke-linecap:butt;stroke-linejoin:miter;stroke-opacity:1" d="M 206.845,695.805 274.62,738.204 z" id="boundary" inkscape:connector-curvature="0" />
	<path style="fill:none;stroke:red;stroke-width:1px;stroke-linecap:butt;stroke-linejoin:miter;stroke-opacity:1" d="M 283.523,264.386 262.318,276.937 z" id="boundary" inkscape:connector-curvature="0" />
	<path style="fill:none;stroke:red;stroke-width:1px;stroke-linecap:butt;stroke-linejoin:miter;stroke-opacity:1" d="M 262.318,276.937 229.814,258.261 z" id="boundary" inkscape:connector-curvature="0" />
	<path style="fill:none;stroke:red;stroke-width:1px;stroke-linecap:butt;stroke-linejoin:miter;stroke-opacity:1" d="M 326.373,586.85 274.62,738.204 z" id="boundary" inkscape:connector-curvature="0" />
	<path style="fill:none;stroke:red;stroke-width:1px;stroke-linecap:butt;stroke-linejoin:miter;stroke-opacity:1" d="M 262.318,276.937 318.586,353.55 z" id="boundary" inkscape:connector-curvature="0" />
	<path style="fill:none;stroke:red;stroke-width:1px;stroke-linecap:butt;stroke-linejoin:miter;stroke-opacity:1" d="M 255.415,774.481 229.101,773.093 z" id="boundary" inkscape:connector-curvature="0" />
	<path style="fill:none;stroke:red;stroke-width:1px;stroke-linecap:butt;stroke-linejoin:miter;stroke-opacity:1" d="M 369.832,326.928 318.586,353.55 z" id="boundary" inkscape:connector-curvature="0" />
	<path style="fill:none;stroke:red;stroke-width:1px;stroke-linecap:butt;stroke-linejoin:miter;stroke-opacity:1" d="M 283.523,264.386 322.559,250.776 z" id="boundary" inkscape:connector-curvature="0" />
	<path style="fill:none;stroke:red;stroke-width:1px;stroke-linecap:butt;stroke-linejoin:miter;stroke-opacity:1" d="M 353.89,558.144 326.373,586.85 z" id="boundary" inkscape:connector-curvature="0" />
	<path style="fill:none;stroke:red;stroke-width:1px;stroke-linecap:butt;stroke-linejoin:miter;stroke-opacity:1" d="M 229.814,258.261 224.043,301.242 z" id="boundary" inkscape:connector-curvature="0" />
	<path style="fill:none;stroke:red;stroke-width:1px;stroke-linecap:butt;stroke-linejoin:miter;stroke-opacity:1" d="M 255.415,774.481 286.331,765.425 z" id="boundary" inkscape:connector-curvature="0" />
	<path style="fill:none;stroke:red;stroke-width:1px;stroke-linecap:butt;stroke-linejoin:miter;stroke-opacity:1" d="M 286.331,765.425 257.359,807.855 z" id="boundary" inkscape:connector-curvature="0" />
	<path style="fill:none;stroke:red;stroke-width:1px;stroke-linecap:butt;stroke-linejoin:miter;stroke-opacity:1" d="M 257.359,807.855 255.415,774.481 z" id="boundary" inkscape:connector-curvature="0" />
	<path style="fill:none;stroke:red;stroke-width:1px;stroke-linecap:butt;stroke-linejoin:miter;stroke-opacity:1" d="M 274.62,738.204 286.331,765.425 z" id="boundary" inkscape:connector-curvature="0" />
	<path style="fill:none;stroke:red;stroke-width:1px;stroke-linecap:butt;stroke-linejoin:miter;stroke-opacity:1" d="M 292.282,843.672 256.084,824.614 z" id="boundary" inkscape:connector-curvature="0" />
	<path style="fill:none;stroke:red;stroke-width:1px;stroke-linecap:butt;stroke-linejoin:miter;stroke-opacity:1" d="M 256.084,824.614 257.359,807.855 z" id="boundary" inkscape:connector-curvature="0" />
	<path style="fill:none;stroke:red;stroke-width:1px;stroke-linecap:butt;stroke-linejoin:miter;stroke-opacity:1" d="M 286.331,765.425 310.051,813.622 z" id="boundary" inkscape:connector-curvature="0" />
	<path style="fill:none;stroke:red;stroke-width:1px;stroke-linecap:butt;stroke-linejoin:miter;stroke-opacity:1" d="M 386.392,833.31 320.842,854.744 z" id="boundary" inkscape:connector-curvature="0" />
	<path style="fill:none;stroke:red;stroke-width:1px;stroke-linecap:butt;stroke-linejoin:miter;stroke-opacity:1" d="M 310.051,813.622 292.282,843.672 z" id="boundary" inkscape:connector-curvature="0" />
	<path style="fill:none;stroke:red;stroke-width:1px;stroke-linecap:butt;stroke-linejoin:miter;stroke-opacity:1" d="M 320.842,854.744 292.282,843.672 z" id="boundary" inkscape:connector-curvature="0" />
	<path style="fill:none;stroke:red;stroke-width:1px;stroke-linecap:butt;stroke-linejoin:miter;stroke-opacity:1" d="M 286.331,765.425 347.082,746.932 z" id="boundary" inkscape:connector-curvature="0" />
	<path style="fill:none;stroke:red;stroke-width:1px;stroke-linecap:butt;stroke-linejoin:miter;stroke-opacity:1" d="M 346.544,64.2865 429.139,75.4955 z" id="boundary" inkscape:connector-curvature="0" />
	<path style="fill:none;stroke:red;stroke-width:1px;stroke-linecap:butt;stroke-linejoin:miter;stroke-opacity:1" d="M 397.501,229.769 356.607,188.159 z" id="boundary" inkscape:connector-curvature="0" />
	<path style="fill:none;stroke:red;stroke-width:1px;stroke-linecap:butt;stroke-linejoin:miter;stroke-opacity:1" d="M 365.662,4 429.139,75.4955 z" id="boundary" inkscape:connector-curvature="0" />
	<path style="fill:none;stroke:red;stroke-width:1px;stroke-linecap:butt;stroke-linejoin:miter;stroke-opacity:1" d="M 397.501,229.769 407.564,305.039 z" id="boundary" inkscape:connector-curvature="0" />
	<path style="fill:none;stroke:red;stroke-width:1px;stroke-linecap:butt;stroke-linejoin:miter;stroke-opacity:1" d="M 397.501,229.769 516.445,365.956 z" id="boundary" inkscape:connector-curvature="0" />
	<path style="fill:none;stroke:red;stroke-width:1px;stroke-linecap:butt;stroke-linejoin:miter;stroke-opacity:1" d="M 429.139,75.4955 433.295,81.3102 z" id="boundary" inkscape:connector-curvature="0" />
	<path style="fill:none;stroke:red;stroke-width:1px;stroke-linecap:butt;stroke-linejoin:miter;stroke-opacity:1" d="M 407.564,305.039 369.832,326.928 z" id="boundary" inkscape:connector-curvature="0" />
	<path style="fill:none;stroke:red;stroke-width:1px;stroke-linecap:butt;stroke-linejoin:miter;stroke-opacity:1" d="M 433.295,81.3102 534.844,118.04 z" id="boundary" inkscape:connector-curvature="0" />
	<path style="fill:none;stroke:red;stroke-width:1px;stroke-linecap:butt;stroke-linejoin:miter;stroke-opacity:1" d="M 534.844,118.04 397.501,229.769 z" id="boundary" inkscape:connector-curvature="0" />
	<path style="fill:none;stroke:red;stroke-width:1px;stroke-linecap:butt;stroke-linejoin:miter;stroke-opacity:1" d="M 542.213,35.7302 534.844,118.04 z" id="boundary" inkscape:connector-curvature="0" />
	<path style="fill:none;stroke:red;stroke-width:1px;stroke-linecap:butt;stroke-linejoin:miter;stroke-opacity:1" d="M 409.335,401.418 377.552,458.094 z" id="boundary" inkscape:connector-curvature="0" />
	<path style="fill:none;stroke:red;stroke-width:1px;stroke-linecap:butt;stroke-linejoin:miter;stroke-opacity:1" d="M 409.335,401.418 369.832,326.928 z" id="boundary" inkscape:connector-curvature="0" />
	<path style="fill:none;stroke:red;stroke-width:1px;stroke-linecap:butt;stroke-linejoin:miter;stroke-opacity:1" d="M 353.89,558.144 383.267,522.598 z" id="boundary" inkscape:connector-curvature="0" />
	<path style="fill:none;stroke:red;stroke-width:1px;stroke-linecap:butt;stroke-linejoin:miter;stroke-opacity:1" d="M 383.267,522.598 404.437,559.937 z" id="boundary" inkscape:connector-curvature="0" />
	<path style="fill:none;stroke:red;stroke-width:1px;stroke-linecap:butt;stroke-linejoin:miter;stroke-opacity:1" d="M 448.267,502.536 383.267,522.598 z" id="boundary" inkscape:connector-curvature="0" />
	<path style="fill:none;stroke:red;stroke-width:1px;stroke-linecap:butt;stroke-linejoin:miter;stroke-opacity:1" d="M 383.267,522.598 377.552,458.094 z" id="boundary" inkscape:connector-curvature="0" />
	<path style="fill:none;stroke:red;stroke-width:1px;stroke-linecap:butt;stroke-linejoin:miter;stroke-opacity:1" d="M 409.335,401.418 440.353,430.511 z" id="boundary" inkscape:connector-curvature="0" />
	<path style="fill:none;stroke:red;stroke-width:1px;stroke-linecap:butt;stroke-linejoin:miter;stroke-opacity:1" d="M 492.787,404.262 440.353,430.511 z" id="boundary" inkscape:connector-curvature="0" />
	<path style="fill:none;stroke:red;stroke-width:1px;stroke-linecap:butt;stroke-linejoin:miter;stroke-opacity:1" d="M 440.353,430.511 448.267,502.536 z" id="boundary" inkscape:connector-curvature="0" />
	<path style="fill:none;stroke:red;stroke-width:1px;stroke-linecap:butt;stroke-linejoin:miter;stroke-opacity:1" d="M 492.787,404.262 516.445,365.956 z" id="boundary" inkscape:connector-curvature="0" />
	<path style="fill:none;stroke:red;stroke-width:1px;stroke-linecap:butt;stroke-linejoin:miter;stroke-opacity:1" d="M 516.445,365.956 609.017,444.779 z" id="boundary" inkscape:connector-curvature="0" />
	<path style="fill:none;stroke:red;stroke-width:1px;stroke-linecap:butt;stroke-linejoin:miter;stroke-opacity:1" d="M 542.213,35.7302 622.065,42.482 z" id="boundary" inkscape:connector-curvature="0" />
	<path style="fill:none;stroke:red;stroke-width:1px;stroke-linecap:butt;stroke-linejoin:miter;stroke-opacity:1" d="M 622.065,42.482 712.675,30.2864 z" id="boundary" inkscape:connector-curvature="0" />
	<path style="fill:none;stroke:red;stroke-width:1px;stroke-linecap:butt;stroke-linejoin:miter;stroke-opacity:1" d="M 658.199,103.958 622.065,42.482 z" id="boundary" inkscape:connector-curvature="0" />
	<path style="fill:none;stroke:red;stroke-width:1px;stroke-linecap:butt;stroke-linejoin:miter;stroke-opacity:1" d="M 658.199,103.958 744.1,131.078 z" id="boundary" inkscape:connector-curvature="0" />
	<path style="fill:none;stroke:red;stroke-width:1px;stroke-linecap:butt;stroke-linejoin:miter;stroke-opacity:1" d="M 744.1,131.078 756.775,144.416 z" id="boundary" inkscape:connector-curvature="0" />
	<path style="fill:none;stroke:red;stroke-width:1px;stroke-linecap:butt;stroke-linejoin:miter;stroke-opacity:1" d="M 712.675,30.2864 744.1,131.078 z" id="boundary" inkscape:connector-curvature="0" />
	<path style="fill:none;stroke:red;stroke-width:1px;stroke-linecap:butt;stroke-linejoin:miter;stroke-opacity:1" d="M 792.788,112.537 834.865,116.684 z" id="boundary" inkscape:connector-curvature="0" />
	<path style="fill:none;stroke:red;stroke-width:1px;stroke-linecap:butt;stroke-linejoin:miter;stroke-opacity:1" d="M 816.73,200.15 756.775,144.416 z" id="boundary" inkscape:connector-curvature="0" />
	<path style="fill:none;stroke:red;stroke-width:1px;stroke-linecap:butt;stroke-linejoin:miter;stroke-opacity:1" d="M 756.775,144.416 792.788,112.537 z" id="boundary" inkscape:connector-curvature="0" />
	<path style="fill:none;stroke:red;stroke-width:1px;stroke-linecap:butt;stroke-linejoin:miter;stroke-opacity:1" d="M 834.865,116.684 935.915,247.208 z" id="boundary" inkscape:connector-curvature="0" />
	<path style="fill:none;stroke:red;stroke-width:1px;stroke-linecap:butt;stroke-linejoin:miter;stroke-opacity:1" d="M 935.915,247.208 816.73,200.15 z" id="boundary" inkscape:connector-curvature="0" />
	<path style="fill:none;stroke:red;stroke-width:1px;stroke-linecap:butt;stroke-linejoin:miter;stroke-opacity:1" d="M 927.765,351.674 884.084,319.256 z" id="boundary" inkscape:connector-curvature="0" />
	<path style="fill:none;stroke:red;stroke-width:1px;stroke-linecap:butt;stroke-linejoin:miter;stroke-opacity:1" d="M 884.084,319.256 935.915,247.208 z" id="boundary" inkscape:connector-curvature="0" />
	<path style="fill:none;stroke:red;stroke-width:1px;stroke-linecap:butt;stroke-linejoin:miter;stroke-opacity:1" d="M 609.017,444.779 645.379,521.535 z" id="boundary" inkscape:connector-curvature="0" />
	<path style="fill:none;stroke:red;stroke-width:1px;stroke-linecap:butt;stroke-linejoin:miter;stroke-opacity:1" d="M 765.624,533.839 645.379,521.535 z" id="boundary" inkscape:connector-curvature="0" />
	<path style="fill:none;stroke:red;stroke-width:1px;stroke-linecap:butt;stroke-linejoin:miter;stroke-opacity:1" d="M 967.783,415.393 927.765,351.674 z" id="boundary" inkscape:connector-curvature="0" />
	<path style="fill:none;stroke:red;stroke-width:1px;stroke-linecap:butt;stroke-linejoin:miter;stroke-opacity:1" d="M 927.765,351.674 996,339.002 z" id="boundary" inkscape:connector-curvature="0" />
	<path style="fill:none;stroke:red;stroke-width:1px;stroke-linecap:butt;stroke-linejoin:miter;stroke-opacity:1" d="M 958.043,498.739 967.783,415.393 z" id="boundary" inkscape:connector-curvature="0" />
	<path style="fill:none;stroke:red;stroke-width:1px;stroke-linecap:butt;stroke-linejoin:miter;stroke-opacity:1" d="M 447.872,597.934 410.062,759.807 z" id="boundary" inkscape:connector-curvature="0" />
	<path style="fill:none;stroke:red;stroke-width:1px;stroke-linecap:butt;stroke-linejoin:miter;stroke-opacity:1" d="M 404.437,559.937 447.872,597.934 z" id="boundary" inkscape:connector-curvature="0" />
	<path style="fill:none;stroke:red;stroke-width:1px;stroke-linecap:butt;stroke-linejoin:miter;stroke-opacity:1" d="M 410.062,759.807 394.706,770.133 z" id="boundary" inkscape:connector-curvature="0" />
	<path style="fill:none;stroke:red;stroke-width:1px;stroke-linecap:butt;stroke-linejoin:miter;stroke-opacity:1" d="M 394.706,770.133 388.81,758.472 z" id="boundary" inkscape:connector-curvature="0" />
	<path style="fill:none;stroke:red;stroke-width:1px;stroke-linecap:butt;stroke-linejoin:miter;stroke-opacity:1" d="M 441.163,764.834 439.527,769.346 z" id="boundary" inkscape:connector-curvature="0" />
	<path style="fill:none;stroke:red;stroke-width:1px;stroke-linecap:butt;stroke-linejoin:miter;stroke-opacity:1" d="M 439.527,769.346 410.062,759.807 z" id="boundary" inkscape:connector-curvature="0" />
	<path style="fill:none;stroke:red;stroke-width:1px;stroke-linecap:butt;stroke-linejoin:miter;stroke-opacity:1" d="M 388.81,758.472 347.082,746.932 z" id="boundary" inkscape:connector-curvature="0" />
	<path style="fill:none;stroke:red;stroke-width:1px;stroke-linecap:butt;stroke-linejoin:miter;stroke-opacity:1" d="M 609.576,716.444 571.277,721.042 z" id="boundary" inkscape:connector-curvature="0" />
	<path style="fill:none;stroke:red;stroke-width:1px;stroke-linecap:butt;stroke-linejoin:miter;stroke-opacity:1" d="M 501.725,774.889 441.163,764.834 z" id="boundary" inkscape:connector-curvature="0" />
	<path style="fill:none;stroke:red;stroke-width:1px;stroke-linecap:butt;stroke-linejoin:miter;stroke-opacity:1" d="M 471.661,801.177 439.527,769.346 z" id="boundary" inkscape:connector-curvature="0" />
	<path style="fill:none;stroke:red;stroke-width:1px;stroke-linecap:butt;stroke-linejoin:miter;stroke-opacity:1" d="M 578.682,771.019 571.277,721.042 z" id="boundary" inkscape:connector-curvature="0" />
	<path style="fill:none;stroke:red;stroke-width:1px;stroke-linecap:butt;stroke-linejoin:miter;stroke-opacity:1" d="M 411.761,814.916 394.706,770.133 z" id="boundary" inkscape:connector-curvature="0" />
	<path style="fill:none;stroke:red;stroke-width:1px;stroke-linecap:butt;stroke-linejoin:miter;stroke-opacity:1" d="M 386.392,833.31 411.761,814.916 z" id="boundary" inkscape:connector-curvature="0" />
	<path style="fill:none;stroke:red;stroke-width:1px;stroke-linecap:butt;stroke-linejoin:miter;stroke-opacity:1" d="M 471.661,801.177 536.19,828.277 z" id="boundary" inkscape:connector-curvature="0" />
	<path style="fill:none;stroke:red;stroke-width:1px;stroke-linecap:butt;stroke-linejoin:miter;stroke-opacity:1" d="M 571.277,721.042 560.319,780.617 z" id="boundary" inkscape:connector-curvature="0" />
	<path style="fill:none;stroke:red;stroke-width:1px;stroke-linecap:butt;stroke-linejoin:miter;stroke-opacity:1" d="M 560.319,780.617 501.725,774.889 z" id="boundary" inkscape:connector-curvature="0" />
	<path style="fill:none;stroke:red;stroke-width:1px;stroke-linecap:butt;stroke-linejoin:miter;stroke-opacity:1" d="M 501.725,774.889 471.661,801.177 z" id="boundary" inkscape:connector-curvature="0" />
	<path style="fill:none;stroke:red;stroke-width:1px;stroke-linecap:butt;stroke-linejoin:miter;stroke-opacity:1" d="M 536.19,828.277 560.319,780.617 z" id="boundary" inkscape:connector-curvature="0" />
	<path style="fill:none;stroke:red;stroke-width:1px;stroke-linecap:butt;stroke-linejoin:miter;stroke-opacity:1" d="M 560.319,780.617 637.907,806.15 z" id="boundary" inkscape:connector-curvature="0" />
	<path style="fill:none;stroke:red;stroke-width:1px;stroke-linecap:butt;stroke-linejoin:miter;stroke-opacity:1" d="M 560.319,780.617 578.682,771.019 z" id="boundary" inkscape:connector-curvature="0" />
	<path style="fill:none;stroke:red;stroke-width:1px;stroke-linecap:butt;stroke-linejoin:miter;stroke-opacity:1" d="M 609.576,716.444 649.537,774.733 z" id="boundary" inkscape:connector-curvature="0" />
	<path style="fill:none;stroke:red;stroke-width:1px;stroke-linecap:butt;stroke-linejoin:miter;stroke-opacity:1" d="M 765.624,533.839 780.583,622.07 z" id="boundary" inkscape:connector-curvature="0" />
	<path style="fill:none;stroke:red;stroke-width:1px;stroke-linecap:butt;stroke-linejoin:miter;stroke-opacity:1" d="M 780.583,622.07 731.521,668.209 z" id="boundary" inkscape:connector-curvature="0" />
	<path style="fill:none;stroke:red;stroke-width:1px;stroke-linecap:butt;stroke-linejoin:miter;stroke-opacity:1" d="M 887.464,660.883 859.792,711.292 z" id="boundary" inkscape:connector-curvature="0" />
	<path style="fill:none;stroke:red;stroke-width:1px;stroke-linecap:butt;stroke-linejoin:miter;stroke-opacity:1" d="M 777.387,721.438 731.521,668.209 z" id="boundary" inkscape:connector-curvature="0" />
	<path style="fill:none;stroke:red;stroke-width:1px;stroke-linecap:butt;stroke-linejoin:miter;stroke-opacity:1" d="M 731.521,668.209 693.257,730.417 z" id="boundary" inkscape:connector-curvature="0" />
	<path style="fill:none;stroke:red;stroke-width:1px;stroke-linecap:butt;stroke-linejoin:miter;stroke-opacity:1" d="M 895.769,578.722 936.361,543.717 z" id="boundary" inkscape:connector-curvature="0" />
	<path style="fill:none;stroke:red;stroke-width:1px;stroke-linecap:butt;stroke-linejoin:miter;stroke-opacity:1" d="M 936.364,633.068 895.769,578.722 z" id="boundary" inkscape:connector-curvature="0" />
	<path style="fill:none;stroke:red;stroke-width:1px;stroke-linecap:butt;stroke-linejoin:miter;stroke-opacity:1" d="M 936.364,633.068 971.916,665.13 z" id="boundary" inkscape:connector-curvature="0" />
	<path style="fill:none;stroke:red;stroke-width:1px;stroke-linecap:butt;stroke-linejoin:miter;stroke-opacity:1" d="M 887.464,660.883 936.364,633.068 z" id="boundary" inkscape:connector-curvature="0" />
	<path style="fill:none;stroke:red;stroke-width:1px;stroke-linecap:butt;stroke-linejoin:miter;stroke-opacity:1" d="M 936.361,543.717 958.043,498.739 z" id="boundary" inkscape:connector-curvature="0" />
	<path style="fill:none;stroke:red;stroke-width:1px;stroke-linecap:butt;stroke-linejoin:miter;stroke-opacity:1" d="M 971.916,665.13 901.674,763.68 z" id="boundary" inkscape:connector-curvature="0" />
	<path style="fill:none;stroke:red;stroke-width:1px;stroke-linecap:butt;stroke-linejoin:miter;stroke-opacity:1" d="M 637.907,806.15 649.537,774.733 z" id="boundary" inkscape:connector-curvature="0" />
	<path style="fill:none;stroke:red;stroke-width:1px;stroke-linecap:butt;stroke-linejoin:miter;stroke-opacity:1" d="M 693.257,730.417 649.537,774.733 z" id="boundary" inkscape:connector-curvature="0" />
	<path style="fill:none;stroke:red;stroke-width:1px;stroke-linecap:butt;stroke-linejoin:miter;stroke-opacity:1" d="M 637.907,806.15 696.797,863.55 z" id="boundary" inkscape:connector-curvature="0" />
	<path style="fill:none;stroke:red;stroke-width:1px;stroke-linecap:butt;stroke-linejoin:miter;stroke-opacity:1" d="M 693.257,730.417 723.984,778.481 z" id="boundary" inkscape:connector-curvature="0" />
	<path style="fill:none;stroke:red;stroke-width:1px;stroke-linecap:butt;stroke-linejoin:miter;stroke-opacity:1" d="M 859.792,711.292 799.105,799.865 z" id="boundary" inkscape:connector-curvature="0" />
	<path style="fill:none;stroke:red;stroke-width:1px;stroke-linecap:butt;stroke-linejoin:miter;stroke-opacity:1" d="M 799.105,799.865 723.984,778.481 z" id="boundary" inkscape:connector-curvature="0" />
	<path style="fill:none;stroke:red;stroke-width:1px;stroke-linecap:butt;stroke-linejoin:miter;stroke-opacity:1" d="M 723.984,778.481 777.387,721.438 z" id="boundary" inkscape:connector-curvature="0" />
	<path style="fill:none;stroke:red;stroke-width:1px;stroke-linecap:butt;stroke-linejoin:miter;stroke-opacity:1" d="M 859.792,711.292 901.674,763.68 z" id="boundary" inkscape:connector-curvature="0" />
	<path style="fill:none;stroke:red;stroke-width:1px;stroke-linecap:butt;stroke-linejoin:miter;stroke-opacity:1" d="M 696.797,863.55 799.105,799.865 z" id="boundary" inkscape:connector-curvature="0" />
	<circle cx="4" cy="160.009" r="4" fill="#0" id="circle0"/>
	<circle cx="28.8504" cy="168.777" r="4" fill="#0" id="circle1"/>
	<circle cx="47.1627" cy="174.269" r="4" fill="#0" id="circle2"/>
	<circle cx="111.665" cy="170.504" r="4" fill="#0" id="circle3"/>
	<circle cx="142.652" cy="147.49" r="4" fill="#0" id="circle4"/>
	<circle cx="152.294" cy="181.085" r="4" fill="#0" id="circle5"/>
	<circle cx="184.735" cy="150.681" r="4" fill="#0" id="circle6"/>
	<circle cx="171.028" cy="159.381" r="4" fill="#0" id="circle7"/>
	<circle cx="223.77" cy="135.392" r="4" fill="#0" id="circle8"/>
	<circle cx="289.45" cy="182.633" r="4" fill="#0" id="circle9"/>
	<circle cx="327.721" cy="180.898" r="4" fill="#0" id="circle10"/>
	<circle cx="338.742" cy="177.535" r="4" fill="#0" id="circle11"/>
	<circle cx="356.607" cy="188.159" r="4" fill="#0" id="circle12"/>
	<circle cx="397.501" cy="229.769" r="4" fill="#0" id="circle13"/>
	<circle cx="322.559" cy="250.776" r="4" fill="#0" id="circle14"/>
	<circle cx="330.065" cy="243.599" r="4" fill="#0" id="circle15"/>
	<circle cx="283.523" cy="264.386" r="4" fill="#0" id="circle16"/>
	<circle cx="262.318" cy="276.937" r="4" fill="#0" id="circle17"/>
	<circle cx="243.563" cy="204.598" r="4" fill="#0" id="circle18"/>
	<circle cx="229.814" cy="258.261" r="4" fill="#0" id="circle19"/>
	<circle cx="182.902" cy="219.16" r="4" fill="#0" id="circle20"/>
	<circle cx="172.288" cy="249.063" r="4" fill="#0" id="circle21"/>
	<circle cx="152.653" cy="250.126" r="4" fill="#0" id="circle22"/>
	<circle cx="83.4762" cy="246.921" r="4" fill="#0" id="circle23"/>
	<circle cx="114.609" cy="205.784" r="4" fill="#0" id="circle24"/>
	<circle cx="56.3233" cy="309.127" r="4" fill="#0" id="circle25"/>
	<circle cx="51.798" cy="295.301" r="4" fill="#0" id="circle26"/>
	<circle cx="29.3552" cy="347.73" r="4" fill="#0" id="circle27"/>
	<circle cx="149.23" cy="372.182" r="4" fill="#0" id="circle28"/>
	<circle cx="158.336" cy="368.931" r="4" fill="#0" id="circle29"/>
	<circle cx="224.043" cy="301.242" r="4" fill="#0" id="circle30"/>
	<circle cx="222.491" cy="310.685" r="4" fill="#0" id="circle31"/>
	<circle cx="318.586" cy="353.55" r="4" fill="#0" id="circle32"/>
	<circle cx="369.832" cy="326.928" r="4" fill="#0" id="circle33"/>
	<circle cx="407.564" cy="305.039" r="4" fill="#0" id="circle34"/>
	<circle cx="27.0166" cy="137.098" r="4" fill="#0" id="circle35"/>
	<circle cx="63.187" cy="51.2317" r="4" fill="#0" id="circle36"/>
	<circle cx="64.9309" cy="86.6181" r="4" fill="#0" id="circle37"/>
	<circle cx="161.528" cy="85.6687" r="4" fill="#0" id="circle38"/>
	<circle cx="184.551" cy="114.34" r="4" fill="#0" id="circle39"/>
	<circle cx="229.257" cy="127.803" r="4" fill="#0" id="circle40"/>
	<circle cx="286.682" cy="45.6376" r="4" fill="#0" id="circle41"/>
	<circle cx="276.836" cy="86.2848" r="4" fill="#0" id="circle42"/>
	<circle cx="346.544" cy="64.2865" r="4" fill="#0" id="circle43"/>
	<circle cx="332.357" cy="98.6669" r="4" fill="#0" id="circle44"/>
	<circle cx="306.638" cy="106.567" r="4" fill="#0" id="circle45"/>
	<circle cx="338.724" cy="66.6344" r="4" fill="#0" id="circle46"/>
	<circle cx="325.802" cy="32.8443" r="4" fill="#0" id="circle47"/>
	<circle cx="338.755" cy="21.4821" r="4" fill="#0" id="circle48"/>
	<circle cx="365.662" cy="4" r="4" fill="#0" id="circle49"/>
	<circle cx="429.139" cy="75.4955" r="4" fill="#0" id="circle50"/>
	<circle cx="433.295" cy="81.3102" r="4" fill="#0" id="circle51"/>
	<circle cx="542.213" cy="35.7302" r="4" fill="#0" id="circle52"/>
	<circle cx="534.844" cy="118.04" r="4" fill="#0" id="circle53"/>
	<circle cx="409.335" cy="401.418" r="4" fill="#0" id="circle54"/>
	<circle cx="377.552" cy="458.094" r="4" fill="#0" id="circle55"/>
	<circle cx="383.267" cy="522.598" r="4" fill="#0" id="circle56"/>
	<circle cx="353.89" cy="558.144" r="4" fill="#0" id="circle57"/>
	<circle cx="326.373" cy="586.85" r="4" fill="#0" id="circle58"/>
	<circle cx="404.437" cy="559.937" r="4" fill="#0" id="circle59"/>
	<circle cx="447.872" cy="597.934" r="4" fill="#0" id="circle60"/>
	<circle cx="448.267" cy="502.536" r="4" fill="#0" id="circle61"/>
	<circle cx="440.353" cy="430.511" r="4" fill="#0" id="circle62"/>
	<circle cx="492.787" cy="404.262" r="4" fill="#0" id="circle63"/>
	<circle cx="516.445" cy="365.956" r="4" fill="#0" id="circle64"/>
	<circle cx="609.017" cy="444.779" r="4" fill="#0" id="circle65"/>
	<circle cx="645.379" cy="521.535" r="4" fill="#0" id="circle66"/>
	<circle cx="765.624" cy="533.839" r="4" fill="#0" id="circle67"/>
	<circle cx="622.065" cy="42.482" r="4" fill="#0" id="circle68"/>
	<circle cx="658.199" cy="103.958" r="4" fill="#0" id="circle69"/>
	<circle cx="712.675" cy="30.2864" r="4" fill="#0" id="circle70"/>
	<circle cx="744.1" cy="131.078" r="4" fill="#0" id="circle71"/>
	<circle cx="792.788" cy="112.537" r="4" fill="#0" id="circle72"/>
	<circle cx="756.775" cy="144.416" r="4" fill="#0" id="circle73"/>
	<circle cx="834.865" cy="116.684" r="4" fill="#0" id="circle74"/>
	<circle cx="816.73" cy="200.15" r="4" fill="#0" id="circle75"/>
	<circle cx="935.915" cy="247.208" r="4" fill="#0" id="circle76"/>
	<circle cx="884.084" cy="319.256" r="4" fill="#0" id="circle77"/>
	<circle cx="996" cy="339.002" r="4" fill="#0" id="circle78"/>
	<circle cx="927.765" cy="351.674" r="4" fill="#0" id="circle79"/>
	<circle cx="967.783" cy="415.393" r="4" fill="#0" id="circle80"/>
	<circle cx="958.043" cy="498.739" r="4" fill="#0" id="circle81"/>
	<circle cx="936.361" cy="543.717" r="4" fill="#0" id="circle82"/>
	<circle cx="895.769" cy="578.722" r="4" fill="#0" id="circle83"/>
	<circle cx="936.364" cy="633.068" r="4" fill="#0" id="circle84"/>
	<circle cx="887.464" cy="660.883" r="4" fill="#0" id="circle85"/>
	<circle cx="971.916" cy="665.13" r="4" fill="#0" id="circle86"/>
	<circle cx="859.792" cy="711.292" r="4" fill="#0" id="circle87"/>
	<circle cx="901.674" cy="763.68" r="4" fill="#0" id="circle88"/>
	<circle cx="777.387" cy="721.438" r="4" fill="#0" id="circle89"/>
	<circle cx="799.105" cy="799.865" r="4" fill="#0" id="circle90"/>
	<circle cx="723.984" cy="778.481" r="4" fill="#0" id="circle91"/>
	<circle cx="696.797" cy="863.55" r="4" fill="#0" id="circle92"/>
	<circle cx="649.537" cy="774.733" r="4" fill="#0" id="circle93"/>
	<circle cx="637.907" cy="806.15" r="4" fill="#0" id="circle94"/>
	<circle cx="578.682" cy="771.019" r="4" fill="#0" id="circle95"/>
	<circle cx="536.19" cy="828.277" r="4" fill="#0" id="circle96"/>
	<circle cx="560.319" cy="780.617" r="4" fill="#0" id="circle97"/>
	<circle cx="471.661" cy="801.177" r="4" fill="#0" id="circle98"/>
	<circle cx="439.527" cy="769.346" r="4" fill="#0" id="circle99"/>
	<circle cx="411.761" cy="814.916" r="4" fill="#0" id="circle100"/>
	<circle cx="388.81" cy="758.472" r="4" fill="#0" id="circle101"/>
	<circle cx="386.392" cy="833.31" r="4" fill="#0" id="circle102"/>
	<circle cx="394.706" cy="770.133" r="4" fill="#0" id="circle103"/>
	<circle cx="320.842" cy="854.744" r="4" fill="#0" id="circle104"/>
	<circle cx="310.051" cy="813.622" r="4" fill="#0" id="circle105"/>
	<circle cx="292.282" cy="843.672" r="4" fill="#0" id="circle106"/>
	<circle cx="257.359" cy="807.855" r="4" fill="#0" id="circle107"/>
	<circle cx="256.084" cy="824.614" r="4" fill="#0" id="circle108"/>
	<circle cx="255.415" cy="774.481" r="4" fill="#0" id="circle109"/>
	<circle cx="205.35" cy="763.657" r="4" fill="#0" id="circle110"/>
	<circle cx="164.881" cy="720.532" r="4" fill="#0" id="circle111"/>
	<circle cx="143.114" cy="717.44" r="4" fill="#0" id="circle112"/>
	<circle cx="129.154" cy="764.82" r="4" fill="#0" id="circle113"/>
	<circle cx="138.413" cy="680.421" r="4" fill="#0" id="circle114"/>
	<circle cx="131.949" cy="710.642" r="4" fill="#0" id="circle115"/>
	<circle cx="206.845" cy="695.805" r="4" fill="#0" id="circle116"/>
	<circle cx="229.101" cy="773.093" r="4" fill="#0" id="circle117"/>
	<circle cx="274.62" cy="738.204" r="4" fill="#0" id="circle118"/>
	<circle cx="286.331" cy="765.425" r="4" fill="#0" id="circle119"/>
	<circle cx="347.082" cy="746.932" r="4" fill="#0" id="circle120"/>
	<circle cx="410.062" cy="759.807" r="4" fill="#0" id="circle121"/>
	<circle cx="441.163" cy="764.834" r="4" fill="#0" id="circle122"/>
	<circle cx="501.725" cy="774.889" r="4" fill="#0" id="circle123"/>
	<circle cx="571.277" cy="721.042" r="4" fill="#0" id="circle124"/>
	<circle cx="609.576" cy="716.444" r="4" fill="#0" id="circle125"/>
	<circle cx="693.257" cy="730.417" r="4" fill="#0" id="circle126"/>
	<circle cx="731.521" cy="668.209" r="4" fill="#0" id="circle127"/>
	<circle cx="780.583" cy="622.07" r="4" fill="#0" id="circle128"/>
	</g>
</svg>