<?xml version="1.0" encoding="UTF-8" standalone="no"?>
<!-- Created with CurveBenchmark -->
<svg
	xmlns:dc="http://purl.org/dc/elements/1.1/"
	xmlns:cc="http://creativecommons.org/ns#"
	xmlns:rdf="http://www.w3.org/1999/02/22-rdf-syntax-ns#"
	xmlns:svg="http://www.w3.org/2000/svg"
	xmlns="http://www.w3.org/2000/svg"
	xmlns:sodipodi="http://sodipodi.sourceforge.net/DTD/sodipodi-0.dtd"
	xmlns:inkscape="http://www.inkscape.org/namespaces/inkscape"
	width="1000"
	height="1000"
	id="svg2"
	version="1.1"
	sodipodi:docname="noisy-0.03/peel-mc26.txt">
<defs
	id="defs4" />
<metadata
	id="metadata7">
	<rdf:RDF>
		<cc:Work
			rdf:about="">
			<dc:format>image/svg+xml</dc:format>
			<dc:type
				rdf:resource="http://purl.org/dc/dcmitype/StillImage" />
			<dc:title></dc:title>
		</cc:Work>
	</rdf:RDF>
</metadata>
<g
	inkscape:label="Layer 1"
	inkscape:groupmode="layer"
	id="layer1">
	<path style="fill:none;stroke:red;stroke-width:1px;stroke-linecap:butt;stroke-linejoin:miter;stroke-opacity:1" d="M 175.562,121.252 4,350.026 z" id="boundary" inkscape:connector-curvature="0" />
	<path style="fill:none;stroke:red;stroke-width:1px;stroke-linecap:butt;stroke-linejoin:miter;stroke-opacity:1" d="M 500.98,300.87 420.636,351.863 z" id="boundary" inkscape:connector-curvature="0" />
	<path style="fill:none;stroke:red;stroke-width:1px;stroke-linecap:butt;stroke-linejoin:miter;stroke-opacity:1" d="M 272.867,569.43 390.372,613.474 z" id="boundary" inkscape:connector-curvature="0" />
	<path style="fill:none;stroke:red;stroke-width:1px;stroke-linecap:butt;stroke-linejoin:miter;stroke-opacity:1" d="M 768.994,81.2152 512.076,4 z" id="boundary" inkscape:connector-curvature="0" />
	<path style="fill:none;stroke:red;stroke-width:1px;stroke-linecap:butt;stroke-linejoin:miter;stroke-opacity:1" d="M 996,362.184 986.295,615.982 z" id="boundary" inkscape:connector-curvature="0" />
	<path style="fill:none;stroke:red;stroke-width:1px;stroke-linecap:butt;stroke-linejoin:miter;stroke-opacity:1" d="M 457.949,940.211 221.821,861.763 z" id="boundary" inkscape:connector-curvature="0" />
	<path style="fill:none;stroke:red;stroke-width:1px;stroke-linecap:butt;stroke-linejoin:miter;stroke-opacity:1" d="M 660.006,543.196 673.333,398.068 z" id="boundary" inkscape:connector-curvature="0" />
	<path style="fill:none;stroke:red;stroke-width:1px;stroke-linecap:butt;stroke-linejoin:miter;stroke-opacity:1" d="M 597.194,653.61 510.018,667.192 z" id="boundary" inkscape:connector-curvature="0" />
	<path style="fill:none;stroke:red;stroke-width:1px;stroke-linecap:butt;stroke-linejoin:miter;stroke-opacity:1" d="M 597.194,653.61 660.006,543.196 z" id="boundary" inkscape:connector-curvature="0" />
	<path style="fill:none;stroke:red;stroke-width:1px;stroke-linecap:butt;stroke-linejoin:miter;stroke-opacity:1" d="M 420.636,351.863 346.064,465.729 z" id="boundary" inkscape:connector-curvature="0" />
	<path style="fill:none;stroke:red;stroke-width:1px;stroke-linecap:butt;stroke-linejoin:miter;stroke-opacity:1" d="M 272.867,569.43 346.064,465.729 z" id="boundary" inkscape:connector-curvature="0" />
	<path style="fill:none;stroke:red;stroke-width:1px;stroke-linecap:butt;stroke-linejoin:miter;stroke-opacity:1" d="M 4,350.026 8.5815,614.768 z" id="boundary" inkscape:connector-curvature="0" />
	<path style="fill:none;stroke:red;stroke-width:1px;stroke-linecap:butt;stroke-linejoin:miter;stroke-opacity:1" d="M 390.372,613.474 510.018,667.192 z" id="boundary" inkscape:connector-curvature="0" />
	<path style="fill:none;stroke:red;stroke-width:1px;stroke-linecap:butt;stroke-linejoin:miter;stroke-opacity:1" d="M 986.295,615.982 808.648,873.128 z" id="boundary" inkscape:connector-curvature="0" />
	<path style="fill:none;stroke:red;stroke-width:1px;stroke-linecap:butt;stroke-linejoin:miter;stroke-opacity:1" d="M 621.21,323.811 673.333,398.068 z" id="boundary" inkscape:connector-curvature="0" />
	<path style="fill:none;stroke:red;stroke-width:1px;stroke-linecap:butt;stroke-linejoin:miter;stroke-opacity:1" d="M 500.98,300.87 621.21,323.811 z" id="boundary" inkscape:connector-curvature="0" />
	<circle cx="4" cy="350.026" r="4" fill="#0" id="circle0"/>
	<circle cx="8.5815" cy="614.768" r="4" fill="#0" id="circle1"/>
	<circle cx="175.562" cy="121.252" r="4" fill="#0" id="circle2"/>
	<circle cx="221.821" cy="861.763" r="4" fill="#0" id="circle3"/>
	<circle cx="512.076" cy="4" r="4" fill="#0" id="circle4"/>
	<circle cx="500.98" cy="300.87" r="4" fill="#0" id="circle5"/>
	<circle cx="510.018" cy="667.192" r="4" fill="#0" id="circle6"/>
	<circle cx="457.949" cy="940.211" r="4" fill="#0" id="circle7"/>
	<circle cx="768.994" cy="81.2152" r="4" fill="#0" id="circle8"/>
	<circle cx="808.648" cy="873.128" r="4" fill="#0" id="circle9"/>
	<circle cx="996" cy="362.184" r="4" fill="#0" id="circle10"/>
	<circle cx="986.295" cy="615.982" r="4" fill="#0" id="circle11"/>
	<circle cx="420.636" cy="351.863" r="4" fill="#0" id="circle12"/>
	<circle cx="346.064" cy="465.729" r="4" fill="#0" id="circle13"/>
	<circle cx="272.867" cy="569.43" r="4" fill="#0" id="circle14"/>
	<circle cx="390.372" cy="613.474" r="4" fill="#0" id="circle15"/>
	<circle cx="597.194" cy="653.61" r="4" fill="#0" id="circle16"/>
	<circle cx="660.006" cy="543.196" r="4" fill="#0" id="circle17"/>
	<circle cx="673.333" cy="398.068" r="4" fill="#0" id="circle18"/>
	<circle cx="621.21" cy="323.811" r="4" fill="#0" id="circle19"/>
	</g>
</svg>