<?xml version="1.0" encoding="UTF-8" standalone="no"?>
<!-- Created with CurveBenchmark -->
<svg
	xmlns:dc="http://purl.org/dc/elements/1.1/"
	xmlns:cc="http://creativecommons.org/ns#"
	xmlns:rdf="http://www.w3.org/1999/02/22-rdf-syntax-ns#"
	xmlns:svg="http://www.w3.org/2000/svg"
	xmlns="http://www.w3.org/2000/svg"
	xmlns:sodipodi="http://sodipodi.sourceforge.net/DTD/sodipodi-0.dtd"
	xmlns:inkscape="http://www.inkscape.org/namespaces/inkscape"
	width="1000"
	height="1000"
	id="svg2"
	version="1.1"
	sodipodi:docname="noisy-0.03/stretchdenoise-mc5.txt">
<defs
	id="defs4" />
<metadata
	id="metadata7">
	<rdf:RDF>
		<cc:Work
			rdf:about="">
			<dc:format>image/svg+xml</dc:format>
			<dc:type
				rdf:resource="http://purl.org/dc/dcmitype/StillImage" />
			<dc:title></dc:title>
		</cc:Work>
	</rdf:RDF>
</metadata>
<g
	inkscape:label="Layer 1"
	inkscape:groupmode="layer"
	id="layer1">
	<path style="fill:none;stroke:red;stroke-width:1px;stroke-linecap:butt;stroke-linejoin:miter;stroke-opacity:1" d="M 157.848,364.029 147.719,440.362 z" id="boundary" inkscape:connector-curvature="0" />
	<path style="fill:none;stroke:red;stroke-width:1px;stroke-linecap:butt;stroke-linejoin:miter;stroke-opacity:1" d="M 157.848,364.029 214.482,205.289 z" id="boundary" inkscape:connector-curvature="0" />
	<path style="fill:none;stroke:red;stroke-width:1px;stroke-linecap:butt;stroke-linejoin:miter;stroke-opacity:1" d="M 147.719,440.362 288.25,821.579 z" id="boundary" inkscape:connector-curvature="0" />
	<path style="fill:none;stroke:red;stroke-width:1px;stroke-linecap:butt;stroke-linejoin:miter;stroke-opacity:1" d="M 214.482,205.289 272.425,111.865 z" id="boundary" inkscape:connector-curvature="0" />
	<path style="fill:none;stroke:red;stroke-width:1px;stroke-linecap:butt;stroke-linejoin:miter;stroke-opacity:1" d="M 288.25,821.579 321.383,846.297 z" id="boundary" inkscape:connector-curvature="0" />
	<path style="fill:none;stroke:red;stroke-width:1px;stroke-linecap:butt;stroke-linejoin:miter;stroke-opacity:1" d="M 321.383,846.297 403.888,898.186 z" id="boundary" inkscape:connector-curvature="0" />
	<path style="fill:none;stroke:red;stroke-width:1px;stroke-linecap:butt;stroke-linejoin:miter;stroke-opacity:1" d="M 403.888,898.186 493.11,913.17 z" id="boundary" inkscape:connector-curvature="0" />
	<path style="fill:none;stroke:red;stroke-width:1px;stroke-linecap:butt;stroke-linejoin:miter;stroke-opacity:1" d="M 493.11,913.17 557.35,930.688 z" id="boundary" inkscape:connector-curvature="0" />
	<path style="fill:none;stroke:red;stroke-width:1px;stroke-linecap:butt;stroke-linejoin:miter;stroke-opacity:1" d="M 557.35,930.688 613.128,924.149 z" id="boundary" inkscape:connector-curvature="0" />
	<path style="fill:none;stroke:red;stroke-width:1px;stroke-linecap:butt;stroke-linejoin:miter;stroke-opacity:1" d="M 613.128,924.149 669.471,926.909 z" id="boundary" inkscape:connector-curvature="0" />
	<path style="fill:none;stroke:red;stroke-width:1px;stroke-linecap:butt;stroke-linejoin:miter;stroke-opacity:1" d="M 669.471,926.909 690.39,931.916 z" id="boundary" inkscape:connector-curvature="0" />
	<path style="fill:none;stroke:red;stroke-width:1px;stroke-linecap:butt;stroke-linejoin:miter;stroke-opacity:1" d="M 690.39,931.916 740.166,958.959 z" id="boundary" inkscape:connector-curvature="0" />
	<path style="fill:none;stroke:red;stroke-width:1px;stroke-linecap:butt;stroke-linejoin:miter;stroke-opacity:1" d="M 740.166,958.959 747.44,880.208 z" id="boundary" inkscape:connector-curvature="0" />
	<path style="fill:none;stroke:red;stroke-width:1px;stroke-linecap:butt;stroke-linejoin:miter;stroke-opacity:1" d="M 272.425,111.865 300.825,93.8583 z" id="boundary" inkscape:connector-curvature="0" />
	<path style="fill:none;stroke:red;stroke-width:1px;stroke-linecap:butt;stroke-linejoin:miter;stroke-opacity:1" d="M 300.825,93.8583 354.992,79.5505 z" id="boundary" inkscape:connector-curvature="0" />
	<path style="fill:none;stroke:red;stroke-width:1px;stroke-linecap:butt;stroke-linejoin:miter;stroke-opacity:1" d="M 354.992,79.5505 417.766,25.0846 z" id="boundary" inkscape:connector-curvature="0" />
	<path style="fill:none;stroke:red;stroke-width:1px;stroke-linecap:butt;stroke-linejoin:miter;stroke-opacity:1" d="M 417.766,25.0846 499.968,25.4515 z" id="boundary" inkscape:connector-curvature="0" />
	<path style="fill:none;stroke:red;stroke-width:1px;stroke-linecap:butt;stroke-linejoin:miter;stroke-opacity:1" d="M 499.968,25.4515 547.458,33.0801 z" id="boundary" inkscape:connector-curvature="0" />
	<path style="fill:none;stroke:red;stroke-width:1px;stroke-linecap:butt;stroke-linejoin:miter;stroke-opacity:1" d="M 547.458,33.0801 627.011,45.0872 z" id="boundary" inkscape:connector-curvature="0" />
	<path style="fill:none;stroke:red;stroke-width:1px;stroke-linecap:butt;stroke-linejoin:miter;stroke-opacity:1" d="M 627.011,45.0872 651.484,48.6784 z" id="boundary" inkscape:connector-curvature="0" />
	<path style="fill:none;stroke:red;stroke-width:1px;stroke-linecap:butt;stroke-linejoin:miter;stroke-opacity:1" d="M 651.484,48.6784 727.806,65.9716 z" id="boundary" inkscape:connector-curvature="0" />
	<path style="fill:none;stroke:red;stroke-width:1px;stroke-linecap:butt;stroke-linejoin:miter;stroke-opacity:1" d="M 727.806,65.9716 750.288,70.881 z" id="boundary" inkscape:connector-curvature="0" />
	<path style="fill:none;stroke:red;stroke-width:1px;stroke-linecap:butt;stroke-linejoin:miter;stroke-opacity:1" d="M 750.288,70.881 836.157,38.2141 z" id="boundary" inkscape:connector-curvature="0" />
	<path style="fill:none;stroke:red;stroke-width:1px;stroke-linecap:butt;stroke-linejoin:miter;stroke-opacity:1" d="M 836.157,38.2141 889.842,45.6702 z" id="boundary" inkscape:connector-curvature="0" />
	<path style="fill:none;stroke:red;stroke-width:1px;stroke-linecap:butt;stroke-linejoin:miter;stroke-opacity:1" d="M 889.842,45.6702 929.303,64.4956 z" id="boundary" inkscape:connector-curvature="0" />
	<path style="fill:none;stroke:red;stroke-width:1px;stroke-linecap:butt;stroke-linejoin:miter;stroke-opacity:1" d="M 929.303,64.4956 978.908,72.4881 z" id="boundary" inkscape:connector-curvature="0" />
	<path style="fill:none;stroke:red;stroke-width:1px;stroke-linecap:butt;stroke-linejoin:miter;stroke-opacity:1" d="M 978.908,72.4881 996,140.129 z" id="boundary" inkscape:connector-curvature="0" />
	<path style="fill:none;stroke:red;stroke-width:1px;stroke-linecap:butt;stroke-linejoin:miter;stroke-opacity:1" d="M 996,140.129 977.522,186.394 z" id="boundary" inkscape:connector-curvature="0" />
	<path style="fill:none;stroke:red;stroke-width:1px;stroke-linecap:butt;stroke-linejoin:miter;stroke-opacity:1" d="M 977.522,186.394 972.967,206.973 z" id="boundary" inkscape:connector-curvature="0" />
	<path style="fill:none;stroke:red;stroke-width:1px;stroke-linecap:butt;stroke-linejoin:miter;stroke-opacity:1" d="M 972.967,206.973 970.424,273.714 z" id="boundary" inkscape:connector-curvature="0" />
	<path style="fill:none;stroke:red;stroke-width:1px;stroke-linecap:butt;stroke-linejoin:miter;stroke-opacity:1" d="M 970.424,273.714 969.583,364.232 z" id="boundary" inkscape:connector-curvature="0" />
	<path style="fill:none;stroke:red;stroke-width:1px;stroke-linecap:butt;stroke-linejoin:miter;stroke-opacity:1" d="M 969.583,364.232 959.792,416.984 z" id="boundary" inkscape:connector-curvature="0" />
	<path style="fill:none;stroke:red;stroke-width:1px;stroke-linecap:butt;stroke-linejoin:miter;stroke-opacity:1" d="M 959.792,416.984 960.129,435.022 z" id="boundary" inkscape:connector-curvature="0" />
	<path style="fill:none;stroke:red;stroke-width:1px;stroke-linecap:butt;stroke-linejoin:miter;stroke-opacity:1" d="M 960.129,435.022 940.181,504.387 z" id="boundary" inkscape:connector-curvature="0" />
	<path style="fill:none;stroke:red;stroke-width:1px;stroke-linecap:butt;stroke-linejoin:miter;stroke-opacity:1" d="M 940.181,504.387 919.673,589.526 z" id="boundary" inkscape:connector-curvature="0" />
	<path style="fill:none;stroke:red;stroke-width:1px;stroke-linecap:butt;stroke-linejoin:miter;stroke-opacity:1" d="M 919.673,589.526 856.91,635.42 z" id="boundary" inkscape:connector-curvature="0" />
	<path style="fill:none;stroke:red;stroke-width:1px;stroke-linecap:butt;stroke-linejoin:miter;stroke-opacity:1" d="M 856.91,635.42 839.981,685.151 z" id="boundary" inkscape:connector-curvature="0" />
	<path style="fill:none;stroke:red;stroke-width:1px;stroke-linecap:butt;stroke-linejoin:miter;stroke-opacity:1" d="M 839.981,685.151 834.775,736.41 z" id="boundary" inkscape:connector-curvature="0" />
	<path style="fill:none;stroke:red;stroke-width:1px;stroke-linecap:butt;stroke-linejoin:miter;stroke-opacity:1" d="M 834.775,736.41 827.574,772.076 z" id="boundary" inkscape:connector-curvature="0" />
	<path style="fill:none;stroke:red;stroke-width:1px;stroke-linecap:butt;stroke-linejoin:miter;stroke-opacity:1" d="M 827.574,772.076 817.337,835.771 z" id="boundary" inkscape:connector-curvature="0" />
	<path style="fill:none;stroke:red;stroke-width:1px;stroke-linecap:butt;stroke-linejoin:miter;stroke-opacity:1" d="M 817.337,835.771 806.901,851.714 z" id="boundary" inkscape:connector-curvature="0" />
	<path style="fill:none;stroke:red;stroke-width:1px;stroke-linecap:butt;stroke-linejoin:miter;stroke-opacity:1" d="M 806.901,851.714 747.44,880.208 z" id="boundary" inkscape:connector-curvature="0" />
	<circle cx="238.527" cy="410.966" r="4" fill="#0" id="circle0"/>
	<circle cx="157.848" cy="364.029" r="4" fill="#0" id="circle1"/>
	<circle cx="163.081" cy="402.328" r="4" fill="#0" id="circle2"/>
	<circle cx="175.488" cy="372.175" r="4" fill="#0" id="circle3"/>
	<circle cx="167.915" cy="422.558" r="4" fill="#0" id="circle4"/>
	<circle cx="152.062" cy="453.014" r="4" fill="#0" id="circle5"/>
	<circle cx="176.174" cy="498.588" r="4" fill="#0" id="circle6"/>
	<circle cx="147.724" cy="490.869" r="4" fill="#0" id="circle7"/>
	<circle cx="194.096" cy="527.898" r="4" fill="#0" id="circle8"/>
	<circle cx="254.572" cy="563.962" r="4" fill="#0" id="circle9"/>
	<circle cx="294.856" cy="617.146" r="4" fill="#0" id="circle10"/>
	<circle cx="318.623" cy="584.705" r="4" fill="#0" id="circle11"/>
	<circle cx="326.179" cy="583.358" r="4" fill="#0" id="circle12"/>
	<circle cx="316.18" cy="567.12" r="4" fill="#0" id="circle13"/>
	<circle cx="238.056" cy="522.027" r="4" fill="#0" id="circle14"/>
	<circle cx="147.719" cy="440.362" r="4" fill="#0" id="circle15"/>
	<circle cx="259.632" cy="446.076" r="4" fill="#0" id="circle16"/>
	<circle cx="239.452" cy="242.901" r="4" fill="#0" id="circle17"/>
	<circle cx="214.482" cy="205.289" r="4" fill="#0" id="circle18"/>
	<circle cx="197.081" cy="235.414" r="4" fill="#0" id="circle19"/>
	<circle cx="142.076" cy="244.63" r="4" fill="#0" id="circle20"/>
	<circle cx="115.722" cy="253.174" r="4" fill="#0" id="circle21"/>
	<circle cx="97.704" cy="314.187" r="4" fill="#0" id="circle22"/>
	<circle cx="34.8219" cy="296.492" r="4" fill="#0" id="circle23"/>
	<circle cx="81.2935" cy="333.524" r="4" fill="#0" id="circle24"/>
	<circle cx="32.9261" cy="438.485" r="4" fill="#0" id="circle25"/>
	<circle cx="56.3999" cy="426.016" r="4" fill="#0" id="circle26"/>
	<circle cx="4" cy="493.451" r="4" fill="#0" id="circle27"/>
	<circle cx="78.7033" cy="555.972" r="4" fill="#0" id="circle28"/>
	<circle cx="62.6192" cy="585.919" r="4" fill="#0" id="circle29"/>
	<circle cx="95.2131" cy="553.284" r="4" fill="#0" id="circle30"/>
	<circle cx="60.6889" cy="596.161" r="4" fill="#0" id="circle31"/>
	<circle cx="138.464" cy="651.206" r="4" fill="#0" id="circle32"/>
	<circle cx="157.144" cy="657.965" r="4" fill="#0" id="circle33"/>
	<circle cx="182.642" cy="686.549" r="4" fill="#0" id="circle34"/>
	<circle cx="217.532" cy="754.659" r="4" fill="#0" id="circle35"/>
	<circle cx="261.395" cy="695.911" r="4" fill="#0" id="circle36"/>
	<circle cx="258.634" cy="730.857" r="4" fill="#0" id="circle37"/>
	<circle cx="288.25" cy="821.579" r="4" fill="#0" id="circle38"/>
	<circle cx="321.383" cy="846.297" r="4" fill="#0" id="circle39"/>
	<circle cx="368.935" cy="862.908" r="4" fill="#0" id="circle40"/>
	<circle cx="397.712" cy="845.632" r="4" fill="#0" id="circle41"/>
	<circle cx="403.888" cy="898.186" r="4" fill="#0" id="circle42"/>
	<circle cx="466.052" cy="896.148" r="4" fill="#0" id="circle43"/>
	<circle cx="493.11" cy="913.17" r="4" fill="#0" id="circle44"/>
	<circle cx="484.116" cy="941.584" r="4" fill="#0" id="circle45"/>
	<circle cx="557.35" cy="930.688" r="4" fill="#0" id="circle46"/>
	<circle cx="613.128" cy="924.149" r="4" fill="#0" id="circle47"/>
	<circle cx="669.471" cy="926.909" r="4" fill="#0" id="circle48"/>
	<circle cx="690.39" cy="931.916" r="4" fill="#0" id="circle49"/>
	<circle cx="740.166" cy="958.959" r="4" fill="#0" id="circle50"/>
	<circle cx="223.719" cy="181.128" r="4" fill="#0" id="circle51"/>
	<circle cx="290.491" cy="144.796" r="4" fill="#0" id="circle52"/>
	<circle cx="251.306" cy="134.957" r="4" fill="#0" id="circle53"/>
	<circle cx="272.425" cy="111.865" r="4" fill="#0" id="circle54"/>
	<circle cx="300.825" cy="93.8583" r="4" fill="#0" id="circle55"/>
	<circle cx="354.992" cy="79.5505" r="4" fill="#0" id="circle56"/>
	<circle cx="420.803" cy="65.4176" r="4" fill="#0" id="circle57"/>
	<circle cx="417.766" cy="25.0846" r="4" fill="#0" id="circle58"/>
	<circle cx="499.968" cy="25.4515" r="4" fill="#0" id="circle59"/>
	<circle cx="547.458" cy="33.0801" r="4" fill="#0" id="circle60"/>
	<circle cx="557.129" cy="17.8603" r="4" fill="#0" id="circle61"/>
	<circle cx="560.742" cy="4" r="4" fill="#0" id="circle62"/>
	<circle cx="627.011" cy="45.0872" r="4" fill="#0" id="circle63"/>
	<circle cx="651.484" cy="48.6784" r="4" fill="#0" id="circle64"/>
	<circle cx="727.806" cy="65.9716" r="4" fill="#0" id="circle65"/>
	<circle cx="750.288" cy="70.881" r="4" fill="#0" id="circle66"/>
	<circle cx="836.157" cy="38.2141" r="4" fill="#0" id="circle67"/>
	<circle cx="889.842" cy="45.6702" r="4" fill="#0" id="circle68"/>
	<circle cx="929.303" cy="64.4956" r="4" fill="#0" id="circle69"/>
	<circle cx="978.908" cy="72.4881" r="4" fill="#0" id="circle70"/>
	<circle cx="996" cy="140.129" r="4" fill="#0" id="circle71"/>
	<circle cx="977.522" cy="186.394" r="4" fill="#0" id="circle72"/>
	<circle cx="972.967" cy="206.973" r="4" fill="#0" id="circle73"/>
	<circle cx="956.904" cy="219.845" r="4" fill="#0" id="circle74"/>
	<circle cx="970.424" cy="273.714" r="4" fill="#0" id="circle75"/>
	<circle cx="969.583" cy="364.232" r="4" fill="#0" id="circle76"/>
	<circle cx="959.792" cy="416.984" r="4" fill="#0" id="circle77"/>
	<circle cx="960.129" cy="435.022" r="4" fill="#0" id="circle78"/>
	<circle cx="939.031" cy="446.962" r="4" fill="#0" id="circle79"/>
	<circle cx="940.181" cy="504.387" r="4" fill="#0" id="circle80"/>
	<circle cx="919.673" cy="589.526" r="4" fill="#0" id="circle81"/>
	<circle cx="856.91" cy="635.42" r="4" fill="#0" id="circle82"/>
	<circle cx="839.981" cy="685.151" r="4" fill="#0" id="circle83"/>
	<circle cx="834.775" cy="736.41" r="4" fill="#0" id="circle84"/>
	<circle cx="827.574" cy="772.076" r="4" fill="#0" id="circle85"/>
	<circle cx="875.236" cy="733.008" r="4" fill="#0" id="circle86"/>
	<circle cx="807.167" cy="825.36" r="4" fill="#0" id="circle87"/>
	<circle cx="817.337" cy="835.771" r="4" fill="#0" id="circle88"/>
	<circle cx="806.901" cy="851.714" r="4" fill="#0" id="circle89"/>
	<circle cx="747.44" cy="880.208" r="4" fill="#0" id="circle90"/>
	</g>
</svg>