<?xml version="1.0" encoding="UTF-8" standalone="no"?>
<!-- Created with CurveBenchmark -->
<svg
	xmlns:dc="http://purl.org/dc/elements/1.1/"
	xmlns:cc="http://creativecommons.org/ns#"
	xmlns:rdf="http://www.w3.org/1999/02/22-rdf-syntax-ns#"
	xmlns:svg="http://www.w3.org/2000/svg"
	xmlns="http://www.w3.org/2000/svg"
	xmlns:sodipodi="http://sodipodi.sourceforge.net/DTD/sodipodi-0.dtd"
	xmlns:inkscape="http://www.inkscape.org/namespaces/inkscape"
	width="1000"
	height="1000"
	id="svg2"
	version="1.1"
	sodipodi:docname="Non-manifold/ccrust-nm5out.txt">
<defs
	id="defs4" />
<metadata
	id="metadata7">
	<rdf:RDF>
		<cc:Work
			rdf:about="">
			<dc:format>image/svg+xml</dc:format>
			<dc:type
				rdf:resource="http://purl.org/dc/dcmitype/StillImage" />
			<dc:title></dc:title>
		</cc:Work>
	</rdf:RDF>
</metadata>
<g
	inkscape:label="Layer 1"
	inkscape:groupmode="layer"
	id="layer1">
	<path style="fill:none;stroke:red;stroke-width:1px;stroke-linecap:butt;stroke-linejoin:miter;stroke-opacity:1" d="M 172.905,299.729 204.253,281.79 z" id="boundary" inkscape:connector-curvature="0" />
	<path style="fill:none;stroke:red;stroke-width:1px;stroke-linecap:butt;stroke-linejoin:miter;stroke-opacity:1" d="M 246.78,278.662 204.253,281.79 z" id="boundary" inkscape:connector-curvature="0" />
	<path style="fill:none;stroke:red;stroke-width:1px;stroke-linecap:butt;stroke-linejoin:miter;stroke-opacity:1" d="M 267.154,248.819 246.78,278.662 z" id="boundary" inkscape:connector-curvature="0" />
	<path style="fill:none;stroke:red;stroke-width:1px;stroke-linecap:butt;stroke-linejoin:miter;stroke-opacity:1" d="M 329.648,223.807 303.001,234.485 z" id="boundary" inkscape:connector-curvature="0" />
	<path style="fill:none;stroke:red;stroke-width:1px;stroke-linecap:butt;stroke-linejoin:miter;stroke-opacity:1" d="M 293.401,115.245 265.82,197.161 z" id="boundary" inkscape:connector-curvature="0" />
	<path style="fill:none;stroke:red;stroke-width:1px;stroke-linecap:butt;stroke-linejoin:miter;stroke-opacity:1" d="M 267.154,248.819 303.001,234.485 z" id="boundary" inkscape:connector-curvature="0" />
	<path style="fill:none;stroke:red;stroke-width:1px;stroke-linecap:butt;stroke-linejoin:miter;stroke-opacity:1" d="M 172.905,299.729 141.556,319.812 z" id="boundary" inkscape:connector-curvature="0" />
	<path style="fill:none;stroke:red;stroke-width:1px;stroke-linecap:butt;stroke-linejoin:miter;stroke-opacity:1" d="M 47.5107,398 78.8592,367.692 z" id="boundary" inkscape:connector-curvature="0" />
	<path style="fill:none;stroke:red;stroke-width:1px;stroke-linecap:butt;stroke-linejoin:miter;stroke-opacity:1" d="M 110.208,342.16 78.8592,367.692 z" id="boundary" inkscape:connector-curvature="0" />
	<path style="fill:none;stroke:red;stroke-width:1px;stroke-linecap:butt;stroke-linejoin:miter;stroke-opacity:1" d="M 317.892,62.4461 293.401,115.245 z" id="boundary" inkscape:connector-curvature="0" />
	<path style="fill:none;stroke:red;stroke-width:1px;stroke-linecap:butt;stroke-linejoin:miter;stroke-opacity:1" d="M 233.643,338.915 225.806,390.836 z" id="boundary" inkscape:connector-curvature="0" />
	<path style="fill:none;stroke:red;stroke-width:1px;stroke-linecap:butt;stroke-linejoin:miter;stroke-opacity:1" d="M 225.806,390.836 220.907,446.349 z" id="boundary" inkscape:connector-curvature="0" />
	<path style="fill:none;stroke:red;stroke-width:1px;stroke-linecap:butt;stroke-linejoin:miter;stroke-opacity:1" d="M 110.208,342.16 141.556,319.812 z" id="boundary" inkscape:connector-curvature="0" />
	<path style="fill:none;stroke:red;stroke-width:1px;stroke-linecap:butt;stroke-linejoin:miter;stroke-opacity:1" d="M 317.892,62.4461 347.281,15.6945 z" id="boundary" inkscape:connector-curvature="0" />
	<path style="fill:none;stroke:red;stroke-width:1px;stroke-linecap:butt;stroke-linejoin:miter;stroke-opacity:1" d="M 347.281,15.6945 378.63,4 z" id="boundary" inkscape:connector-curvature="0" />
	<path style="fill:none;stroke:red;stroke-width:1px;stroke-linecap:butt;stroke-linejoin:miter;stroke-opacity:1" d="M 378.63,4 409.978,10.0003 z" id="boundary" inkscape:connector-curvature="0" />
	<path style="fill:none;stroke:red;stroke-width:1px;stroke-linecap:butt;stroke-linejoin:miter;stroke-opacity:1" d="M 409.978,10.0003 441.327,18.3273 z" id="boundary" inkscape:connector-curvature="0" />
	<path style="fill:none;stroke:red;stroke-width:1px;stroke-linecap:butt;stroke-linejoin:miter;stroke-opacity:1" d="M 441.327,18.3273 472.675,29.1646 z" id="boundary" inkscape:connector-curvature="0" />
	<path style="fill:none;stroke:red;stroke-width:1px;stroke-linecap:butt;stroke-linejoin:miter;stroke-opacity:1" d="M 504.024,42.3285 472.675,29.1646 z" id="boundary" inkscape:connector-curvature="0" />
	<path style="fill:none;stroke:red;stroke-width:1px;stroke-linecap:butt;stroke-linejoin:miter;stroke-opacity:1" d="M 360.996,212.235 392.345,201.52 z" id="boundary" inkscape:connector-curvature="0" />
	<path style="fill:none;stroke:red;stroke-width:1px;stroke-linecap:butt;stroke-linejoin:miter;stroke-opacity:1" d="M 360.996,212.235 329.648,223.807 z" id="boundary" inkscape:connector-curvature="0" />
	<path style="fill:none;stroke:red;stroke-width:1px;stroke-linecap:butt;stroke-linejoin:miter;stroke-opacity:1" d="M 392.345,201.52 423.693,191.785 z" id="boundary" inkscape:connector-curvature="0" />
	<path style="fill:none;stroke:red;stroke-width:1px;stroke-linecap:butt;stroke-linejoin:miter;stroke-opacity:1" d="M 517.739,168.029 486.39,175.009 z" id="boundary" inkscape:connector-curvature="0" />
	<path style="fill:none;stroke:red;stroke-width:1px;stroke-linecap:butt;stroke-linejoin:miter;stroke-opacity:1" d="M 455.042,182.907 423.693,191.785 z" id="boundary" inkscape:connector-curvature="0" />
	<path style="fill:none;stroke:red;stroke-width:1px;stroke-linecap:butt;stroke-linejoin:miter;stroke-opacity:1" d="M 486.39,175.009 455.042,182.907 z" id="boundary" inkscape:connector-curvature="0" />
	<path style="fill:none;stroke:red;stroke-width:1px;stroke-linecap:butt;stroke-linejoin:miter;stroke-opacity:1" d="M 504.024,42.3285 535.372,57.6966 z" id="boundary" inkscape:connector-curvature="0" />
	<path style="fill:none;stroke:red;stroke-width:1px;stroke-linecap:butt;stroke-linejoin:miter;stroke-opacity:1" d="M 71.0221,575.499 39.6735,532.394 z" id="boundary" inkscape:connector-curvature="0" />
	<path style="fill:none;stroke:red;stroke-width:1px;stroke-linecap:butt;stroke-linejoin:miter;stroke-opacity:1" d="M 39.6735,532.394 4,456.396 z" id="boundary" inkscape:connector-curvature="0" />
	<path style="fill:none;stroke:red;stroke-width:1px;stroke-linecap:butt;stroke-linejoin:miter;stroke-opacity:1" d="M 4,456.396 47.5107,398 z" id="boundary" inkscape:connector-curvature="0" />
	<path style="fill:none;stroke:red;stroke-width:1px;stroke-linecap:butt;stroke-linejoin:miter;stroke-opacity:1" d="M 216.009,533.864 216.499,611.011 z" id="boundary" inkscape:connector-curvature="0" />
	<path style="fill:none;stroke:red;stroke-width:1px;stroke-linecap:butt;stroke-linejoin:miter;stroke-opacity:1" d="M 102.371,609.786 71.0221,575.499 z" id="boundary" inkscape:connector-curvature="0" />
	<path style="fill:none;stroke:red;stroke-width:1px;stroke-linecap:butt;stroke-linejoin:miter;stroke-opacity:1" d="M 165.068,663.789 133.719,638.502 z" id="boundary" inkscape:connector-curvature="0" />
	<path style="fill:none;stroke:red;stroke-width:1px;stroke-linecap:butt;stroke-linejoin:miter;stroke-opacity:1" d="M 133.719,638.502 102.371,609.786 z" id="boundary" inkscape:connector-curvature="0" />
	<path style="fill:none;stroke:red;stroke-width:1px;stroke-linecap:butt;stroke-linejoin:miter;stroke-opacity:1" d="M 310.055,749.018 278.706,733.833 z" id="boundary" inkscape:connector-curvature="0" />
	<path style="fill:none;stroke:red;stroke-width:1px;stroke-linecap:butt;stroke-linejoin:miter;stroke-opacity:1" d="M 220.907,446.349 216.009,533.864 z" id="boundary" inkscape:connector-curvature="0" />
	<path style="fill:none;stroke:red;stroke-width:1px;stroke-linecap:butt;stroke-linejoin:miter;stroke-opacity:1" d="M 196.416,685.77 165.068,663.789 z" id="boundary" inkscape:connector-curvature="0" />
	<path style="fill:none;stroke:red;stroke-width:1px;stroke-linecap:butt;stroke-linejoin:miter;stroke-opacity:1" d="M 226.197,701.291 196.416,685.77 z" id="boundary" inkscape:connector-curvature="0" />
	<path style="fill:none;stroke:red;stroke-width:1px;stroke-linecap:butt;stroke-linejoin:miter;stroke-opacity:1" d="M 226.197,701.291 234.443,748.073 z" id="boundary" inkscape:connector-curvature="0" />
	<path style="fill:none;stroke:red;stroke-width:1px;stroke-linecap:butt;stroke-linejoin:miter;stroke-opacity:1" d="M 234.443,748.073 278.706,733.833 z" id="boundary" inkscape:connector-curvature="0" />
	<path style="fill:none;stroke:red;stroke-width:1px;stroke-linecap:butt;stroke-linejoin:miter;stroke-opacity:1" d="M 256.174,831.076 277.727,882.277 z" id="boundary" inkscape:connector-curvature="0" />
	<path style="fill:none;stroke:red;stroke-width:1px;stroke-linecap:butt;stroke-linejoin:miter;stroke-opacity:1" d="M 277.727,882.277 306.136,929.149 z" id="boundary" inkscape:connector-curvature="0" />
	<path style="fill:none;stroke:red;stroke-width:1px;stroke-linecap:butt;stroke-linejoin:miter;stroke-opacity:1" d="M 341.403,762.733 310.055,749.018 z" id="boundary" inkscape:connector-curvature="0" />
	<path style="fill:none;stroke:red;stroke-width:1px;stroke-linecap:butt;stroke-linejoin:miter;stroke-opacity:1" d="M 372.752,775.101 341.403,762.733 z" id="boundary" inkscape:connector-curvature="0" />
	<path style="fill:none;stroke:red;stroke-width:1px;stroke-linecap:butt;stroke-linejoin:miter;stroke-opacity:1" d="M 372.752,775.101 404.1,786.305 z" id="boundary" inkscape:connector-curvature="0" />
	<path style="fill:none;stroke:red;stroke-width:1px;stroke-linecap:butt;stroke-linejoin:miter;stroke-opacity:1" d="M 404.1,786.305 435.449,796.347 z" id="boundary" inkscape:connector-curvature="0" />
	<path style="fill:none;stroke:red;stroke-width:1px;stroke-linecap:butt;stroke-linejoin:miter;stroke-opacity:1" d="M 466.797,805.347 498.146,813.184 z" id="boundary" inkscape:connector-curvature="0" />
	<path style="fill:none;stroke:red;stroke-width:1px;stroke-linecap:butt;stroke-linejoin:miter;stroke-opacity:1" d="M 435.449,796.347 466.797,805.347 z" id="boundary" inkscape:connector-curvature="0" />
	<path style="fill:none;stroke:red;stroke-width:1px;stroke-linecap:butt;stroke-linejoin:miter;stroke-opacity:1" d="M 431.53,984.499 400.182,990.989 z" id="boundary" inkscape:connector-curvature="0" />
	<path style="fill:none;stroke:red;stroke-width:1px;stroke-linecap:butt;stroke-linejoin:miter;stroke-opacity:1" d="M 400.182,990.989 368.833,987.254 z" id="boundary" inkscape:connector-curvature="0" />
	<path style="fill:none;stroke:red;stroke-width:1px;stroke-linecap:butt;stroke-linejoin:miter;stroke-opacity:1" d="M 368.833,987.254 337.485,964.294 z" id="boundary" inkscape:connector-curvature="0" />
	<path style="fill:none;stroke:red;stroke-width:1px;stroke-linecap:butt;stroke-linejoin:miter;stroke-opacity:1" d="M 337.485,964.294 306.136,929.149 z" id="boundary" inkscape:connector-curvature="0" />
	<path style="fill:none;stroke:red;stroke-width:1px;stroke-linecap:butt;stroke-linejoin:miter;stroke-opacity:1" d="M 494.227,956.702 525.576,937.415 z" id="boundary" inkscape:connector-curvature="0" />
	<path style="fill:none;stroke:red;stroke-width:1px;stroke-linecap:butt;stroke-linejoin:miter;stroke-opacity:1" d="M 462.879,972.682 431.53,984.499 z" id="boundary" inkscape:connector-curvature="0" />
	<path style="fill:none;stroke:red;stroke-width:1px;stroke-linecap:butt;stroke-linejoin:miter;stroke-opacity:1" d="M 462.879,972.682 494.227,956.702 z" id="boundary" inkscape:connector-curvature="0" />
	<path style="fill:none;stroke:red;stroke-width:1px;stroke-linecap:butt;stroke-linejoin:miter;stroke-opacity:1" d="M 498.146,813.184 529.495,819.919 z" id="boundary" inkscape:connector-curvature="0" />
	<path style="fill:none;stroke:red;stroke-width:1px;stroke-linecap:butt;stroke-linejoin:miter;stroke-opacity:1" d="M 535.372,57.6966 566.721,75.5139 z" id="boundary" inkscape:connector-curvature="0" />
	<path style="fill:none;stroke:red;stroke-width:1px;stroke-linecap:butt;stroke-linejoin:miter;stroke-opacity:1" d="M 799.876,151.559 768.527,148.252 z" id="boundary" inkscape:connector-curvature="0" />
	<path style="fill:none;stroke:red;stroke-width:1px;stroke-linecap:butt;stroke-linejoin:miter;stroke-opacity:1" d="M 598.069,97.417 566.721,75.5139 z" id="boundary" inkscape:connector-curvature="0" />
	<path style="fill:none;stroke:red;stroke-width:1px;stroke-linecap:butt;stroke-linejoin:miter;stroke-opacity:1" d="M 665.692,148.938 642.156,126.972 z" id="boundary" inkscape:connector-curvature="0" />
	<path style="fill:none;stroke:red;stroke-width:1px;stroke-linecap:butt;stroke-linejoin:miter;stroke-opacity:1" d="M 737.179,146.538 768.527,148.252 z" id="boundary" inkscape:connector-curvature="0" />
	<path style="fill:none;stroke:red;stroke-width:1px;stroke-linecap:butt;stroke-linejoin:miter;stroke-opacity:1" d="M 737.179,146.538 694.723,174.135 z" id="boundary" inkscape:connector-curvature="0" />
	<path style="fill:none;stroke:red;stroke-width:1px;stroke-linecap:butt;stroke-linejoin:miter;stroke-opacity:1" d="M 694.723,174.135 665.692,148.938 z" id="boundary" inkscape:connector-curvature="0" />
	<path style="fill:none;stroke:red;stroke-width:1px;stroke-linecap:butt;stroke-linejoin:miter;stroke-opacity:1" d="M 642.156,126.972 611.957,152.261 z" id="boundary" inkscape:connector-curvature="0" />
	<path style="fill:none;stroke:red;stroke-width:1px;stroke-linecap:butt;stroke-linejoin:miter;stroke-opacity:1" d="M 549.087,161.967 580.436,156.763 z" id="boundary" inkscape:connector-curvature="0" />
	<path style="fill:none;stroke:red;stroke-width:1px;stroke-linecap:butt;stroke-linejoin:miter;stroke-opacity:1" d="M 611.957,152.261 580.436,156.763 z" id="boundary" inkscape:connector-curvature="0" />
	<path style="fill:none;stroke:red;stroke-width:1px;stroke-linecap:butt;stroke-linejoin:miter;stroke-opacity:1" d="M 737.179,216.399 768.527,251.482 z" id="boundary" inkscape:connector-curvature="0" />
	<path style="fill:none;stroke:red;stroke-width:1px;stroke-linecap:butt;stroke-linejoin:miter;stroke-opacity:1" d="M 799.876,151.559 831.224,156.457 z" id="boundary" inkscape:connector-curvature="0" />
	<path style="fill:none;stroke:red;stroke-width:1px;stroke-linecap:butt;stroke-linejoin:miter;stroke-opacity:1" d="M 768.527,251.482 799.876,289.994 z" id="boundary" inkscape:connector-curvature="0" />
	<path style="fill:none;stroke:red;stroke-width:1px;stroke-linecap:butt;stroke-linejoin:miter;stroke-opacity:1" d="M 517.739,168.029 549.087,161.967 z" id="boundary" inkscape:connector-curvature="0" />
	<path style="fill:none;stroke:red;stroke-width:1px;stroke-linecap:butt;stroke-linejoin:miter;stroke-opacity:1" d="M 862.573,163.62 831.224,156.457 z" id="boundary" inkscape:connector-curvature="0" />
	<path style="fill:none;stroke:red;stroke-width:1px;stroke-linecap:butt;stroke-linejoin:miter;stroke-opacity:1" d="M 862.573,163.62 893.921,173.233 z" id="boundary" inkscape:connector-curvature="0" />
	<path style="fill:none;stroke:red;stroke-width:1px;stroke-linecap:butt;stroke-linejoin:miter;stroke-opacity:1" d="M 925.27,186.091 956.618,203.296 z" id="boundary" inkscape:connector-curvature="0" />
	<path style="fill:none;stroke:red;stroke-width:1px;stroke-linecap:butt;stroke-linejoin:miter;stroke-opacity:1" d="M 984.048,228.787 996,289.443 z" id="boundary" inkscape:connector-curvature="0" />
	<path style="fill:none;stroke:red;stroke-width:1px;stroke-linecap:butt;stroke-linejoin:miter;stroke-opacity:1" d="M 956.618,203.296 984.048,228.787 z" id="boundary" inkscape:connector-curvature="0" />
	<path style="fill:none;stroke:red;stroke-width:1px;stroke-linecap:butt;stroke-linejoin:miter;stroke-opacity:1" d="M 893.921,173.233 925.27,186.091 z" id="boundary" inkscape:connector-curvature="0" />
	<path style="fill:none;stroke:red;stroke-width:1px;stroke-linecap:butt;stroke-linejoin:miter;stroke-opacity:1" d="M 799.876,289.994 831.224,332.731 z" id="boundary" inkscape:connector-curvature="0" />
	<path style="fill:none;stroke:red;stroke-width:1px;stroke-linecap:butt;stroke-linejoin:miter;stroke-opacity:1" d="M 831.224,332.731 862.573,380.305 z" id="boundary" inkscape:connector-curvature="0" />
	<path style="fill:none;stroke:red;stroke-width:1px;stroke-linecap:butt;stroke-linejoin:miter;stroke-opacity:1" d="M 891.962,430.792 862.573,380.305 z" id="boundary" inkscape:connector-curvature="0" />
	<path style="fill:none;stroke:red;stroke-width:1px;stroke-linecap:butt;stroke-linejoin:miter;stroke-opacity:1" d="M 970.333,386.232 986.008,337.119 z" id="boundary" inkscape:connector-curvature="0" />
	<path style="fill:none;stroke:red;stroke-width:1px;stroke-linecap:butt;stroke-linejoin:miter;stroke-opacity:1" d="M 970.333,386.232 948.781,436.798 z" id="boundary" inkscape:connector-curvature="0" />
	<path style="fill:none;stroke:red;stroke-width:1px;stroke-linecap:butt;stroke-linejoin:miter;stroke-opacity:1" d="M 921.351,482.093 948.781,436.798 z" id="boundary" inkscape:connector-curvature="0" />
	<path style="fill:none;stroke:red;stroke-width:1px;stroke-linecap:butt;stroke-linejoin:miter;stroke-opacity:1" d="M 996,289.443 986.008,337.119 z" id="boundary" inkscape:connector-curvature="0" />
	<path style="fill:none;stroke:red;stroke-width:1px;stroke-linecap:butt;stroke-linejoin:miter;stroke-opacity:1" d="M 591.473,830.156 560.843,825.797 z" id="boundary" inkscape:connector-curvature="0" />
	<path style="fill:none;stroke:red;stroke-width:1px;stroke-linecap:butt;stroke-linejoin:miter;stroke-opacity:1" d="M 560.843,825.797 529.495,819.919 z" id="boundary" inkscape:connector-curvature="0" />
	<path style="fill:none;stroke:red;stroke-width:1px;stroke-linecap:butt;stroke-linejoin:miter;stroke-opacity:1" d="M 807.713,831.185 776.364,835.043 z" id="boundary" inkscape:connector-curvature="0" />
	<path style="fill:none;stroke:red;stroke-width:1px;stroke-linecap:butt;stroke-linejoin:miter;stroke-opacity:1" d="M 745.016,736.65 713.667,771.55 z" id="boundary" inkscape:connector-curvature="0" />
	<path style="fill:none;stroke:red;stroke-width:1px;stroke-linecap:butt;stroke-linejoin:miter;stroke-opacity:1" d="M 713.667,838.043 684.33,807.917 z" id="boundary" inkscape:connector-curvature="0" />
	<path style="fill:none;stroke:red;stroke-width:1px;stroke-linecap:butt;stroke-linejoin:miter;stroke-opacity:1" d="M 684.33,807.917 713.667,771.55 z" id="boundary" inkscape:connector-curvature="0" />
	<path style="fill:none;stroke:red;stroke-width:1px;stroke-linecap:butt;stroke-linejoin:miter;stroke-opacity:1" d="M 776.364,699.607 745.016,736.65 z" id="boundary" inkscape:connector-curvature="0" />
	<path style="fill:none;stroke:red;stroke-width:1px;stroke-linecap:butt;stroke-linejoin:miter;stroke-opacity:1" d="M 684.33,807.917 650.97,835.616 z" id="boundary" inkscape:connector-curvature="0" />
	<path style="fill:none;stroke:red;stroke-width:1px;stroke-linecap:butt;stroke-linejoin:miter;stroke-opacity:1" d="M 591.473,830.156 620.471,862.914 z" id="boundary" inkscape:connector-curvature="0" />
	<path style="fill:none;stroke:red;stroke-width:1px;stroke-linecap:butt;stroke-linejoin:miter;stroke-opacity:1" d="M 620.471,862.914 589.137,889.099 z" id="boundary" inkscape:connector-curvature="0" />
	<path style="fill:none;stroke:red;stroke-width:1px;stroke-linecap:butt;stroke-linejoin:miter;stroke-opacity:1" d="M 589.137,889.099 556.925,915.312 z" id="boundary" inkscape:connector-curvature="0" />
	<path style="fill:none;stroke:red;stroke-width:1px;stroke-linecap:butt;stroke-linejoin:miter;stroke-opacity:1" d="M 776.364,835.043 745.016,837.308 z" id="boundary" inkscape:connector-curvature="0" />
	<path style="fill:none;stroke:red;stroke-width:1px;stroke-linecap:butt;stroke-linejoin:miter;stroke-opacity:1" d="M 713.667,838.043 745.016,837.308 z" id="boundary" inkscape:connector-curvature="0" />
	<path style="fill:none;stroke:red;stroke-width:1px;stroke-linecap:butt;stroke-linejoin:miter;stroke-opacity:1" d="M 620.471,862.914 650.97,835.616 z" id="boundary" inkscape:connector-curvature="0" />
	<path style="fill:none;stroke:red;stroke-width:1px;stroke-linecap:butt;stroke-linejoin:miter;stroke-opacity:1" d="M 556.925,915.312 525.576,937.415 z" id="boundary" inkscape:connector-curvature="0" />
	<path style="fill:none;stroke:red;stroke-width:1px;stroke-linecap:butt;stroke-linejoin:miter;stroke-opacity:1" d="M 839.061,618.236 807.713,660.238 z" id="boundary" inkscape:connector-curvature="0" />
	<path style="fill:none;stroke:red;stroke-width:1px;stroke-linecap:butt;stroke-linejoin:miter;stroke-opacity:1" d="M 807.713,660.238 776.364,699.607 z" id="boundary" inkscape:connector-curvature="0" />
	<path style="fill:none;stroke:red;stroke-width:1px;stroke-linecap:butt;stroke-linejoin:miter;stroke-opacity:1" d="M 839.061,618.236 870.41,573.05 z" id="boundary" inkscape:connector-curvature="0" />
	<path style="fill:none;stroke:red;stroke-width:1px;stroke-linecap:butt;stroke-linejoin:miter;stroke-opacity:1" d="M 941.924,538.094 960.537,591.418 z" id="boundary" inkscape:connector-curvature="0" />
	<path style="fill:none;stroke:red;stroke-width:1px;stroke-linecap:butt;stroke-linejoin:miter;stroke-opacity:1" d="M 941.924,538.094 898.82,528.853 z" id="boundary" inkscape:connector-curvature="0" />
	<path style="fill:none;stroke:red;stroke-width:1px;stroke-linecap:butt;stroke-linejoin:miter;stroke-opacity:1" d="M 960.537,591.418 973.272,641.135 z" id="boundary" inkscape:connector-curvature="0" />
	<path style="fill:none;stroke:red;stroke-width:1px;stroke-linecap:butt;stroke-linejoin:miter;stroke-opacity:1" d="M 870.41,573.05 898.82,528.853 z" id="boundary" inkscape:connector-curvature="0" />
	<path style="fill:none;stroke:red;stroke-width:1px;stroke-linecap:butt;stroke-linejoin:miter;stroke-opacity:1" d="M 973.272,641.135 982.089,694.525 z" id="boundary" inkscape:connector-curvature="0" />
	<path style="fill:none;stroke:red;stroke-width:1px;stroke-linecap:butt;stroke-linejoin:miter;stroke-opacity:1" d="M 870.41,818.45 901.758,809.082 z" id="boundary" inkscape:connector-curvature="0" />
	<path style="fill:none;stroke:red;stroke-width:1px;stroke-linecap:butt;stroke-linejoin:miter;stroke-opacity:1" d="M 807.713,831.185 839.061,825.675 z" id="boundary" inkscape:connector-curvature="0" />
	<path style="fill:none;stroke:red;stroke-width:1px;stroke-linecap:butt;stroke-linejoin:miter;stroke-opacity:1" d="M 870.41,818.45 839.061,825.675 z" id="boundary" inkscape:connector-curvature="0" />
	<path style="fill:none;stroke:red;stroke-width:1px;stroke-linecap:butt;stroke-linejoin:miter;stroke-opacity:1" d="M 982.089,694.525 983.461,748.895 z" id="boundary" inkscape:connector-curvature="0" />
	<path style="fill:none;stroke:red;stroke-width:1px;stroke-linecap:butt;stroke-linejoin:miter;stroke-opacity:1" d="M 964.456,781.713 933.107,797.204 z" id="boundary" inkscape:connector-curvature="0" />
	<path style="fill:none;stroke:red;stroke-width:1px;stroke-linecap:butt;stroke-linejoin:miter;stroke-opacity:1" d="M 983.461,748.895 964.456,781.713 z" id="boundary" inkscape:connector-curvature="0" />
	<path style="fill:none;stroke:red;stroke-width:1px;stroke-linecap:butt;stroke-linejoin:miter;stroke-opacity:1" d="M 933.107,797.204 901.758,809.082 z" id="boundary" inkscape:connector-curvature="0" />
	<circle cx="4" cy="456.396" r="4" fill="#0" id="circle0"/>
	<circle cx="47.5107" cy="398" r="4" fill="#0" id="circle1"/>
	<circle cx="78.8592" cy="367.692" r="4" fill="#0" id="circle2"/>
	<circle cx="110.208" cy="342.16" r="4" fill="#0" id="circle3"/>
	<circle cx="141.556" cy="319.812" r="4" fill="#0" id="circle4"/>
	<circle cx="172.905" cy="299.729" r="4" fill="#0" id="circle5"/>
	<circle cx="204.253" cy="281.79" r="4" fill="#0" id="circle6"/>
	<circle cx="267.154" cy="248.819" r="4" fill="#0" id="circle7"/>
	<circle cx="303.001" cy="234.485" r="4" fill="#0" id="circle8"/>
	<circle cx="329.648" cy="223.807" r="4" fill="#0" id="circle9"/>
	<circle cx="360.996" cy="212.235" r="4" fill="#0" id="circle10"/>
	<circle cx="392.345" cy="201.52" r="4" fill="#0" id="circle11"/>
	<circle cx="423.693" cy="191.785" r="4" fill="#0" id="circle12"/>
	<circle cx="455.042" cy="182.907" r="4" fill="#0" id="circle13"/>
	<circle cx="486.39" cy="175.009" r="4" fill="#0" id="circle14"/>
	<circle cx="517.739" cy="168.029" r="4" fill="#0" id="circle15"/>
	<circle cx="549.087" cy="161.967" r="4" fill="#0" id="circle16"/>
	<circle cx="580.436" cy="156.763" r="4" fill="#0" id="circle17"/>
	<circle cx="611.957" cy="152.261" r="4" fill="#0" id="circle18"/>
	<circle cx="665.692" cy="148.938" r="4" fill="#0" id="circle19"/>
	<circle cx="737.179" cy="146.538" r="4" fill="#0" id="circle20"/>
	<circle cx="768.527" cy="148.252" r="4" fill="#0" id="circle21"/>
	<circle cx="799.876" cy="151.559" r="4" fill="#0" id="circle22"/>
	<circle cx="831.224" cy="156.457" r="4" fill="#0" id="circle23"/>
	<circle cx="862.573" cy="163.62" r="4" fill="#0" id="circle24"/>
	<circle cx="893.921" cy="173.233" r="4" fill="#0" id="circle25"/>
	<circle cx="925.27" cy="186.091" r="4" fill="#0" id="circle26"/>
	<circle cx="956.618" cy="203.296" r="4" fill="#0" id="circle27"/>
	<circle cx="984.048" cy="228.787" r="4" fill="#0" id="circle28"/>
	<circle cx="996" cy="289.443" r="4" fill="#0" id="circle29"/>
	<circle cx="986.008" cy="337.119" r="4" fill="#0" id="circle30"/>
	<circle cx="970.333" cy="386.232" r="4" fill="#0" id="circle31"/>
	<circle cx="948.781" cy="436.798" r="4" fill="#0" id="circle32"/>
	<circle cx="921.351" cy="482.093" r="4" fill="#0" id="circle33"/>
	<circle cx="898.82" cy="528.853" r="4" fill="#0" id="circle34"/>
	<circle cx="870.41" cy="573.05" r="4" fill="#0" id="circle35"/>
	<circle cx="839.061" cy="618.236" r="4" fill="#0" id="circle36"/>
	<circle cx="807.713" cy="660.238" r="4" fill="#0" id="circle37"/>
	<circle cx="776.364" cy="699.607" r="4" fill="#0" id="circle38"/>
	<circle cx="745.016" cy="736.65" r="4" fill="#0" id="circle39"/>
	<circle cx="713.667" cy="771.55" r="4" fill="#0" id="circle40"/>
	<circle cx="684.33" cy="807.917" r="4" fill="#0" id="circle41"/>
	<circle cx="650.97" cy="835.616" r="4" fill="#0" id="circle42"/>
	<circle cx="620.471" cy="862.914" r="4" fill="#0" id="circle43"/>
	<circle cx="589.137" cy="889.099" r="4" fill="#0" id="circle44"/>
	<circle cx="556.925" cy="915.312" r="4" fill="#0" id="circle45"/>
	<circle cx="525.576" cy="937.415" r="4" fill="#0" id="circle46"/>
	<circle cx="494.227" cy="956.702" r="4" fill="#0" id="circle47"/>
	<circle cx="462.879" cy="972.682" r="4" fill="#0" id="circle48"/>
	<circle cx="431.53" cy="984.499" r="4" fill="#0" id="circle49"/>
	<circle cx="400.182" cy="990.989" r="4" fill="#0" id="circle50"/>
	<circle cx="368.833" cy="987.254" r="4" fill="#0" id="circle51"/>
	<circle cx="337.485" cy="964.294" r="4" fill="#0" id="circle52"/>
	<circle cx="306.136" cy="929.149" r="4" fill="#0" id="circle53"/>
	<circle cx="277.727" cy="882.277" r="4" fill="#0" id="circle54"/>
	<circle cx="256.174" cy="831.076" r="4" fill="#0" id="circle55"/>
	<circle cx="234.443" cy="748.073" r="4" fill="#0" id="circle56"/>
	<circle cx="226.197" cy="701.291" r="4" fill="#0" id="circle57"/>
	<circle cx="216.499" cy="611.011" r="4" fill="#0" id="circle58"/>
	<circle cx="216.009" cy="533.864" r="4" fill="#0" id="circle59"/>
	<circle cx="220.907" cy="446.349" r="4" fill="#0" id="circle60"/>
	<circle cx="225.806" cy="390.836" r="4" fill="#0" id="circle61"/>
	<circle cx="233.643" cy="338.915" r="4" fill="#0" id="circle62"/>
	<circle cx="246.78" cy="278.662" r="4" fill="#0" id="circle63"/>
	<circle cx="265.82" cy="197.161" r="4" fill="#0" id="circle64"/>
	<circle cx="293.401" cy="115.245" r="4" fill="#0" id="circle65"/>
	<circle cx="317.892" cy="62.4461" r="4" fill="#0" id="circle66"/>
	<circle cx="347.281" cy="15.6945" r="4" fill="#0" id="circle67"/>
	<circle cx="378.63" cy="4" r="4" fill="#0" id="circle68"/>
	<circle cx="409.978" cy="10.0003" r="4" fill="#0" id="circle69"/>
	<circle cx="441.327" cy="18.3273" r="4" fill="#0" id="circle70"/>
	<circle cx="472.675" cy="29.1646" r="4" fill="#0" id="circle71"/>
	<circle cx="504.024" cy="42.3285" r="4" fill="#0" id="circle72"/>
	<circle cx="535.372" cy="57.6966" r="4" fill="#0" id="circle73"/>
	<circle cx="566.721" cy="75.5139" r="4" fill="#0" id="circle74"/>
	<circle cx="598.069" cy="97.417" r="4" fill="#0" id="circle75"/>
	<circle cx="642.156" cy="126.972" r="4" fill="#0" id="circle76"/>
	<circle cx="665.692" cy="148.938" r="4" fill="#0" id="circle77"/>
	<circle cx="694.723" cy="174.135" r="4" fill="#0" id="circle78"/>
	<circle cx="737.179" cy="216.399" r="4" fill="#0" id="circle79"/>
	<circle cx="768.527" cy="251.482" r="4" fill="#0" id="circle80"/>
	<circle cx="799.876" cy="289.994" r="4" fill="#0" id="circle81"/>
	<circle cx="831.224" cy="332.731" r="4" fill="#0" id="circle82"/>
	<circle cx="862.573" cy="380.305" r="4" fill="#0" id="circle83"/>
	<circle cx="891.962" cy="430.792" r="4" fill="#0" id="circle84"/>
	<circle cx="921.351" cy="482.093" r="4" fill="#0" id="circle85"/>
	<circle cx="941.924" cy="538.094" r="4" fill="#0" id="circle86"/>
	<circle cx="960.537" cy="591.418" r="4" fill="#0" id="circle87"/>
	<circle cx="973.272" cy="641.135" r="4" fill="#0" id="circle88"/>
	<circle cx="982.089" cy="694.525" r="4" fill="#0" id="circle89"/>
	<circle cx="983.461" cy="748.895" r="4" fill="#0" id="circle90"/>
	<circle cx="964.456" cy="781.713" r="4" fill="#0" id="circle91"/>
	<circle cx="933.107" cy="797.204" r="4" fill="#0" id="circle92"/>
	<circle cx="901.758" cy="809.082" r="4" fill="#0" id="circle93"/>
	<circle cx="870.41" cy="818.45" r="4" fill="#0" id="circle94"/>
	<circle cx="839.061" cy="825.675" r="4" fill="#0" id="circle95"/>
	<circle cx="807.713" cy="831.185" r="4" fill="#0" id="circle96"/>
	<circle cx="776.364" cy="835.043" r="4" fill="#0" id="circle97"/>
	<circle cx="745.016" cy="837.308" r="4" fill="#0" id="circle98"/>
	<circle cx="713.667" cy="838.043" r="4" fill="#0" id="circle99"/>
	<circle cx="650.97" cy="835.616" r="4" fill="#0" id="circle100"/>
	<circle cx="591.473" cy="830.156" r="4" fill="#0" id="circle101"/>
	<circle cx="560.843" cy="825.797" r="4" fill="#0" id="circle102"/>
	<circle cx="529.495" cy="819.919" r="4" fill="#0" id="circle103"/>
	<circle cx="498.146" cy="813.184" r="4" fill="#0" id="circle104"/>
	<circle cx="466.797" cy="805.347" r="4" fill="#0" id="circle105"/>
	<circle cx="435.449" cy="796.347" r="4" fill="#0" id="circle106"/>
	<circle cx="404.1" cy="786.305" r="4" fill="#0" id="circle107"/>
	<circle cx="372.752" cy="775.101" r="4" fill="#0" id="circle108"/>
	<circle cx="341.403" cy="762.733" r="4" fill="#0" id="circle109"/>
	<circle cx="310.055" cy="749.018" r="4" fill="#0" id="circle110"/>
	<circle cx="278.706" cy="733.833" r="4" fill="#0" id="circle111"/>
	<circle cx="226.197" cy="701.291" r="4" fill="#0" id="circle112"/>
	<circle cx="196.416" cy="685.77" r="4" fill="#0" id="circle113"/>
	<circle cx="165.068" cy="663.789" r="4" fill="#0" id="circle114"/>
	<circle cx="133.719" cy="638.502" r="4" fill="#0" id="circle115"/>
	<circle cx="102.371" cy="609.786" r="4" fill="#0" id="circle116"/>
	<circle cx="71.0221" cy="575.499" r="4" fill="#0" id="circle117"/>
	<circle cx="39.6735" cy="532.394" r="4" fill="#0" id="circle118"/>
	<circle cx="4" cy="456.396" r="4" fill="#0" id="circle119"/>
	</g>
</svg>