<?xml version="1.0" encoding="UTF-8" standalone="no"?>
<!-- Created with CurveBenchmark -->
<svg
	xmlns:dc="http://purl.org/dc/elements/1.1/"
	xmlns:cc="http://creativecommons.org/ns#"
	xmlns:rdf="http://www.w3.org/1999/02/22-rdf-syntax-ns#"
	xmlns:svg="http://www.w3.org/2000/svg"
	xmlns="http://www.w3.org/2000/svg"
	xmlns:sodipodi="http://sodipodi.sourceforge.net/DTD/sodipodi-0.dtd"
	xmlns:inkscape="http://www.inkscape.org/namespaces/inkscape"
	width="1000"
	height="1000"
	id="svg2"
	version="1.1"
	sodipodi:docname="Non-manifold/crust-Figure9.txt">
<defs
	id="defs4" />
<metadata
	id="metadata7">
	<rdf:RDF>
		<cc:Work
			rdf:about="">
			<dc:format>image/svg+xml</dc:format>
			<dc:type
				rdf:resource="http://purl.org/dc/dcmitype/StillImage" />
			<dc:title></dc:title>
		</cc:Work>
	</rdf:RDF>
</metadata>
<g
	inkscape:label="Layer 1"
	inkscape:groupmode="layer"
	id="layer1">
	<path style="fill:none;stroke:red;stroke-width:1px;stroke-linecap:butt;stroke-linejoin:miter;stroke-opacity:1" d="M 12.7967,22.9468 25.6535,16.8568 z" id="boundary" inkscape:connector-curvature="0" />
	<path style="fill:none;stroke:red;stroke-width:1px;stroke-linecap:butt;stroke-linejoin:miter;stroke-opacity:1" d="M 38.5102,14.8267 50.6903,14.8267 z" id="boundary" inkscape:connector-curvature="0" />
	<path style="fill:none;stroke:red;stroke-width:1px;stroke-linecap:butt;stroke-linejoin:miter;stroke-opacity:1" d="M 38.5102,14.8267 25.6535,16.8568 z" id="boundary" inkscape:connector-curvature="0" />
	<path style="fill:none;stroke:red;stroke-width:1px;stroke-linecap:butt;stroke-linejoin:miter;stroke-opacity:1" d="M 50.6903,14.8267 63.5471,18.2101 z" id="boundary" inkscape:connector-curvature="0" />
	<path style="fill:none;stroke:red;stroke-width:1px;stroke-linecap:butt;stroke-linejoin:miter;stroke-opacity:1" d="M 76.4038,18.8868 63.5471,18.2101 z" id="boundary" inkscape:connector-curvature="0" />
	<path style="fill:none;stroke:red;stroke-width:1px;stroke-linecap:butt;stroke-linejoin:miter;stroke-opacity:1" d="M 76.4038,18.8868 89.2606,22.2701 z" id="boundary" inkscape:connector-curvature="0" />
	<path style="fill:none;stroke:red;stroke-width:1px;stroke-linecap:butt;stroke-linejoin:miter;stroke-opacity:1" d="M 61.5171,35.8035 54.0737,52.0437 z" id="boundary" inkscape:connector-curvature="0" />
	<path style="fill:none;stroke:red;stroke-width:1px;stroke-linecap:butt;stroke-linejoin:miter;stroke-opacity:1" d="M 4,43.9236 4.67667,66.2538 z" id="boundary" inkscape:connector-curvature="0" />
	<path style="fill:none;stroke:red;stroke-width:1px;stroke-linecap:butt;stroke-linejoin:miter;stroke-opacity:1" d="M 29.7135,70.9905 20.9168,75.0505 z" id="boundary" inkscape:connector-curvature="0" />
	<path style="fill:none;stroke:red;stroke-width:1px;stroke-linecap:butt;stroke-linejoin:miter;stroke-opacity:1" d="M 20.9168,75.0505 11.4434,79.7872 z" id="boundary" inkscape:connector-curvature="0" />
	<path style="fill:none;stroke:red;stroke-width:1px;stroke-linecap:butt;stroke-linejoin:miter;stroke-opacity:1" d="M 11.4434,79.7872 4.67667,66.2538 z" id="boundary" inkscape:connector-curvature="0" />
	<path style="fill:none;stroke:red;stroke-width:1px;stroke-linecap:butt;stroke-linejoin:miter;stroke-opacity:1" d="M 16.1801,91.2906 11.4434,79.7872 z" id="boundary" inkscape:connector-curvature="0" />
	<path style="fill:none;stroke:red;stroke-width:1px;stroke-linecap:butt;stroke-linejoin:miter;stroke-opacity:1" d="M 54.0737,52.0437 42.5703,63.5471 z" id="boundary" inkscape:connector-curvature="0" />
	<path style="fill:none;stroke:red;stroke-width:1px;stroke-linecap:butt;stroke-linejoin:miter;stroke-opacity:1" d="M 4,43.9236 12.7967,22.9468 z" id="boundary" inkscape:connector-curvature="0" />
	<path style="fill:none;stroke:red;stroke-width:1px;stroke-linecap:butt;stroke-linejoin:miter;stroke-opacity:1" d="M 29.7135,70.9905 42.5703,63.5471 z" id="boundary" inkscape:connector-curvature="0" />
	<path style="fill:none;stroke:red;stroke-width:1px;stroke-linecap:butt;stroke-linejoin:miter;stroke-opacity:1" d="M 102.117,25.6535 89.2606,22.2701 z" id="boundary" inkscape:connector-curvature="0" />
	<path style="fill:none;stroke:red;stroke-width:1px;stroke-linecap:butt;stroke-linejoin:miter;stroke-opacity:1" d="M 114.974,29.0368 102.117,25.6535 z" id="boundary" inkscape:connector-curvature="0" />
	<path style="fill:none;stroke:red;stroke-width:1px;stroke-linecap:butt;stroke-linejoin:miter;stroke-opacity:1" d="M 203.618,8.7367 191.438,15.5034 z" id="boundary" inkscape:connector-curvature="0" />
	<path style="fill:none;stroke:red;stroke-width:1px;stroke-linecap:butt;stroke-linejoin:miter;stroke-opacity:1" d="M 178.581,22.9468 191.438,15.5034 z" id="boundary" inkscape:connector-curvature="0" />
	<path style="fill:none;stroke:red;stroke-width:1px;stroke-linecap:butt;stroke-linejoin:miter;stroke-opacity:1" d="M 127.154,31.7435 114.974,29.0368 z" id="boundary" inkscape:connector-curvature="0" />
	<path style="fill:none;stroke:red;stroke-width:1px;stroke-linecap:butt;stroke-linejoin:miter;stroke-opacity:1" d="M 178.581,22.9468 165.724,29.0368 z" id="boundary" inkscape:connector-curvature="0" />
	<path style="fill:none;stroke:red;stroke-width:1px;stroke-linecap:butt;stroke-linejoin:miter;stroke-opacity:1" d="M 127.154,31.7435 140.011,33.0969 z" id="boundary" inkscape:connector-curvature="0" />
	<path style="fill:none;stroke:red;stroke-width:1px;stroke-linecap:butt;stroke-linejoin:miter;stroke-opacity:1" d="M 152.868,33.0969 140.011,33.0969 z" id="boundary" inkscape:connector-curvature="0" />
	<path style="fill:none;stroke:red;stroke-width:1px;stroke-linecap:butt;stroke-linejoin:miter;stroke-opacity:1" d="M 214.445,51.367 201.588,61.5171 z" id="boundary" inkscape:connector-curvature="0" />
	<path style="fill:none;stroke:red;stroke-width:1px;stroke-linecap:butt;stroke-linejoin:miter;stroke-opacity:1" d="M 201.588,61.5171 192.115,78.4338 z" id="boundary" inkscape:connector-curvature="0" />
	<path style="fill:none;stroke:red;stroke-width:1px;stroke-linecap:butt;stroke-linejoin:miter;stroke-opacity:1" d="M 188.055,90.6139 192.115,78.4338 z" id="boundary" inkscape:connector-curvature="0" />
	<path style="fill:none;stroke:red;stroke-width:1px;stroke-linecap:butt;stroke-linejoin:miter;stroke-opacity:1" d="M 152.868,33.0969 165.724,29.0368 z" id="boundary" inkscape:connector-curvature="0" />
	<path style="fill:none;stroke:red;stroke-width:1px;stroke-linecap:butt;stroke-linejoin:miter;stroke-opacity:1" d="M 16.1801,91.2906 28.3602,103.471 z" id="boundary" inkscape:connector-curvature="0" />
	<path style="fill:none;stroke:red;stroke-width:1px;stroke-linecap:butt;stroke-linejoin:miter;stroke-opacity:1" d="M 47.9836,121.741 38.5102,113.621 z" id="boundary" inkscape:connector-curvature="0" />
	<path style="fill:none;stroke:red;stroke-width:1px;stroke-linecap:butt;stroke-linejoin:miter;stroke-opacity:1" d="M 38.5102,113.621 28.3602,103.471 z" id="boundary" inkscape:connector-curvature="0" />
	<path style="fill:none;stroke:red;stroke-width:1px;stroke-linecap:butt;stroke-linejoin:miter;stroke-opacity:1" d="M 43.9236,133.921 43.2469,148.808 z" id="boundary" inkscape:connector-curvature="0" />
	<path style="fill:none;stroke:red;stroke-width:1px;stroke-linecap:butt;stroke-linejoin:miter;stroke-opacity:1" d="M 79.1105,144.071 66.9304,136.628 z" id="boundary" inkscape:connector-curvature="0" />
	<path style="fill:none;stroke:red;stroke-width:1px;stroke-linecap:butt;stroke-linejoin:miter;stroke-opacity:1" d="M 47.9836,121.741 56.1037,129.184 z" id="boundary" inkscape:connector-curvature="0" />
	<path style="fill:none;stroke:red;stroke-width:1px;stroke-linecap:butt;stroke-linejoin:miter;stroke-opacity:1" d="M 66.9304,136.628 56.1037,129.184 z" id="boundary" inkscape:connector-curvature="0" />
	<path style="fill:none;stroke:red;stroke-width:1px;stroke-linecap:butt;stroke-linejoin:miter;stroke-opacity:1" d="M 43.2469,148.808 52.7203,171.138 z" id="boundary" inkscape:connector-curvature="0" />
	<path style="fill:none;stroke:red;stroke-width:1px;stroke-linecap:butt;stroke-linejoin:miter;stroke-opacity:1" d="M 65.5771,181.965 52.7203,171.138 z" id="boundary" inkscape:connector-curvature="0" />
	<path style="fill:none;stroke:red;stroke-width:1px;stroke-linecap:butt;stroke-linejoin:miter;stroke-opacity:1" d="M 91.9673,150.838 79.1105,144.071 z" id="boundary" inkscape:connector-curvature="0" />
	<path style="fill:none;stroke:red;stroke-width:1px;stroke-linecap:butt;stroke-linejoin:miter;stroke-opacity:1" d="M 77.7572,189.408 65.5771,181.965 z" id="boundary" inkscape:connector-curvature="0" />
	<path style="fill:none;stroke:red;stroke-width:1px;stroke-linecap:butt;stroke-linejoin:miter;stroke-opacity:1" d="M 91.9673,150.838 104.824,156.928 z" id="boundary" inkscape:connector-curvature="0" />
	<path style="fill:none;stroke:red;stroke-width:1px;stroke-linecap:butt;stroke-linejoin:miter;stroke-opacity:1" d="M 185.348,104.824 188.055,90.6139 z" id="boundary" inkscape:connector-curvature="0" />
	<path style="fill:none;stroke:red;stroke-width:1px;stroke-linecap:butt;stroke-linejoin:miter;stroke-opacity:1" d="M 184.671,126.477 185.348,104.824 z" id="boundary" inkscape:connector-curvature="0" />
	<path style="fill:none;stroke:red;stroke-width:1px;stroke-linecap:butt;stroke-linejoin:miter;stroke-opacity:1" d="M 104.824,156.928 117.681,162.341 z" id="boundary" inkscape:connector-curvature="0" />
	<path style="fill:none;stroke:red;stroke-width:1px;stroke-linecap:butt;stroke-linejoin:miter;stroke-opacity:1" d="M 127.831,166.401 117.681,162.341 z" id="boundary" inkscape:connector-curvature="0" />
	<path style="fill:none;stroke:red;stroke-width:1px;stroke-linecap:butt;stroke-linejoin:miter;stroke-opacity:1" d="M 186.025,144.748 184.671,126.477 z" id="boundary" inkscape:connector-curvature="0" />
	<path style="fill:none;stroke:red;stroke-width:1px;stroke-linecap:butt;stroke-linejoin:miter;stroke-opacity:1" d="M 186.025,144.748 191.438,162.341 z" id="boundary" inkscape:connector-curvature="0" />
	<path style="fill:none;stroke:red;stroke-width:1px;stroke-linecap:butt;stroke-linejoin:miter;stroke-opacity:1" d="M 200.235,178.581 191.438,162.341 z" id="boundary" inkscape:connector-curvature="0" />
	<path style="fill:none;stroke:red;stroke-width:1px;stroke-linecap:butt;stroke-linejoin:miter;stroke-opacity:1" d="M 203.618,8.7367 216.475,4.67667 z" id="boundary" inkscape:connector-curvature="0" />
	<path style="fill:none;stroke:red;stroke-width:1px;stroke-linecap:butt;stroke-linejoin:miter;stroke-opacity:1" d="M 216.475,4.67667 229.332,4 z" id="boundary" inkscape:connector-curvature="0" />
	<path style="fill:none;stroke:red;stroke-width:1px;stroke-linecap:butt;stroke-linejoin:miter;stroke-opacity:1" d="M 229.332,4 242.188,6.70668 z" id="boundary" inkscape:connector-curvature="0" />
	<path style="fill:none;stroke:red;stroke-width:1px;stroke-linecap:butt;stroke-linejoin:miter;stroke-opacity:1" d="M 242.188,6.70668 255.045,11.4434 z" id="boundary" inkscape:connector-curvature="0" />
	<path style="fill:none;stroke:red;stroke-width:1px;stroke-linecap:butt;stroke-linejoin:miter;stroke-opacity:1" d="M 280.082,24.9768 267.902,17.5334 z" id="boundary" inkscape:connector-curvature="0" />
	<path style="fill:none;stroke:red;stroke-width:1px;stroke-linecap:butt;stroke-linejoin:miter;stroke-opacity:1" d="M 267.902,17.5334 255.045,11.4434 z" id="boundary" inkscape:connector-curvature="0" />
	<path style="fill:none;stroke:red;stroke-width:1px;stroke-linecap:butt;stroke-linejoin:miter;stroke-opacity:1" d="M 214.445,51.367 226.625,49.337 z" id="boundary" inkscape:connector-curvature="0" />
	<path style="fill:none;stroke:red;stroke-width:1px;stroke-linecap:butt;stroke-linejoin:miter;stroke-opacity:1" d="M 226.625,49.337 239.482,54.7503 z" id="boundary" inkscape:connector-curvature="0" />
	<path style="fill:none;stroke:red;stroke-width:1px;stroke-linecap:butt;stroke-linejoin:miter;stroke-opacity:1" d="M 239.482,54.7503 250.985,66.9304 z" id="boundary" inkscape:connector-curvature="0" />
	<path style="fill:none;stroke:red;stroke-width:1px;stroke-linecap:butt;stroke-linejoin:miter;stroke-opacity:1" d="M 250.985,66.9304 258.428,83.1705 z" id="boundary" inkscape:connector-curvature="0" />
	<path style="fill:none;stroke:red;stroke-width:1px;stroke-linecap:butt;stroke-linejoin:miter;stroke-opacity:1" d="M 280.082,24.9768 292.939,33.0969 z" id="boundary" inkscape:connector-curvature="0" />
	<path style="fill:none;stroke:red;stroke-width:1px;stroke-linecap:butt;stroke-linejoin:miter;stroke-opacity:1" d="M 343.689,10.09 331.509,6.70668 z" id="boundary" inkscape:connector-curvature="0" />
	<path style="fill:none;stroke:red;stroke-width:1px;stroke-linecap:butt;stroke-linejoin:miter;stroke-opacity:1" d="M 292.939,33.0969 305.795,18.2101 z" id="boundary" inkscape:connector-curvature="0" />
	<path style="fill:none;stroke:red;stroke-width:1px;stroke-linecap:butt;stroke-linejoin:miter;stroke-opacity:1" d="M 318.652,8.06003 305.795,18.2101 z" id="boundary" inkscape:connector-curvature="0" />
	<path style="fill:none;stroke:red;stroke-width:1px;stroke-linecap:butt;stroke-linejoin:miter;stroke-opacity:1" d="M 292.939,33.0969 293.615,49.337 z" id="boundary" inkscape:connector-curvature="0" />
	<path style="fill:none;stroke:red;stroke-width:1px;stroke-linecap:butt;stroke-linejoin:miter;stroke-opacity:1" d="M 366.019,32.4202 356.546,18.8868 z" id="boundary" inkscape:connector-curvature="0" />
	<path style="fill:none;stroke:red;stroke-width:1px;stroke-linecap:butt;stroke-linejoin:miter;stroke-opacity:1" d="M 318.652,8.06003 331.509,6.70668 z" id="boundary" inkscape:connector-curvature="0" />
	<path style="fill:none;stroke:red;stroke-width:1px;stroke-linecap:butt;stroke-linejoin:miter;stroke-opacity:1" d="M 356.546,18.8868 343.689,10.09 z" id="boundary" inkscape:connector-curvature="0" />
	<path style="fill:none;stroke:red;stroke-width:1px;stroke-linecap:butt;stroke-linejoin:miter;stroke-opacity:1" d="M 370.756,47.307 366.019,32.4202 z" id="boundary" inkscape:connector-curvature="0" />
	<path style="fill:none;stroke:red;stroke-width:1px;stroke-linecap:butt;stroke-linejoin:miter;stroke-opacity:1" d="M 370.756,47.307 369.402,60.8404 z" id="boundary" inkscape:connector-curvature="0" />
	<path style="fill:none;stroke:red;stroke-width:1px;stroke-linecap:butt;stroke-linejoin:miter;stroke-opacity:1" d="M 364.666,75.7271 369.402,60.8404 z" id="boundary" inkscape:connector-curvature="0" />
	<path style="fill:none;stroke:red;stroke-width:1px;stroke-linecap:butt;stroke-linejoin:miter;stroke-opacity:1" d="M 364.666,75.7271 357.899,88.5839 z" id="boundary" inkscape:connector-curvature="0" />
	<path style="fill:none;stroke:red;stroke-width:1px;stroke-linecap:butt;stroke-linejoin:miter;stroke-opacity:1" d="M 211.061,111.591 210.385,123.771 z" id="boundary" inkscape:connector-curvature="0" />
	<path style="fill:none;stroke:red;stroke-width:1px;stroke-linecap:butt;stroke-linejoin:miter;stroke-opacity:1" d="M 218.505,98.0573 211.061,111.591 z" id="boundary" inkscape:connector-curvature="0" />
	<path style="fill:none;stroke:red;stroke-width:1px;stroke-linecap:butt;stroke-linejoin:miter;stroke-opacity:1" d="M 218.505,98.0573 230.685,98.734 z" id="boundary" inkscape:connector-curvature="0" />
	<path style="fill:none;stroke:red;stroke-width:1px;stroke-linecap:butt;stroke-linejoin:miter;stroke-opacity:1" d="M 210.385,123.771 211.738,136.628 z" id="boundary" inkscape:connector-curvature="0" />
	<path style="fill:none;stroke:red;stroke-width:1px;stroke-linecap:butt;stroke-linejoin:miter;stroke-opacity:1" d="M 211.738,136.628 216.475,150.161 z" id="boundary" inkscape:connector-curvature="0" />
	<path style="fill:none;stroke:red;stroke-width:1px;stroke-linecap:butt;stroke-linejoin:miter;stroke-opacity:1" d="M 230.685,98.734 238.805,119.034 z" id="boundary" inkscape:connector-curvature="0" />
	<path style="fill:none;stroke:red;stroke-width:1px;stroke-linecap:butt;stroke-linejoin:miter;stroke-opacity:1" d="M 238.805,119.034 238.128,136.628 z" id="boundary" inkscape:connector-curvature="0" />
	<path style="fill:none;stroke:red;stroke-width:1px;stroke-linecap:butt;stroke-linejoin:miter;stroke-opacity:1" d="M 238.128,136.628 233.392,148.131 z" id="boundary" inkscape:connector-curvature="0" />
	<path style="fill:none;stroke:red;stroke-width:1px;stroke-linecap:butt;stroke-linejoin:miter;stroke-opacity:1" d="M 216.475,150.161 227.302,154.898 z" id="boundary" inkscape:connector-curvature="0" />
	<path style="fill:none;stroke:red;stroke-width:1px;stroke-linecap:butt;stroke-linejoin:miter;stroke-opacity:1" d="M 212.415,190.085 200.235,178.581 z" id="boundary" inkscape:connector-curvature="0" />
	<path style="fill:none;stroke:red;stroke-width:1px;stroke-linecap:butt;stroke-linejoin:miter;stroke-opacity:1" d="M 227.302,154.898 233.392,148.131 z" id="boundary" inkscape:connector-curvature="0" />
	<path style="fill:none;stroke:red;stroke-width:1px;stroke-linecap:butt;stroke-linejoin:miter;stroke-opacity:1" d="M 249.632,176.551 238.128,188.731 z" id="boundary" inkscape:connector-curvature="0" />
	<path style="fill:none;stroke:red;stroke-width:1px;stroke-linecap:butt;stroke-linejoin:miter;stroke-opacity:1" d="M 263.165,101.441 258.428,83.1705 z" id="boundary" inkscape:connector-curvature="0" />
	<path style="fill:none;stroke:red;stroke-width:1px;stroke-linecap:butt;stroke-linejoin:miter;stroke-opacity:1" d="M 351.132,100.087 333.539,113.621 z" id="boundary" inkscape:connector-curvature="0" />
	<path style="fill:none;stroke:red;stroke-width:1px;stroke-linecap:butt;stroke-linejoin:miter;stroke-opacity:1" d="M 357.899,88.5839 351.132,100.087 z" id="boundary" inkscape:connector-curvature="0" />
	<path style="fill:none;stroke:red;stroke-width:1px;stroke-linecap:butt;stroke-linejoin:miter;stroke-opacity:1" d="M 263.165,101.441 264.518,119.034 z" id="boundary" inkscape:connector-curvature="0" />
	<path style="fill:none;stroke:red;stroke-width:1px;stroke-linecap:butt;stroke-linejoin:miter;stroke-opacity:1" d="M 333.539,113.621 321.359,119.034 z" id="boundary" inkscape:connector-curvature="0" />
	<path style="fill:none;stroke:red;stroke-width:1px;stroke-linecap:butt;stroke-linejoin:miter;stroke-opacity:1" d="M 361.959,104.824 372.109,106.854 z" id="boundary" inkscape:connector-curvature="0" />
	<path style="fill:none;stroke:red;stroke-width:1px;stroke-linecap:butt;stroke-linejoin:miter;stroke-opacity:1" d="M 372.109,106.854 384.966,109.561 z" id="boundary" inkscape:connector-curvature="0" />
	<path style="fill:none;stroke:red;stroke-width:1px;stroke-linecap:butt;stroke-linejoin:miter;stroke-opacity:1" d="M 397.146,112.944 384.966,109.561 z" id="boundary" inkscape:connector-curvature="0" />
	<path style="fill:none;stroke:red;stroke-width:1px;stroke-linecap:butt;stroke-linejoin:miter;stroke-opacity:1" d="M 351.132,100.087 361.959,104.824 z" id="boundary" inkscape:connector-curvature="0" />
	<path style="fill:none;stroke:red;stroke-width:1px;stroke-linecap:butt;stroke-linejoin:miter;stroke-opacity:1" d="M 264.518,119.034 265.195,129.184 z" id="boundary" inkscape:connector-curvature="0" />
	<path style="fill:none;stroke:red;stroke-width:1px;stroke-linecap:butt;stroke-linejoin:miter;stroke-opacity:1" d="M 257.752,160.311 249.632,176.551 z" id="boundary" inkscape:connector-curvature="0" />
	<path style="fill:none;stroke:red;stroke-width:1px;stroke-linecap:butt;stroke-linejoin:miter;stroke-opacity:1" d="M 257.752,160.311 263.165,142.718 z" id="boundary" inkscape:connector-curvature="0" />
	<path style="fill:none;stroke:red;stroke-width:1px;stroke-linecap:butt;stroke-linejoin:miter;stroke-opacity:1" d="M 265.195,129.184 263.165,142.718 z" id="boundary" inkscape:connector-curvature="0" />
	<path style="fill:none;stroke:red;stroke-width:1px;stroke-linecap:butt;stroke-linejoin:miter;stroke-opacity:1" d="M 397.146,112.944 410.003,116.327 z" id="boundary" inkscape:connector-curvature="0" />
	<path style="fill:none;stroke:red;stroke-width:1px;stroke-linecap:butt;stroke-linejoin:miter;stroke-opacity:1" d="M 410.003,116.327 422.859,119.711 z" id="boundary" inkscape:connector-curvature="0" />
	<path style="fill:none;stroke:red;stroke-width:1px;stroke-linecap:butt;stroke-linejoin:miter;stroke-opacity:1" d="M 238.128,188.731 225.271,192.791 z" id="boundary" inkscape:connector-curvature="0" />
	<path style="fill:none;stroke:red;stroke-width:1px;stroke-linecap:butt;stroke-linejoin:miter;stroke-opacity:1" d="M 77.7572,189.408 90.6139,196.851 z" id="boundary" inkscape:connector-curvature="0" />
	<path style="fill:none;stroke:red;stroke-width:1px;stroke-linecap:butt;stroke-linejoin:miter;stroke-opacity:1" d="M 116.327,220.535 103.471,206.325 z" id="boundary" inkscape:connector-curvature="0" />
	<path style="fill:none;stroke:red;stroke-width:1px;stroke-linecap:butt;stroke-linejoin:miter;stroke-opacity:1" d="M 103.471,206.325 90.6139,196.851 z" id="boundary" inkscape:connector-curvature="0" />
	<path style="fill:none;stroke:red;stroke-width:1px;stroke-linecap:butt;stroke-linejoin:miter;stroke-opacity:1" d="M 116.327,220.535 129.184,236.098 z" id="boundary" inkscape:connector-curvature="0" />
	<path style="fill:none;stroke:red;stroke-width:1px;stroke-linecap:butt;stroke-linejoin:miter;stroke-opacity:1" d="M 129.184,236.098 140.688,252.338 z" id="boundary" inkscape:connector-curvature="0" />
	<path style="fill:none;stroke:red;stroke-width:1px;stroke-linecap:butt;stroke-linejoin:miter;stroke-opacity:1" d="M 140.688,252.338 152.191,268.578 z" id="boundary" inkscape:connector-curvature="0" />
	<path style="fill:none;stroke:red;stroke-width:1px;stroke-linecap:butt;stroke-linejoin:miter;stroke-opacity:1" d="M 162.341,285.495 172.491,301.735 z" id="boundary" inkscape:connector-curvature="0" />
	<path style="fill:none;stroke:red;stroke-width:1px;stroke-linecap:butt;stroke-linejoin:miter;stroke-opacity:1" d="M 162.341,285.495 152.191,268.578 z" id="boundary" inkscape:connector-curvature="0" />
	<path style="fill:none;stroke:red;stroke-width:1px;stroke-linecap:butt;stroke-linejoin:miter;stroke-opacity:1" d="M 172.491,301.735 181.965,317.975 z" id="boundary" inkscape:connector-curvature="0" />
	<path style="fill:none;stroke:red;stroke-width:1px;stroke-linecap:butt;stroke-linejoin:miter;stroke-opacity:1" d="M 212.415,190.085 225.271,192.791 z" id="boundary" inkscape:connector-curvature="0" />
	<path style="fill:none;stroke:red;stroke-width:1px;stroke-linecap:butt;stroke-linejoin:miter;stroke-opacity:1" d="M 191.438,334.892 181.965,317.975 z" id="boundary" inkscape:connector-curvature="0" />
	<path style="fill:none;stroke:red;stroke-width:1px;stroke-linecap:butt;stroke-linejoin:miter;stroke-opacity:1" d="M 200.911,351.132 210.385,368.049 z" id="boundary" inkscape:connector-curvature="0" />
	<path style="fill:none;stroke:red;stroke-width:1px;stroke-linecap:butt;stroke-linejoin:miter;stroke-opacity:1" d="M 200.911,351.132 191.438,334.892 z" id="boundary" inkscape:connector-curvature="0" />
	<path style="fill:none;stroke:red;stroke-width:1px;stroke-linecap:butt;stroke-linejoin:miter;stroke-opacity:1" d="M 210.385,368.049 219.858,384.289 z" id="boundary" inkscape:connector-curvature="0" />
	<path style="fill:none;stroke:red;stroke-width:1px;stroke-linecap:butt;stroke-linejoin:miter;stroke-opacity:1" d="M 228.655,401.206 237.452,417.446 z" id="boundary" inkscape:connector-curvature="0" />
	<path style="fill:none;stroke:red;stroke-width:1px;stroke-linecap:butt;stroke-linejoin:miter;stroke-opacity:1" d="M 228.655,401.206 219.858,384.289 z" id="boundary" inkscape:connector-curvature="0" />
	<path style="fill:none;stroke:red;stroke-width:1px;stroke-linecap:butt;stroke-linejoin:miter;stroke-opacity:1" d="M 246.248,433.686 237.452,417.446 z" id="boundary" inkscape:connector-curvature="0" />
	<path style="fill:none;stroke:red;stroke-width:1px;stroke-linecap:butt;stroke-linejoin:miter;stroke-opacity:1" d="M 257.075,533.834 250.985,556.164 z" id="boundary" inkscape:connector-curvature="0" />
	<path style="fill:none;stroke:red;stroke-width:1px;stroke-linecap:butt;stroke-linejoin:miter;stroke-opacity:1" d="M 244.218,581.877 234.745,596.087 z" id="boundary" inkscape:connector-curvature="0" />
	<path style="fill:none;stroke:red;stroke-width:1px;stroke-linecap:butt;stroke-linejoin:miter;stroke-opacity:1" d="M 250.985,556.164 244.218,581.877 z" id="boundary" inkscape:connector-curvature="0" />
	<path style="fill:none;stroke:red;stroke-width:1px;stroke-linecap:butt;stroke-linejoin:miter;stroke-opacity:1" d="M 246.248,433.686 254.368,450.603 z" id="boundary" inkscape:connector-curvature="0" />
	<path style="fill:none;stroke:red;stroke-width:1px;stroke-linecap:butt;stroke-linejoin:miter;stroke-opacity:1" d="M 234.745,596.087 221.888,602.177 z" id="boundary" inkscape:connector-curvature="0" />
	<path style="fill:none;stroke:red;stroke-width:1px;stroke-linecap:butt;stroke-linejoin:miter;stroke-opacity:1" d="M 171.138,637.364 162.341,663.754 z" id="boundary" inkscape:connector-curvature="0" />
	<path style="fill:none;stroke:red;stroke-width:1px;stroke-linecap:butt;stroke-linejoin:miter;stroke-opacity:1" d="M 183.995,625.184 171.138,637.364 z" id="boundary" inkscape:connector-curvature="0" />
	<path style="fill:none;stroke:red;stroke-width:1px;stroke-linecap:butt;stroke-linejoin:miter;stroke-opacity:1" d="M 196.175,616.387 183.995,625.184 z" id="boundary" inkscape:connector-curvature="0" />
	<path style="fill:none;stroke:red;stroke-width:1px;stroke-linecap:butt;stroke-linejoin:miter;stroke-opacity:1" d="M 183.995,698.941 171.138,688.115 z" id="boundary" inkscape:connector-curvature="0" />
	<path style="fill:none;stroke:red;stroke-width:1px;stroke-linecap:butt;stroke-linejoin:miter;stroke-opacity:1" d="M 196.175,703.001 183.995,698.941 z" id="boundary" inkscape:connector-curvature="0" />
	<path style="fill:none;stroke:red;stroke-width:1px;stroke-linecap:butt;stroke-linejoin:miter;stroke-opacity:1" d="M 171.138,688.115 162.341,663.754 z" id="boundary" inkscape:connector-curvature="0" />
	<path style="fill:none;stroke:red;stroke-width:1px;stroke-linecap:butt;stroke-linejoin:miter;stroke-opacity:1" d="M 221.888,698.265 209.031,702.325 z" id="boundary" inkscape:connector-curvature="0" />
	<path style="fill:none;stroke:red;stroke-width:1px;stroke-linecap:butt;stroke-linejoin:miter;stroke-opacity:1" d="M 209.031,702.325 196.175,703.001 z" id="boundary" inkscape:connector-curvature="0" />
	<path style="fill:none;stroke:red;stroke-width:1px;stroke-linecap:butt;stroke-linejoin:miter;stroke-opacity:1" d="M 209.031,608.944 196.175,616.387 z" id="boundary" inkscape:connector-curvature="0" />
	<path style="fill:none;stroke:red;stroke-width:1px;stroke-linecap:butt;stroke-linejoin:miter;stroke-opacity:1" d="M 221.888,782.849 209.031,790.969 z" id="boundary" inkscape:connector-curvature="0" />
	<path style="fill:none;stroke:red;stroke-width:1px;stroke-linecap:butt;stroke-linejoin:miter;stroke-opacity:1" d="M 196.851,803.149 209.031,790.969 z" id="boundary" inkscape:connector-curvature="0" />
	<path style="fill:none;stroke:red;stroke-width:1px;stroke-linecap:butt;stroke-linejoin:miter;stroke-opacity:1" d="M 196.851,851.869 188.055,828.862 z" id="boundary" inkscape:connector-curvature="0" />
	<path style="fill:none;stroke:red;stroke-width:1px;stroke-linecap:butt;stroke-linejoin:miter;stroke-opacity:1" d="M 196.851,803.149 188.055,828.862 z" id="boundary" inkscape:connector-curvature="0" />
	<path style="fill:none;stroke:red;stroke-width:1px;stroke-linecap:butt;stroke-linejoin:miter;stroke-opacity:1" d="M 196.851,851.869 209.708,863.372 z" id="boundary" inkscape:connector-curvature="0" />
	<path style="fill:none;stroke:red;stroke-width:1px;stroke-linecap:butt;stroke-linejoin:miter;stroke-opacity:1" d="M 247.602,686.761 234.745,692.175 z" id="boundary" inkscape:connector-curvature="0" />
	<path style="fill:none;stroke:red;stroke-width:1px;stroke-linecap:butt;stroke-linejoin:miter;stroke-opacity:1" d="M 221.888,698.265 234.745,692.175 z" id="boundary" inkscape:connector-curvature="0" />
	<path style="fill:none;stroke:red;stroke-width:1px;stroke-linecap:butt;stroke-linejoin:miter;stroke-opacity:1" d="M 209.031,608.944 221.888,602.177 z" id="boundary" inkscape:connector-curvature="0" />
	<path style="fill:none;stroke:red;stroke-width:1px;stroke-linecap:butt;stroke-linejoin:miter;stroke-opacity:1" d="M 260.458,680.671 247.602,686.761 z" id="boundary" inkscape:connector-curvature="0" />
	<path style="fill:none;stroke:red;stroke-width:1px;stroke-linecap:butt;stroke-linejoin:miter;stroke-opacity:1" d="M 260.458,763.225 247.602,769.315 z" id="boundary" inkscape:connector-curvature="0" />
	<path style="fill:none;stroke:red;stroke-width:1px;stroke-linecap:butt;stroke-linejoin:miter;stroke-opacity:1" d="M 234.745,776.082 221.888,782.849 z" id="boundary" inkscape:connector-curvature="0" />
	<path style="fill:none;stroke:red;stroke-width:1px;stroke-linecap:butt;stroke-linejoin:miter;stroke-opacity:1" d="M 247.602,769.315 234.745,776.082 z" id="boundary" inkscape:connector-curvature="0" />
	<path style="fill:none;stroke:red;stroke-width:1px;stroke-linecap:butt;stroke-linejoin:miter;stroke-opacity:1" d="M 222.565,870.139 209.708,863.372 z" id="boundary" inkscape:connector-curvature="0" />
	<path style="fill:none;stroke:red;stroke-width:1px;stroke-linecap:butt;stroke-linejoin:miter;stroke-opacity:1" d="M 260.458,874.876 247.602,875.553 z" id="boundary" inkscape:connector-curvature="0" />
	<path style="fill:none;stroke:red;stroke-width:1px;stroke-linecap:butt;stroke-linejoin:miter;stroke-opacity:1" d="M 235.422,874.199 222.565,870.139 z" id="boundary" inkscape:connector-curvature="0" />
	<path style="fill:none;stroke:red;stroke-width:1px;stroke-linecap:butt;stroke-linejoin:miter;stroke-opacity:1" d="M 247.602,875.553 235.422,874.199 z" id="boundary" inkscape:connector-curvature="0" />
	<path style="fill:none;stroke:red;stroke-width:1px;stroke-linecap:butt;stroke-linejoin:miter;stroke-opacity:1" d="M 259.782,462.106 254.368,450.603 z" id="boundary" inkscape:connector-curvature="0" />
	<path style="fill:none;stroke:red;stroke-width:1px;stroke-linecap:butt;stroke-linejoin:miter;stroke-opacity:1" d="M 259.782,462.106 265.195,473.61 z" id="boundary" inkscape:connector-curvature="0" />
	<path style="fill:none;stroke:red;stroke-width:1px;stroke-linecap:butt;stroke-linejoin:miter;stroke-opacity:1" d="M 265.195,473.61 271.962,486.467 z" id="boundary" inkscape:connector-curvature="0" />
	<path style="fill:none;stroke:red;stroke-width:1px;stroke-linecap:butt;stroke-linejoin:miter;stroke-opacity:1" d="M 262.488,495.94 260.458,510.15 z" id="boundary" inkscape:connector-curvature="0" />
	<path style="fill:none;stroke:red;stroke-width:1px;stroke-linecap:butt;stroke-linejoin:miter;stroke-opacity:1" d="M 260.458,510.15 257.075,533.834 z" id="boundary" inkscape:connector-curvature="0" />
	<path style="fill:none;stroke:red;stroke-width:1px;stroke-linecap:butt;stroke-linejoin:miter;stroke-opacity:1" d="M 276.698,499.323 271.962,486.467 z" id="boundary" inkscape:connector-curvature="0" />
	<path style="fill:none;stroke:red;stroke-width:1px;stroke-linecap:butt;stroke-linejoin:miter;stroke-opacity:1" d="M 276.698,499.323 284.142,517.593 z" id="boundary" inkscape:connector-curvature="0" />
	<path style="fill:none;stroke:red;stroke-width:1px;stroke-linecap:butt;stroke-linejoin:miter;stroke-opacity:1" d="M 290.232,533.834 284.142,517.593 z" id="boundary" inkscape:connector-curvature="0" />
	<path style="fill:none;stroke:red;stroke-width:1px;stroke-linecap:butt;stroke-linejoin:miter;stroke-opacity:1" d="M 290.232,533.834 295.645,550.75 z" id="boundary" inkscape:connector-curvature="0" />
	<path style="fill:none;stroke:red;stroke-width:1px;stroke-linecap:butt;stroke-linejoin:miter;stroke-opacity:1" d="M 311.209,642.101 298.352,649.544 z" id="boundary" inkscape:connector-curvature="0" />
	<path style="fill:none;stroke:red;stroke-width:1px;stroke-linecap:butt;stroke-linejoin:miter;stroke-opacity:1" d="M 295.645,550.75 300.382,567.667 z" id="boundary" inkscape:connector-curvature="0" />
	<path style="fill:none;stroke:red;stroke-width:1px;stroke-linecap:butt;stroke-linejoin:miter;stroke-opacity:1" d="M 298.352,649.544 285.495,661.724 z" id="boundary" inkscape:connector-curvature="0" />
	<path style="fill:none;stroke:red;stroke-width:1px;stroke-linecap:butt;stroke-linejoin:miter;stroke-opacity:1" d="M 304.442,583.907 308.502,600.824 z" id="boundary" inkscape:connector-curvature="0" />
	<path style="fill:none;stroke:red;stroke-width:1px;stroke-linecap:butt;stroke-linejoin:miter;stroke-opacity:1" d="M 304.442,583.907 300.382,567.667 z" id="boundary" inkscape:connector-curvature="0" />
	<path style="fill:none;stroke:red;stroke-width:1px;stroke-linecap:butt;stroke-linejoin:miter;stroke-opacity:1" d="M 311.209,617.741 311.209,642.101 z" id="boundary" inkscape:connector-curvature="0" />
	<path style="fill:none;stroke:red;stroke-width:1px;stroke-linecap:butt;stroke-linejoin:miter;stroke-opacity:1" d="M 311.209,617.741 308.502,600.824 z" id="boundary" inkscape:connector-curvature="0" />
	<path style="fill:none;stroke:red;stroke-width:1px;stroke-linecap:butt;stroke-linejoin:miter;stroke-opacity:1" d="M 315.945,652.251 311.209,642.101 z" id="boundary" inkscape:connector-curvature="0" />
	<path style="fill:none;stroke:red;stroke-width:1px;stroke-linecap:butt;stroke-linejoin:miter;stroke-opacity:1" d="M 272.638,671.874 260.458,680.671 z" id="boundary" inkscape:connector-curvature="0" />
	<path style="fill:none;stroke:red;stroke-width:1px;stroke-linecap:butt;stroke-linejoin:miter;stroke-opacity:1" d="M 308.502,722.625 298.352,737.512 z" id="boundary" inkscape:connector-curvature="0" />
	<path style="fill:none;stroke:red;stroke-width:1px;stroke-linecap:butt;stroke-linejoin:miter;stroke-opacity:1" d="M 285.495,749.015 298.352,737.512 z" id="boundary" inkscape:connector-curvature="0" />
	<path style="fill:none;stroke:red;stroke-width:1px;stroke-linecap:butt;stroke-linejoin:miter;stroke-opacity:1" d="M 272.638,671.874 285.495,661.724 z" id="boundary" inkscape:connector-curvature="0" />
	<path style="fill:none;stroke:red;stroke-width:1px;stroke-linecap:butt;stroke-linejoin:miter;stroke-opacity:1" d="M 260.458,763.225 272.638,756.458 z" id="boundary" inkscape:connector-curvature="0" />
	<path style="fill:none;stroke:red;stroke-width:1px;stroke-linecap:butt;stroke-linejoin:miter;stroke-opacity:1" d="M 286.172,868.786 273.315,872.169 z" id="boundary" inkscape:connector-curvature="0" />
	<path style="fill:none;stroke:red;stroke-width:1px;stroke-linecap:butt;stroke-linejoin:miter;stroke-opacity:1" d="M 273.315,872.169 260.458,874.876 z" id="boundary" inkscape:connector-curvature="0" />
	<path style="fill:none;stroke:red;stroke-width:1px;stroke-linecap:butt;stroke-linejoin:miter;stroke-opacity:1" d="M 299.029,864.049 286.172,868.786 z" id="boundary" inkscape:connector-curvature="0" />
	<path style="fill:none;stroke:red;stroke-width:1px;stroke-linecap:butt;stroke-linejoin:miter;stroke-opacity:1" d="M 311.885,858.636 299.029,864.049 z" id="boundary" inkscape:connector-curvature="0" />
	<path style="fill:none;stroke:red;stroke-width:1px;stroke-linecap:butt;stroke-linejoin:miter;stroke-opacity:1" d="M 272.638,756.458 285.495,749.015 z" id="boundary" inkscape:connector-curvature="0" />
	<path style="fill:none;stroke:red;stroke-width:1px;stroke-linecap:butt;stroke-linejoin:miter;stroke-opacity:1" d="M 315.945,652.251 317.299,669.844 z" id="boundary" inkscape:connector-curvature="0" />
	<path style="fill:none;stroke:red;stroke-width:1px;stroke-linecap:butt;stroke-linejoin:miter;stroke-opacity:1" d="M 314.592,705.031 316.622,686.761 z" id="boundary" inkscape:connector-curvature="0" />
	<path style="fill:none;stroke:red;stroke-width:1px;stroke-linecap:butt;stroke-linejoin:miter;stroke-opacity:1" d="M 317.299,669.844 316.622,686.761 z" id="boundary" inkscape:connector-curvature="0" />
	<path style="fill:none;stroke:red;stroke-width:1px;stroke-linecap:butt;stroke-linejoin:miter;stroke-opacity:1" d="M 308.502,722.625 314.592,705.031 z" id="boundary" inkscape:connector-curvature="0" />
	<path style="fill:none;stroke:red;stroke-width:1px;stroke-linecap:butt;stroke-linejoin:miter;stroke-opacity:1" d="M 324.065,852.546 311.885,858.636 z" id="boundary" inkscape:connector-curvature="0" />
	<path style="fill:none;stroke:red;stroke-width:1px;stroke-linecap:butt;stroke-linejoin:miter;stroke-opacity:1" d="M 324.065,852.546 336.922,845.102 z" id="boundary" inkscape:connector-curvature="0" />
	<path style="fill:none;stroke:red;stroke-width:1px;stroke-linecap:butt;stroke-linejoin:miter;stroke-opacity:1" d="M 349.779,838.336 336.922,845.102 z" id="boundary" inkscape:connector-curvature="0" />
	<path style="fill:none;stroke:red;stroke-width:1px;stroke-linecap:butt;stroke-linejoin:miter;stroke-opacity:1" d="M 426.243,791.645 413.386,799.089 z" id="boundary" inkscape:connector-curvature="0" />
	<path style="fill:none;stroke:red;stroke-width:1px;stroke-linecap:butt;stroke-linejoin:miter;stroke-opacity:1" d="M 413.386,799.089 400.529,806.532 z" id="boundary" inkscape:connector-curvature="0" />
	<path style="fill:none;stroke:red;stroke-width:1px;stroke-linecap:butt;stroke-linejoin:miter;stroke-opacity:1" d="M 349.779,838.336 362.636,830.216 z" id="boundary" inkscape:connector-curvature="0" />
	<path style="fill:none;stroke:red;stroke-width:1px;stroke-linecap:butt;stroke-linejoin:miter;stroke-opacity:1" d="M 387.673,814.652 400.529,806.532 z" id="boundary" inkscape:connector-curvature="0" />
	<path style="fill:none;stroke:red;stroke-width:1px;stroke-linecap:butt;stroke-linejoin:miter;stroke-opacity:1" d="M 375.492,822.772 362.636,830.216 z" id="boundary" inkscape:connector-curvature="0" />
	<path style="fill:none;stroke:red;stroke-width:1px;stroke-linecap:butt;stroke-linejoin:miter;stroke-opacity:1" d="M 387.673,814.652 375.492,822.772 z" id="boundary" inkscape:connector-curvature="0" />
	<path style="fill:none;stroke:red;stroke-width:1px;stroke-linecap:butt;stroke-linejoin:miter;stroke-opacity:1" d="M 715.858,100.087 703.001,107.531 z" id="boundary" inkscape:connector-curvature="0" />
	<path style="fill:none;stroke:red;stroke-width:1px;stroke-linecap:butt;stroke-linejoin:miter;stroke-opacity:1" d="M 435.716,123.094 448.573,126.477 z" id="boundary" inkscape:connector-curvature="0" />
	<path style="fill:none;stroke:red;stroke-width:1px;stroke-linecap:butt;stroke-linejoin:miter;stroke-opacity:1" d="M 435.716,123.094 422.859,119.711 z" id="boundary" inkscape:connector-curvature="0" />
	<path style="fill:none;stroke:red;stroke-width:1px;stroke-linecap:butt;stroke-linejoin:miter;stroke-opacity:1" d="M 448.573,126.477 461.43,130.538 z" id="boundary" inkscape:connector-curvature="0" />
	<path style="fill:none;stroke:red;stroke-width:1px;stroke-linecap:butt;stroke-linejoin:miter;stroke-opacity:1" d="M 461.43,130.538 473.61,134.598 z" id="boundary" inkscape:connector-curvature="0" />
	<path style="fill:none;stroke:red;stroke-width:1px;stroke-linecap:butt;stroke-linejoin:miter;stroke-opacity:1" d="M 473.61,134.598 486.467,138.658 z" id="boundary" inkscape:connector-curvature="0" />
	<path style="fill:none;stroke:red;stroke-width:1px;stroke-linecap:butt;stroke-linejoin:miter;stroke-opacity:1" d="M 486.467,138.658 499.323,143.394 z" id="boundary" inkscape:connector-curvature="0" />
	<path style="fill:none;stroke:red;stroke-width:1px;stroke-linecap:butt;stroke-linejoin:miter;stroke-opacity:1" d="M 499.323,143.394 512.18,148.131 z" id="boundary" inkscape:connector-curvature="0" />
	<path style="fill:none;stroke:red;stroke-width:1px;stroke-linecap:butt;stroke-linejoin:miter;stroke-opacity:1" d="M 525.037,153.544 512.18,148.131 z" id="boundary" inkscape:connector-curvature="0" />
	<path style="fill:none;stroke:red;stroke-width:1px;stroke-linecap:butt;stroke-linejoin:miter;stroke-opacity:1" d="M 575.787,169.108 562.93,169.108 z" id="boundary" inkscape:connector-curvature="0" />
	<path style="fill:none;stroke:red;stroke-width:1px;stroke-linecap:butt;stroke-linejoin:miter;stroke-opacity:1" d="M 525.037,153.544 537.894,160.311 z" id="boundary" inkscape:connector-curvature="0" />
	<path style="fill:none;stroke:red;stroke-width:1px;stroke-linecap:butt;stroke-linejoin:miter;stroke-opacity:1" d="M 537.894,160.311 550.074,166.401 z" id="boundary" inkscape:connector-curvature="0" />
	<path style="fill:none;stroke:red;stroke-width:1px;stroke-linecap:butt;stroke-linejoin:miter;stroke-opacity:1" d="M 562.93,169.108 550.074,166.401 z" id="boundary" inkscape:connector-curvature="0" />
	<path style="fill:none;stroke:red;stroke-width:1px;stroke-linecap:butt;stroke-linejoin:miter;stroke-opacity:1" d="M 588.644,166.401 601.501,162.341 z" id="boundary" inkscape:connector-curvature="0" />
	<path style="fill:none;stroke:red;stroke-width:1px;stroke-linecap:butt;stroke-linejoin:miter;stroke-opacity:1" d="M 614.357,156.928 601.501,162.341 z" id="boundary" inkscape:connector-curvature="0" />
	<path style="fill:none;stroke:red;stroke-width:1px;stroke-linecap:butt;stroke-linejoin:miter;stroke-opacity:1" d="M 614.357,156.928 626.538,150.838 z" id="boundary" inkscape:connector-curvature="0" />
	<path style="fill:none;stroke:red;stroke-width:1px;stroke-linecap:butt;stroke-linejoin:miter;stroke-opacity:1" d="M 575.787,169.108 588.644,166.401 z" id="boundary" inkscape:connector-curvature="0" />
	<path style="fill:none;stroke:red;stroke-width:1px;stroke-linecap:butt;stroke-linejoin:miter;stroke-opacity:1" d="M 626.538,150.838 639.394,143.394 z" id="boundary" inkscape:connector-curvature="0" />
	<path style="fill:none;stroke:red;stroke-width:1px;stroke-linecap:butt;stroke-linejoin:miter;stroke-opacity:1" d="M 652.251,136.628 665.108,129.184 z" id="boundary" inkscape:connector-curvature="0" />
	<path style="fill:none;stroke:red;stroke-width:1px;stroke-linecap:butt;stroke-linejoin:miter;stroke-opacity:1" d="M 665.108,129.184 677.965,121.741 z" id="boundary" inkscape:connector-curvature="0" />
	<path style="fill:none;stroke:red;stroke-width:1px;stroke-linecap:butt;stroke-linejoin:miter;stroke-opacity:1" d="M 690.145,114.297 677.965,121.741 z" id="boundary" inkscape:connector-curvature="0" />
	<path style="fill:none;stroke:red;stroke-width:1px;stroke-linecap:butt;stroke-linejoin:miter;stroke-opacity:1" d="M 652.251,136.628 639.394,143.394 z" id="boundary" inkscape:connector-curvature="0" />
	<path style="fill:none;stroke:red;stroke-width:1px;stroke-linecap:butt;stroke-linejoin:miter;stroke-opacity:1" d="M 703.001,107.531 690.145,114.297 z" id="boundary" inkscape:connector-curvature="0" />
	<path style="fill:none;stroke:red;stroke-width:1px;stroke-linecap:butt;stroke-linejoin:miter;stroke-opacity:1" d="M 552.78,454.663 551.427,472.933 z" id="boundary" inkscape:connector-curvature="0" />
	<path style="fill:none;stroke:red;stroke-width:1px;stroke-linecap:butt;stroke-linejoin:miter;stroke-opacity:1" d="M 550.074,492.557 551.427,472.933 z" id="boundary" inkscape:connector-curvature="0" />
	<path style="fill:none;stroke:red;stroke-width:1px;stroke-linecap:butt;stroke-linejoin:miter;stroke-opacity:1" d="M 550.074,492.557 548.72,510.15 z" id="boundary" inkscape:connector-curvature="0" />
	<path style="fill:none;stroke:red;stroke-width:1px;stroke-linecap:butt;stroke-linejoin:miter;stroke-opacity:1" d="M 608.267,547.367 595.411,545.337 z" id="boundary" inkscape:connector-curvature="0" />
	<path style="fill:none;stroke:red;stroke-width:1px;stroke-linecap:butt;stroke-linejoin:miter;stroke-opacity:1" d="M 545.337,536.54 557.517,538.57 z" id="boundary" inkscape:connector-curvature="0" />
	<path style="fill:none;stroke:red;stroke-width:1px;stroke-linecap:butt;stroke-linejoin:miter;stroke-opacity:1" d="M 548.72,510.15 545.337,536.54 z" id="boundary" inkscape:connector-curvature="0" />
	<path style="fill:none;stroke:red;stroke-width:1px;stroke-linecap:butt;stroke-linejoin:miter;stroke-opacity:1" d="M 545.337,536.54 543.984,555.487 z" id="boundary" inkscape:connector-curvature="0" />
	<path style="fill:none;stroke:red;stroke-width:1px;stroke-linecap:butt;stroke-linejoin:miter;stroke-opacity:1" d="M 570.374,541.277 557.517,538.57 z" id="boundary" inkscape:connector-curvature="0" />
	<path style="fill:none;stroke:red;stroke-width:1px;stroke-linecap:butt;stroke-linejoin:miter;stroke-opacity:1" d="M 570.374,541.277 582.554,543.307 z" id="boundary" inkscape:connector-curvature="0" />
	<path style="fill:none;stroke:red;stroke-width:1px;stroke-linecap:butt;stroke-linejoin:miter;stroke-opacity:1" d="M 595.411,545.337 582.554,543.307 z" id="boundary" inkscape:connector-curvature="0" />
	<path style="fill:none;stroke:red;stroke-width:1px;stroke-linecap:butt;stroke-linejoin:miter;stroke-opacity:1" d="M 541.954,566.99 543.984,555.487 z" id="boundary" inkscape:connector-curvature="0" />
	<path style="fill:none;stroke:red;stroke-width:1px;stroke-linecap:butt;stroke-linejoin:miter;stroke-opacity:1" d="M 659.018,546.014 646.838,548.044 z" id="boundary" inkscape:connector-curvature="0" />
	<path style="fill:none;stroke:red;stroke-width:1px;stroke-linecap:butt;stroke-linejoin:miter;stroke-opacity:1" d="M 646.838,548.044 633.981,548.72 z" id="boundary" inkscape:connector-curvature="0" />
	<path style="fill:none;stroke:red;stroke-width:1px;stroke-linecap:butt;stroke-linejoin:miter;stroke-opacity:1" d="M 684.731,541.277 671.874,541.954 z" id="boundary" inkscape:connector-curvature="0" />
	<path style="fill:none;stroke:red;stroke-width:1px;stroke-linecap:butt;stroke-linejoin:miter;stroke-opacity:1" d="M 671.874,541.954 659.018,546.014 z" id="boundary" inkscape:connector-curvature="0" />
	<path style="fill:none;stroke:red;stroke-width:1px;stroke-linecap:butt;stroke-linejoin:miter;stroke-opacity:1" d="M 608.267,547.367 621.124,548.044 z" id="boundary" inkscape:connector-curvature="0" />
	<path style="fill:none;stroke:red;stroke-width:1px;stroke-linecap:butt;stroke-linejoin:miter;stroke-opacity:1" d="M 633.981,548.72 621.124,548.044 z" id="boundary" inkscape:connector-curvature="0" />
	<path style="fill:none;stroke:red;stroke-width:1px;stroke-linecap:butt;stroke-linejoin:miter;stroke-opacity:1" d="M 710.445,526.39 697.588,531.804 z" id="boundary" inkscape:connector-curvature="0" />
	<path style="fill:none;stroke:red;stroke-width:1px;stroke-linecap:butt;stroke-linejoin:miter;stroke-opacity:1" d="M 684.731,541.277 697.588,531.804 z" id="boundary" inkscape:connector-curvature="0" />
	<path style="fill:none;stroke:red;stroke-width:1px;stroke-linecap:butt;stroke-linejoin:miter;stroke-opacity:1" d="M 723.302,520.3 710.445,526.39 z" id="boundary" inkscape:connector-curvature="0" />
	<path style="fill:none;stroke:red;stroke-width:1px;stroke-linecap:butt;stroke-linejoin:miter;stroke-opacity:1" d="M 767.285,79.1105 754.428,83.1705 z" id="boundary" inkscape:connector-curvature="0" />
	<path style="fill:none;stroke:red;stroke-width:1px;stroke-linecap:butt;stroke-linejoin:miter;stroke-opacity:1" d="M 779.465,75.0505 767.285,79.1105 z" id="boundary" inkscape:connector-curvature="0" />
	<path style="fill:none;stroke:red;stroke-width:1px;stroke-linecap:butt;stroke-linejoin:miter;stroke-opacity:1" d="M 792.322,72.3438 779.465,75.0505 z" id="boundary" inkscape:connector-curvature="0" />
	<path style="fill:none;stroke:red;stroke-width:1px;stroke-linecap:butt;stroke-linejoin:miter;stroke-opacity:1" d="M 805.179,70.9905 792.322,72.3438 z" id="boundary" inkscape:connector-curvature="0" />
	<path style="fill:none;stroke:red;stroke-width:1px;stroke-linecap:butt;stroke-linejoin:miter;stroke-opacity:1" d="M 715.858,100.087 728.715,93.9973 z" id="boundary" inkscape:connector-curvature="0" />
	<path style="fill:none;stroke:red;stroke-width:1px;stroke-linecap:butt;stroke-linejoin:miter;stroke-opacity:1" d="M 741.572,88.5839 754.428,83.1705 z" id="boundary" inkscape:connector-curvature="0" />
	<path style="fill:none;stroke:red;stroke-width:1px;stroke-linecap:butt;stroke-linejoin:miter;stroke-opacity:1" d="M 741.572,88.5839 728.715,93.9973 z" id="boundary" inkscape:connector-curvature="0" />
	<path style="fill:none;stroke:red;stroke-width:1px;stroke-linecap:butt;stroke-linejoin:miter;stroke-opacity:1" d="M 830.892,70.3138 818.035,70.3138 z" id="boundary" inkscape:connector-curvature="0" />
	<path style="fill:none;stroke:red;stroke-width:1px;stroke-linecap:butt;stroke-linejoin:miter;stroke-opacity:1" d="M 818.035,70.3138 805.179,70.9905 z" id="boundary" inkscape:connector-curvature="0" />
	<path style="fill:none;stroke:red;stroke-width:1px;stroke-linecap:butt;stroke-linejoin:miter;stroke-opacity:1" d="M 963.52,173.844 954.723,157.604 z" id="boundary" inkscape:connector-curvature="0" />
	<path style="fill:none;stroke:red;stroke-width:1px;stroke-linecap:butt;stroke-linejoin:miter;stroke-opacity:1" d="M 830.892,70.3138 843.072,71.6671 z" id="boundary" inkscape:connector-curvature="0" />
	<path style="fill:none;stroke:red;stroke-width:1px;stroke-linecap:butt;stroke-linejoin:miter;stroke-opacity:1" d="M 843.072,71.6671 855.929,75.0505 z" id="boundary" inkscape:connector-curvature="0" />
	<path style="fill:none;stroke:red;stroke-width:1px;stroke-linecap:butt;stroke-linejoin:miter;stroke-opacity:1" d="M 868.786,79.1105 855.929,75.0505 z" id="boundary" inkscape:connector-curvature="0" />
	<path style="fill:none;stroke:red;stroke-width:1px;stroke-linecap:butt;stroke-linejoin:miter;stroke-opacity:1" d="M 881.643,84.5239 894.499,91.9673 z" id="boundary" inkscape:connector-curvature="0" />
	<path style="fill:none;stroke:red;stroke-width:1px;stroke-linecap:butt;stroke-linejoin:miter;stroke-opacity:1" d="M 868.786,79.1105 881.643,84.5239 z" id="boundary" inkscape:connector-curvature="0" />
	<path style="fill:none;stroke:red;stroke-width:1px;stroke-linecap:butt;stroke-linejoin:miter;stroke-opacity:1" d="M 894.499,91.9673 907.356,100.764 z" id="boundary" inkscape:connector-curvature="0" />
	<path style="fill:none;stroke:red;stroke-width:1px;stroke-linecap:butt;stroke-linejoin:miter;stroke-opacity:1" d="M 919.536,111.591 932.393,125.801 z" id="boundary" inkscape:connector-curvature="0" />
	<path style="fill:none;stroke:red;stroke-width:1px;stroke-linecap:butt;stroke-linejoin:miter;stroke-opacity:1" d="M 919.536,111.591 907.356,100.764 z" id="boundary" inkscape:connector-curvature="0" />
	<path style="fill:none;stroke:red;stroke-width:1px;stroke-linecap:butt;stroke-linejoin:miter;stroke-opacity:1" d="M 944.573,141.364 932.393,125.801 z" id="boundary" inkscape:connector-curvature="0" />
	<path style="fill:none;stroke:red;stroke-width:1px;stroke-linecap:butt;stroke-linejoin:miter;stroke-opacity:1" d="M 954.723,157.604 944.573,141.364 z" id="boundary" inkscape:connector-curvature="0" />
	<path style="fill:none;stroke:red;stroke-width:1px;stroke-linecap:butt;stroke-linejoin:miter;stroke-opacity:1" d="M 977.73,207.001 971.64,191.438 z" id="boundary" inkscape:connector-curvature="0" />
	<path style="fill:none;stroke:red;stroke-width:1px;stroke-linecap:butt;stroke-linejoin:miter;stroke-opacity:1" d="M 971.64,191.438 963.52,173.844 z" id="boundary" inkscape:connector-curvature="0" />
	<path style="fill:none;stroke:red;stroke-width:1px;stroke-linecap:butt;stroke-linejoin:miter;stroke-opacity:1" d="M 983.143,223.918 977.73,207.001 z" id="boundary" inkscape:connector-curvature="0" />
	<path style="fill:none;stroke:red;stroke-width:1px;stroke-linecap:butt;stroke-linejoin:miter;stroke-opacity:1" d="M 983.143,223.918 987.88,240.835 z" id="boundary" inkscape:connector-curvature="0" />
	<path style="fill:none;stroke:red;stroke-width:1px;stroke-linecap:butt;stroke-linejoin:miter;stroke-opacity:1" d="M 991.263,257.075 987.88,240.835 z" id="boundary" inkscape:connector-curvature="0" />
	<path style="fill:none;stroke:red;stroke-width:1px;stroke-linecap:butt;stroke-linejoin:miter;stroke-opacity:1" d="M 996,293.615 993.97,276.022 z" id="boundary" inkscape:connector-curvature="0" />
	<path style="fill:none;stroke:red;stroke-width:1px;stroke-linecap:butt;stroke-linejoin:miter;stroke-opacity:1" d="M 991.263,257.075 993.97,276.022 z" id="boundary" inkscape:connector-curvature="0" />
	<path style="fill:none;stroke:red;stroke-width:1px;stroke-linecap:butt;stroke-linejoin:miter;stroke-opacity:1" d="M 736.158,416.769 739.542,399.853 z" id="boundary" inkscape:connector-curvature="0" />
	<path style="fill:none;stroke:red;stroke-width:1px;stroke-linecap:butt;stroke-linejoin:miter;stroke-opacity:1" d="M 744.278,382.259 739.542,399.853 z" id="boundary" inkscape:connector-curvature="0" />
	<path style="fill:none;stroke:red;stroke-width:1px;stroke-linecap:butt;stroke-linejoin:miter;stroke-opacity:1" d="M 744.278,382.259 749.015,364.666 z" id="boundary" inkscape:connector-curvature="0" />
	<path style="fill:none;stroke:red;stroke-width:1px;stroke-linecap:butt;stroke-linejoin:miter;stroke-opacity:1" d="M 752.398,356.546 749.015,364.666 z" id="boundary" inkscape:connector-curvature="0" />
	<path style="fill:none;stroke:red;stroke-width:1px;stroke-linecap:butt;stroke-linejoin:miter;stroke-opacity:1" d="M 725.332,477.67 728.715,452.633 z" id="boundary" inkscape:connector-curvature="0" />
	<path style="fill:none;stroke:red;stroke-width:1px;stroke-linecap:butt;stroke-linejoin:miter;stroke-opacity:1" d="M 725.332,477.67 724.655,504.06 z" id="boundary" inkscape:connector-curvature="0" />
	<path style="fill:none;stroke:red;stroke-width:1px;stroke-linecap:butt;stroke-linejoin:miter;stroke-opacity:1" d="M 728.715,452.633 732.098,433.01 z" id="boundary" inkscape:connector-curvature="0" />
	<path style="fill:none;stroke:red;stroke-width:1px;stroke-linecap:butt;stroke-linejoin:miter;stroke-opacity:1" d="M 736.158,416.769 732.098,433.01 z" id="boundary" inkscape:connector-curvature="0" />
	<path style="fill:none;stroke:red;stroke-width:1px;stroke-linecap:butt;stroke-linejoin:miter;stroke-opacity:1" d="M 723.302,520.3 730.068,532.48 z" id="boundary" inkscape:connector-curvature="0" />
	<path style="fill:none;stroke:red;stroke-width:1px;stroke-linecap:butt;stroke-linejoin:miter;stroke-opacity:1" d="M 723.302,520.3 724.655,504.06 z" id="boundary" inkscape:connector-curvature="0" />
	<path style="fill:none;stroke:red;stroke-width:1px;stroke-linecap:butt;stroke-linejoin:miter;stroke-opacity:1" d="M 730.068,532.48 741.572,554.134 z" id="boundary" inkscape:connector-curvature="0" />
	<path style="fill:none;stroke:red;stroke-width:1px;stroke-linecap:butt;stroke-linejoin:miter;stroke-opacity:1" d="M 752.398,570.374 741.572,554.134 z" id="boundary" inkscape:connector-curvature="0" />
	<path style="fill:none;stroke:red;stroke-width:1px;stroke-linecap:butt;stroke-linejoin:miter;stroke-opacity:1" d="M 991.94,340.306 987.88,357.899 z" id="boundary" inkscape:connector-curvature="0" />
	<path style="fill:none;stroke:red;stroke-width:1px;stroke-linecap:butt;stroke-linejoin:miter;stroke-opacity:1" d="M 994.647,322.035 991.94,340.306 z" id="boundary" inkscape:connector-curvature="0" />
	<path style="fill:none;stroke:red;stroke-width:1px;stroke-linecap:butt;stroke-linejoin:miter;stroke-opacity:1" d="M 994.647,322.035 996,309.179 z" id="boundary" inkscape:connector-curvature="0" />
	<path style="fill:none;stroke:red;stroke-width:1px;stroke-linecap:butt;stroke-linejoin:miter;stroke-opacity:1" d="M 973.67,407.973 978.407,391.733 z" id="boundary" inkscape:connector-curvature="0" />
	<path style="fill:none;stroke:red;stroke-width:1px;stroke-linecap:butt;stroke-linejoin:miter;stroke-opacity:1" d="M 983.82,374.816 987.88,357.899 z" id="boundary" inkscape:connector-curvature="0" />
	<path style="fill:none;stroke:red;stroke-width:1px;stroke-linecap:butt;stroke-linejoin:miter;stroke-opacity:1" d="M 983.82,374.816 978.407,391.733 z" id="boundary" inkscape:connector-curvature="0" />
	<path style="fill:none;stroke:red;stroke-width:1px;stroke-linecap:butt;stroke-linejoin:miter;stroke-opacity:1" d="M 996,293.615 996,309.179 z" id="boundary" inkscape:connector-curvature="0" />
	<path style="fill:none;stroke:red;stroke-width:1px;stroke-linecap:butt;stroke-linejoin:miter;stroke-opacity:1" d="M 973.67,407.973 968.256,424.213 z" id="boundary" inkscape:connector-curvature="0" />
	<path style="fill:none;stroke:red;stroke-width:1px;stroke-linecap:butt;stroke-linejoin:miter;stroke-opacity:1" d="M 948.633,489.85 945.25,506.767 z" id="boundary" inkscape:connector-curvature="0" />
	<path style="fill:none;stroke:red;stroke-width:1px;stroke-linecap:butt;stroke-linejoin:miter;stroke-opacity:1" d="M 952.693,473.61 948.633,489.85 z" id="boundary" inkscape:connector-curvature="0" />
	<path style="fill:none;stroke:red;stroke-width:1px;stroke-linecap:butt;stroke-linejoin:miter;stroke-opacity:1" d="M 957.43,456.693 952.693,473.61 z" id="boundary" inkscape:connector-curvature="0" />
	<path style="fill:none;stroke:red;stroke-width:1px;stroke-linecap:butt;stroke-linejoin:miter;stroke-opacity:1" d="M 962.843,440.453 957.43,456.693 z" id="boundary" inkscape:connector-curvature="0" />
	<path style="fill:none;stroke:red;stroke-width:1px;stroke-linecap:butt;stroke-linejoin:miter;stroke-opacity:1" d="M 943.22,523.007 941.866,548.044 z" id="boundary" inkscape:connector-curvature="0" />
	<path style="fill:none;stroke:red;stroke-width:1px;stroke-linecap:butt;stroke-linejoin:miter;stroke-opacity:1" d="M 943.22,523.007 945.25,506.767 z" id="boundary" inkscape:connector-curvature="0" />
	<path style="fill:none;stroke:red;stroke-width:1px;stroke-linecap:butt;stroke-linejoin:miter;stroke-opacity:1" d="M 962.843,440.453 968.256,424.213 z" id="boundary" inkscape:connector-curvature="0" />
	<path style="fill:none;stroke:red;stroke-width:1px;stroke-linecap:butt;stroke-linejoin:miter;stroke-opacity:1" d="M 942.543,573.08 941.866,548.044 z" id="boundary" inkscape:connector-curvature="0" />
	<path style="fill:none;stroke:red;stroke-width:1px;stroke-linecap:butt;stroke-linejoin:miter;stroke-opacity:1" d="M 539.924,584.584 537.217,601.501 z" id="boundary" inkscape:connector-curvature="0" />
	<path style="fill:none;stroke:red;stroke-width:1px;stroke-linecap:butt;stroke-linejoin:miter;stroke-opacity:1" d="M 537.217,601.501 533.157,618.417 z" id="boundary" inkscape:connector-curvature="0" />
	<path style="fill:none;stroke:red;stroke-width:1px;stroke-linecap:butt;stroke-linejoin:miter;stroke-opacity:1" d="M 539.924,584.584 541.954,566.99 z" id="boundary" inkscape:connector-curvature="0" />
	<path style="fill:none;stroke:red;stroke-width:1px;stroke-linecap:butt;stroke-linejoin:miter;stroke-opacity:1" d="M 529.774,635.334 525.714,652.251 z" id="boundary" inkscape:connector-curvature="0" />
	<path style="fill:none;stroke:red;stroke-width:1px;stroke-linecap:butt;stroke-linejoin:miter;stroke-opacity:1" d="M 521.653,667.814 525.714,652.251 z" id="boundary" inkscape:connector-curvature="0" />
	<path style="fill:none;stroke:red;stroke-width:1px;stroke-linecap:butt;stroke-linejoin:miter;stroke-opacity:1" d="M 521.653,667.814 516.24,684.055 z" id="boundary" inkscape:connector-curvature="0" />
	<path style="fill:none;stroke:red;stroke-width:1px;stroke-linecap:butt;stroke-linejoin:miter;stroke-opacity:1" d="M 529.774,635.334 533.157,618.417 z" id="boundary" inkscape:connector-curvature="0" />
	<path style="fill:none;stroke:red;stroke-width:1px;stroke-linecap:butt;stroke-linejoin:miter;stroke-opacity:1" d="M 696.235,581.877 690.145,564.284 z" id="boundary" inkscape:connector-curvature="0" />
	<path style="fill:none;stroke:red;stroke-width:1px;stroke-linecap:butt;stroke-linejoin:miter;stroke-opacity:1" d="M 706.385,596.764 696.235,581.877 z" id="boundary" inkscape:connector-curvature="0" />
	<path style="fill:none;stroke:red;stroke-width:1px;stroke-linecap:butt;stroke-linejoin:miter;stroke-opacity:1" d="M 715.181,613.004 706.385,596.764 z" id="boundary" inkscape:connector-curvature="0" />
	<path style="fill:none;stroke:red;stroke-width:1px;stroke-linecap:butt;stroke-linejoin:miter;stroke-opacity:1" d="M 663.754,673.905 672.551,650.898 z" id="boundary" inkscape:connector-curvature="0" />
	<path style="fill:none;stroke:red;stroke-width:1px;stroke-linecap:butt;stroke-linejoin:miter;stroke-opacity:1" d="M 672.551,650.898 685.408,643.454 z" id="boundary" inkscape:connector-curvature="0" />
	<path style="fill:none;stroke:red;stroke-width:1px;stroke-linecap:butt;stroke-linejoin:miter;stroke-opacity:1" d="M 685.408,643.454 697.588,638.718 z" id="boundary" inkscape:connector-curvature="0" />
	<path style="fill:none;stroke:red;stroke-width:1px;stroke-linecap:butt;stroke-linejoin:miter;stroke-opacity:1" d="M 669.168,700.295 663.754,673.905 z" id="boundary" inkscape:connector-curvature="0" />
	<path style="fill:none;stroke:red;stroke-width:1px;stroke-linecap:butt;stroke-linejoin:miter;stroke-opacity:1" d="M 697.588,638.718 710.445,630.598 z" id="boundary" inkscape:connector-curvature="0" />
	<path style="fill:none;stroke:red;stroke-width:1px;stroke-linecap:butt;stroke-linejoin:miter;stroke-opacity:1" d="M 710.445,630.598 715.181,613.004 z" id="boundary" inkscape:connector-curvature="0" />
	<path style="fill:none;stroke:red;stroke-width:1px;stroke-linecap:butt;stroke-linejoin:miter;stroke-opacity:1" d="M 755.105,700.295 742.925,707.738 z" id="boundary" inkscape:connector-curvature="0" />
	<path style="fill:none;stroke:red;stroke-width:1px;stroke-linecap:butt;stroke-linejoin:miter;stroke-opacity:1" d="M 508.797,700.971 500,717.211 z" id="boundary" inkscape:connector-curvature="0" />
	<path style="fill:none;stroke:red;stroke-width:1px;stroke-linecap:butt;stroke-linejoin:miter;stroke-opacity:1" d="M 489.173,733.452 500,717.211 z" id="boundary" inkscape:connector-curvature="0" />
	<path style="fill:none;stroke:red;stroke-width:1px;stroke-linecap:butt;stroke-linejoin:miter;stroke-opacity:1" d="M 476.993,749.015 464.136,762.548 z" id="boundary" inkscape:connector-curvature="0" />
	<path style="fill:none;stroke:red;stroke-width:1px;stroke-linecap:butt;stroke-linejoin:miter;stroke-opacity:1" d="M 476.993,749.015 489.173,733.452 z" id="boundary" inkscape:connector-curvature="0" />
	<path style="fill:none;stroke:red;stroke-width:1px;stroke-linecap:butt;stroke-linejoin:miter;stroke-opacity:1" d="M 426.243,791.645 439.1,783.525 z" id="boundary" inkscape:connector-curvature="0" />
	<path style="fill:none;stroke:red;stroke-width:1px;stroke-linecap:butt;stroke-linejoin:miter;stroke-opacity:1" d="M 451.956,774.052 464.136,762.548 z" id="boundary" inkscape:connector-curvature="0" />
	<path style="fill:none;stroke:red;stroke-width:1px;stroke-linecap:butt;stroke-linejoin:miter;stroke-opacity:1" d="M 451.956,774.052 439.1,783.525 z" id="boundary" inkscape:connector-curvature="0" />
	<path style="fill:none;stroke:red;stroke-width:1px;stroke-linecap:butt;stroke-linejoin:miter;stroke-opacity:1" d="M 508.797,700.971 516.24,684.055 z" id="boundary" inkscape:connector-curvature="0" />
	<path style="fill:none;stroke:red;stroke-width:1px;stroke-linecap:butt;stroke-linejoin:miter;stroke-opacity:1" d="M 704.355,719.241 691.498,717.888 z" id="boundary" inkscape:connector-curvature="0" />
	<path style="fill:none;stroke:red;stroke-width:1px;stroke-linecap:butt;stroke-linejoin:miter;stroke-opacity:1" d="M 679.318,712.475 669.168,700.295 z" id="boundary" inkscape:connector-curvature="0" />
	<path style="fill:none;stroke:red;stroke-width:1px;stroke-linecap:butt;stroke-linejoin:miter;stroke-opacity:1" d="M 691.498,717.888 679.318,712.475 z" id="boundary" inkscape:connector-curvature="0" />
	<path style="fill:none;stroke:red;stroke-width:1px;stroke-linecap:butt;stroke-linejoin:miter;stroke-opacity:1" d="M 742.925,707.738 730.068,713.151 z" id="boundary" inkscape:connector-curvature="0" />
	<path style="fill:none;stroke:red;stroke-width:1px;stroke-linecap:butt;stroke-linejoin:miter;stroke-opacity:1" d="M 730.068,713.151 717.211,717.211 z" id="boundary" inkscape:connector-curvature="0" />
	<path style="fill:none;stroke:red;stroke-width:1px;stroke-linecap:butt;stroke-linejoin:miter;stroke-opacity:1" d="M 704.355,719.241 717.211,717.211 z" id="boundary" inkscape:connector-curvature="0" />
	<path style="fill:none;stroke:red;stroke-width:1px;stroke-linecap:butt;stroke-linejoin:miter;stroke-opacity:1" d="M 743.602,755.105 731.422,764.578 z" id="boundary" inkscape:connector-curvature="0" />
	<path style="fill:none;stroke:red;stroke-width:1px;stroke-linecap:butt;stroke-linejoin:miter;stroke-opacity:1" d="M 720.595,826.832 712.475,803.149 z" id="boundary" inkscape:connector-curvature="0" />
	<path style="fill:none;stroke:red;stroke-width:1px;stroke-linecap:butt;stroke-linejoin:miter;stroke-opacity:1" d="M 719.918,776.759 712.475,803.149 z" id="boundary" inkscape:connector-curvature="0" />
	<path style="fill:none;stroke:red;stroke-width:1px;stroke-linecap:butt;stroke-linejoin:miter;stroke-opacity:1" d="M 733.452,839.689 720.595,826.832 z" id="boundary" inkscape:connector-curvature="0" />
	<path style="fill:none;stroke:red;stroke-width:1px;stroke-linecap:butt;stroke-linejoin:miter;stroke-opacity:1" d="M 719.918,776.759 731.422,764.578 z" id="boundary" inkscape:connector-curvature="0" />
	<path style="fill:none;stroke:red;stroke-width:1px;stroke-linecap:butt;stroke-linejoin:miter;stroke-opacity:1" d="M 733.452,839.689 745.632,847.809 z" id="boundary" inkscape:connector-curvature="0" />
	<path style="fill:none;stroke:red;stroke-width:1px;stroke-linecap:butt;stroke-linejoin:miter;stroke-opacity:1" d="M 777.435,601.501 764.578,585.937 z" id="boundary" inkscape:connector-curvature="0" />
	<path style="fill:none;stroke:red;stroke-width:1px;stroke-linecap:butt;stroke-linejoin:miter;stroke-opacity:1" d="M 752.398,570.374 764.578,585.937 z" id="boundary" inkscape:connector-curvature="0" />
	<path style="fill:none;stroke:red;stroke-width:1px;stroke-linecap:butt;stroke-linejoin:miter;stroke-opacity:1" d="M 790.292,616.387 796.382,624.508 z" id="boundary" inkscape:connector-curvature="0" />
	<path style="fill:none;stroke:red;stroke-width:1px;stroke-linecap:butt;stroke-linejoin:miter;stroke-opacity:1" d="M 790.292,616.387 777.435,601.501 z" id="boundary" inkscape:connector-curvature="0" />
	<path style="fill:none;stroke:red;stroke-width:1px;stroke-linecap:butt;stroke-linejoin:miter;stroke-opacity:1" d="M 796.382,624.508 803.825,634.658 z" id="boundary" inkscape:connector-curvature="0" />
	<path style="fill:none;stroke:red;stroke-width:1px;stroke-linecap:butt;stroke-linejoin:miter;stroke-opacity:1" d="M 803.825,634.658 809.915,644.131 z" id="boundary" inkscape:connector-curvature="0" />
	<path style="fill:none;stroke:red;stroke-width:1px;stroke-linecap:butt;stroke-linejoin:miter;stroke-opacity:1" d="M 795.029,644.808 790.969,661.048 z" id="boundary" inkscape:connector-curvature="0" />
	<path style="fill:none;stroke:red;stroke-width:1px;stroke-linecap:butt;stroke-linejoin:miter;stroke-opacity:1" d="M 780.142,677.288 790.969,661.048 z" id="boundary" inkscape:connector-curvature="0" />
	<path style="fill:none;stroke:red;stroke-width:1px;stroke-linecap:butt;stroke-linejoin:miter;stroke-opacity:1" d="M 780.142,677.288 767.962,690.821 z" id="boundary" inkscape:connector-curvature="0" />
	<path style="fill:none;stroke:red;stroke-width:1px;stroke-linecap:butt;stroke-linejoin:miter;stroke-opacity:1" d="M 767.962,690.821 755.105,700.295 z" id="boundary" inkscape:connector-curvature="0" />
	<path style="fill:none;stroke:red;stroke-width:1px;stroke-linecap:butt;stroke-linejoin:miter;stroke-opacity:1" d="M 815.329,656.988 818.035,666.461 z" id="boundary" inkscape:connector-curvature="0" />
	<path style="fill:none;stroke:red;stroke-width:1px;stroke-linecap:butt;stroke-linejoin:miter;stroke-opacity:1" d="M 809.915,644.131 815.329,656.988 z" id="boundary" inkscape:connector-curvature="0" />
	<path style="fill:none;stroke:red;stroke-width:1px;stroke-linecap:butt;stroke-linejoin:miter;stroke-opacity:1" d="M 820.065,679.318 817.359,693.528 z" id="boundary" inkscape:connector-curvature="0" />
	<path style="fill:none;stroke:red;stroke-width:1px;stroke-linecap:butt;stroke-linejoin:miter;stroke-opacity:1" d="M 818.035,666.461 820.065,679.318 z" id="boundary" inkscape:connector-curvature="0" />
	<path style="fill:none;stroke:red;stroke-width:1px;stroke-linecap:butt;stroke-linejoin:miter;stroke-opacity:1" d="M 817.359,693.528 807.885,711.121 z" id="boundary" inkscape:connector-curvature="0" />
	<path style="fill:none;stroke:red;stroke-width:1px;stroke-linecap:butt;stroke-linejoin:miter;stroke-opacity:1" d="M 943.896,591.351 946.603,610.974 z" id="boundary" inkscape:connector-curvature="0" />
	<path style="fill:none;stroke:red;stroke-width:1px;stroke-linecap:butt;stroke-linejoin:miter;stroke-opacity:1" d="M 942.543,573.08 943.896,591.351 z" id="boundary" inkscape:connector-curvature="0" />
	<path style="fill:none;stroke:red;stroke-width:1px;stroke-linecap:butt;stroke-linejoin:miter;stroke-opacity:1" d="M 952.016,697.588 953.37,681.348 z" id="boundary" inkscape:connector-curvature="0" />
	<path style="fill:none;stroke:red;stroke-width:1px;stroke-linecap:butt;stroke-linejoin:miter;stroke-opacity:1" d="M 948.633,627.891 950.663,645.484 z" id="boundary" inkscape:connector-curvature="0" />
	<path style="fill:none;stroke:red;stroke-width:1px;stroke-linecap:butt;stroke-linejoin:miter;stroke-opacity:1" d="M 948.633,627.891 946.603,610.974 z" id="boundary" inkscape:connector-curvature="0" />
	<path style="fill:none;stroke:red;stroke-width:1px;stroke-linecap:butt;stroke-linejoin:miter;stroke-opacity:1" d="M 950.663,645.484 952.693,664.431 z" id="boundary" inkscape:connector-curvature="0" />
	<path style="fill:none;stroke:red;stroke-width:1px;stroke-linecap:butt;stroke-linejoin:miter;stroke-opacity:1" d="M 953.37,681.348 952.693,664.431 z" id="boundary" inkscape:connector-curvature="0" />
	<path style="fill:none;stroke:red;stroke-width:1px;stroke-linecap:butt;stroke-linejoin:miter;stroke-opacity:1" d="M 756.458,746.985 743.602,755.105 z" id="boundary" inkscape:connector-curvature="0" />
	<path style="fill:none;stroke:red;stroke-width:1px;stroke-linecap:butt;stroke-linejoin:miter;stroke-opacity:1" d="M 769.315,739.542 756.458,746.985 z" id="boundary" inkscape:connector-curvature="0" />
	<path style="fill:none;stroke:red;stroke-width:1px;stroke-linecap:butt;stroke-linejoin:miter;stroke-opacity:1" d="M 782.172,732.098 769.315,739.542 z" id="boundary" inkscape:connector-curvature="0" />
	<path style="fill:none;stroke:red;stroke-width:1px;stroke-linecap:butt;stroke-linejoin:miter;stroke-opacity:1" d="M 807.885,711.121 795.029,723.302 z" id="boundary" inkscape:connector-curvature="0" />
	<path style="fill:none;stroke:red;stroke-width:1px;stroke-linecap:butt;stroke-linejoin:miter;stroke-opacity:1" d="M 795.029,723.302 782.172,732.098 z" id="boundary" inkscape:connector-curvature="0" />
	<path style="fill:none;stroke:red;stroke-width:1px;stroke-linecap:butt;stroke-linejoin:miter;stroke-opacity:1" d="M 758.488,853.222 771.345,855.929 z" id="boundary" inkscape:connector-curvature="0" />
	<path style="fill:none;stroke:red;stroke-width:1px;stroke-linecap:butt;stroke-linejoin:miter;stroke-opacity:1" d="M 758.488,853.222 745.632,847.809 z" id="boundary" inkscape:connector-curvature="0" />
	<path style="fill:none;stroke:red;stroke-width:1px;stroke-linecap:butt;stroke-linejoin:miter;stroke-opacity:1" d="M 771.345,855.929 784.202,856.606 z" id="boundary" inkscape:connector-curvature="0" />
	<path style="fill:none;stroke:red;stroke-width:1px;stroke-linecap:butt;stroke-linejoin:miter;stroke-opacity:1" d="M 809.915,851.869 797.059,855.252 z" id="boundary" inkscape:connector-curvature="0" />
	<path style="fill:none;stroke:red;stroke-width:1px;stroke-linecap:butt;stroke-linejoin:miter;stroke-opacity:1" d="M 797.059,855.252 784.202,856.606 z" id="boundary" inkscape:connector-curvature="0" />
	<path style="fill:none;stroke:red;stroke-width:1px;stroke-linecap:butt;stroke-linejoin:miter;stroke-opacity:1" d="M 924.273,762.548 935.1,746.985 z" id="boundary" inkscape:connector-curvature="0" />
	<path style="fill:none;stroke:red;stroke-width:1px;stroke-linecap:butt;stroke-linejoin:miter;stroke-opacity:1" d="M 943.22,730.068 949.31,713.151 z" id="boundary" inkscape:connector-curvature="0" />
	<path style="fill:none;stroke:red;stroke-width:1px;stroke-linecap:butt;stroke-linejoin:miter;stroke-opacity:1" d="M 943.22,730.068 935.1,746.985 z" id="boundary" inkscape:connector-curvature="0" />
	<path style="fill:none;stroke:red;stroke-width:1px;stroke-linecap:butt;stroke-linejoin:miter;stroke-opacity:1" d="M 949.31,713.151 952.016,697.588 z" id="boundary" inkscape:connector-curvature="0" />
	<path style="fill:none;stroke:red;stroke-width:1px;stroke-linecap:butt;stroke-linejoin:miter;stroke-opacity:1" d="M 924.273,762.548 911.416,778.789 z" id="boundary" inkscape:connector-curvature="0" />
	<path style="fill:none;stroke:red;stroke-width:1px;stroke-linecap:butt;stroke-linejoin:miter;stroke-opacity:1" d="M 847.809,834.952 834.952,841.719 z" id="boundary" inkscape:connector-curvature="0" />
	<path style="fill:none;stroke:red;stroke-width:1px;stroke-linecap:butt;stroke-linejoin:miter;stroke-opacity:1" d="M 809.915,851.869 822.095,847.809 z" id="boundary" inkscape:connector-curvature="0" />
	<path style="fill:none;stroke:red;stroke-width:1px;stroke-linecap:butt;stroke-linejoin:miter;stroke-opacity:1" d="M 834.952,841.719 822.095,847.809 z" id="boundary" inkscape:connector-curvature="0" />
	<path style="fill:none;stroke:red;stroke-width:1px;stroke-linecap:butt;stroke-linejoin:miter;stroke-opacity:1" d="M 873.523,816.682 886.379,805.179 z" id="boundary" inkscape:connector-curvature="0" />
	<path style="fill:none;stroke:red;stroke-width:1px;stroke-linecap:butt;stroke-linejoin:miter;stroke-opacity:1" d="M 898.559,792.999 911.416,778.789 z" id="boundary" inkscape:connector-curvature="0" />
	<path style="fill:none;stroke:red;stroke-width:1px;stroke-linecap:butt;stroke-linejoin:miter;stroke-opacity:1" d="M 873.523,816.682 860.666,826.156 z" id="boundary" inkscape:connector-curvature="0" />
	<path style="fill:none;stroke:red;stroke-width:1px;stroke-linecap:butt;stroke-linejoin:miter;stroke-opacity:1" d="M 886.379,805.179 898.559,792.999 z" id="boundary" inkscape:connector-curvature="0" />
	<path style="fill:none;stroke:red;stroke-width:1px;stroke-linecap:butt;stroke-linejoin:miter;stroke-opacity:1" d="M 860.666,826.156 847.809,834.952 z" id="boundary" inkscape:connector-curvature="0" />
	<circle cx="43.9236" cy="133.921" r="4" fill="#0" id="circle0"/>
	<circle cx="697.588" cy="531.804" r="4" fill="#0" id="circle1"/>
	<circle cx="777.435" cy="601.501" r="4" fill="#0" id="circle2"/>
	<circle cx="978.407" cy="391.733" r="4" fill="#0" id="circle3"/>
	<circle cx="830.892" cy="70.3138" r="4" fill="#0" id="circle4"/>
	<circle cx="42.5703" cy="63.5471" r="4" fill="#0" id="circle5"/>
	<circle cx="54.0737" cy="52.0437" r="4" fill="#0" id="circle6"/>
	<circle cx="89.2606" cy="22.2701" r="4" fill="#0" id="circle7"/>
	<circle cx="218.505" cy="98.0573" r="4" fill="#0" id="circle8"/>
	<circle cx="200.235" cy="178.581" r="4" fill="#0" id="circle9"/>
	<circle cx="212.415" cy="190.085" r="4" fill="#0" id="circle10"/>
	<circle cx="262.488" cy="495.94" r="4" fill="#0" id="circle11"/>
	<circle cx="254.368" cy="450.603" r="4" fill="#0" id="circle12"/>
	<circle cx="400.529" cy="806.532" r="4" fill="#0" id="circle13"/>
	<circle cx="336.922" cy="845.102" r="4" fill="#0" id="circle14"/>
	<circle cx="316.622" cy="686.761" r="4" fill="#0" id="circle15"/>
	<circle cx="790.969" cy="661.048" r="4" fill="#0" id="circle16"/>
	<circle cx="973.67" cy="407.973" r="4" fill="#0" id="circle17"/>
	<circle cx="539.924" cy="584.584" r="4" fill="#0" id="circle18"/>
	<circle cx="639.394" cy="143.394" r="4" fill="#0" id="circle19"/>
	<circle cx="652.251" cy="136.628" r="4" fill="#0" id="circle20"/>
	<circle cx="749.015" cy="364.666" r="4" fill="#0" id="circle21"/>
	<circle cx="191.438" cy="15.5034" r="4" fill="#0" id="circle22"/>
	<circle cx="165.724" cy="29.0368" r="4" fill="#0" id="circle23"/>
	<circle cx="4.67667" cy="66.2538" r="4" fill="#0" id="circle24"/>
	<circle cx="25.6535" cy="16.8568" r="4" fill="#0" id="circle25"/>
	<circle cx="226.625" cy="49.337" r="4" fill="#0" id="circle26"/>
	<circle cx="305.795" cy="18.2101" r="4" fill="#0" id="circle27"/>
	<circle cx="331.509" cy="6.70668" r="4" fill="#0" id="circle28"/>
	<circle cx="343.689" cy="10.09" r="4" fill="#0" id="circle29"/>
	<circle cx="351.132" cy="100.087" r="4" fill="#0" id="circle30"/>
	<circle cx="364.666" cy="75.7271" r="4" fill="#0" id="circle31"/>
	<circle cx="357.899" cy="88.5839" r="4" fill="#0" id="circle32"/>
	<circle cx="233.392" cy="148.131" r="4" fill="#0" id="circle33"/>
	<circle cx="47.9836" cy="121.741" r="4" fill="#0" id="circle34"/>
	<circle cx="188.055" cy="90.6139" r="4" fill="#0" id="circle35"/>
	<circle cx="29.7135" cy="70.9905" r="4" fill="#0" id="circle36"/>
	<circle cx="38.5102" cy="113.621" r="4" fill="#0" id="circle37"/>
	<circle cx="43.2469" cy="148.808" r="4" fill="#0" id="circle38"/>
	<circle cx="116.327" cy="220.535" r="4" fill="#0" id="circle39"/>
	<circle cx="127.831" cy="166.401" r="4" fill="#0" id="circle40"/>
	<circle cx="91.9673" cy="150.838" r="4" fill="#0" id="circle41"/>
	<circle cx="234.745" cy="596.087" r="4" fill="#0" id="circle42"/>
	<circle cx="209.031" cy="608.944" r="4" fill="#0" id="circle43"/>
	<circle cx="171.138" cy="688.115" r="4" fill="#0" id="circle44"/>
	<circle cx="196.851" cy="803.149" r="4" fill="#0" id="circle45"/>
	<circle cx="234.745" cy="776.082" r="4" fill="#0" id="circle46"/>
	<circle cx="247.602" cy="769.315" r="4" fill="#0" id="circle47"/>
	<circle cx="286.172" cy="868.786" r="4" fill="#0" id="circle48"/>
	<circle cx="299.029" cy="864.049" r="4" fill="#0" id="circle49"/>
	<circle cx="324.065" cy="852.546" r="4" fill="#0" id="circle50"/>
	<circle cx="317.299" cy="669.844" r="4" fill="#0" id="circle51"/>
	<circle cx="272.638" cy="756.458" r="4" fill="#0" id="circle52"/>
	<circle cx="276.698" cy="499.323" r="4" fill="#0" id="circle53"/>
	<circle cx="290.232" cy="533.834" r="4" fill="#0" id="circle54"/>
	<circle cx="304.442" cy="583.907" r="4" fill="#0" id="circle55"/>
	<circle cx="537.217" cy="601.501" r="4" fill="#0" id="circle56"/>
	<circle cx="706.385" cy="596.764" r="4" fill="#0" id="circle57"/>
	<circle cx="516.24" cy="684.055" r="4" fill="#0" id="circle58"/>
	<circle cx="717.211" cy="717.211" r="4" fill="#0" id="circle59"/>
	<circle cx="769.315" cy="739.542" r="4" fill="#0" id="circle60"/>
	<circle cx="743.602" cy="755.105" r="4" fill="#0" id="circle61"/>
	<circle cx="771.345" cy="855.929" r="4" fill="#0" id="circle62"/>
	<circle cx="426.243" cy="791.645" r="4" fill="#0" id="circle63"/>
	<circle cx="873.523" cy="816.682" r="4" fill="#0" id="circle64"/>
	<circle cx="860.666" cy="826.156" r="4" fill="#0" id="circle65"/>
	<circle cx="924.273" cy="762.548" r="4" fill="#0" id="circle66"/>
	<circle cx="943.22" cy="730.068" r="4" fill="#0" id="circle67"/>
	<circle cx="820.065" cy="679.318" r="4" fill="#0" id="circle68"/>
	<circle cx="780.142" cy="677.288" r="4" fill="#0" id="circle69"/>
	<circle cx="809.915" cy="644.131" r="4" fill="#0" id="circle70"/>
	<circle cx="815.329" cy="656.988" r="4" fill="#0" id="circle71"/>
	<circle cx="943.896" cy="591.351" r="4" fill="#0" id="circle72"/>
	<circle cx="945.25" cy="506.767" r="4" fill="#0" id="circle73"/>
	<circle cx="987.88" cy="357.899" r="4" fill="#0" id="circle74"/>
	<circle cx="962.843" cy="440.453" r="4" fill="#0" id="circle75"/>
	<circle cx="764.578" cy="585.937" r="4" fill="#0" id="circle76"/>
	<circle cx="690.145" cy="564.284" r="4" fill="#0" id="circle77"/>
	<circle cx="543.984" cy="555.487" r="4" fill="#0" id="circle78"/>
	<circle cx="595.411" cy="545.337" r="4" fill="#0" id="circle79"/>
	<circle cx="614.357" cy="156.928" r="4" fill="#0" id="circle80"/>
	<circle cx="710.445" cy="526.39" r="4" fill="#0" id="circle81"/>
	<circle cx="397.146" cy="112.944" r="4" fill="#0" id="circle82"/>
	<circle cx="372.109" cy="106.854" r="4" fill="#0" id="circle83"/>
	<circle cx="448.573" cy="126.477" r="4" fill="#0" id="circle84"/>
	<circle cx="512.18" cy="148.131" r="4" fill="#0" id="circle85"/>
	<circle cx="805.179" cy="70.9905" r="4" fill="#0" id="circle86"/>
	<circle cx="703.001" cy="107.531" r="4" fill="#0" id="circle87"/>
	<circle cx="919.536" cy="111.591" r="4" fill="#0" id="circle88"/>
	<circle cx="868.786" cy="79.1105" r="4" fill="#0" id="circle89"/>
	<circle cx="818.035" cy="70.3138" r="4" fill="#0" id="circle90"/>
	<circle cx="63.5471" cy="18.2101" r="4" fill="#0" id="circle91"/>
	<circle cx="50.6903" cy="14.8267" r="4" fill="#0" id="circle92"/>
	<circle cx="38.5102" cy="14.8267" r="4" fill="#0" id="circle93"/>
	<circle cx="12.7967" cy="22.9468" r="4" fill="#0" id="circle94"/>
	<circle cx="61.5171" cy="35.8035" r="4" fill="#0" id="circle95"/>
	<circle cx="20.9168" cy="75.0505" r="4" fill="#0" id="circle96"/>
	<circle cx="11.4434" cy="79.7872" r="4" fill="#0" id="circle97"/>
	<circle cx="4" cy="43.9236" r="4" fill="#0" id="circle98"/>
	<circle cx="201.588" cy="61.5171" r="4" fill="#0" id="circle99"/>
	<circle cx="192.115" cy="78.4338" r="4" fill="#0" id="circle100"/>
	<circle cx="140.011" cy="33.0969" r="4" fill="#0" id="circle101"/>
	<circle cx="152.868" cy="33.0969" r="4" fill="#0" id="circle102"/>
	<circle cx="127.154" cy="31.7435" r="4" fill="#0" id="circle103"/>
	<circle cx="114.974" cy="29.0368" r="4" fill="#0" id="circle104"/>
	<circle cx="76.4038" cy="18.8868" r="4" fill="#0" id="circle105"/>
	<circle cx="102.117" cy="25.6535" r="4" fill="#0" id="circle106"/>
	<circle cx="178.581" cy="22.9468" r="4" fill="#0" id="circle107"/>
	<circle cx="229.332" cy="4" r="4" fill="#0" id="circle108"/>
	<circle cx="216.475" cy="4.67667" r="4" fill="#0" id="circle109"/>
	<circle cx="203.618" cy="8.7367" r="4" fill="#0" id="circle110"/>
	<circle cx="242.188" cy="6.70668" r="4" fill="#0" id="circle111"/>
	<circle cx="255.045" cy="11.4434" r="4" fill="#0" id="circle112"/>
	<circle cx="267.902" cy="17.5334" r="4" fill="#0" id="circle113"/>
	<circle cx="356.546" cy="18.8868" r="4" fill="#0" id="circle114"/>
	<circle cx="318.652" cy="8.06003" r="4" fill="#0" id="circle115"/>
	<circle cx="366.019" cy="32.4202" r="4" fill="#0" id="circle116"/>
	<circle cx="369.402" cy="60.8404" r="4" fill="#0" id="circle117"/>
	<circle cx="370.756" cy="47.307" r="4" fill="#0" id="circle118"/>
	<circle cx="293.615" cy="49.337" r="4" fill="#0" id="circle119"/>
	<circle cx="292.939" cy="33.0969" r="4" fill="#0" id="circle120"/>
	<circle cx="280.082" cy="24.9768" r="4" fill="#0" id="circle121"/>
	<circle cx="214.445" cy="51.367" r="4" fill="#0" id="circle122"/>
	<circle cx="239.482" cy="54.7503" r="4" fill="#0" id="circle123"/>
	<circle cx="250.985" cy="66.9304" r="4" fill="#0" id="circle124"/>
	<circle cx="258.428" cy="83.1705" r="4" fill="#0" id="circle125"/>
	<circle cx="238.805" cy="119.034" r="4" fill="#0" id="circle126"/>
	<circle cx="230.685" cy="98.734" r="4" fill="#0" id="circle127"/>
	<circle cx="263.165" cy="101.441" r="4" fill="#0" id="circle128"/>
	<circle cx="333.539" cy="113.621" r="4" fill="#0" id="circle129"/>
	<circle cx="361.959" cy="104.824" r="4" fill="#0" id="circle130"/>
	<circle cx="410.003" cy="116.327" r="4" fill="#0" id="circle131"/>
	<circle cx="384.966" cy="109.561" r="4" fill="#0" id="circle132"/>
	<circle cx="265.195" cy="129.184" r="4" fill="#0" id="circle133"/>
	<circle cx="321.359" cy="119.034" r="4" fill="#0" id="circle134"/>
	<circle cx="422.859" cy="119.711" r="4" fill="#0" id="circle135"/>
	<circle cx="435.716" cy="123.094" r="4" fill="#0" id="circle136"/>
	<circle cx="263.165" cy="142.718" r="4" fill="#0" id="circle137"/>
	<circle cx="264.518" cy="119.034" r="4" fill="#0" id="circle138"/>
	<circle cx="238.128" cy="136.628" r="4" fill="#0" id="circle139"/>
	<circle cx="257.752" cy="160.311" r="4" fill="#0" id="circle140"/>
	<circle cx="249.632" cy="176.551" r="4" fill="#0" id="circle141"/>
	<circle cx="186.025" cy="144.748" r="4" fill="#0" id="circle142"/>
	<circle cx="227.302" cy="154.898" r="4" fill="#0" id="circle143"/>
	<circle cx="216.475" cy="150.161" r="4" fill="#0" id="circle144"/>
	<circle cx="191.438" cy="162.341" r="4" fill="#0" id="circle145"/>
	<circle cx="211.738" cy="136.628" r="4" fill="#0" id="circle146"/>
	<circle cx="210.385" cy="123.771" r="4" fill="#0" id="circle147"/>
	<circle cx="211.061" cy="111.591" r="4" fill="#0" id="circle148"/>
	<circle cx="185.348" cy="104.824" r="4" fill="#0" id="circle149"/>
	<circle cx="184.671" cy="126.477" r="4" fill="#0" id="circle150"/>
	<circle cx="16.1801" cy="91.2906" r="4" fill="#0" id="circle151"/>
	<circle cx="28.3602" cy="103.471" r="4" fill="#0" id="circle152"/>
	<circle cx="56.1037" cy="129.184" r="4" fill="#0" id="circle153"/>
	<circle cx="66.9304" cy="136.628" r="4" fill="#0" id="circle154"/>
	<circle cx="79.1105" cy="144.071" r="4" fill="#0" id="circle155"/>
	<circle cx="117.681" cy="162.341" r="4" fill="#0" id="circle156"/>
	<circle cx="104.824" cy="156.928" r="4" fill="#0" id="circle157"/>
	<circle cx="52.7203" cy="171.138" r="4" fill="#0" id="circle158"/>
	<circle cx="90.6139" cy="196.851" r="4" fill="#0" id="circle159"/>
	<circle cx="65.5771" cy="181.965" r="4" fill="#0" id="circle160"/>
	<circle cx="77.7572" cy="189.408" r="4" fill="#0" id="circle161"/>
	<circle cx="103.471" cy="206.325" r="4" fill="#0" id="circle162"/>
	<circle cx="129.184" cy="236.098" r="4" fill="#0" id="circle163"/>
	<circle cx="140.688" cy="252.338" r="4" fill="#0" id="circle164"/>
	<circle cx="225.271" cy="192.791" r="4" fill="#0" id="circle165"/>
	<circle cx="152.191" cy="268.578" r="4" fill="#0" id="circle166"/>
	<circle cx="228.655" cy="401.206" r="4" fill="#0" id="circle167"/>
	<circle cx="237.452" cy="417.446" r="4" fill="#0" id="circle168"/>
	<circle cx="219.858" cy="384.289" r="4" fill="#0" id="circle169"/>
	<circle cx="210.385" cy="368.049" r="4" fill="#0" id="circle170"/>
	<circle cx="200.911" cy="351.132" r="4" fill="#0" id="circle171"/>
	<circle cx="191.438" cy="334.892" r="4" fill="#0" id="circle172"/>
	<circle cx="162.341" cy="285.495" r="4" fill="#0" id="circle173"/>
	<circle cx="172.491" cy="301.735" r="4" fill="#0" id="circle174"/>
	<circle cx="181.965" cy="317.975" r="4" fill="#0" id="circle175"/>
	<circle cx="171.138" cy="637.364" r="4" fill="#0" id="circle176"/>
	<circle cx="196.175" cy="616.387" r="4" fill="#0" id="circle177"/>
	<circle cx="183.995" cy="625.184" r="4" fill="#0" id="circle178"/>
	<circle cx="162.341" cy="663.754" r="4" fill="#0" id="circle179"/>
	<circle cx="183.995" cy="698.941" r="4" fill="#0" id="circle180"/>
	<circle cx="196.175" cy="703.001" r="4" fill="#0" id="circle181"/>
	<circle cx="188.055" cy="828.862" r="4" fill="#0" id="circle182"/>
	<circle cx="196.851" cy="851.869" r="4" fill="#0" id="circle183"/>
	<circle cx="209.708" cy="863.372" r="4" fill="#0" id="circle184"/>
	<circle cx="222.565" cy="870.139" r="4" fill="#0" id="circle185"/>
	<circle cx="235.422" cy="874.199" r="4" fill="#0" id="circle186"/>
	<circle cx="209.031" cy="790.969" r="4" fill="#0" id="circle187"/>
	<circle cx="221.888" cy="782.849" r="4" fill="#0" id="circle188"/>
	<circle cx="209.031" cy="702.325" r="4" fill="#0" id="circle189"/>
	<circle cx="221.888" cy="698.265" r="4" fill="#0" id="circle190"/>
	<circle cx="221.888" cy="602.177" r="4" fill="#0" id="circle191"/>
	<circle cx="234.745" cy="692.175" r="4" fill="#0" id="circle192"/>
	<circle cx="247.602" cy="686.761" r="4" fill="#0" id="circle193"/>
	<circle cx="272.638" cy="671.874" r="4" fill="#0" id="circle194"/>
	<circle cx="260.458" cy="680.671" r="4" fill="#0" id="circle195"/>
	<circle cx="285.495" cy="749.015" r="4" fill="#0" id="circle196"/>
	<circle cx="260.458" cy="763.225" r="4" fill="#0" id="circle197"/>
	<circle cx="273.315" cy="872.169" r="4" fill="#0" id="circle198"/>
	<circle cx="260.458" cy="874.876" r="4" fill="#0" id="circle199"/>
	<circle cx="247.602" cy="875.553" r="4" fill="#0" id="circle200"/>
	<circle cx="375.492" cy="822.772" r="4" fill="#0" id="circle201"/>
	<circle cx="349.779" cy="838.336" r="4" fill="#0" id="circle202"/>
	<circle cx="311.885" cy="858.636" r="4" fill="#0" id="circle203"/>
	<circle cx="362.636" cy="830.216" r="4" fill="#0" id="circle204"/>
	<circle cx="413.386" cy="799.089" r="4" fill="#0" id="circle205"/>
	<circle cx="387.673" cy="814.652" r="4" fill="#0" id="circle206"/>
	<circle cx="298.352" cy="737.512" r="4" fill="#0" id="circle207"/>
	<circle cx="308.502" cy="722.625" r="4" fill="#0" id="circle208"/>
	<circle cx="314.592" cy="705.031" r="4" fill="#0" id="circle209"/>
	<circle cx="311.209" cy="617.741" r="4" fill="#0" id="circle210"/>
	<circle cx="311.209" cy="642.101" r="4" fill="#0" id="circle211"/>
	<circle cx="315.945" cy="652.251" r="4" fill="#0" id="circle212"/>
	<circle cx="308.502" cy="600.824" r="4" fill="#0" id="circle213"/>
	<circle cx="298.352" cy="649.544" r="4" fill="#0" id="circle214"/>
	<circle cx="285.495" cy="661.724" r="4" fill="#0" id="circle215"/>
	<circle cx="244.218" cy="581.877" r="4" fill="#0" id="circle216"/>
	<circle cx="250.985" cy="556.164" r="4" fill="#0" id="circle217"/>
	<circle cx="300.382" cy="567.667" r="4" fill="#0" id="circle218"/>
	<circle cx="257.075" cy="533.834" r="4" fill="#0" id="circle219"/>
	<circle cx="238.128" cy="188.731" r="4" fill="#0" id="circle220"/>
	<circle cx="246.248" cy="433.686" r="4" fill="#0" id="circle221"/>
	<circle cx="259.782" cy="462.106" r="4" fill="#0" id="circle222"/>
	<circle cx="265.195" cy="473.61" r="4" fill="#0" id="circle223"/>
	<circle cx="260.458" cy="510.15" r="4" fill="#0" id="circle224"/>
	<circle cx="295.645" cy="550.75" r="4" fill="#0" id="circle225"/>
	<circle cx="284.142" cy="517.593" r="4" fill="#0" id="circle226"/>
	<circle cx="271.962" cy="486.467" r="4" fill="#0" id="circle227"/>
	<circle cx="541.954" cy="566.99" r="4" fill="#0" id="circle228"/>
	<circle cx="533.157" cy="618.417" r="4" fill="#0" id="circle229"/>
	<circle cx="621.124" cy="548.044" r="4" fill="#0" id="circle230"/>
	<circle cx="633.981" cy="548.72" r="4" fill="#0" id="circle231"/>
	<circle cx="646.838" cy="548.044" r="4" fill="#0" id="circle232"/>
	<circle cx="741.572" cy="554.134" r="4" fill="#0" id="circle233"/>
	<circle cx="696.235" cy="581.877" r="4" fill="#0" id="circle234"/>
	<circle cx="715.181" cy="613.004" r="4" fill="#0" id="circle235"/>
	<circle cx="697.588" cy="638.718" r="4" fill="#0" id="circle236"/>
	<circle cx="710.445" cy="630.598" r="4" fill="#0" id="circle237"/>
	<circle cx="685.408" cy="643.454" r="4" fill="#0" id="circle238"/>
	<circle cx="672.551" cy="650.898" r="4" fill="#0" id="circle239"/>
	<circle cx="669.168" cy="700.295" r="4" fill="#0" id="circle240"/>
	<circle cx="663.754" cy="673.905" r="4" fill="#0" id="circle241"/>
	<circle cx="529.774" cy="635.334" r="4" fill="#0" id="circle242"/>
	<circle cx="525.714" cy="652.251" r="4" fill="#0" id="circle243"/>
	<circle cx="521.653" cy="667.814" r="4" fill="#0" id="circle244"/>
	<circle cx="679.318" cy="712.475" r="4" fill="#0" id="circle245"/>
	<circle cx="508.797" cy="700.971" r="4" fill="#0" id="circle246"/>
	<circle cx="500" cy="717.211" r="4" fill="#0" id="circle247"/>
	<circle cx="489.173" cy="733.452" r="4" fill="#0" id="circle248"/>
	<circle cx="476.993" cy="749.015" r="4" fill="#0" id="circle249"/>
	<circle cx="464.136" cy="762.548" r="4" fill="#0" id="circle250"/>
	<circle cx="451.956" cy="774.052" r="4" fill="#0" id="circle251"/>
	<circle cx="439.1" cy="783.525" r="4" fill="#0" id="circle252"/>
	<circle cx="719.918" cy="776.759" r="4" fill="#0" id="circle253"/>
	<circle cx="733.452" cy="839.689" r="4" fill="#0" id="circle254"/>
	<circle cx="712.475" cy="803.149" r="4" fill="#0" id="circle255"/>
	<circle cx="720.595" cy="826.832" r="4" fill="#0" id="circle256"/>
	<circle cx="731.422" cy="764.578" r="4" fill="#0" id="circle257"/>
	<circle cx="704.355" cy="719.241" r="4" fill="#0" id="circle258"/>
	<circle cx="691.498" cy="717.888" r="4" fill="#0" id="circle259"/>
	<circle cx="730.068" cy="713.151" r="4" fill="#0" id="circle260"/>
	<circle cx="742.925" cy="707.738" r="4" fill="#0" id="circle261"/>
	<circle cx="782.172" cy="732.098" r="4" fill="#0" id="circle262"/>
	<circle cx="795.029" cy="723.302" r="4" fill="#0" id="circle263"/>
	<circle cx="807.885" cy="711.121" r="4" fill="#0" id="circle264"/>
	<circle cx="756.458" cy="746.985" r="4" fill="#0" id="circle265"/>
	<circle cx="745.632" cy="847.809" r="4" fill="#0" id="circle266"/>
	<circle cx="797.059" cy="855.252" r="4" fill="#0" id="circle267"/>
	<circle cx="758.488" cy="853.222" r="4" fill="#0" id="circle268"/>
	<circle cx="784.202" cy="856.606" r="4" fill="#0" id="circle269"/>
	<circle cx="822.095" cy="847.809" r="4" fill="#0" id="circle270"/>
	<circle cx="809.915" cy="851.869" r="4" fill="#0" id="circle271"/>
	<circle cx="834.952" cy="841.719" r="4" fill="#0" id="circle272"/>
	<circle cx="847.809" cy="834.952" r="4" fill="#0" id="circle273"/>
	<circle cx="898.559" cy="792.999" r="4" fill="#0" id="circle274"/>
	<circle cx="886.379" cy="805.179" r="4" fill="#0" id="circle275"/>
	<circle cx="911.416" cy="778.789" r="4" fill="#0" id="circle276"/>
	<circle cx="935.1" cy="746.985" r="4" fill="#0" id="circle277"/>
	<circle cx="949.31" cy="713.151" r="4" fill="#0" id="circle278"/>
	<circle cx="950.663" cy="645.484" r="4" fill="#0" id="circle279"/>
	<circle cx="952.016" cy="697.588" r="4" fill="#0" id="circle280"/>
	<circle cx="952.693" cy="664.431" r="4" fill="#0" id="circle281"/>
	<circle cx="953.37" cy="681.348" r="4" fill="#0" id="circle282"/>
	<circle cx="818.035" cy="666.461" r="4" fill="#0" id="circle283"/>
	<circle cx="817.359" cy="693.528" r="4" fill="#0" id="circle284"/>
	<circle cx="767.962" cy="690.821" r="4" fill="#0" id="circle285"/>
	<circle cx="755.105" cy="700.295" r="4" fill="#0" id="circle286"/>
	<circle cx="790.292" cy="616.387" r="4" fill="#0" id="circle287"/>
	<circle cx="752.398" cy="570.374" r="4" fill="#0" id="circle288"/>
	<circle cx="795.029" cy="644.808" r="4" fill="#0" id="circle289"/>
	<circle cx="796.382" cy="624.508" r="4" fill="#0" id="circle290"/>
	<circle cx="941.866" cy="548.044" r="4" fill="#0" id="circle291"/>
	<circle cx="803.825" cy="634.658" r="4" fill="#0" id="circle292"/>
	<circle cx="948.633" cy="627.891" r="4" fill="#0" id="circle293"/>
	<circle cx="946.603" cy="610.974" r="4" fill="#0" id="circle294"/>
	<circle cx="942.543" cy="573.08" r="4" fill="#0" id="circle295"/>
	<circle cx="983.82" cy="374.816" r="4" fill="#0" id="circle296"/>
	<circle cx="968.256" cy="424.213" r="4" fill="#0" id="circle297"/>
	<circle cx="991.94" cy="340.306" r="4" fill="#0" id="circle298"/>
	<circle cx="994.647" cy="322.035" r="4" fill="#0" id="circle299"/>
	<circle cx="996" cy="309.179" r="4" fill="#0" id="circle300"/>
	<circle cx="993.97" cy="276.022" r="4" fill="#0" id="circle301"/>
	<circle cx="996" cy="293.615" r="4" fill="#0" id="circle302"/>
	<circle cx="991.263" cy="257.075" r="4" fill="#0" id="circle303"/>
	<circle cx="739.542" cy="399.853" r="4" fill="#0" id="circle304"/>
	<circle cx="752.398" cy="356.546" r="4" fill="#0" id="circle305"/>
	<circle cx="744.278" cy="382.259" r="4" fill="#0" id="circle306"/>
	<circle cx="736.158" cy="416.769" r="4" fill="#0" id="circle307"/>
	<circle cx="732.098" cy="433.01" r="4" fill="#0" id="circle308"/>
	<circle cx="957.43" cy="456.693" r="4" fill="#0" id="circle309"/>
	<circle cx="952.693" cy="473.61" r="4" fill="#0" id="circle310"/>
	<circle cx="948.633" cy="489.85" r="4" fill="#0" id="circle311"/>
	<circle cx="943.22" cy="523.007" r="4" fill="#0" id="circle312"/>
	<circle cx="608.267" cy="547.367" r="4" fill="#0" id="circle313"/>
	<circle cx="659.018" cy="546.014" r="4" fill="#0" id="circle314"/>
	<circle cx="684.731" cy="541.277" r="4" fill="#0" id="circle315"/>
	<circle cx="671.874" cy="541.954" r="4" fill="#0" id="circle316"/>
	<circle cx="582.554" cy="543.307" r="4" fill="#0" id="circle317"/>
	<circle cx="570.374" cy="541.277" r="4" fill="#0" id="circle318"/>
	<circle cx="557.517" cy="538.57" r="4" fill="#0" id="circle319"/>
	<circle cx="545.337" cy="536.54" r="4" fill="#0" id="circle320"/>
	<circle cx="550.074" cy="492.557" r="4" fill="#0" id="circle321"/>
	<circle cx="548.72" cy="510.15" r="4" fill="#0" id="circle322"/>
	<circle cx="551.427" cy="472.933" r="4" fill="#0" id="circle323"/>
	<circle cx="552.78" cy="454.663" r="4" fill="#0" id="circle324"/>
	<circle cx="724.655" cy="504.06" r="4" fill="#0" id="circle325"/>
	<circle cx="723.302" cy="520.3" r="4" fill="#0" id="circle326"/>
	<circle cx="730.068" cy="532.48" r="4" fill="#0" id="circle327"/>
	<circle cx="725.332" cy="477.67" r="4" fill="#0" id="circle328"/>
	<circle cx="728.715" cy="452.633" r="4" fill="#0" id="circle329"/>
	<circle cx="588.644" cy="166.401" r="4" fill="#0" id="circle330"/>
	<circle cx="626.538" cy="150.838" r="4" fill="#0" id="circle331"/>
	<circle cx="601.501" cy="162.341" r="4" fill="#0" id="circle332"/>
	<circle cx="575.787" cy="169.108" r="4" fill="#0" id="circle333"/>
	<circle cx="562.93" cy="169.108" r="4" fill="#0" id="circle334"/>
	<circle cx="550.074" cy="166.401" r="4" fill="#0" id="circle335"/>
	<circle cx="537.894" cy="160.311" r="4" fill="#0" id="circle336"/>
	<circle cx="525.037" cy="153.544" r="4" fill="#0" id="circle337"/>
	<circle cx="486.467" cy="138.658" r="4" fill="#0" id="circle338"/>
	<circle cx="461.43" cy="130.538" r="4" fill="#0" id="circle339"/>
	<circle cx="473.61" cy="134.598" r="4" fill="#0" id="circle340"/>
	<circle cx="499.323" cy="143.394" r="4" fill="#0" id="circle341"/>
	<circle cx="677.965" cy="121.741" r="4" fill="#0" id="circle342"/>
	<circle cx="665.108" cy="129.184" r="4" fill="#0" id="circle343"/>
	<circle cx="690.145" cy="114.297" r="4" fill="#0" id="circle344"/>
	<circle cx="715.858" cy="100.087" r="4" fill="#0" id="circle345"/>
	<circle cx="728.715" cy="93.9973" r="4" fill="#0" id="circle346"/>
	<circle cx="779.465" cy="75.0505" r="4" fill="#0" id="circle347"/>
	<circle cx="792.322" cy="72.3438" r="4" fill="#0" id="circle348"/>
	<circle cx="855.929" cy="75.0505" r="4" fill="#0" id="circle349"/>
	<circle cx="843.072" cy="71.6671" r="4" fill="#0" id="circle350"/>
	<circle cx="754.428" cy="83.1705" r="4" fill="#0" id="circle351"/>
	<circle cx="741.572" cy="88.5839" r="4" fill="#0" id="circle352"/>
	<circle cx="894.499" cy="91.9673" r="4" fill="#0" id="circle353"/>
	<circle cx="881.643" cy="84.5239" r="4" fill="#0" id="circle354"/>
	<circle cx="767.285" cy="79.1105" r="4" fill="#0" id="circle355"/>
	<circle cx="977.73" cy="207.001" r="4" fill="#0" id="circle356"/>
	<circle cx="987.88" cy="240.835" r="4" fill="#0" id="circle357"/>
	<circle cx="983.143" cy="223.918" r="4" fill="#0" id="circle358"/>
	<circle cx="971.64" cy="191.438" r="4" fill="#0" id="circle359"/>
	<circle cx="963.52" cy="173.844" r="4" fill="#0" id="circle360"/>
	<circle cx="954.723" cy="157.604" r="4" fill="#0" id="circle361"/>
	<circle cx="907.356" cy="100.764" r="4" fill="#0" id="circle362"/>
	<circle cx="932.393" cy="125.801" r="4" fill="#0" id="circle363"/>
	<circle cx="944.573" cy="141.364" r="4" fill="#0" id="circle364"/>
	</g>
</svg>