<?xml version="1.0" encoding="UTF-8" standalone="no"?>
<!-- Created with CurveBenchmark -->
<svg
	xmlns:dc="http://purl.org/dc/elements/1.1/"
	xmlns:cc="http://creativecommons.org/ns#"
	xmlns:rdf="http://www.w3.org/1999/02/22-rdf-syntax-ns#"
	xmlns:svg="http://www.w3.org/2000/svg"
	xmlns="http://www.w3.org/2000/svg"
	xmlns:sodipodi="http://sodipodi.sourceforge.net/DTD/sodipodi-0.dtd"
	xmlns:inkscape="http://www.inkscape.org/namespaces/inkscape"
	width="1000"
	height="1000"
	id="svg2"
	version="1.1"
	sodipodi:docname="Non-manifold/nncrust-OTFig18g.txt">
<defs
	id="defs4" />
<metadata
	id="metadata7">
	<rdf:RDF>
		<cc:Work
			rdf:about="">
			<dc:format>image/svg+xml</dc:format>
			<dc:type
				rdf:resource="http://purl.org/dc/dcmitype/StillImage" />
			<dc:title></dc:title>
		</cc:Work>
	</rdf:RDF>
</metadata>
<g
	inkscape:label="Layer 1"
	inkscape:groupmode="layer"
	id="layer1">
	<path style="fill:none;stroke:red;stroke-width:1px;stroke-linecap:butt;stroke-linejoin:miter;stroke-opacity:1" d="M 483.597,207.086 503.905,260.201 z" id="boundary" inkscape:connector-curvature="0" />
	<path style="fill:none;stroke:red;stroke-width:1px;stroke-linecap:butt;stroke-linejoin:miter;stroke-opacity:1" d="M 503.905,260.201 435.169,264.888 z" id="boundary" inkscape:connector-curvature="0" />
	<path style="fill:none;stroke:red;stroke-width:1px;stroke-linecap:butt;stroke-linejoin:miter;stroke-opacity:1" d="M 483.597,207.086 558.583,203.962 z" id="boundary" inkscape:connector-curvature="0" />
	<path style="fill:none;stroke:red;stroke-width:1px;stroke-linecap:butt;stroke-linejoin:miter;stroke-opacity:1" d="M 417.984,347.685 491.408,372.68 z" id="boundary" inkscape:connector-curvature="0" />
	<path style="fill:none;stroke:red;stroke-width:1px;stroke-linecap:butt;stroke-linejoin:miter;stroke-opacity:1" d="M 513.279,414.86 433.606,478.91 z" id="boundary" inkscape:connector-curvature="0" />
	<path style="fill:none;stroke:red;stroke-width:1px;stroke-linecap:butt;stroke-linejoin:miter;stroke-opacity:1" d="M 524.214,394.551 513.279,414.86 z" id="boundary" inkscape:connector-curvature="0" />
	<path style="fill:none;stroke:red;stroke-width:1px;stroke-linecap:butt;stroke-linejoin:miter;stroke-opacity:1" d="M 491.408,372.68 524.214,394.551 z" id="boundary" inkscape:connector-curvature="0" />
	<path style="fill:none;stroke:red;stroke-width:1px;stroke-linecap:butt;stroke-linejoin:miter;stroke-opacity:1" d="M 417.984,347.685 435.169,264.888 z" id="boundary" inkscape:connector-curvature="0" />
	<path style="fill:none;stroke:red;stroke-width:1px;stroke-linecap:butt;stroke-linejoin:miter;stroke-opacity:1" d="M 513.279,414.86 569.518,461.726 z" id="boundary" inkscape:connector-curvature="0" />
	<path style="fill:none;stroke:red;stroke-width:1px;stroke-linecap:butt;stroke-linejoin:miter;stroke-opacity:1" d="M 602.325,233.644 558.583,203.962 z" id="boundary" inkscape:connector-curvature="0" />
	<path style="fill:none;stroke:red;stroke-width:1px;stroke-linecap:butt;stroke-linejoin:miter;stroke-opacity:1" d="M 624.195,171.156 602.325,233.644 z" id="boundary" inkscape:connector-curvature="0" />
	<path style="fill:none;stroke:red;stroke-width:1px;stroke-linecap:butt;stroke-linejoin:miter;stroke-opacity:1" d="M 666.375,166.469 624.195,171.156 z" id="boundary" inkscape:connector-curvature="0" />
	<path style="fill:none;stroke:red;stroke-width:1px;stroke-linecap:butt;stroke-linejoin:miter;stroke-opacity:1" d="M 666.375,166.469 602.325,233.644 z" id="boundary" inkscape:connector-curvature="0" />
	<path style="fill:none;stroke:red;stroke-width:1px;stroke-linecap:butt;stroke-linejoin:miter;stroke-opacity:1" d="M 697.619,252.391 689.808,371.118 z" id="boundary" inkscape:connector-curvature="0" />
	<path style="fill:none;stroke:red;stroke-width:1px;stroke-linecap:butt;stroke-linejoin:miter;stroke-opacity:1" d="M 503.905,260.201 602.325,233.644 z" id="boundary" inkscape:connector-curvature="0" />
	<path style="fill:none;stroke:red;stroke-width:1px;stroke-linecap:butt;stroke-linejoin:miter;stroke-opacity:1" d="M 569.518,461.726 711.679,496.094 z" id="boundary" inkscape:connector-curvature="0" />
	<path style="fill:none;stroke:red;stroke-width:1px;stroke-linecap:butt;stroke-linejoin:miter;stroke-opacity:1" d="M 711.679,496.094 681.997,624.195 z" id="boundary" inkscape:connector-curvature="0" />
	<path style="fill:none;stroke:red;stroke-width:1px;stroke-linecap:butt;stroke-linejoin:miter;stroke-opacity:1" d="M 483.597,207.086 706.992,61.8015 z" id="boundary" inkscape:connector-curvature="0" />
	<path style="fill:none;stroke:red;stroke-width:1px;stroke-linecap:butt;stroke-linejoin:miter;stroke-opacity:1" d="M 461.726,541.398 433.606,478.91 z" id="boundary" inkscape:connector-curvature="0" />
	<path style="fill:none;stroke:red;stroke-width:1px;stroke-linecap:butt;stroke-linejoin:miter;stroke-opacity:1" d="M 116.479,724.176 147.723,669.499 z" id="boundary" inkscape:connector-curvature="0" />
	<path style="fill:none;stroke:red;stroke-width:1px;stroke-linecap:butt;stroke-linejoin:miter;stroke-opacity:1" d="M 116.479,724.176 60.2395,736.674 z" id="boundary" inkscape:connector-curvature="0" />
	<path style="fill:none;stroke:red;stroke-width:1px;stroke-linecap:butt;stroke-linejoin:miter;stroke-opacity:1" d="M 207.087,669.499 147.723,669.499 z" id="boundary" inkscape:connector-curvature="0" />
	<path style="fill:none;stroke:red;stroke-width:1px;stroke-linecap:butt;stroke-linejoin:miter;stroke-opacity:1" d="M 264.888,591.389 207.087,669.499 z" id="boundary" inkscape:connector-curvature="0" />
	<path style="fill:none;stroke:red;stroke-width:1px;stroke-linecap:butt;stroke-linejoin:miter;stroke-opacity:1" d="M 216.46,746.047 39.9309,783.54 z" id="boundary" inkscape:connector-curvature="0" />
	<path style="fill:none;stroke:red;stroke-width:1px;stroke-linecap:butt;stroke-linejoin:miter;stroke-opacity:1" d="M 27.433,902.268 4,800.724 z" id="boundary" inkscape:connector-curvature="0" />
	<path style="fill:none;stroke:red;stroke-width:1px;stroke-linecap:butt;stroke-linejoin:miter;stroke-opacity:1" d="M 4,800.724 39.9309,783.54 z" id="boundary" inkscape:connector-curvature="0" />
	<path style="fill:none;stroke:red;stroke-width:1px;stroke-linecap:butt;stroke-linejoin:miter;stroke-opacity:1" d="M 39.9309,783.54 60.2395,736.674 z" id="boundary" inkscape:connector-curvature="0" />
	<path style="fill:none;stroke:red;stroke-width:1px;stroke-linecap:butt;stroke-linejoin:miter;stroke-opacity:1" d="M 207.087,669.499 216.46,746.047 z" id="boundary" inkscape:connector-curvature="0" />
	<path style="fill:none;stroke:red;stroke-width:1px;stroke-linecap:butt;stroke-linejoin:miter;stroke-opacity:1" d="M 383.616,605.449 264.888,591.389 z" id="boundary" inkscape:connector-curvature="0" />
	<path style="fill:none;stroke:red;stroke-width:1px;stroke-linecap:butt;stroke-linejoin:miter;stroke-opacity:1" d="M 461.726,541.398 516.403,622.633 z" id="boundary" inkscape:connector-curvature="0" />
	<path style="fill:none;stroke:red;stroke-width:1px;stroke-linecap:butt;stroke-linejoin:miter;stroke-opacity:1" d="M 383.616,605.449 461.726,541.398 z" id="boundary" inkscape:connector-curvature="0" />
	<path style="fill:none;stroke:red;stroke-width:1px;stroke-linecap:butt;stroke-linejoin:miter;stroke-opacity:1" d="M 567.956,653.877 622.633,660.126 z" id="boundary" inkscape:connector-curvature="0" />
	<path style="fill:none;stroke:red;stroke-width:1px;stroke-linecap:butt;stroke-linejoin:miter;stroke-opacity:1" d="M 516.403,622.633 567.956,653.877 z" id="boundary" inkscape:connector-curvature="0" />
	<path style="fill:none;stroke:red;stroke-width:1px;stroke-linecap:butt;stroke-linejoin:miter;stroke-opacity:1" d="M 681.997,624.195 622.633,660.126 z" id="boundary" inkscape:connector-curvature="0" />
	<path style="fill:none;stroke:red;stroke-width:1px;stroke-linecap:butt;stroke-linejoin:miter;stroke-opacity:1" d="M 863.213,21.1841 796.038,36.8062 z" id="boundary" inkscape:connector-curvature="0" />
	<path style="fill:none;stroke:red;stroke-width:1px;stroke-linecap:butt;stroke-linejoin:miter;stroke-opacity:1" d="M 796.038,36.8062 794.476,4 z" id="boundary" inkscape:connector-curvature="0" />
	<path style="fill:none;stroke:red;stroke-width:1px;stroke-linecap:butt;stroke-linejoin:miter;stroke-opacity:1" d="M 747.609,93.0457 796.038,36.8062 z" id="boundary" inkscape:connector-curvature="0" />
	<path style="fill:none;stroke:red;stroke-width:1px;stroke-linecap:butt;stroke-linejoin:miter;stroke-opacity:1" d="M 706.992,164.907 697.619,252.391 z" id="boundary" inkscape:connector-curvature="0" />
	<path style="fill:none;stroke:red;stroke-width:1px;stroke-linecap:butt;stroke-linejoin:miter;stroke-opacity:1" d="M 666.375,166.469 706.992,164.907 z" id="boundary" inkscape:connector-curvature="0" />
	<path style="fill:none;stroke:red;stroke-width:1px;stroke-linecap:butt;stroke-linejoin:miter;stroke-opacity:1" d="M 706.992,61.8015 747.609,93.0457 z" id="boundary" inkscape:connector-curvature="0" />
	<path style="fill:none;stroke:red;stroke-width:1px;stroke-linecap:butt;stroke-linejoin:miter;stroke-opacity:1" d="M 747.609,93.0457 706.992,164.907 z" id="boundary" inkscape:connector-curvature="0" />
	<path style="fill:none;stroke:red;stroke-width:1px;stroke-linecap:butt;stroke-linejoin:miter;stroke-opacity:1" d="M 872.586,132.101 819.471,182.091 z" id="boundary" inkscape:connector-curvature="0" />
	<path style="fill:none;stroke:red;stroke-width:1px;stroke-linecap:butt;stroke-linejoin:miter;stroke-opacity:1" d="M 819.471,182.091 806.973,236.768 z" id="boundary" inkscape:connector-curvature="0" />
	<path style="fill:none;stroke:red;stroke-width:1px;stroke-linecap:butt;stroke-linejoin:miter;stroke-opacity:1" d="M 971.005,130.538 946.009,130.538 z" id="boundary" inkscape:connector-curvature="0" />
	<path style="fill:none;stroke:red;stroke-width:1px;stroke-linecap:butt;stroke-linejoin:miter;stroke-opacity:1" d="M 946.009,130.538 916.327,47.7416 z" id="boundary" inkscape:connector-curvature="0" />
	<path style="fill:none;stroke:red;stroke-width:1px;stroke-linecap:butt;stroke-linejoin:miter;stroke-opacity:1" d="M 950.696,182.091 946.009,130.538 z" id="boundary" inkscape:connector-curvature="0" />
	<path style="fill:none;stroke:red;stroke-width:1px;stroke-linecap:butt;stroke-linejoin:miter;stroke-opacity:1" d="M 946.009,130.538 872.586,132.101 z" id="boundary" inkscape:connector-curvature="0" />
	<path style="fill:none;stroke:red;stroke-width:1px;stroke-linecap:butt;stroke-linejoin:miter;stroke-opacity:1" d="M 872.586,132.101 916.327,47.7416 z" id="boundary" inkscape:connector-curvature="0" />
	<path style="fill:none;stroke:red;stroke-width:1px;stroke-linecap:butt;stroke-linejoin:miter;stroke-opacity:1" d="M 872.586,132.101 908.517,194.589 z" id="boundary" inkscape:connector-curvature="0" />
	<path style="fill:none;stroke:red;stroke-width:1px;stroke-linecap:butt;stroke-linejoin:miter;stroke-opacity:1" d="M 908.517,194.589 950.696,182.091 z" id="boundary" inkscape:connector-curvature="0" />
	<path style="fill:none;stroke:red;stroke-width:1px;stroke-linecap:butt;stroke-linejoin:miter;stroke-opacity:1" d="M 996,219.584 950.696,182.091 z" id="boundary" inkscape:connector-curvature="0" />
	<path style="fill:none;stroke:red;stroke-width:1px;stroke-linecap:butt;stroke-linejoin:miter;stroke-opacity:1" d="M 971.005,130.538 996,219.584 z" id="boundary" inkscape:connector-curvature="0" />
	<path style="fill:none;stroke:red;stroke-width:1px;stroke-linecap:butt;stroke-linejoin:miter;stroke-opacity:1" d="M 863.213,21.1841 916.327,47.7416 z" id="boundary" inkscape:connector-curvature="0" />
	<path style="fill:none;stroke:red;stroke-width:1px;stroke-linecap:butt;stroke-linejoin:miter;stroke-opacity:1" d="M 852.277,435.168 808.535,433.606 z" id="boundary" inkscape:connector-curvature="0" />
	<path style="fill:none;stroke:red;stroke-width:1px;stroke-linecap:butt;stroke-linejoin:miter;stroke-opacity:1" d="M 785.102,353.934 777.291,403.924 z" id="boundary" inkscape:connector-curvature="0" />
	<path style="fill:none;stroke:red;stroke-width:1px;stroke-linecap:butt;stroke-linejoin:miter;stroke-opacity:1" d="M 777.291,403.924 689.808,371.118 z" id="boundary" inkscape:connector-curvature="0" />
	<path style="fill:none;stroke:red;stroke-width:1px;stroke-linecap:butt;stroke-linejoin:miter;stroke-opacity:1" d="M 796.038,478.91 711.679,496.094 z" id="boundary" inkscape:connector-curvature="0" />
	<path style="fill:none;stroke:red;stroke-width:1px;stroke-linecap:butt;stroke-linejoin:miter;stroke-opacity:1" d="M 796.038,478.91 808.535,433.606 z" id="boundary" inkscape:connector-curvature="0" />
	<path style="fill:none;stroke:red;stroke-width:1px;stroke-linecap:butt;stroke-linejoin:miter;stroke-opacity:1" d="M 777.291,403.924 808.535,433.606 z" id="boundary" inkscape:connector-curvature="0" />
	<path style="fill:none;stroke:red;stroke-width:1px;stroke-linecap:butt;stroke-linejoin:miter;stroke-opacity:1" d="M 858.526,293.008 785.102,353.934 z" id="boundary" inkscape:connector-curvature="0" />
	<path style="fill:none;stroke:red;stroke-width:1px;stroke-linecap:butt;stroke-linejoin:miter;stroke-opacity:1" d="M 858.526,293.008 850.715,263.326 z" id="boundary" inkscape:connector-curvature="0" />
	<path style="fill:none;stroke:red;stroke-width:1px;stroke-linecap:butt;stroke-linejoin:miter;stroke-opacity:1" d="M 925.701,269.575 858.526,293.008 z" id="boundary" inkscape:connector-curvature="0" />
	<path style="fill:none;stroke:red;stroke-width:1px;stroke-linecap:butt;stroke-linejoin:miter;stroke-opacity:1" d="M 850.715,263.326 806.973,236.768 z" id="boundary" inkscape:connector-curvature="0" />
	<path style="fill:none;stroke:red;stroke-width:1px;stroke-linecap:butt;stroke-linejoin:miter;stroke-opacity:1" d="M 925.701,269.575 966.318,278.948 z" id="boundary" inkscape:connector-curvature="0" />
	<path style="fill:none;stroke:red;stroke-width:1px;stroke-linecap:butt;stroke-linejoin:miter;stroke-opacity:1" d="M 966.318,278.948 988.189,339.874 z" id="boundary" inkscape:connector-curvature="0" />
	<path style="fill:none;stroke:red;stroke-width:1px;stroke-linecap:butt;stroke-linejoin:miter;stroke-opacity:1" d="M 852.277,435.168 931.95,438.293 z" id="boundary" inkscape:connector-curvature="0" />
	<path style="fill:none;stroke:red;stroke-width:1px;stroke-linecap:butt;stroke-linejoin:miter;stroke-opacity:1" d="M 964.756,403.924 931.95,438.293 z" id="boundary" inkscape:connector-curvature="0" />
	<path style="fill:none;stroke:red;stroke-width:1px;stroke-linecap:butt;stroke-linejoin:miter;stroke-opacity:1" d="M 988.189,339.874 964.756,403.924 z" id="boundary" inkscape:connector-curvature="0" />
	<path style="fill:none;stroke:red;stroke-width:1px;stroke-linecap:butt;stroke-linejoin:miter;stroke-opacity:1" d="M 966.318,278.948 996,219.584 z" id="boundary" inkscape:connector-curvature="0" />
	<circle cx="4" cy="800.724" r="4" fill="#0" id="circle0"/>
	<circle cx="27.433" cy="902.268" r="4" fill="#0" id="circle1"/>
	<circle cx="39.9309" cy="783.54" r="4" fill="#0" id="circle2"/>
	<circle cx="60.2395" cy="736.674" r="4" fill="#0" id="circle3"/>
	<circle cx="116.479" cy="724.176" r="4" fill="#0" id="circle4"/>
	<circle cx="216.46" cy="746.047" r="4" fill="#0" id="circle5"/>
	<circle cx="207.087" cy="669.499" r="4" fill="#0" id="circle6"/>
	<circle cx="147.723" cy="669.499" r="4" fill="#0" id="circle7"/>
	<circle cx="264.888" cy="591.389" r="4" fill="#0" id="circle8"/>
	<circle cx="383.616" cy="605.449" r="4" fill="#0" id="circle9"/>
	<circle cx="461.726" cy="541.398" r="4" fill="#0" id="circle10"/>
	<circle cx="433.606" cy="478.91" r="4" fill="#0" id="circle11"/>
	<circle cx="417.984" cy="347.685" r="4" fill="#0" id="circle12"/>
	<circle cx="435.169" cy="264.888" r="4" fill="#0" id="circle13"/>
	<circle cx="491.408" cy="372.68" r="4" fill="#0" id="circle14"/>
	<circle cx="513.279" cy="414.86" r="4" fill="#0" id="circle15"/>
	<circle cx="524.214" cy="394.551" r="4" fill="#0" id="circle16"/>
	<circle cx="503.905" cy="260.201" r="4" fill="#0" id="circle17"/>
	<circle cx="569.518" cy="461.726" r="4" fill="#0" id="circle18"/>
	<circle cx="516.403" cy="622.633" r="4" fill="#0" id="circle19"/>
	<circle cx="567.956" cy="653.877" r="4" fill="#0" id="circle20"/>
	<circle cx="622.633" cy="660.126" r="4" fill="#0" id="circle21"/>
	<circle cx="681.997" cy="624.195" r="4" fill="#0" id="circle22"/>
	<circle cx="711.679" cy="496.094" r="4" fill="#0" id="circle23"/>
	<circle cx="689.808" cy="371.118" r="4" fill="#0" id="circle24"/>
	<circle cx="602.325" cy="233.644" r="4" fill="#0" id="circle25"/>
	<circle cx="558.583" cy="203.962" r="4" fill="#0" id="circle26"/>
	<circle cx="483.597" cy="207.086" r="4" fill="#0" id="circle27"/>
	<circle cx="624.195" cy="171.156" r="4" fill="#0" id="circle28"/>
	<circle cx="666.375" cy="166.469" r="4" fill="#0" id="circle29"/>
	<circle cx="706.992" cy="61.8015" r="4" fill="#0" id="circle30"/>
	<circle cx="747.609" cy="93.0457" r="4" fill="#0" id="circle31"/>
	<circle cx="706.992" cy="164.907" r="4" fill="#0" id="circle32"/>
	<circle cx="697.619" cy="252.391" r="4" fill="#0" id="circle33"/>
	<circle cx="806.973" cy="236.768" r="4" fill="#0" id="circle34"/>
	<circle cx="819.471" cy="182.091" r="4" fill="#0" id="circle35"/>
	<circle cx="872.586" cy="132.101" r="4" fill="#0" id="circle36"/>
	<circle cx="908.517" cy="194.589" r="4" fill="#0" id="circle37"/>
	<circle cx="946.009" cy="130.538" r="4" fill="#0" id="circle38"/>
	<circle cx="916.327" cy="47.7416" r="4" fill="#0" id="circle39"/>
	<circle cx="863.213" cy="21.1841" r="4" fill="#0" id="circle40"/>
	<circle cx="796.038" cy="36.8062" r="4" fill="#0" id="circle41"/>
	<circle cx="794.476" cy="4" r="4" fill="#0" id="circle42"/>
	<circle cx="971.005" cy="130.538" r="4" fill="#0" id="circle43"/>
	<circle cx="996" cy="219.584" r="4" fill="#0" id="circle44"/>
	<circle cx="950.696" cy="182.091" r="4" fill="#0" id="circle45"/>
	<circle cx="850.715" cy="263.326" r="4" fill="#0" id="circle46"/>
	<circle cx="785.102" cy="353.934" r="4" fill="#0" id="circle47"/>
	<circle cx="777.291" cy="403.924" r="4" fill="#0" id="circle48"/>
	<circle cx="808.535" cy="433.606" r="4" fill="#0" id="circle49"/>
	<circle cx="852.277" cy="435.168" r="4" fill="#0" id="circle50"/>
	<circle cx="964.756" cy="403.924" r="4" fill="#0" id="circle51"/>
	<circle cx="988.189" cy="339.874" r="4" fill="#0" id="circle52"/>
	<circle cx="966.318" cy="278.948" r="4" fill="#0" id="circle53"/>
	<circle cx="925.701" cy="269.575" r="4" fill="#0" id="circle54"/>
	<circle cx="858.526" cy="293.008" r="4" fill="#0" id="circle55"/>
	<circle cx="796.038" cy="478.91" r="4" fill="#0" id="circle56"/>
	<circle cx="931.95" cy="438.293" r="4" fill="#0" id="circle57"/>
	</g>
</svg>