<?xml version="1.0" encoding="UTF-8" standalone="no"?>
<!-- Created with CurveBenchmark -->
<svg
	xmlns:dc="http://purl.org/dc/elements/1.1/"
	xmlns:cc="http://creativecommons.org/ns#"
	xmlns:rdf="http://www.w3.org/1999/02/22-rdf-syntax-ns#"
	xmlns:svg="http://www.w3.org/2000/svg"
	xmlns="http://www.w3.org/2000/svg"
	xmlns:sodipodi="http://sodipodi.sourceforge.net/DTD/sodipodi-0.dtd"
	xmlns:inkscape="http://www.inkscape.org/namespaces/inkscape"
	width="1000"
	height="1000"
	id="svg2"
	version="1.1"
	sodipodi:docname="Non-manifold/nncrust-nm8out.txt">
<defs
	id="defs4" />
<metadata
	id="metadata7">
	<rdf:RDF>
		<cc:Work
			rdf:about="">
			<dc:format>image/svg+xml</dc:format>
			<dc:type
				rdf:resource="http://purl.org/dc/dcmitype/StillImage" />
			<dc:title></dc:title>
		</cc:Work>
	</rdf:RDF>
</metadata>
<g
	inkscape:label="Layer 1"
	inkscape:groupmode="layer"
	id="layer1">
	<path style="fill:none;stroke:red;stroke-width:1px;stroke-linecap:butt;stroke-linejoin:miter;stroke-opacity:1" d="M 236.204,343.144 261.636,283.543 z" id="boundary" inkscape:connector-curvature="0" />
	<path style="fill:none;stroke:red;stroke-width:1px;stroke-linecap:butt;stroke-linejoin:miter;stroke-opacity:1" d="M 297.019,239.452 261.636,283.543 z" id="boundary" inkscape:connector-curvature="0" />
	<path style="fill:none;stroke:red;stroke-width:1px;stroke-linecap:butt;stroke-linejoin:miter;stroke-opacity:1" d="M 400.816,91.3899 403.169,159.044 z" id="boundary" inkscape:connector-curvature="0" />
	<path style="fill:none;stroke:red;stroke-width:1px;stroke-linecap:butt;stroke-linejoin:miter;stroke-opacity:1" d="M 403.169,159.044 367.786,178.913 z" id="boundary" inkscape:connector-curvature="0" />
	<path style="fill:none;stroke:red;stroke-width:1px;stroke-linecap:butt;stroke-linejoin:miter;stroke-opacity:1" d="M 400.816,91.3899 473.936,117.061 z" id="boundary" inkscape:connector-curvature="0" />
	<path style="fill:none;stroke:red;stroke-width:1px;stroke-linecap:butt;stroke-linejoin:miter;stroke-opacity:1" d="M 297.019,239.452 332.403,206.211 z" id="boundary" inkscape:connector-curvature="0" />
	<path style="fill:none;stroke:red;stroke-width:1px;stroke-linecap:butt;stroke-linejoin:miter;stroke-opacity:1" d="M 367.786,178.913 332.403,206.211 z" id="boundary" inkscape:connector-curvature="0" />
	<path style="fill:none;stroke:red;stroke-width:1px;stroke-linecap:butt;stroke-linejoin:miter;stroke-opacity:1" d="M 135.582,459.147 170.966,445.947 z" id="boundary" inkscape:connector-curvature="0" />
	<path style="fill:none;stroke:red;stroke-width:1px;stroke-linecap:butt;stroke-linejoin:miter;stroke-opacity:1" d="M 206.349,435.097 170.966,445.947 z" id="boundary" inkscape:connector-curvature="0" />
	<path style="fill:none;stroke:red;stroke-width:1px;stroke-linecap:butt;stroke-linejoin:miter;stroke-opacity:1" d="M 312.499,410.218 347.883,403.791 z" id="boundary" inkscape:connector-curvature="0" />
	<path style="fill:none;stroke:red;stroke-width:1px;stroke-linecap:butt;stroke-linejoin:miter;stroke-opacity:1" d="M 383.266,397.503 347.883,403.791 z" id="boundary" inkscape:connector-curvature="0" />
	<path style="fill:none;stroke:red;stroke-width:1px;stroke-linecap:butt;stroke-linejoin:miter;stroke-opacity:1" d="M 267.918,480.399 241.732,429.175 z" id="boundary" inkscape:connector-curvature="0" />
	<path style="fill:none;stroke:red;stroke-width:1px;stroke-linecap:butt;stroke-linejoin:miter;stroke-opacity:1" d="M 241.732,429.175 312.499,410.218 z" id="boundary" inkscape:connector-curvature="0" />
	<path style="fill:none;stroke:red;stroke-width:1px;stroke-linecap:butt;stroke-linejoin:miter;stroke-opacity:1" d="M 241.732,429.175 206.349,435.097 z" id="boundary" inkscape:connector-curvature="0" />
	<path style="fill:none;stroke:red;stroke-width:1px;stroke-linecap:butt;stroke-linejoin:miter;stroke-opacity:1" d="M 236.204,343.144 241.732,429.175 z" id="boundary" inkscape:connector-curvature="0" />
	<path style="fill:none;stroke:red;stroke-width:1px;stroke-linecap:butt;stroke-linejoin:miter;stroke-opacity:1" d="M 403.169,159.044 422.998,202.136 z" id="boundary" inkscape:connector-curvature="0" />
	<path style="fill:none;stroke:red;stroke-width:1px;stroke-linecap:butt;stroke-linejoin:miter;stroke-opacity:1" d="M 135.582,459.147 100.199,475.318 z" id="boundary" inkscape:connector-curvature="0" />
	<path style="fill:none;stroke:red;stroke-width:1px;stroke-linecap:butt;stroke-linejoin:miter;stroke-opacity:1" d="M 509.32,101.028 473.936,117.061 z" id="boundary" inkscape:connector-curvature="0" />
	<path style="fill:none;stroke:red;stroke-width:1px;stroke-linecap:butt;stroke-linejoin:miter;stroke-opacity:1" d="M 447.399,33.9239 482.782,15.2647 z" id="boundary" inkscape:connector-curvature="0" />
	<path style="fill:none;stroke:red;stroke-width:1px;stroke-linecap:butt;stroke-linejoin:miter;stroke-opacity:1" d="M 518.166,6.07325 553.549,4 z" id="boundary" inkscape:connector-curvature="0" />
	<path style="fill:none;stroke:red;stroke-width:1px;stroke-linecap:butt;stroke-linejoin:miter;stroke-opacity:1" d="M 544.703,86.7917 509.32,101.028 z" id="boundary" inkscape:connector-curvature="0" />
	<path style="fill:none;stroke:red;stroke-width:1px;stroke-linecap:butt;stroke-linejoin:miter;stroke-opacity:1" d="M 489.417,381.193 523.188,376.569 z" id="boundary" inkscape:connector-curvature="0" />
	<path style="fill:none;stroke:red;stroke-width:1px;stroke-linecap:butt;stroke-linejoin:miter;stroke-opacity:1" d="M 482.782,15.2647 518.166,6.07325 z" id="boundary" inkscape:connector-curvature="0" />
	<path style="fill:none;stroke:red;stroke-width:1px;stroke-linecap:butt;stroke-linejoin:miter;stroke-opacity:1" d="M 418.65,391.767 383.266,397.503 z" id="boundary" inkscape:connector-curvature="0" />
	<path style="fill:none;stroke:red;stroke-width:1px;stroke-linecap:butt;stroke-linejoin:miter;stroke-opacity:1" d="M 456.245,248.367 422.998,202.136 z" id="boundary" inkscape:connector-curvature="0" />
	<path style="fill:none;stroke:red;stroke-width:1px;stroke-linecap:butt;stroke-linejoin:miter;stroke-opacity:1" d="M 418.65,391.767 454.033,386.445 z" id="boundary" inkscape:connector-curvature="0" />
	<path style="fill:none;stroke:red;stroke-width:1px;stroke-linecap:butt;stroke-linejoin:miter;stroke-opacity:1" d="M 456.245,248.367 491.628,291.214 z" id="boundary" inkscape:connector-curvature="0" />
	<path style="fill:none;stroke:red;stroke-width:1px;stroke-linecap:butt;stroke-linejoin:miter;stroke-opacity:1" d="M 491.628,291.214 519.714,324.662 z" id="boundary" inkscape:connector-curvature="0" />
	<path style="fill:none;stroke:red;stroke-width:1px;stroke-linecap:butt;stroke-linejoin:miter;stroke-opacity:1" d="M 454.033,386.445 489.417,381.193 z" id="boundary" inkscape:connector-curvature="0" />
	<path style="fill:none;stroke:red;stroke-width:1px;stroke-linecap:butt;stroke-linejoin:miter;stroke-opacity:1" d="M 519.714,324.662 523.188,376.569 z" id="boundary" inkscape:connector-curvature="0" />
	<path style="fill:none;stroke:red;stroke-width:1px;stroke-linecap:butt;stroke-linejoin:miter;stroke-opacity:1" d="M 562.395,368.865 523.188,376.569 z" id="boundary" inkscape:connector-curvature="0" />
	<path style="fill:none;stroke:red;stroke-width:1px;stroke-linecap:butt;stroke-linejoin:miter;stroke-opacity:1" d="M 544.703,86.7917 580.087,74.4213 z" id="boundary" inkscape:connector-curvature="0" />
	<path style="fill:none;stroke:red;stroke-width:1px;stroke-linecap:butt;stroke-linejoin:miter;stroke-opacity:1" d="M 400.816,91.3899 447.399,33.9239 z" id="boundary" inkscape:connector-curvature="0" />
	<path style="fill:none;stroke:red;stroke-width:1px;stroke-linecap:butt;stroke-linejoin:miter;stroke-opacity:1" d="M 25.0089,699.032 4,610.402 z" id="boundary" inkscape:connector-curvature="0" />
	<path style="fill:none;stroke:red;stroke-width:1px;stroke-linecap:butt;stroke-linejoin:miter;stroke-opacity:1" d="M 4,610.402 29.4318,529.845 z" id="boundary" inkscape:connector-curvature="0" />
	<path style="fill:none;stroke:red;stroke-width:1px;stroke-linecap:butt;stroke-linejoin:miter;stroke-opacity:1" d="M 29.4318,529.845 64.8153,496.88 z" id="boundary" inkscape:connector-curvature="0" />
	<path style="fill:none;stroke:red;stroke-width:1px;stroke-linecap:butt;stroke-linejoin:miter;stroke-opacity:1" d="M 267.918,480.399 303.654,524.731 z" id="boundary" inkscape:connector-curvature="0" />
	<path style="fill:none;stroke:red;stroke-width:1px;stroke-linecap:butt;stroke-linejoin:miter;stroke-opacity:1" d="M 64.8153,496.88 100.199,475.318 z" id="boundary" inkscape:connector-curvature="0" />
	<path style="fill:none;stroke:red;stroke-width:1px;stroke-linecap:butt;stroke-linejoin:miter;stroke-opacity:1" d="M 58.1809,746.154 25.0089,699.032 z" id="boundary" inkscape:connector-curvature="0" />
	<path style="fill:none;stroke:red;stroke-width:1px;stroke-linecap:butt;stroke-linejoin:miter;stroke-opacity:1" d="M 93.5643,780.155 58.1809,746.154 z" id="boundary" inkscape:connector-curvature="0" />
	<path style="fill:none;stroke:red;stroke-width:1px;stroke-linecap:butt;stroke-linejoin:miter;stroke-opacity:1" d="M 128.948,806.14 93.5643,780.155 z" id="boundary" inkscape:connector-curvature="0" />
	<path style="fill:none;stroke:red;stroke-width:1px;stroke-linecap:butt;stroke-linejoin:miter;stroke-opacity:1" d="M 164.331,827.287 128.948,806.14 z" id="boundary" inkscape:connector-curvature="0" />
	<path style="fill:none;stroke:red;stroke-width:1px;stroke-linecap:butt;stroke-linejoin:miter;stroke-opacity:1" d="M 199.715,844.771 164.331,827.287 z" id="boundary" inkscape:connector-curvature="0" />
	<path style="fill:none;stroke:red;stroke-width:1px;stroke-linecap:butt;stroke-linejoin:miter;stroke-opacity:1" d="M 235.098,859.353 199.715,844.771 z" id="boundary" inkscape:connector-curvature="0" />
	<path style="fill:none;stroke:red;stroke-width:1px;stroke-linecap:butt;stroke-linejoin:miter;stroke-opacity:1" d="M 270.482,871.585 235.098,859.353 z" id="boundary" inkscape:connector-curvature="0" />
	<path style="fill:none;stroke:red;stroke-width:1px;stroke-linecap:butt;stroke-linejoin:miter;stroke-opacity:1" d="M 303.654,524.731 339.037,559.285 z" id="boundary" inkscape:connector-curvature="0" />
	<path style="fill:none;stroke:red;stroke-width:1px;stroke-linecap:butt;stroke-linejoin:miter;stroke-opacity:1" d="M 409.804,606.417 374.42,585.961 z" id="boundary" inkscape:connector-curvature="0" />
	<path style="fill:none;stroke:red;stroke-width:1px;stroke-linecap:butt;stroke-linejoin:miter;stroke-opacity:1" d="M 374.42,585.961 339.037,559.285 z" id="boundary" inkscape:connector-curvature="0" />
	<path style="fill:none;stroke:red;stroke-width:1px;stroke-linecap:butt;stroke-linejoin:miter;stroke-opacity:1" d="M 305.865,881.883 270.482,871.585 z" id="boundary" inkscape:connector-curvature="0" />
	<path style="fill:none;stroke:red;stroke-width:1px;stroke-linecap:butt;stroke-linejoin:miter;stroke-opacity:1" d="M 445.187,620.446 480.571,629.361 z" id="boundary" inkscape:connector-curvature="0" />
	<path style="fill:none;stroke:red;stroke-width:1px;stroke-linecap:butt;stroke-linejoin:miter;stroke-opacity:1" d="M 445.187,620.446 409.804,606.417 z" id="boundary" inkscape:connector-curvature="0" />
	<path style="fill:none;stroke:red;stroke-width:1px;stroke-linecap:butt;stroke-linejoin:miter;stroke-opacity:1" d="M 515.954,634.959 551.338,637.93 z" id="boundary" inkscape:connector-curvature="0" />
	<path style="fill:none;stroke:red;stroke-width:1px;stroke-linecap:butt;stroke-linejoin:miter;stroke-opacity:1" d="M 480.571,629.361 515.954,634.959 z" id="boundary" inkscape:connector-curvature="0" />
	<path style="fill:none;stroke:red;stroke-width:1px;stroke-linecap:butt;stroke-linejoin:miter;stroke-opacity:1" d="M 376.632,896.464 341.248,890.037 z" id="boundary" inkscape:connector-curvature="0" />
	<path style="fill:none;stroke:red;stroke-width:1px;stroke-linecap:butt;stroke-linejoin:miter;stroke-opacity:1" d="M 412.015,901.233 376.632,896.464 z" id="boundary" inkscape:connector-curvature="0" />
	<path style="fill:none;stroke:red;stroke-width:1px;stroke-linecap:butt;stroke-linejoin:miter;stroke-opacity:1" d="M 341.248,890.037 305.865,881.883 z" id="boundary" inkscape:connector-curvature="0" />
	<path style="fill:none;stroke:red;stroke-width:1px;stroke-linecap:butt;stroke-linejoin:miter;stroke-opacity:1" d="M 518.166,904.965 482.782,905.932 z" id="boundary" inkscape:connector-curvature="0" />
	<path style="fill:none;stroke:red;stroke-width:1px;stroke-linecap:butt;stroke-linejoin:miter;stroke-opacity:1" d="M 447.399,904.204 412.015,901.233 z" id="boundary" inkscape:connector-curvature="0" />
	<path style="fill:none;stroke:red;stroke-width:1px;stroke-linecap:butt;stroke-linejoin:miter;stroke-opacity:1" d="M 482.782,905.932 447.399,904.204 z" id="boundary" inkscape:connector-curvature="0" />
	<path style="fill:none;stroke:red;stroke-width:1px;stroke-linecap:butt;stroke-linejoin:miter;stroke-opacity:1" d="M 553.549,902.615 518.166,904.965 z" id="boundary" inkscape:connector-curvature="0" />
	<path style="fill:none;stroke:red;stroke-width:1px;stroke-linecap:butt;stroke-linejoin:miter;stroke-opacity:1" d="M 588.933,897.916 553.549,902.615 z" id="boundary" inkscape:connector-curvature="0" />
	<path style="fill:none;stroke:red;stroke-width:1px;stroke-linecap:butt;stroke-linejoin:miter;stroke-opacity:1" d="M 643.944,55.4355 614.086,64.5901 z" id="boundary" inkscape:connector-curvature="0" />
	<path style="fill:none;stroke:red;stroke-width:1px;stroke-linecap:butt;stroke-linejoin:miter;stroke-opacity:1" d="M 614.086,64.5901 588.933,6.55701 z" id="boundary" inkscape:connector-curvature="0" />
	<path style="fill:none;stroke:red;stroke-width:1px;stroke-linecap:butt;stroke-linejoin:miter;stroke-opacity:1" d="M 659.699,23.4589 643.944,55.4355 z" id="boundary" inkscape:connector-curvature="0" />
	<path style="fill:none;stroke:red;stroke-width:1px;stroke-linecap:butt;stroke-linejoin:miter;stroke-opacity:1" d="M 614.086,64.5901 580.087,74.4213 z" id="boundary" inkscape:connector-curvature="0" />
	<path style="fill:none;stroke:red;stroke-width:1px;stroke-linecap:butt;stroke-linejoin:miter;stroke-opacity:1" d="M 749.522,35.1435 702.929,41.4369 z" id="boundary" inkscape:connector-curvature="0" />
	<path style="fill:none;stroke:red;stroke-width:1px;stroke-linecap:butt;stroke-linejoin:miter;stroke-opacity:1" d="M 702.929,41.4369 659.699,23.4589 z" id="boundary" inkscape:connector-curvature="0" />
	<path style="fill:none;stroke:red;stroke-width:1px;stroke-linecap:butt;stroke-linejoin:miter;stroke-opacity:1" d="M 749.522,35.1435 766.825,77.7273 z" id="boundary" inkscape:connector-curvature="0" />
	<path style="fill:none;stroke:red;stroke-width:1px;stroke-linecap:butt;stroke-linejoin:miter;stroke-opacity:1" d="M 798.625,37.7098 749.522,35.1435 z" id="boundary" inkscape:connector-curvature="0" />
	<path style="fill:none;stroke:red;stroke-width:1px;stroke-linecap:butt;stroke-linejoin:miter;stroke-opacity:1" d="M 836.617,38.2777 798.625,37.7098 z" id="boundary" inkscape:connector-curvature="0" />
	<path style="fill:none;stroke:red;stroke-width:1px;stroke-linecap:butt;stroke-linejoin:miter;stroke-opacity:1" d="M 739.312,341.248 703.929,348.021 z" id="boundary" inkscape:connector-curvature="0" />
	<path style="fill:none;stroke:red;stroke-width:1px;stroke-linecap:butt;stroke-linejoin:miter;stroke-opacity:1" d="M 703.929,348.021 668.545,354.103 z" id="boundary" inkscape:connector-curvature="0" />
	<path style="fill:none;stroke:red;stroke-width:1px;stroke-linecap:butt;stroke-linejoin:miter;stroke-opacity:1" d="M 774.696,333.785 739.312,341.248 z" id="boundary" inkscape:connector-curvature="0" />
	<path style="fill:none;stroke:red;stroke-width:1px;stroke-linecap:butt;stroke-linejoin:miter;stroke-opacity:1" d="M 829.982,122.935 766.825,77.7273 z" id="boundary" inkscape:connector-curvature="0" />
	<path style="fill:none;stroke:red;stroke-width:1px;stroke-linecap:butt;stroke-linejoin:miter;stroke-opacity:1" d="M 774.696,333.785 810.079,325.146 z" id="boundary" inkscape:connector-curvature="0" />
	<path style="fill:none;stroke:red;stroke-width:1px;stroke-linecap:butt;stroke-linejoin:miter;stroke-opacity:1" d="M 829.982,122.935 865.366,154.449 z" id="boundary" inkscape:connector-curvature="0" />
	<path style="fill:none;stroke:red;stroke-width:1px;stroke-linecap:butt;stroke-linejoin:miter;stroke-opacity:1" d="M 553.549,4 588.933,6.55701 z" id="boundary" inkscape:connector-curvature="0" />
	<path style="fill:none;stroke:red;stroke-width:1px;stroke-linecap:butt;stroke-linejoin:miter;stroke-opacity:1" d="M 872,44.1519 907.383,55.071 z" id="boundary" inkscape:connector-curvature="0" />
	<path style="fill:none;stroke:red;stroke-width:1px;stroke-linecap:butt;stroke-linejoin:miter;stroke-opacity:1" d="M 845.462,315.056 810.079,325.146 z" id="boundary" inkscape:connector-curvature="0" />
	<path style="fill:none;stroke:red;stroke-width:1px;stroke-linecap:butt;stroke-linejoin:miter;stroke-opacity:1" d="M 942.767,74.5596 977.045,111.625 z" id="boundary" inkscape:connector-curvature="0" />
	<path style="fill:none;stroke:red;stroke-width:1px;stroke-linecap:butt;stroke-linejoin:miter;stroke-opacity:1" d="M 900.749,192.113 865.366,154.449 z" id="boundary" inkscape:connector-curvature="0" />
	<path style="fill:none;stroke:red;stroke-width:1px;stroke-linecap:butt;stroke-linejoin:miter;stroke-opacity:1" d="M 907.383,55.071 942.767,74.5596 z" id="boundary" inkscape:connector-curvature="0" />
	<path style="fill:none;stroke:red;stroke-width:1px;stroke-linecap:butt;stroke-linejoin:miter;stroke-opacity:1" d="M 977.045,111.625 994.736,151.062 z" id="boundary" inkscape:connector-curvature="0" />
	<path style="fill:none;stroke:red;stroke-width:1px;stroke-linecap:butt;stroke-linejoin:miter;stroke-opacity:1" d="M 917.075,283.434 880.846,302.824 z" id="boundary" inkscape:connector-curvature="0" />
	<path style="fill:none;stroke:red;stroke-width:1px;stroke-linecap:butt;stroke-linejoin:miter;stroke-opacity:1" d="M 900.749,192.113 936.764,244.636 z" id="boundary" inkscape:connector-curvature="0" />
	<path style="fill:none;stroke:red;stroke-width:1px;stroke-linecap:butt;stroke-linejoin:miter;stroke-opacity:1" d="M 845.462,315.056 880.846,302.824 z" id="boundary" inkscape:connector-curvature="0" />
	<path style="fill:none;stroke:red;stroke-width:1px;stroke-linecap:butt;stroke-linejoin:miter;stroke-opacity:1" d="M 936.764,244.636 996,197.819 z" id="boundary" inkscape:connector-curvature="0" />
	<path style="fill:none;stroke:red;stroke-width:1px;stroke-linecap:butt;stroke-linejoin:miter;stroke-opacity:1" d="M 956.086,266.254 936.764,244.636 z" id="boundary" inkscape:connector-curvature="0" />
	<path style="fill:none;stroke:red;stroke-width:1px;stroke-linecap:butt;stroke-linejoin:miter;stroke-opacity:1" d="M 917.075,283.434 956.086,266.254 z" id="boundary" inkscape:connector-curvature="0" />
	<path style="fill:none;stroke:red;stroke-width:1px;stroke-linecap:butt;stroke-linejoin:miter;stroke-opacity:1" d="M 956.086,266.254 983.679,349.652 z" id="boundary" inkscape:connector-curvature="0" />
	<path style="fill:none;stroke:red;stroke-width:1px;stroke-linecap:butt;stroke-linejoin:miter;stroke-opacity:1" d="M 986.996,410.08 983.679,349.652 z" id="boundary" inkscape:connector-curvature="0" />
	<path style="fill:none;stroke:red;stroke-width:1px;stroke-linecap:butt;stroke-linejoin:miter;stroke-opacity:1" d="M 994.736,151.062 996,197.819 z" id="boundary" inkscape:connector-curvature="0" />
	<path style="fill:none;stroke:red;stroke-width:1px;stroke-linecap:butt;stroke-linejoin:miter;stroke-opacity:1" d="M 836.617,38.2777 872,44.1519 z" id="boundary" inkscape:connector-curvature="0" />
	<path style="fill:none;stroke:red;stroke-width:1px;stroke-linecap:butt;stroke-linejoin:miter;stroke-opacity:1" d="M 633.162,359.908 601.553,406.359 z" id="boundary" inkscape:connector-curvature="0" />
	<path style="fill:none;stroke:red;stroke-width:1px;stroke-linecap:butt;stroke-linejoin:miter;stroke-opacity:1" d="M 601.553,406.359 562.395,368.865 z" id="boundary" inkscape:connector-curvature="0" />
	<path style="fill:none;stroke:red;stroke-width:1px;stroke-linecap:butt;stroke-linejoin:miter;stroke-opacity:1" d="M 633.162,438.553 601.553,406.359 z" id="boundary" inkscape:connector-curvature="0" />
	<path style="fill:none;stroke:red;stroke-width:1px;stroke-linecap:butt;stroke-linejoin:miter;stroke-opacity:1" d="M 668.545,475.249 633.162,438.553 z" id="boundary" inkscape:connector-curvature="0" />
	<path style="fill:none;stroke:red;stroke-width:1px;stroke-linecap:butt;stroke-linejoin:miter;stroke-opacity:1" d="M 633.162,359.908 668.545,354.103 z" id="boundary" inkscape:connector-curvature="0" />
	<path style="fill:none;stroke:red;stroke-width:1px;stroke-linecap:butt;stroke-linejoin:miter;stroke-opacity:1" d="M 703.929,513.397 668.545,475.249 z" id="boundary" inkscape:connector-curvature="0" />
	<path style="fill:none;stroke:red;stroke-width:1px;stroke-linecap:butt;stroke-linejoin:miter;stroke-opacity:1" d="M 586.721,638.69 551.338,637.93 z" id="boundary" inkscape:connector-curvature="0" />
	<path style="fill:none;stroke:red;stroke-width:1px;stroke-linecap:butt;stroke-linejoin:miter;stroke-opacity:1" d="M 659.699,880.846 624.316,890.797 z" id="boundary" inkscape:connector-curvature="0" />
	<path style="fill:none;stroke:red;stroke-width:1px;stroke-linecap:butt;stroke-linejoin:miter;stroke-opacity:1" d="M 622.104,637.032 586.721,638.69 z" id="boundary" inkscape:connector-curvature="0" />
	<path style="fill:none;stroke:red;stroke-width:1px;stroke-linecap:butt;stroke-linejoin:miter;stroke-opacity:1" d="M 624.316,890.797 588.933,897.916 z" id="boundary" inkscape:connector-curvature="0" />
	<path style="fill:none;stroke:red;stroke-width:1px;stroke-linecap:butt;stroke-linejoin:miter;stroke-opacity:1" d="M 730.466,848.434 695.083,867.024 z" id="boundary" inkscape:connector-curvature="0" />
	<path style="fill:none;stroke:red;stroke-width:1px;stroke-linecap:butt;stroke-linejoin:miter;stroke-opacity:1" d="M 657.488,633.576 622.104,637.032 z" id="boundary" inkscape:connector-curvature="0" />
	<path style="fill:none;stroke:red;stroke-width:1px;stroke-linecap:butt;stroke-linejoin:miter;stroke-opacity:1" d="M 695.083,867.024 659.699,880.846 z" id="boundary" inkscape:connector-curvature="0" />
	<path style="fill:none;stroke:red;stroke-width:1px;stroke-linecap:butt;stroke-linejoin:miter;stroke-opacity:1" d="M 657.488,633.576 692.871,628.186 z" id="boundary" inkscape:connector-curvature="0" />
	<path style="fill:none;stroke:red;stroke-width:1px;stroke-linecap:butt;stroke-linejoin:miter;stroke-opacity:1" d="M 703.929,513.397 738.206,557.431 z" id="boundary" inkscape:connector-curvature="0" />
	<path style="fill:none;stroke:red;stroke-width:1px;stroke-linecap:butt;stroke-linejoin:miter;stroke-opacity:1" d="M 869.789,564.883 834.405,583.818 z" id="boundary" inkscape:connector-curvature="0" />
	<path style="fill:none;stroke:red;stroke-width:1px;stroke-linecap:butt;stroke-linejoin:miter;stroke-opacity:1" d="M 834.405,583.818 776.427,603.215 z" id="boundary" inkscape:connector-curvature="0" />
	<path style="fill:none;stroke:red;stroke-width:1px;stroke-linecap:butt;stroke-linejoin:miter;stroke-opacity:1" d="M 776.427,603.215 738.206,557.431 z" id="boundary" inkscape:connector-curvature="0" />
	<path style="fill:none;stroke:red;stroke-width:1px;stroke-linecap:butt;stroke-linejoin:miter;stroke-opacity:1" d="M 905.172,540.764 869.789,564.883 z" id="boundary" inkscape:connector-curvature="0" />
	<path style="fill:none;stroke:red;stroke-width:1px;stroke-linecap:butt;stroke-linejoin:miter;stroke-opacity:1" d="M 905.172,540.764 940.555,507.177 z" id="boundary" inkscape:connector-curvature="0" />
	<path style="fill:none;stroke:red;stroke-width:1px;stroke-linecap:butt;stroke-linejoin:miter;stroke-opacity:1" d="M 940.555,507.177 970.41,461.874 z" id="boundary" inkscape:connector-curvature="0" />
	<path style="fill:none;stroke:red;stroke-width:1px;stroke-linecap:butt;stroke-linejoin:miter;stroke-opacity:1" d="M 800.275,780.888 765.85,822.242 z" id="boundary" inkscape:connector-curvature="0" />
	<path style="fill:none;stroke:red;stroke-width:1px;stroke-linecap:butt;stroke-linejoin:miter;stroke-opacity:1" d="M 776.427,603.215 728.255,620.861 z" id="boundary" inkscape:connector-curvature="0" />
	<path style="fill:none;stroke:red;stroke-width:1px;stroke-linecap:butt;stroke-linejoin:miter;stroke-opacity:1" d="M 765.85,822.242 730.466,848.434 z" id="boundary" inkscape:connector-curvature="0" />
	<path style="fill:none;stroke:red;stroke-width:1px;stroke-linecap:butt;stroke-linejoin:miter;stroke-opacity:1" d="M 776.427,603.215 799.906,645.655 z" id="boundary" inkscape:connector-curvature="0" />
	<path style="fill:none;stroke:red;stroke-width:1px;stroke-linecap:butt;stroke-linejoin:miter;stroke-opacity:1" d="M 692.871,628.186 728.255,620.861 z" id="boundary" inkscape:connector-curvature="0" />
	<path style="fill:none;stroke:red;stroke-width:1px;stroke-linecap:butt;stroke-linejoin:miter;stroke-opacity:1" d="M 815.608,699.348 799.906,645.655 z" id="boundary" inkscape:connector-curvature="0" />
	<path style="fill:none;stroke:red;stroke-width:1px;stroke-linecap:butt;stroke-linejoin:miter;stroke-opacity:1" d="M 800.275,780.888 815.608,748.158 z" id="boundary" inkscape:connector-curvature="0" />
	<path style="fill:none;stroke:red;stroke-width:1px;stroke-linecap:butt;stroke-linejoin:miter;stroke-opacity:1" d="M 815.608,699.348 815.608,748.158 z" id="boundary" inkscape:connector-curvature="0" />
	<path style="fill:none;stroke:red;stroke-width:1px;stroke-linecap:butt;stroke-linejoin:miter;stroke-opacity:1" d="M 986.996,410.08 970.41,461.874 z" id="boundary" inkscape:connector-curvature="0" />
	<circle cx="4" cy="610.402" r="4" fill="#0" id="circle0"/>
	<circle cx="25.0089" cy="699.032" r="4" fill="#0" id="circle1"/>
	<circle cx="58.1809" cy="746.154" r="4" fill="#0" id="circle2"/>
	<circle cx="93.5643" cy="780.155" r="4" fill="#0" id="circle3"/>
	<circle cx="128.948" cy="806.14" r="4" fill="#0" id="circle4"/>
	<circle cx="164.331" cy="827.287" r="4" fill="#0" id="circle5"/>
	<circle cx="199.715" cy="844.771" r="4" fill="#0" id="circle6"/>
	<circle cx="235.098" cy="859.353" r="4" fill="#0" id="circle7"/>
	<circle cx="270.482" cy="871.585" r="4" fill="#0" id="circle8"/>
	<circle cx="305.865" cy="881.883" r="4" fill="#0" id="circle9"/>
	<circle cx="341.248" cy="890.037" r="4" fill="#0" id="circle10"/>
	<circle cx="376.632" cy="896.464" r="4" fill="#0" id="circle11"/>
	<circle cx="412.015" cy="901.233" r="4" fill="#0" id="circle12"/>
	<circle cx="447.399" cy="904.204" r="4" fill="#0" id="circle13"/>
	<circle cx="482.782" cy="905.932" r="4" fill="#0" id="circle14"/>
	<circle cx="518.166" cy="904.965" r="4" fill="#0" id="circle15"/>
	<circle cx="553.549" cy="902.615" r="4" fill="#0" id="circle16"/>
	<circle cx="588.933" cy="897.916" r="4" fill="#0" id="circle17"/>
	<circle cx="624.316" cy="890.797" r="4" fill="#0" id="circle18"/>
	<circle cx="659.699" cy="880.846" r="4" fill="#0" id="circle19"/>
	<circle cx="695.083" cy="867.024" r="4" fill="#0" id="circle20"/>
	<circle cx="730.466" cy="848.434" r="4" fill="#0" id="circle21"/>
	<circle cx="765.85" cy="822.242" r="4" fill="#0" id="circle22"/>
	<circle cx="800.275" cy="780.888" r="4" fill="#0" id="circle23"/>
	<circle cx="815.608" cy="748.158" r="4" fill="#0" id="circle24"/>
	<circle cx="815.608" cy="699.348" r="4" fill="#0" id="circle25"/>
	<circle cx="799.906" cy="645.655" r="4" fill="#0" id="circle26"/>
	<circle cx="776.427" cy="603.215" r="4" fill="#0" id="circle27"/>
	<circle cx="738.206" cy="557.431" r="4" fill="#0" id="circle28"/>
	<circle cx="703.929" cy="513.397" r="4" fill="#0" id="circle29"/>
	<circle cx="668.545" cy="475.249" r="4" fill="#0" id="circle30"/>
	<circle cx="633.162" cy="438.553" r="4" fill="#0" id="circle31"/>
	<circle cx="601.553" cy="406.359" r="4" fill="#0" id="circle32"/>
	<circle cx="562.395" cy="368.865" r="4" fill="#0" id="circle33"/>
	<circle cx="519.714" cy="324.662" r="4" fill="#0" id="circle34"/>
	<circle cx="491.628" cy="291.214" r="4" fill="#0" id="circle35"/>
	<circle cx="456.245" cy="248.367" r="4" fill="#0" id="circle36"/>
	<circle cx="422.998" cy="202.136" r="4" fill="#0" id="circle37"/>
	<circle cx="403.169" cy="159.044" r="4" fill="#0" id="circle38"/>
	<circle cx="400.816" cy="91.3899" r="4" fill="#0" id="circle39"/>
	<circle cx="447.399" cy="33.9239" r="4" fill="#0" id="circle40"/>
	<circle cx="482.782" cy="15.2647" r="4" fill="#0" id="circle41"/>
	<circle cx="518.166" cy="6.07325" r="4" fill="#0" id="circle42"/>
	<circle cx="553.549" cy="4" r="4" fill="#0" id="circle43"/>
	<circle cx="588.933" cy="6.55701" r="4" fill="#0" id="circle44"/>
	<circle cx="659.699" cy="23.4589" r="4" fill="#0" id="circle45"/>
	<circle cx="702.929" cy="41.4369" r="4" fill="#0" id="circle46"/>
	<circle cx="766.825" cy="77.7273" r="4" fill="#0" id="circle47"/>
	<circle cx="829.982" cy="122.935" r="4" fill="#0" id="circle48"/>
	<circle cx="865.366" cy="154.449" r="4" fill="#0" id="circle49"/>
	<circle cx="900.749" cy="192.113" r="4" fill="#0" id="circle50"/>
	<circle cx="936.764" cy="244.636" r="4" fill="#0" id="circle51"/>
	<circle cx="956.086" cy="266.254" r="4" fill="#0" id="circle52"/>
	<circle cx="983.679" cy="349.652" r="4" fill="#0" id="circle53"/>
	<circle cx="986.996" cy="410.08" r="4" fill="#0" id="circle54"/>
	<circle cx="970.41" cy="461.874" r="4" fill="#0" id="circle55"/>
	<circle cx="940.555" cy="507.177" r="4" fill="#0" id="circle56"/>
	<circle cx="905.172" cy="540.764" r="4" fill="#0" id="circle57"/>
	<circle cx="869.789" cy="564.883" r="4" fill="#0" id="circle58"/>
	<circle cx="834.405" cy="583.818" r="4" fill="#0" id="circle59"/>
	<circle cx="776.427" cy="603.215" r="4" fill="#0" id="circle60"/>
	<circle cx="728.255" cy="620.861" r="4" fill="#0" id="circle61"/>
	<circle cx="692.871" cy="628.186" r="4" fill="#0" id="circle62"/>
	<circle cx="657.488" cy="633.576" r="4" fill="#0" id="circle63"/>
	<circle cx="622.104" cy="637.032" r="4" fill="#0" id="circle64"/>
	<circle cx="586.721" cy="638.69" r="4" fill="#0" id="circle65"/>
	<circle cx="551.338" cy="637.93" r="4" fill="#0" id="circle66"/>
	<circle cx="515.954" cy="634.959" r="4" fill="#0" id="circle67"/>
	<circle cx="480.571" cy="629.361" r="4" fill="#0" id="circle68"/>
	<circle cx="445.187" cy="620.446" r="4" fill="#0" id="circle69"/>
	<circle cx="409.804" cy="606.417" r="4" fill="#0" id="circle70"/>
	<circle cx="374.42" cy="585.961" r="4" fill="#0" id="circle71"/>
	<circle cx="339.037" cy="559.285" r="4" fill="#0" id="circle72"/>
	<circle cx="303.654" cy="524.731" r="4" fill="#0" id="circle73"/>
	<circle cx="267.918" cy="480.399" r="4" fill="#0" id="circle74"/>
	<circle cx="241.732" cy="429.175" r="4" fill="#0" id="circle75"/>
	<circle cx="236.204" cy="343.144" r="4" fill="#0" id="circle76"/>
	<circle cx="261.636" cy="283.543" r="4" fill="#0" id="circle77"/>
	<circle cx="297.019" cy="239.452" r="4" fill="#0" id="circle78"/>
	<circle cx="332.403" cy="206.211" r="4" fill="#0" id="circle79"/>
	<circle cx="367.786" cy="178.913" r="4" fill="#0" id="circle80"/>
	<circle cx="403.169" cy="159.044" r="4" fill="#0" id="circle81"/>
	<circle cx="473.936" cy="117.061" r="4" fill="#0" id="circle82"/>
	<circle cx="509.32" cy="101.028" r="4" fill="#0" id="circle83"/>
	<circle cx="544.703" cy="86.7917" r="4" fill="#0" id="circle84"/>
	<circle cx="580.087" cy="74.4213" r="4" fill="#0" id="circle85"/>
	<circle cx="614.086" cy="64.5901" r="4" fill="#0" id="circle86"/>
	<circle cx="643.944" cy="55.4355" r="4" fill="#0" id="circle87"/>
	<circle cx="702.929" cy="41.4369" r="4" fill="#0" id="circle88"/>
	<circle cx="749.522" cy="35.1435" r="4" fill="#0" id="circle89"/>
	<circle cx="798.625" cy="37.7098" r="4" fill="#0" id="circle90"/>
	<circle cx="836.617" cy="38.2777" r="4" fill="#0" id="circle91"/>
	<circle cx="872" cy="44.1519" r="4" fill="#0" id="circle92"/>
	<circle cx="907.383" cy="55.071" r="4" fill="#0" id="circle93"/>
	<circle cx="942.767" cy="74.5596" r="4" fill="#0" id="circle94"/>
	<circle cx="977.045" cy="111.625" r="4" fill="#0" id="circle95"/>
	<circle cx="994.736" cy="151.062" r="4" fill="#0" id="circle96"/>
	<circle cx="996" cy="197.819" r="4" fill="#0" id="circle97"/>
	<circle cx="956.086" cy="266.254" r="4" fill="#0" id="circle98"/>
	<circle cx="917.075" cy="283.434" r="4" fill="#0" id="circle99"/>
	<circle cx="880.846" cy="302.824" r="4" fill="#0" id="circle100"/>
	<circle cx="845.462" cy="315.056" r="4" fill="#0" id="circle101"/>
	<circle cx="810.079" cy="325.146" r="4" fill="#0" id="circle102"/>
	<circle cx="774.696" cy="333.785" r="4" fill="#0" id="circle103"/>
	<circle cx="739.312" cy="341.248" r="4" fill="#0" id="circle104"/>
	<circle cx="703.929" cy="348.021" r="4" fill="#0" id="circle105"/>
	<circle cx="668.545" cy="354.103" r="4" fill="#0" id="circle106"/>
	<circle cx="633.162" cy="359.908" r="4" fill="#0" id="circle107"/>
	<circle cx="562.395" cy="368.865" r="4" fill="#0" id="circle108"/>
	<circle cx="523.188" cy="376.569" r="4" fill="#0" id="circle109"/>
	<circle cx="489.417" cy="381.193" r="4" fill="#0" id="circle110"/>
	<circle cx="454.033" cy="386.445" r="4" fill="#0" id="circle111"/>
	<circle cx="418.65" cy="391.767" r="4" fill="#0" id="circle112"/>
	<circle cx="383.266" cy="397.503" r="4" fill="#0" id="circle113"/>
	<circle cx="347.883" cy="403.791" r="4" fill="#0" id="circle114"/>
	<circle cx="312.499" cy="410.218" r="4" fill="#0" id="circle115"/>
	<circle cx="241.732" cy="429.175" r="4" fill="#0" id="circle116"/>
	<circle cx="206.349" cy="435.097" r="4" fill="#0" id="circle117"/>
	<circle cx="170.966" cy="445.947" r="4" fill="#0" id="circle118"/>
	<circle cx="135.582" cy="459.147" r="4" fill="#0" id="circle119"/>
	<circle cx="100.199" cy="475.318" r="4" fill="#0" id="circle120"/>
	<circle cx="64.8153" cy="496.88" r="4" fill="#0" id="circle121"/>
	<circle cx="29.4318" cy="529.845" r="4" fill="#0" id="circle122"/>
	<circle cx="4" cy="610.402" r="4" fill="#0" id="circle123"/>
	</g>
</svg>