<?xml version="1.0" encoding="UTF-8" standalone="no"?>
<!-- Created with CurveBenchmark -->
<svg
	xmlns:dc="http://purl.org/dc/elements/1.1/"
	xmlns:cc="http://creativecommons.org/ns#"
	xmlns:rdf="http://www.w3.org/1999/02/22-rdf-syntax-ns#"
	xmlns:svg="http://www.w3.org/2000/svg"
	xmlns="http://www.w3.org/2000/svg"
	xmlns:sodipodi="http://sodipodi.sourceforge.net/DTD/sodipodi-0.dtd"
	xmlns:inkscape="http://www.inkscape.org/namespaces/inkscape"
	width="1000"
	height="1000"
	id="svg2"
	version="1.1"
	sodipodi:docname="Non-manifold/nncrust-Figure19b.txt">
<defs
	id="defs4" />
<metadata
	id="metadata7">
	<rdf:RDF>
		<cc:Work
			rdf:about="">
			<dc:format>image/svg+xml</dc:format>
			<dc:type
				rdf:resource="http://purl.org/dc/dcmitype/StillImage" />
			<dc:title></dc:title>
		</cc:Work>
	</rdf:RDF>
</metadata>
<g
	inkscape:label="Layer 1"
	inkscape:groupmode="layer"
	id="layer1">
	<path style="fill:none;stroke:red;stroke-width:1px;stroke-linecap:butt;stroke-linejoin:miter;stroke-opacity:1" d="M 4,122.177 23.84,136.842 z" id="boundary" inkscape:connector-curvature="0" />
	<path style="fill:none;stroke:red;stroke-width:1px;stroke-linecap:butt;stroke-linejoin:miter;stroke-opacity:1" d="M 23.84,136.842 41.0922,155.819 z" id="boundary" inkscape:connector-curvature="0" />
	<path style="fill:none;stroke:red;stroke-width:1px;stroke-linecap:butt;stroke-linejoin:miter;stroke-opacity:1" d="M 4,122.177 7.45043,64.3826 z" id="boundary" inkscape:connector-curvature="0" />
	<path style="fill:none;stroke:red;stroke-width:1px;stroke-linecap:butt;stroke-linejoin:miter;stroke-opacity:1" d="M 7.45043,64.3826 20.3896,31.6035 z" id="boundary" inkscape:connector-curvature="0" />
	<path style="fill:none;stroke:red;stroke-width:1px;stroke-linecap:butt;stroke-linejoin:miter;stroke-opacity:1" d="M 20.3896,31.6035 52.3061,14.3513 z" id="boundary" inkscape:connector-curvature="0" />
	<path style="fill:none;stroke:red;stroke-width:1px;stroke-linecap:butt;stroke-linejoin:miter;stroke-opacity:1" d="M 52.3061,14.3513 89.3983,9.17565 z" id="boundary" inkscape:connector-curvature="0" />
	<path style="fill:none;stroke:red;stroke-width:1px;stroke-linecap:butt;stroke-linejoin:miter;stroke-opacity:1" d="M 89.3983,9.17565 110.963,22.1148 z" id="boundary" inkscape:connector-curvature="0" />
	<path style="fill:none;stroke:red;stroke-width:1px;stroke-linecap:butt;stroke-linejoin:miter;stroke-opacity:1" d="M 110.963,22.1148 133.391,43.68 z" id="boundary" inkscape:connector-curvature="0" />
	<path style="fill:none;stroke:red;stroke-width:1px;stroke-linecap:butt;stroke-linejoin:miter;stroke-opacity:1" d="M 154.957,61.7948 133.391,43.68 z" id="boundary" inkscape:connector-curvature="0" />
	<path style="fill:none;stroke:red;stroke-width:1px;stroke-linecap:butt;stroke-linejoin:miter;stroke-opacity:1" d="M 41.0922,155.819 74.7339,172.209 z" id="boundary" inkscape:connector-curvature="0" />
	<path style="fill:none;stroke:red;stroke-width:1px;stroke-linecap:butt;stroke-linejoin:miter;stroke-opacity:1" d="M 74.7339,172.209 89.3983,191.186 z" id="boundary" inkscape:connector-curvature="0" />
	<path style="fill:none;stroke:red;stroke-width:1px;stroke-linecap:butt;stroke-linejoin:miter;stroke-opacity:1" d="M 131.666,267.096 110.101,301.6 z" id="boundary" inkscape:connector-curvature="0" />
	<path style="fill:none;stroke:red;stroke-width:1px;stroke-linecap:butt;stroke-linejoin:miter;stroke-opacity:1" d="M 117.002,207.576 89.3983,191.186 z" id="boundary" inkscape:connector-curvature="0" />
	<path style="fill:none;stroke:red;stroke-width:1px;stroke-linecap:butt;stroke-linejoin:miter;stroke-opacity:1" d="M 133.391,241.217 131.666,267.096 z" id="boundary" inkscape:connector-curvature="0" />
	<path style="fill:none;stroke:red;stroke-width:1px;stroke-linecap:butt;stroke-linejoin:miter;stroke-opacity:1" d="M 133.391,241.217 117.002,207.576 z" id="boundary" inkscape:connector-curvature="0" />
	<path style="fill:none;stroke:red;stroke-width:1px;stroke-linecap:butt;stroke-linejoin:miter;stroke-opacity:1" d="M 130.803,343.005 150.643,359.395 z" id="boundary" inkscape:connector-curvature="0" />
	<path style="fill:none;stroke:red;stroke-width:1px;stroke-linecap:butt;stroke-linejoin:miter;stroke-opacity:1" d="M 150.643,359.395 139.43,397.35 z" id="boundary" inkscape:connector-curvature="0" />
	<path style="fill:none;stroke:red;stroke-width:1px;stroke-linecap:butt;stroke-linejoin:miter;stroke-opacity:1" d="M 130.803,343.005 110.101,301.6 z" id="boundary" inkscape:connector-curvature="0" />
	<path style="fill:none;stroke:red;stroke-width:1px;stroke-linecap:butt;stroke-linejoin:miter;stroke-opacity:1" d="M 139.43,397.35 127.353,425.816 z" id="boundary" inkscape:connector-curvature="0" />
	<path style="fill:none;stroke:red;stroke-width:1px;stroke-linecap:butt;stroke-linejoin:miter;stroke-opacity:1" d="M 167.033,84.2226 187.736,123.903 z" id="boundary" inkscape:connector-curvature="0" />
	<path style="fill:none;stroke:red;stroke-width:1px;stroke-linecap:butt;stroke-linejoin:miter;stroke-opacity:1" d="M 217.064,148.918 187.736,123.903 z" id="boundary" inkscape:connector-curvature="0" />
	<path style="fill:none;stroke:red;stroke-width:1px;stroke-linecap:butt;stroke-linejoin:miter;stroke-opacity:1" d="M 236.904,162.72 266.233,174.797 z" id="boundary" inkscape:connector-curvature="0" />
	<path style="fill:none;stroke:red;stroke-width:1px;stroke-linecap:butt;stroke-linejoin:miter;stroke-opacity:1" d="M 236.904,162.72 217.064,148.918 z" id="boundary" inkscape:connector-curvature="0" />
	<path style="fill:none;stroke:red;stroke-width:1px;stroke-linecap:butt;stroke-linejoin:miter;stroke-opacity:1" d="M 264.508,279.172 248.981,254.157 z" id="boundary" inkscape:connector-curvature="0" />
	<path style="fill:none;stroke:red;stroke-width:1px;stroke-linecap:butt;stroke-linejoin:miter;stroke-opacity:1" d="M 266.233,174.797 309.363,188.598 z" id="boundary" inkscape:connector-curvature="0" />
	<path style="fill:none;stroke:red;stroke-width:1px;stroke-linecap:butt;stroke-linejoin:miter;stroke-opacity:1" d="M 167.033,84.2226 154.957,61.7948 z" id="boundary" inkscape:connector-curvature="0" />
	<path style="fill:none;stroke:red;stroke-width:1px;stroke-linecap:butt;stroke-linejoin:miter;stroke-opacity:1" d="M 248.981,254.157 224.828,258.47 z" id="boundary" inkscape:connector-curvature="0" />
	<path style="fill:none;stroke:red;stroke-width:1px;stroke-linecap:butt;stroke-linejoin:miter;stroke-opacity:1" d="M 213.614,321.44 210.163,296.424 z" id="boundary" inkscape:connector-curvature="0" />
	<path style="fill:none;stroke:red;stroke-width:1px;stroke-linecap:butt;stroke-linejoin:miter;stroke-opacity:1" d="M 213.614,321.44 217.064,354.219 z" id="boundary" inkscape:connector-curvature="0" />
	<path style="fill:none;stroke:red;stroke-width:1px;stroke-linecap:butt;stroke-linejoin:miter;stroke-opacity:1" d="M 254.157,361.983 217.064,354.219 z" id="boundary" inkscape:connector-curvature="0" />
	<path style="fill:none;stroke:red;stroke-width:1px;stroke-linecap:butt;stroke-linejoin:miter;stroke-opacity:1" d="M 264.508,279.172 278.31,300.737 z" id="boundary" inkscape:connector-curvature="0" />
	<path style="fill:none;stroke:red;stroke-width:1px;stroke-linecap:butt;stroke-linejoin:miter;stroke-opacity:1" d="M 270.546,335.242 254.157,361.983 z" id="boundary" inkscape:connector-curvature="0" />
	<path style="fill:none;stroke:red;stroke-width:1px;stroke-linecap:butt;stroke-linejoin:miter;stroke-opacity:1" d="M 278.31,300.737 270.546,335.242 z" id="boundary" inkscape:connector-curvature="0" />
	<path style="fill:none;stroke:red;stroke-width:1px;stroke-linecap:butt;stroke-linejoin:miter;stroke-opacity:1" d="M 210.163,296.424 224.828,258.47 z" id="boundary" inkscape:connector-curvature="0" />
	<path style="fill:none;stroke:red;stroke-width:1px;stroke-linecap:butt;stroke-linejoin:miter;stroke-opacity:1" d="M 254.157,361.983 234.317,429.266 z" id="boundary" inkscape:connector-curvature="0" />
	<path style="fill:none;stroke:red;stroke-width:1px;stroke-linecap:butt;stroke-linejoin:miter;stroke-opacity:1" d="M 41.9548,644.918 13.4887,610.414 z" id="boundary" inkscape:connector-curvature="0" />
	<path style="fill:none;stroke:red;stroke-width:1px;stroke-linecap:butt;stroke-linejoin:miter;stroke-opacity:1" d="M 66.1078,655.27 41.9548,644.918 z" id="boundary" inkscape:connector-curvature="0" />
	<path style="fill:none;stroke:red;stroke-width:1px;stroke-linecap:butt;stroke-linejoin:miter;stroke-opacity:1" d="M 35.0539,500 21.2522,522.428 z" id="boundary" inkscape:connector-curvature="0" />
	<path style="fill:none;stroke:red;stroke-width:1px;stroke-linecap:butt;stroke-linejoin:miter;stroke-opacity:1" d="M 13.4887,610.414 5.72522,558.657 z" id="boundary" inkscape:connector-curvature="0" />
	<path style="fill:none;stroke:red;stroke-width:1px;stroke-linecap:butt;stroke-linejoin:miter;stroke-opacity:1" d="M 5.72522,558.657 21.2522,522.428 z" id="boundary" inkscape:connector-curvature="0" />
	<path style="fill:none;stroke:red;stroke-width:1px;stroke-linecap:butt;stroke-linejoin:miter;stroke-opacity:1" d="M 35.0539,500 70.4209,473.259 z" id="boundary" inkscape:connector-curvature="0" />
	<path style="fill:none;stroke:red;stroke-width:1px;stroke-linecap:butt;stroke-linejoin:miter;stroke-opacity:1" d="M 96.2991,454.282 70.4209,473.259 z" id="boundary" inkscape:connector-curvature="0" />
	<path style="fill:none;stroke:red;stroke-width:1px;stroke-linecap:butt;stroke-linejoin:miter;stroke-opacity:1" d="M 127.353,425.816 96.2991,454.282 z" id="boundary" inkscape:connector-curvature="0" />
	<path style="fill:none;stroke:red;stroke-width:1px;stroke-linecap:butt;stroke-linejoin:miter;stroke-opacity:1" d="M 110.101,684.598 86.8104,672.522 z" id="boundary" inkscape:connector-curvature="0" />
	<path style="fill:none;stroke:red;stroke-width:1px;stroke-linecap:butt;stroke-linejoin:miter;stroke-opacity:1" d="M 110.101,684.598 154.957,697.537 z" id="boundary" inkscape:connector-curvature="0" />
	<path style="fill:none;stroke:red;stroke-width:1px;stroke-linecap:butt;stroke-linejoin:miter;stroke-opacity:1" d="M 86.8104,672.522 66.1078,655.27 z" id="boundary" inkscape:connector-curvature="0" />
	<path style="fill:none;stroke:red;stroke-width:1px;stroke-linecap:butt;stroke-linejoin:miter;stroke-opacity:1" d="M 179.11,773.447 175.659,802.776 z" id="boundary" inkscape:connector-curvature="0" />
	<path style="fill:none;stroke:red;stroke-width:1px;stroke-linecap:butt;stroke-linejoin:miter;stroke-opacity:1" d="M 182.56,859.708 175.659,824.341 z" id="boundary" inkscape:connector-curvature="0" />
	<path style="fill:none;stroke:red;stroke-width:1px;stroke-linecap:butt;stroke-linejoin:miter;stroke-opacity:1" d="M 335.242,960.633 302.463,972.71 z" id="boundary" inkscape:connector-curvature="0" />
	<path style="fill:none;stroke:red;stroke-width:1px;stroke-linecap:butt;stroke-linejoin:miter;stroke-opacity:1" d="M 175.659,802.776 175.659,824.341 z" id="boundary" inkscape:connector-curvature="0" />
	<path style="fill:none;stroke:red;stroke-width:1px;stroke-linecap:butt;stroke-linejoin:miter;stroke-opacity:1" d="M 179.11,714.79 192.911,733.767 z" id="boundary" inkscape:connector-curvature="0" />
	<path style="fill:none;stroke:red;stroke-width:1px;stroke-linecap:butt;stroke-linejoin:miter;stroke-opacity:1" d="M 192.911,733.767 179.11,773.447 z" id="boundary" inkscape:connector-curvature="0" />
	<path style="fill:none;stroke:red;stroke-width:1px;stroke-linecap:butt;stroke-linejoin:miter;stroke-opacity:1" d="M 154.957,697.537 179.11,714.79 z" id="boundary" inkscape:connector-curvature="0" />
	<path style="fill:none;stroke:red;stroke-width:1px;stroke-linecap:butt;stroke-linejoin:miter;stroke-opacity:1" d="M 194.637,686.323 179.11,714.79 z" id="boundary" inkscape:connector-curvature="0" />
	<path style="fill:none;stroke:red;stroke-width:1px;stroke-linecap:butt;stroke-linejoin:miter;stroke-opacity:1" d="M 182.56,859.708 183.423,902.838 z" id="boundary" inkscape:connector-curvature="0" />
	<path style="fill:none;stroke:red;stroke-width:1px;stroke-linecap:butt;stroke-linejoin:miter;stroke-opacity:1" d="M 207.576,610.414 210.163,581.085 z" id="boundary" inkscape:connector-curvature="0" />
	<path style="fill:none;stroke:red;stroke-width:1px;stroke-linecap:butt;stroke-linejoin:miter;stroke-opacity:1" d="M 217.064,550.031 210.163,581.085 z" id="boundary" inkscape:connector-curvature="0" />
	<path style="fill:none;stroke:red;stroke-width:1px;stroke-linecap:butt;stroke-linejoin:miter;stroke-opacity:1" d="M 199.812,635.43 207.576,610.414 z" id="boundary" inkscape:connector-curvature="0" />
	<path style="fill:none;stroke:red;stroke-width:1px;stroke-linecap:butt;stroke-linejoin:miter;stroke-opacity:1" d="M 199.812,662.17 199.812,635.43 z" id="boundary" inkscape:connector-curvature="0" />
	<path style="fill:none;stroke:red;stroke-width:1px;stroke-linecap:butt;stroke-linejoin:miter;stroke-opacity:1" d="M 234.317,429.266 238.63,448.243 z" id="boundary" inkscape:connector-curvature="0" />
	<path style="fill:none;stroke:red;stroke-width:1px;stroke-linecap:butt;stroke-linejoin:miter;stroke-opacity:1" d="M 238.63,448.243 232.591,473.259 z" id="boundary" inkscape:connector-curvature="0" />
	<path style="fill:none;stroke:red;stroke-width:1px;stroke-linecap:butt;stroke-linejoin:miter;stroke-opacity:1" d="M 232.591,473.259 235.179,502.588 z" id="boundary" inkscape:connector-curvature="0" />
	<path style="fill:none;stroke:red;stroke-width:1px;stroke-linecap:butt;stroke-linejoin:miter;stroke-opacity:1" d="M 235.179,502.588 223.965,523.29 z" id="boundary" inkscape:connector-curvature="0" />
	<path style="fill:none;stroke:red;stroke-width:1px;stroke-linecap:butt;stroke-linejoin:miter;stroke-opacity:1" d="M 217.064,550.031 223.965,523.29 z" id="boundary" inkscape:connector-curvature="0" />
	<path style="fill:none;stroke:red;stroke-width:1px;stroke-linecap:butt;stroke-linejoin:miter;stroke-opacity:1" d="M 183.423,902.838 186.01,933.892 z" id="boundary" inkscape:connector-curvature="0" />
	<path style="fill:none;stroke:red;stroke-width:1px;stroke-linecap:butt;stroke-linejoin:miter;stroke-opacity:1" d="M 204.988,964.083 186.01,933.892 z" id="boundary" inkscape:connector-curvature="0" />
	<path style="fill:none;stroke:red;stroke-width:1px;stroke-linecap:butt;stroke-linejoin:miter;stroke-opacity:1" d="M 302.463,972.71 276.584,992.55 z" id="boundary" inkscape:connector-curvature="0" />
	<path style="fill:none;stroke:red;stroke-width:1px;stroke-linecap:butt;stroke-linejoin:miter;stroke-opacity:1" d="M 276.584,992.55 234.317,987.374 z" id="boundary" inkscape:connector-curvature="0" />
	<path style="fill:none;stroke:red;stroke-width:1px;stroke-linecap:butt;stroke-linejoin:miter;stroke-opacity:1" d="M 234.317,987.374 204.988,964.083 z" id="boundary" inkscape:connector-curvature="0" />
	<path style="fill:none;stroke:red;stroke-width:1px;stroke-linecap:butt;stroke-linejoin:miter;stroke-opacity:1" d="M 194.637,686.323 199.812,662.17 z" id="boundary" inkscape:connector-curvature="0" />
	<path style="fill:none;stroke:red;stroke-width:1px;stroke-linecap:butt;stroke-linejoin:miter;stroke-opacity:1" d="M 309.363,188.598 348.181,187.736 z" id="boundary" inkscape:connector-curvature="0" />
	<path style="fill:none;stroke:red;stroke-width:1px;stroke-linecap:butt;stroke-linejoin:miter;stroke-opacity:1" d="M 422.365,171.346 443.93,158.407 z" id="boundary" inkscape:connector-curvature="0" />
	<path style="fill:none;stroke:red;stroke-width:1px;stroke-linecap:butt;stroke-linejoin:miter;stroke-opacity:1" d="M 458.595,139.43 443.93,158.407 z" id="boundary" inkscape:connector-curvature="0" />
	<path style="fill:none;stroke:red;stroke-width:1px;stroke-linecap:butt;stroke-linejoin:miter;stroke-opacity:1" d="M 348.181,187.736 379.235,176.522 z" id="boundary" inkscape:connector-curvature="0" />
	<path style="fill:none;stroke:red;stroke-width:1px;stroke-linecap:butt;stroke-linejoin:miter;stroke-opacity:1" d="M 379.235,176.522 422.365,171.346 z" id="boundary" inkscape:connector-curvature="0" />
	<path style="fill:none;stroke:red;stroke-width:1px;stroke-linecap:butt;stroke-linejoin:miter;stroke-opacity:1" d="M 476.71,110.963 490.511,88.5357 z" id="boundary" inkscape:connector-curvature="0" />
	<path style="fill:none;stroke:red;stroke-width:1px;stroke-linecap:butt;stroke-linejoin:miter;stroke-opacity:1" d="M 476.71,110.963 458.595,139.43 z" id="boundary" inkscape:connector-curvature="0" />
	<path style="fill:none;stroke:red;stroke-width:1px;stroke-linecap:butt;stroke-linejoin:miter;stroke-opacity:1" d="M 510.351,43.68 490.511,88.5357 z" id="boundary" inkscape:connector-curvature="0" />
	<path style="fill:none;stroke:red;stroke-width:1px;stroke-linecap:butt;stroke-linejoin:miter;stroke-opacity:1" d="M 405.976,302.463 403.388,278.31 z" id="boundary" inkscape:connector-curvature="0" />
	<path style="fill:none;stroke:red;stroke-width:1px;stroke-linecap:butt;stroke-linejoin:miter;stroke-opacity:1" d="M 434.442,246.393 403.388,278.31 z" id="boundary" inkscape:connector-curvature="0" />
	<path style="fill:none;stroke:red;stroke-width:1px;stroke-linecap:butt;stroke-linejoin:miter;stroke-opacity:1" d="M 405.976,302.463 409.426,340.417 z" id="boundary" inkscape:connector-curvature="0" />
	<path style="fill:none;stroke:red;stroke-width:1px;stroke-linecap:butt;stroke-linejoin:miter;stroke-opacity:1" d="M 434.442,246.393 462.045,261.92 z" id="boundary" inkscape:connector-curvature="0" />
	<path style="fill:none;stroke:red;stroke-width:1px;stroke-linecap:butt;stroke-linejoin:miter;stroke-opacity:1" d="M 472.397,296.424 465.496,339.555 z" id="boundary" inkscape:connector-curvature="0" />
	<path style="fill:none;stroke:red;stroke-width:1px;stroke-linecap:butt;stroke-linejoin:miter;stroke-opacity:1" d="M 472.397,296.424 462.045,261.92 z" id="boundary" inkscape:connector-curvature="0" />
	<path style="fill:none;stroke:red;stroke-width:1px;stroke-linecap:butt;stroke-linejoin:miter;stroke-opacity:1" d="M 434.442,355.944 465.496,339.555 z" id="boundary" inkscape:connector-curvature="0" />
	<path style="fill:none;stroke:red;stroke-width:1px;stroke-linecap:butt;stroke-linejoin:miter;stroke-opacity:1" d="M 434.442,355.944 409.426,340.417 z" id="boundary" inkscape:connector-curvature="0" />
	<path style="fill:none;stroke:red;stroke-width:1px;stroke-linecap:butt;stroke-linejoin:miter;stroke-opacity:1" d="M 521.565,362.845 515.527,387.861 z" id="boundary" inkscape:connector-curvature="0" />
	<path style="fill:none;stroke:red;stroke-width:1px;stroke-linecap:butt;stroke-linejoin:miter;stroke-opacity:1" d="M 429.266,439.617 434.442,355.944 z" id="boundary" inkscape:connector-curvature="0" />
	<path style="fill:none;stroke:red;stroke-width:1px;stroke-linecap:butt;stroke-linejoin:miter;stroke-opacity:1" d="M 545.718,9.17565 575.047,4 z" id="boundary" inkscape:connector-curvature="0" />
	<path style="fill:none;stroke:red;stroke-width:1px;stroke-linecap:butt;stroke-linejoin:miter;stroke-opacity:1" d="M 545.718,9.17565 523.29,20.3896 z" id="boundary" inkscape:connector-curvature="0" />
	<path style="fill:none;stroke:red;stroke-width:1px;stroke-linecap:butt;stroke-linejoin:miter;stroke-opacity:1" d="M 575.047,4 608.689,5.72522 z" id="boundary" inkscape:connector-curvature="0" />
	<path style="fill:none;stroke:red;stroke-width:1px;stroke-linecap:butt;stroke-linejoin:miter;stroke-opacity:1" d="M 608.689,5.72522 640.605,33.3287 z" id="boundary" inkscape:connector-curvature="0" />
	<path style="fill:none;stroke:red;stroke-width:1px;stroke-linecap:butt;stroke-linejoin:miter;stroke-opacity:1" d="M 640.605,33.3287 669.934,62.6574 z" id="boundary" inkscape:connector-curvature="0" />
	<path style="fill:none;stroke:red;stroke-width:1px;stroke-linecap:butt;stroke-linejoin:miter;stroke-opacity:1" d="M 669.934,62.6574 666.483,93.7113 z" id="boundary" inkscape:connector-curvature="0" />
	<path style="fill:none;stroke:red;stroke-width:1px;stroke-linecap:butt;stroke-linejoin:miter;stroke-opacity:1" d="M 648.369,126.49 626.803,147.193 z" id="boundary" inkscape:connector-curvature="0" />
	<path style="fill:none;stroke:red;stroke-width:1px;stroke-linecap:butt;stroke-linejoin:miter;stroke-opacity:1" d="M 666.483,93.7113 648.369,126.49 z" id="boundary" inkscape:connector-curvature="0" />
	<path style="fill:none;stroke:red;stroke-width:1px;stroke-linecap:butt;stroke-linejoin:miter;stroke-opacity:1" d="M 626.803,147.193 596.612,160.132 z" id="boundary" inkscape:connector-curvature="0" />
	<path style="fill:none;stroke:red;stroke-width:1px;stroke-linecap:butt;stroke-linejoin:miter;stroke-opacity:1" d="M 538.817,335.242 521.565,362.845 z" id="boundary" inkscape:connector-curvature="0" />
	<path style="fill:none;stroke:red;stroke-width:1px;stroke-linecap:butt;stroke-linejoin:miter;stroke-opacity:1" d="M 542.268,272.271 550.031,315.402 z" id="boundary" inkscape:connector-curvature="0" />
	<path style="fill:none;stroke:red;stroke-width:1px;stroke-linecap:butt;stroke-linejoin:miter;stroke-opacity:1" d="M 526.741,425.816 515.527,387.861 z" id="boundary" inkscape:connector-curvature="0" />
	<path style="fill:none;stroke:red;stroke-width:1px;stroke-linecap:butt;stroke-linejoin:miter;stroke-opacity:1" d="M 556.932,453.419 526.741,425.816 z" id="boundary" inkscape:connector-curvature="0" />
	<path style="fill:none;stroke:red;stroke-width:1px;stroke-linecap:butt;stroke-linejoin:miter;stroke-opacity:1" d="M 527.603,248.118 542.268,272.271 z" id="boundary" inkscape:connector-curvature="0" />
	<path style="fill:none;stroke:red;stroke-width:1px;stroke-linecap:butt;stroke-linejoin:miter;stroke-opacity:1" d="M 573.322,184.285 596.612,160.132 z" id="boundary" inkscape:connector-curvature="0" />
	<path style="fill:none;stroke:red;stroke-width:1px;stroke-linecap:butt;stroke-linejoin:miter;stroke-opacity:1" d="M 573.322,184.285 542.268,208.438 z" id="boundary" inkscape:connector-curvature="0" />
	<path style="fill:none;stroke:red;stroke-width:1px;stroke-linecap:butt;stroke-linejoin:miter;stroke-opacity:1" d="M 550.031,315.402 538.817,335.242 z" id="boundary" inkscape:connector-curvature="0" />
	<path style="fill:none;stroke:red;stroke-width:1px;stroke-linecap:butt;stroke-linejoin:miter;stroke-opacity:1" d="M 527.603,248.118 542.268,208.438 z" id="boundary" inkscape:connector-curvature="0" />
	<path style="fill:none;stroke:red;stroke-width:1px;stroke-linecap:butt;stroke-linejoin:miter;stroke-opacity:1" d="M 510.351,43.68 523.29,20.3896 z" id="boundary" inkscape:connector-curvature="0" />
	<path style="fill:none;stroke:red;stroke-width:1px;stroke-linecap:butt;stroke-linejoin:miter;stroke-opacity:1" d="M 429.266,463.77 430.991,504.313 z" id="boundary" inkscape:connector-curvature="0" />
	<path style="fill:none;stroke:red;stroke-width:1px;stroke-linecap:butt;stroke-linejoin:miter;stroke-opacity:1" d="M 439.617,531.054 430.991,504.313 z" id="boundary" inkscape:connector-curvature="0" />
	<path style="fill:none;stroke:red;stroke-width:1px;stroke-linecap:butt;stroke-linejoin:miter;stroke-opacity:1" d="M 437.892,557.795 445.656,600.925 z" id="boundary" inkscape:connector-curvature="0" />
	<path style="fill:none;stroke:red;stroke-width:1px;stroke-linecap:butt;stroke-linejoin:miter;stroke-opacity:1" d="M 439.617,531.054 437.892,557.795 z" id="boundary" inkscape:connector-curvature="0" />
	<path style="fill:none;stroke:red;stroke-width:1px;stroke-linecap:butt;stroke-linejoin:miter;stroke-opacity:1" d="M 457.732,637.155 445.656,600.925 z" id="boundary" inkscape:connector-curvature="0" />
	<path style="fill:none;stroke:red;stroke-width:1px;stroke-linecap:butt;stroke-linejoin:miter;stroke-opacity:1" d="M 457.732,637.155 462.045,659.583 z" id="boundary" inkscape:connector-curvature="0" />
	<path style="fill:none;stroke:red;stroke-width:1px;stroke-linecap:butt;stroke-linejoin:miter;stroke-opacity:1" d="M 462.045,659.583 465.496,689.774 z" id="boundary" inkscape:connector-curvature="0" />
	<path style="fill:none;stroke:red;stroke-width:1px;stroke-linecap:butt;stroke-linejoin:miter;stroke-opacity:1" d="M 429.266,463.77 429.266,439.617 z" id="boundary" inkscape:connector-curvature="0" />
	<path style="fill:none;stroke:red;stroke-width:1px;stroke-linecap:butt;stroke-linejoin:miter;stroke-opacity:1" d="M 412.014,983.061 388.723,996 z" id="boundary" inkscape:connector-curvature="0" />
	<path style="fill:none;stroke:red;stroke-width:1px;stroke-linecap:butt;stroke-linejoin:miter;stroke-opacity:1" d="M 355.082,989.962 388.723,996 z" id="boundary" inkscape:connector-curvature="0" />
	<path style="fill:none;stroke:red;stroke-width:1px;stroke-linecap:butt;stroke-linejoin:miter;stroke-opacity:1" d="M 355.082,989.962 335.242,960.633 z" id="boundary" inkscape:connector-curvature="0" />
	<path style="fill:none;stroke:red;stroke-width:1px;stroke-linecap:butt;stroke-linejoin:miter;stroke-opacity:1" d="M 464.633,923.541 463.77,897.663 z" id="boundary" inkscape:connector-curvature="0" />
	<path style="fill:none;stroke:red;stroke-width:1px;stroke-linecap:butt;stroke-linejoin:miter;stroke-opacity:1" d="M 463.77,897.663 468.083,862.296 z" id="boundary" inkscape:connector-curvature="0" />
	<path style="fill:none;stroke:red;stroke-width:1px;stroke-linecap:butt;stroke-linejoin:miter;stroke-opacity:1" d="M 435.304,969.259 451.694,940.793 z" id="boundary" inkscape:connector-curvature="0" />
	<path style="fill:none;stroke:red;stroke-width:1px;stroke-linecap:butt;stroke-linejoin:miter;stroke-opacity:1" d="M 451.694,940.793 464.633,923.541 z" id="boundary" inkscape:connector-curvature="0" />
	<path style="fill:none;stroke:red;stroke-width:1px;stroke-linecap:butt;stroke-linejoin:miter;stroke-opacity:1" d="M 435.304,969.259 412.014,983.061 z" id="boundary" inkscape:connector-curvature="0" />
	<path style="fill:none;stroke:red;stroke-width:1px;stroke-linecap:butt;stroke-linejoin:miter;stroke-opacity:1" d="M 472.397,724.278 474.122,753.607 z" id="boundary" inkscape:connector-curvature="0" />
	<path style="fill:none;stroke:red;stroke-width:1px;stroke-linecap:butt;stroke-linejoin:miter;stroke-opacity:1" d="M 584.536,479.297 605.238,503.45 z" id="boundary" inkscape:connector-curvature="0" />
	<path style="fill:none;stroke:red;stroke-width:1px;stroke-linecap:butt;stroke-linejoin:miter;stroke-opacity:1" d="M 584.536,479.297 556.932,453.419 z" id="boundary" inkscape:connector-curvature="0" />
	<path style="fill:none;stroke:red;stroke-width:1px;stroke-linecap:butt;stroke-linejoin:miter;stroke-opacity:1" d="M 605.238,503.45 631.979,527.603 z" id="boundary" inkscape:connector-curvature="0" />
	<path style="fill:none;stroke:red;stroke-width:1px;stroke-linecap:butt;stroke-linejoin:miter;stroke-opacity:1" d="M 621.628,657.857 590.574,672.522 z" id="boundary" inkscape:connector-curvature="0" />
	<path style="fill:none;stroke:red;stroke-width:1px;stroke-linecap:butt;stroke-linejoin:miter;stroke-opacity:1" d="M 631.979,527.603 654.407,544.856 z" id="boundary" inkscape:connector-curvature="0" />
	<path style="fill:none;stroke:red;stroke-width:1px;stroke-linecap:butt;stroke-linejoin:miter;stroke-opacity:1" d="M 668.209,597.475 656.132,627.666 z" id="boundary" inkscape:connector-curvature="0" />
	<path style="fill:none;stroke:red;stroke-width:1px;stroke-linecap:butt;stroke-linejoin:miter;stroke-opacity:1" d="M 654.407,544.856 668.209,572.459 z" id="boundary" inkscape:connector-curvature="0" />
	<path style="fill:none;stroke:red;stroke-width:1px;stroke-linecap:butt;stroke-linejoin:miter;stroke-opacity:1" d="M 668.209,572.459 668.209,597.475 z" id="boundary" inkscape:connector-curvature="0" />
	<path style="fill:none;stroke:red;stroke-width:1px;stroke-linecap:butt;stroke-linejoin:miter;stroke-opacity:1" d="M 656.132,627.666 621.628,657.857 z" id="boundary" inkscape:connector-curvature="0" />
	<path style="fill:none;stroke:red;stroke-width:1px;stroke-linecap:butt;stroke-linejoin:miter;stroke-opacity:1" d="M 472.397,724.278 489.649,706.163 z" id="boundary" inkscape:connector-curvature="0" />
	<path style="fill:none;stroke:red;stroke-width:1px;stroke-linecap:butt;stroke-linejoin:miter;stroke-opacity:1" d="M 474.122,782.073 476.71,830.379 z" id="boundary" inkscape:connector-curvature="0" />
	<path style="fill:none;stroke:red;stroke-width:1px;stroke-linecap:butt;stroke-linejoin:miter;stroke-opacity:1" d="M 476.71,830.379 468.083,862.296 z" id="boundary" inkscape:connector-curvature="0" />
	<path style="fill:none;stroke:red;stroke-width:1px;stroke-linecap:butt;stroke-linejoin:miter;stroke-opacity:1" d="M 474.122,782.073 474.122,753.607 z" id="boundary" inkscape:connector-curvature="0" />
	<path style="fill:none;stroke:red;stroke-width:1px;stroke-linecap:butt;stroke-linejoin:miter;stroke-opacity:1" d="M 539.68,689.774 590.574,672.522 z" id="boundary" inkscape:connector-curvature="0" />
	<path style="fill:none;stroke:red;stroke-width:1px;stroke-linecap:butt;stroke-linejoin:miter;stroke-opacity:1" d="M 539.68,689.774 514.664,700.988 z" id="boundary" inkscape:connector-curvature="0" />
	<path style="fill:none;stroke:red;stroke-width:1px;stroke-linecap:butt;stroke-linejoin:miter;stroke-opacity:1" d="M 489.649,706.163 514.664,700.988 z" id="boundary" inkscape:connector-curvature="0" />
	<path style="fill:none;stroke:red;stroke-width:1px;stroke-linecap:butt;stroke-linejoin:miter;stroke-opacity:1" d="M 489.649,706.163 465.496,689.774 z" id="boundary" inkscape:connector-curvature="0" />
	<circle cx="74.7339" cy="172.209" r="4" fill="#0" id="circle0"/>
	<circle cx="110.963" cy="22.1148" r="4" fill="#0" id="circle1"/>
	<circle cx="179.11" cy="773.447" r="4" fill="#0" id="circle2"/>
	<circle cx="183.423" cy="902.838" r="4" fill="#0" id="circle3"/>
	<circle cx="550.031" cy="315.402" r="4" fill="#0" id="circle4"/>
	<circle cx="429.266" cy="463.77" r="4" fill="#0" id="circle5"/>
	<circle cx="278.31" cy="300.737" r="4" fill="#0" id="circle6"/>
	<circle cx="669.934" cy="62.6574" r="4" fill="#0" id="circle7"/>
	<circle cx="7.45043" cy="64.3826" r="4" fill="#0" id="circle8"/>
	<circle cx="23.84" cy="136.842" r="4" fill="#0" id="circle9"/>
	<circle cx="187.736" cy="123.903" r="4" fill="#0" id="circle10"/>
	<circle cx="379.235" cy="176.522" r="4" fill="#0" id="circle11"/>
	<circle cx="236.904" cy="162.72" r="4" fill="#0" id="circle12"/>
	<circle cx="133.391" cy="241.217" r="4" fill="#0" id="circle13"/>
	<circle cx="96.2991" cy="454.282" r="4" fill="#0" id="circle14"/>
	<circle cx="66.1078" cy="655.27" r="4" fill="#0" id="circle15"/>
	<circle cx="86.8104" cy="672.522" r="4" fill="#0" id="circle16"/>
	<circle cx="412.014" cy="983.061" r="4" fill="#0" id="circle17"/>
	<circle cx="276.584" cy="992.55" r="4" fill="#0" id="circle18"/>
	<circle cx="194.637" cy="686.323" r="4" fill="#0" id="circle19"/>
	<circle cx="130.803" cy="343.005" r="4" fill="#0" id="circle20"/>
	<circle cx="430.991" cy="504.313" r="4" fill="#0" id="circle21"/>
	<circle cx="437.892" cy="557.795" r="4" fill="#0" id="circle22"/>
	<circle cx="457.732" cy="637.155" r="4" fill="#0" id="circle23"/>
	<circle cx="463.77" cy="897.663" r="4" fill="#0" id="circle24"/>
	<circle cx="539.68" cy="689.774" r="4" fill="#0" id="circle25"/>
	<circle cx="605.238" cy="503.45" r="4" fill="#0" id="circle26"/>
	<circle cx="526.741" cy="425.816" r="4" fill="#0" id="circle27"/>
	<circle cx="465.496" cy="339.555" r="4" fill="#0" id="circle28"/>
	<circle cx="434.442" cy="355.944" r="4" fill="#0" id="circle29"/>
	<circle cx="527.603" cy="248.118" r="4" fill="#0" id="circle30"/>
	<circle cx="458.595" cy="139.43" r="4" fill="#0" id="circle31"/>
	<circle cx="538.817" cy="335.242" r="4" fill="#0" id="circle32"/>
	<circle cx="596.612" cy="160.132" r="4" fill="#0" id="circle33"/>
	<circle cx="20.3896" cy="31.6035" r="4" fill="#0" id="circle34"/>
	<circle cx="4" cy="122.177" r="4" fill="#0" id="circle35"/>
	<circle cx="41.0922" cy="155.819" r="4" fill="#0" id="circle36"/>
	<circle cx="89.3983" cy="191.186" r="4" fill="#0" id="circle37"/>
	<circle cx="52.3061" cy="14.3513" r="4" fill="#0" id="circle38"/>
	<circle cx="89.3983" cy="9.17565" r="4" fill="#0" id="circle39"/>
	<circle cx="133.391" cy="43.68" r="4" fill="#0" id="circle40"/>
	<circle cx="154.957" cy="61.7948" r="4" fill="#0" id="circle41"/>
	<circle cx="167.033" cy="84.2226" r="4" fill="#0" id="circle42"/>
	<circle cx="248.981" cy="254.157" r="4" fill="#0" id="circle43"/>
	<circle cx="266.233" cy="174.797" r="4" fill="#0" id="circle44"/>
	<circle cx="217.064" cy="148.918" r="4" fill="#0" id="circle45"/>
	<circle cx="117.002" cy="207.576" r="4" fill="#0" id="circle46"/>
	<circle cx="224.828" cy="258.47" r="4" fill="#0" id="circle47"/>
	<circle cx="264.508" cy="279.172" r="4" fill="#0" id="circle48"/>
	<circle cx="270.546" cy="335.242" r="4" fill="#0" id="circle49"/>
	<circle cx="254.157" cy="361.983" r="4" fill="#0" id="circle50"/>
	<circle cx="234.317" cy="429.266" r="4" fill="#0" id="circle51"/>
	<circle cx="217.064" cy="354.219" r="4" fill="#0" id="circle52"/>
	<circle cx="150.643" cy="359.395" r="4" fill="#0" id="circle53"/>
	<circle cx="213.614" cy="321.44" r="4" fill="#0" id="circle54"/>
	<circle cx="210.163" cy="296.424" r="4" fill="#0" id="circle55"/>
	<circle cx="110.101" cy="301.6" r="4" fill="#0" id="circle56"/>
	<circle cx="131.666" cy="267.096" r="4" fill="#0" id="circle57"/>
	<circle cx="139.43" cy="397.35" r="4" fill="#0" id="circle58"/>
	<circle cx="127.353" cy="425.816" r="4" fill="#0" id="circle59"/>
	<circle cx="21.2522" cy="522.428" r="4" fill="#0" id="circle60"/>
	<circle cx="35.0539" cy="500" r="4" fill="#0" id="circle61"/>
	<circle cx="70.4209" cy="473.259" r="4" fill="#0" id="circle62"/>
	<circle cx="41.9548" cy="644.918" r="4" fill="#0" id="circle63"/>
	<circle cx="13.4887" cy="610.414" r="4" fill="#0" id="circle64"/>
	<circle cx="5.72522" cy="558.657" r="4" fill="#0" id="circle65"/>
	<circle cx="110.101" cy="684.598" r="4" fill="#0" id="circle66"/>
	<circle cx="154.957" cy="697.537" r="4" fill="#0" id="circle67"/>
	<circle cx="175.659" cy="802.776" r="4" fill="#0" id="circle68"/>
	<circle cx="182.56" cy="859.708" r="4" fill="#0" id="circle69"/>
	<circle cx="186.01" cy="933.892" r="4" fill="#0" id="circle70"/>
	<circle cx="175.659" cy="824.341" r="4" fill="#0" id="circle71"/>
	<circle cx="179.11" cy="714.79" r="4" fill="#0" id="circle72"/>
	<circle cx="199.812" cy="635.43" r="4" fill="#0" id="circle73"/>
	<circle cx="199.812" cy="662.17" r="4" fill="#0" id="circle74"/>
	<circle cx="192.911" cy="733.767" r="4" fill="#0" id="circle75"/>
	<circle cx="234.317" cy="987.374" r="4" fill="#0" id="circle76"/>
	<circle cx="302.463" cy="972.71" r="4" fill="#0" id="circle77"/>
	<circle cx="204.988" cy="964.083" r="4" fill="#0" id="circle78"/>
	<circle cx="217.064" cy="550.031" r="4" fill="#0" id="circle79"/>
	<circle cx="210.163" cy="581.085" r="4" fill="#0" id="circle80"/>
	<circle cx="207.576" cy="610.414" r="4" fill="#0" id="circle81"/>
	<circle cx="223.965" cy="523.29" r="4" fill="#0" id="circle82"/>
	<circle cx="232.591" cy="473.259" r="4" fill="#0" id="circle83"/>
	<circle cx="235.179" cy="502.588" r="4" fill="#0" id="circle84"/>
	<circle cx="238.63" cy="448.243" r="4" fill="#0" id="circle85"/>
	<circle cx="439.617" cy="531.054" r="4" fill="#0" id="circle86"/>
	<circle cx="445.656" cy="600.925" r="4" fill="#0" id="circle87"/>
	<circle cx="462.045" cy="659.583" r="4" fill="#0" id="circle88"/>
	<circle cx="474.122" cy="753.607" r="4" fill="#0" id="circle89"/>
	<circle cx="472.397" cy="724.278" r="4" fill="#0" id="circle90"/>
	<circle cx="465.496" cy="689.774" r="4" fill="#0" id="circle91"/>
	<circle cx="335.242" cy="960.633" r="4" fill="#0" id="circle92"/>
	<circle cx="355.082" cy="989.962" r="4" fill="#0" id="circle93"/>
	<circle cx="388.723" cy="996" r="4" fill="#0" id="circle94"/>
	<circle cx="435.304" cy="969.259" r="4" fill="#0" id="circle95"/>
	<circle cx="451.694" cy="940.793" r="4" fill="#0" id="circle96"/>
	<circle cx="464.633" cy="923.541" r="4" fill="#0" id="circle97"/>
	<circle cx="468.083" cy="862.296" r="4" fill="#0" id="circle98"/>
	<circle cx="489.649" cy="706.163" r="4" fill="#0" id="circle99"/>
	<circle cx="474.122" cy="782.073" r="4" fill="#0" id="circle100"/>
	<circle cx="476.71" cy="830.379" r="4" fill="#0" id="circle101"/>
	<circle cx="514.664" cy="700.988" r="4" fill="#0" id="circle102"/>
	<circle cx="590.574" cy="672.522" r="4" fill="#0" id="circle103"/>
	<circle cx="621.628" cy="657.857" r="4" fill="#0" id="circle104"/>
	<circle cx="668.209" cy="572.459" r="4" fill="#0" id="circle105"/>
	<circle cx="668.209" cy="597.475" r="4" fill="#0" id="circle106"/>
	<circle cx="656.132" cy="627.666" r="4" fill="#0" id="circle107"/>
	<circle cx="584.536" cy="479.297" r="4" fill="#0" id="circle108"/>
	<circle cx="556.932" cy="453.419" r="4" fill="#0" id="circle109"/>
	<circle cx="631.979" cy="527.603" r="4" fill="#0" id="circle110"/>
	<circle cx="654.407" cy="544.856" r="4" fill="#0" id="circle111"/>
	<circle cx="521.565" cy="362.845" r="4" fill="#0" id="circle112"/>
	<circle cx="542.268" cy="272.271" r="4" fill="#0" id="circle113"/>
	<circle cx="542.268" cy="208.438" r="4" fill="#0" id="circle114"/>
	<circle cx="462.045" cy="261.92" r="4" fill="#0" id="circle115"/>
	<circle cx="472.397" cy="296.424" r="4" fill="#0" id="circle116"/>
	<circle cx="515.527" cy="387.861" r="4" fill="#0" id="circle117"/>
	<circle cx="429.266" cy="439.617" r="4" fill="#0" id="circle118"/>
	<circle cx="409.426" cy="340.417" r="4" fill="#0" id="circle119"/>
	<circle cx="405.976" cy="302.463" r="4" fill="#0" id="circle120"/>
	<circle cx="348.181" cy="187.736" r="4" fill="#0" id="circle121"/>
	<circle cx="309.363" cy="188.598" r="4" fill="#0" id="circle122"/>
	<circle cx="403.388" cy="278.31" r="4" fill="#0" id="circle123"/>
	<circle cx="434.442" cy="246.393" r="4" fill="#0" id="circle124"/>
	<circle cx="476.71" cy="110.963" r="4" fill="#0" id="circle125"/>
	<circle cx="443.93" cy="158.407" r="4" fill="#0" id="circle126"/>
	<circle cx="422.365" cy="171.346" r="4" fill="#0" id="circle127"/>
	<circle cx="490.511" cy="88.5357" r="4" fill="#0" id="circle128"/>
	<circle cx="510.351" cy="43.68" r="4" fill="#0" id="circle129"/>
	<circle cx="523.29" cy="20.3896" r="4" fill="#0" id="circle130"/>
	<circle cx="545.718" cy="9.17565" r="4" fill="#0" id="circle131"/>
	<circle cx="575.047" cy="4" r="4" fill="#0" id="circle132"/>
	<circle cx="608.689" cy="5.72522" r="4" fill="#0" id="circle133"/>
	<circle cx="573.322" cy="184.285" r="4" fill="#0" id="circle134"/>
	<circle cx="626.803" cy="147.193" r="4" fill="#0" id="circle135"/>
	<circle cx="648.369" cy="126.49" r="4" fill="#0" id="circle136"/>
	<circle cx="666.483" cy="93.7113" r="4" fill="#0" id="circle137"/>
	<circle cx="640.605" cy="33.3287" r="4" fill="#0" id="circle138"/>
	</g>
</svg>