<?xml version="1.0" encoding="UTF-8" standalone="no"?>
<!-- Created with CurveBenchmark -->
<svg
	xmlns:dc="http://purl.org/dc/elements/1.1/"
	xmlns:cc="http://creativecommons.org/ns#"
	xmlns:rdf="http://www.w3.org/1999/02/22-rdf-syntax-ns#"
	xmlns:svg="http://www.w3.org/2000/svg"
	xmlns="http://www.w3.org/2000/svg"
	xmlns:sodipodi="http://sodipodi.sourceforge.net/DTD/sodipodi-0.dtd"
	xmlns:inkscape="http://www.inkscape.org/namespaces/inkscape"
	width="1000"
	height="1000"
	id="svg2"
	version="1.1"
	sodipodi:docname="Non-manifold/peel-nm7out.txt">
<defs
	id="defs4" />
<metadata
	id="metadata7">
	<rdf:RDF>
		<cc:Work
			rdf:about="">
			<dc:format>image/svg+xml</dc:format>
			<dc:type
				rdf:resource="http://purl.org/dc/dcmitype/StillImage" />
			<dc:title></dc:title>
		</cc:Work>
	</rdf:RDF>
</metadata>
<g
	inkscape:label="Layer 1"
	inkscape:groupmode="layer"
	id="layer1">
	<path style="fill:none;stroke:red;stroke-width:1px;stroke-linecap:butt;stroke-linejoin:miter;stroke-opacity:1" d="M 167.461,44.5291 140.216,8.8123 z" id="boundary" inkscape:connector-curvature="0" />
	<path style="fill:none;stroke:red;stroke-width:1px;stroke-linecap:butt;stroke-linejoin:miter;stroke-opacity:1" d="M 140.216,8.8123 102.31,17.0302 z" id="boundary" inkscape:connector-curvature="0" />
	<path style="fill:none;stroke:red;stroke-width:1px;stroke-linecap:butt;stroke-linejoin:miter;stroke-opacity:1" d="M 181.676,118.311 167.461,44.5291 z" id="boundary" inkscape:connector-curvature="0" />
	<path style="fill:none;stroke:red;stroke-width:1px;stroke-linecap:butt;stroke-linejoin:miter;stroke-opacity:1" d="M 102.31,17.0302 72.6958,60.2669 z" id="boundary" inkscape:connector-curvature="0" />
	<path style="fill:none;stroke:red;stroke-width:1px;stroke-linecap:butt;stroke-linejoin:miter;stroke-opacity:1" d="M 284.733,62.8334 270.518,141.41 z" id="boundary" inkscape:connector-curvature="0" />
	<path style="fill:none;stroke:red;stroke-width:1px;stroke-linecap:butt;stroke-linejoin:miter;stroke-opacity:1" d="M 206.552,188.274 181.676,118.311 z" id="boundary" inkscape:connector-curvature="0" />
	<path style="fill:none;stroke:red;stroke-width:1px;stroke-linecap:butt;stroke-linejoin:miter;stroke-opacity:1" d="M 57.2964,165.446 65.5884,260.327 z" id="boundary" inkscape:connector-curvature="0" />
	<path style="fill:none;stroke:red;stroke-width:1px;stroke-linecap:butt;stroke-linejoin:miter;stroke-opacity:1" d="M 315.532,388.392 353.438,394.537 z" id="boundary" inkscape:connector-curvature="0" />
	<path style="fill:none;stroke:red;stroke-width:1px;stroke-linecap:butt;stroke-linejoin:miter;stroke-opacity:1" d="M 270.518,141.41 244.458,194.197 z" id="boundary" inkscape:connector-curvature="0" />
	<path style="fill:none;stroke:red;stroke-width:1px;stroke-linecap:butt;stroke-linejoin:miter;stroke-opacity:1" d="M 244.458,194.197 206.552,188.274 z" id="boundary" inkscape:connector-curvature="0" />
	<path style="fill:none;stroke:red;stroke-width:1px;stroke-linecap:butt;stroke-linejoin:miter;stroke-opacity:1" d="M 580.875,378.915 618.781,348.19 z" id="boundary" inkscape:connector-curvature="0" />
	<path style="fill:none;stroke:red;stroke-width:1px;stroke-linecap:butt;stroke-linejoin:miter;stroke-opacity:1" d="M 310.794,12.8842 284.733,62.8334 z" id="boundary" inkscape:connector-curvature="0" />
	<path style="fill:none;stroke:red;stroke-width:1px;stroke-linecap:butt;stroke-linejoin:miter;stroke-opacity:1" d="M 310.794,12.8842 348.7,19.1032 z" id="boundary" inkscape:connector-curvature="0" />
	<path style="fill:none;stroke:red;stroke-width:1px;stroke-linecap:butt;stroke-linejoin:miter;stroke-opacity:1" d="M 569.029,4 531.123,14.8832 z" id="boundary" inkscape:connector-curvature="0" />
	<path style="fill:none;stroke:red;stroke-width:1px;stroke-linecap:butt;stroke-linejoin:miter;stroke-opacity:1" d="M 348.7,19.1032 374.76,86.5248 z" id="boundary" inkscape:connector-curvature="0" />
	<path style="fill:none;stroke:red;stroke-width:1px;stroke-linecap:butt;stroke-linejoin:miter;stroke-opacity:1" d="M 374.76,86.5248 400.821,160.807 z" id="boundary" inkscape:connector-curvature="0" />
	<path style="fill:none;stroke:red;stroke-width:1px;stroke-linecap:butt;stroke-linejoin:miter;stroke-opacity:1" d="M 473.079,138.813 438.727,175.54 z" id="boundary" inkscape:connector-curvature="0" />
	<path style="fill:none;stroke:red;stroke-width:1px;stroke-linecap:butt;stroke-linejoin:miter;stroke-opacity:1" d="M 438.727,175.54 400.821,160.807 z" id="boundary" inkscape:connector-curvature="0" />
	<path style="fill:none;stroke:red;stroke-width:1px;stroke-linecap:butt;stroke-linejoin:miter;stroke-opacity:1" d="M 467.156,403.791 505.062,401.94 z" id="boundary" inkscape:connector-curvature="0" />
	<path style="fill:none;stroke:red;stroke-width:1px;stroke-linecap:butt;stroke-linejoin:miter;stroke-opacity:1" d="M 663.794,235.287 649.816,294.456 z" id="boundary" inkscape:connector-curvature="0" />
	<path style="fill:none;stroke:red;stroke-width:1px;stroke-linecap:butt;stroke-linejoin:miter;stroke-opacity:1" d="M 500.324,71.7572 473.079,138.813 z" id="boundary" inkscape:connector-curvature="0" />
	<path style="fill:none;stroke:red;stroke-width:1px;stroke-linecap:butt;stroke-linejoin:miter;stroke-opacity:1" d="M 640.103,72.31 660.241,137.027 z" id="boundary" inkscape:connector-curvature="0" />
	<path style="fill:none;stroke:red;stroke-width:1px;stroke-linecap:butt;stroke-linejoin:miter;stroke-opacity:1" d="M 531.123,14.8832 500.324,71.7572 z" id="boundary" inkscape:connector-curvature="0" />
	<path style="fill:none;stroke:red;stroke-width:1px;stroke-linecap:butt;stroke-linejoin:miter;stroke-opacity:1" d="M 569.029,4 606.935,26.1366 z" id="boundary" inkscape:connector-curvature="0" />
	<path style="fill:none;stroke:red;stroke-width:1px;stroke-linecap:butt;stroke-linejoin:miter;stroke-opacity:1" d="M 606.935,26.1366 640.103,72.31 z" id="boundary" inkscape:connector-curvature="0" />
	<path style="fill:none;stroke:red;stroke-width:1px;stroke-linecap:butt;stroke-linejoin:miter;stroke-opacity:1" d="M 660.241,137.027 668.532,186.423 z" id="boundary" inkscape:connector-curvature="0" />
	<path style="fill:none;stroke:red;stroke-width:1px;stroke-linecap:butt;stroke-linejoin:miter;stroke-opacity:1" d="M 668.532,186.423 663.794,235.287 z" id="boundary" inkscape:connector-curvature="0" />
	<path style="fill:none;stroke:red;stroke-width:1px;stroke-linecap:butt;stroke-linejoin:miter;stroke-opacity:1" d="M 649.816,294.456 618.781,348.19 z" id="boundary" inkscape:connector-curvature="0" />
	<path style="fill:none;stroke:red;stroke-width:1px;stroke-linecap:butt;stroke-linejoin:miter;stroke-opacity:1" d="M 584.116,794.007 550.076,740.282 z" id="boundary" inkscape:connector-curvature="0" />
	<path style="fill:none;stroke:red;stroke-width:1px;stroke-linecap:butt;stroke-linejoin:miter;stroke-opacity:1" d="M 542.968,394.537 580.875,378.915 z" id="boundary" inkscape:connector-curvature="0" />
	<path style="fill:none;stroke:red;stroke-width:1px;stroke-linecap:butt;stroke-linejoin:miter;stroke-opacity:1" d="M 580.164,599.718 567.844,517.965 z" id="boundary" inkscape:connector-curvature="0" />
	<path style="fill:none;stroke:red;stroke-width:1px;stroke-linecap:butt;stroke-linejoin:miter;stroke-opacity:1" d="M 505.062,401.94 542.968,394.537 z" id="boundary" inkscape:connector-curvature="0" />
	<path style="fill:none;stroke:red;stroke-width:1px;stroke-linecap:butt;stroke-linejoin:miter;stroke-opacity:1" d="M 495.586,482.565 457.68,481.528 z" id="boundary" inkscape:connector-curvature="0" />
	<path style="fill:none;stroke:red;stroke-width:1px;stroke-linecap:butt;stroke-linejoin:miter;stroke-opacity:1" d="M 429.25,403.125 467.156,403.791 z" id="boundary" inkscape:connector-curvature="0" />
	<path style="fill:none;stroke:red;stroke-width:1px;stroke-linecap:butt;stroke-linejoin:miter;stroke-opacity:1" d="M 343.961,497.372 306.055,505.294 z" id="boundary" inkscape:connector-curvature="0" />
	<path style="fill:none;stroke:red;stroke-width:1px;stroke-linecap:butt;stroke-linejoin:miter;stroke-opacity:1" d="M 391.344,399.793 429.25,403.125 z" id="boundary" inkscape:connector-curvature="0" />
	<path style="fill:none;stroke:red;stroke-width:1px;stroke-linecap:butt;stroke-linejoin:miter;stroke-opacity:1" d="M 78.6186,537.277 40.7125,526.468 z" id="boundary" inkscape:connector-curvature="0" />
	<path style="fill:none;stroke:red;stroke-width:1px;stroke-linecap:butt;stroke-linejoin:miter;stroke-opacity:1" d="M 40.7125,526.468 4,460.058 z" id="boundary" inkscape:connector-curvature="0" />
	<path style="fill:none;stroke:red;stroke-width:1px;stroke-linecap:butt;stroke-linejoin:miter;stroke-opacity:1" d="M 353.438,394.537 391.344,399.793 z" id="boundary" inkscape:connector-curvature="0" />
	<path style="fill:none;stroke:red;stroke-width:1px;stroke-linecap:butt;stroke-linejoin:miter;stroke-opacity:1" d="M 38.3434,378.101 4,460.058 z" id="boundary" inkscape:connector-curvature="0" />
	<path style="fill:none;stroke:red;stroke-width:1px;stroke-linecap:butt;stroke-linejoin:miter;stroke-opacity:1" d="M 75.4151,361.916 38.3434,378.101 z" id="boundary" inkscape:connector-curvature="0" />
	<path style="fill:none;stroke:red;stroke-width:1px;stroke-linecap:butt;stroke-linejoin:miter;stroke-opacity:1" d="M 277.626,381.58 315.532,388.392 z" id="boundary" inkscape:connector-curvature="0" />
	<path style="fill:none;stroke:red;stroke-width:1px;stroke-linecap:butt;stroke-linejoin:miter;stroke-opacity:1" d="M 129.412,394.465 110.071,356.65 z" id="boundary" inkscape:connector-curvature="0" />
	<path style="fill:none;stroke:red;stroke-width:1px;stroke-linecap:butt;stroke-linejoin:miter;stroke-opacity:1" d="M 110.071,356.65 75.4151,361.916 z" id="boundary" inkscape:connector-curvature="0" />
	<path style="fill:none;stroke:red;stroke-width:1px;stroke-linecap:butt;stroke-linejoin:miter;stroke-opacity:1" d="M 239.72,374.917 277.626,381.58 z" id="boundary" inkscape:connector-curvature="0" />
	<path style="fill:none;stroke:red;stroke-width:1px;stroke-linecap:butt;stroke-linejoin:miter;stroke-opacity:1" d="M 201.813,368.55 161.174,361.749 z" id="boundary" inkscape:connector-curvature="0" />
	<path style="fill:none;stroke:red;stroke-width:1px;stroke-linecap:butt;stroke-linejoin:miter;stroke-opacity:1" d="M 161.174,361.749 129.412,394.465 z" id="boundary" inkscape:connector-curvature="0" />
	<path style="fill:none;stroke:red;stroke-width:1px;stroke-linecap:butt;stroke-linejoin:miter;stroke-opacity:1" d="M 201.813,368.55 239.72,374.917 z" id="boundary" inkscape:connector-curvature="0" />
	<path style="fill:none;stroke:red;stroke-width:1px;stroke-linecap:butt;stroke-linejoin:miter;stroke-opacity:1" d="M 57.2964,165.446 72.6958,60.2669 z" id="boundary" inkscape:connector-curvature="0" />
	<path style="fill:none;stroke:red;stroke-width:1px;stroke-linecap:butt;stroke-linejoin:miter;stroke-opacity:1" d="M 95.2025,697.045 46.0885,746.379 z" id="boundary" inkscape:connector-curvature="0" />
	<path style="fill:none;stroke:red;stroke-width:1px;stroke-linecap:butt;stroke-linejoin:miter;stroke-opacity:1" d="M 208.921,680.683 246.827,679.277 z" id="boundary" inkscape:connector-curvature="0" />
	<path style="fill:none;stroke:red;stroke-width:1px;stroke-linecap:butt;stroke-linejoin:miter;stroke-opacity:1" d="M 116.525,538.239 78.6186,537.277 z" id="boundary" inkscape:connector-curvature="0" />
	<path style="fill:none;stroke:red;stroke-width:1px;stroke-linecap:butt;stroke-linejoin:miter;stroke-opacity:1" d="M 322.848,667.45 367.642,672.329 z" id="boundary" inkscape:connector-curvature="0" />
	<path style="fill:none;stroke:red;stroke-width:1px;stroke-linecap:butt;stroke-linejoin:miter;stroke-opacity:1" d="M 154.431,534.686 116.525,538.239 z" id="boundary" inkscape:connector-curvature="0" />
	<path style="fill:none;stroke:red;stroke-width:1px;stroke-linecap:butt;stroke-linejoin:miter;stroke-opacity:1" d="M 381.868,490.338 419.774,484.712 z" id="boundary" inkscape:connector-curvature="0" />
	<path style="fill:none;stroke:red;stroke-width:1px;stroke-linecap:butt;stroke-linejoin:miter;stroke-opacity:1" d="M 188.073,526.465 154.431,534.686 z" id="boundary" inkscape:connector-curvature="0" />
	<path style="fill:none;stroke:red;stroke-width:1px;stroke-linecap:butt;stroke-linejoin:miter;stroke-opacity:1" d="M 367.642,672.329 429.261,668.223 z" id="boundary" inkscape:connector-curvature="0" />
	<path style="fill:none;stroke:red;stroke-width:1px;stroke-linecap:butt;stroke-linejoin:miter;stroke-opacity:1" d="M 550.076,639.298 512.17,656.918 z" id="boundary" inkscape:connector-curvature="0" />
	<path style="fill:none;stroke:red;stroke-width:1px;stroke-linecap:butt;stroke-linejoin:miter;stroke-opacity:1" d="M 580.164,599.718 550.076,639.298 z" id="boundary" inkscape:connector-curvature="0" />
	<path style="fill:none;stroke:red;stroke-width:1px;stroke-linecap:butt;stroke-linejoin:miter;stroke-opacity:1" d="M 381.868,490.338 343.961,497.372 z" id="boundary" inkscape:connector-curvature="0" />
	<path style="fill:none;stroke:red;stroke-width:1px;stroke-linecap:butt;stroke-linejoin:miter;stroke-opacity:1" d="M 567.844,517.965 533.492,491.375 z" id="boundary" inkscape:connector-curvature="0" />
	<path style="fill:none;stroke:red;stroke-width:1px;stroke-linecap:butt;stroke-linejoin:miter;stroke-opacity:1" d="M 533.492,491.375 495.586,482.565 z" id="boundary" inkscape:connector-curvature="0" />
	<path style="fill:none;stroke:red;stroke-width:1px;stroke-linecap:butt;stroke-linejoin:miter;stroke-opacity:1" d="M 457.68,481.528 419.774,484.712 z" id="boundary" inkscape:connector-curvature="0" />
	<path style="fill:none;stroke:red;stroke-width:1px;stroke-linecap:butt;stroke-linejoin:miter;stroke-opacity:1" d="M 475.857,667.909 512.17,656.918 z" id="boundary" inkscape:connector-curvature="0" />
	<path style="fill:none;stroke:red;stroke-width:1px;stroke-linecap:butt;stroke-linejoin:miter;stroke-opacity:1" d="M 429.261,668.223 475.857,667.909 z" id="boundary" inkscape:connector-curvature="0" />
	<path style="fill:none;stroke:red;stroke-width:1px;stroke-linecap:butt;stroke-linejoin:miter;stroke-opacity:1" d="M 550.076,740.282 512.17,730.805 z" id="boundary" inkscape:connector-curvature="0" />
	<path style="fill:none;stroke:red;stroke-width:1px;stroke-linecap:butt;stroke-linejoin:miter;stroke-opacity:1" d="M 322.848,667.45 284.733,678.61 z" id="boundary" inkscape:connector-curvature="0" />
	<path style="fill:none;stroke:red;stroke-width:1px;stroke-linecap:butt;stroke-linejoin:miter;stroke-opacity:1" d="M 360.545,741.392 322.639,748.056 z" id="boundary" inkscape:connector-curvature="0" />
	<path style="fill:none;stroke:red;stroke-width:1px;stroke-linecap:butt;stroke-linejoin:miter;stroke-opacity:1" d="M 284.733,678.61 246.827,679.277 z" id="boundary" inkscape:connector-curvature="0" />
	<path style="fill:none;stroke:red;stroke-width:1px;stroke-linecap:butt;stroke-linejoin:miter;stroke-opacity:1" d="M 171.015,775.671 133.109,780.261 z" id="boundary" inkscape:connector-curvature="0" />
	<path style="fill:none;stroke:red;stroke-width:1px;stroke-linecap:butt;stroke-linejoin:miter;stroke-opacity:1" d="M 171.015,683.275 133.109,687.939 z" id="boundary" inkscape:connector-curvature="0" />
	<path style="fill:none;stroke:red;stroke-width:1px;stroke-linecap:butt;stroke-linejoin:miter;stroke-opacity:1" d="M 230.243,520.358 273.745,567.376 z" id="boundary" inkscape:connector-curvature="0" />
	<path style="fill:none;stroke:red;stroke-width:1px;stroke-linecap:butt;stroke-linejoin:miter;stroke-opacity:1" d="M 230.243,520.358 188.073,526.465 z" id="boundary" inkscape:connector-curvature="0" />
	<path style="fill:none;stroke:red;stroke-width:1px;stroke-linecap:butt;stroke-linejoin:miter;stroke-opacity:1" d="M 171.015,683.275 208.921,680.683 z" id="boundary" inkscape:connector-curvature="0" />
	<path style="fill:none;stroke:red;stroke-width:1px;stroke-linecap:butt;stroke-linejoin:miter;stroke-opacity:1" d="M 133.109,687.939 95.2025,697.045 z" id="boundary" inkscape:connector-curvature="0" />
	<path style="fill:none;stroke:red;stroke-width:1px;stroke-linecap:butt;stroke-linejoin:miter;stroke-opacity:1" d="M 95.2025,781.816 46.0885,746.379 z" id="boundary" inkscape:connector-curvature="0" />
	<path style="fill:none;stroke:red;stroke-width:1px;stroke-linecap:butt;stroke-linejoin:miter;stroke-opacity:1" d="M 133.109,780.261 95.2025,781.816 z" id="boundary" inkscape:connector-curvature="0" />
	<path style="fill:none;stroke:red;stroke-width:1px;stroke-linecap:butt;stroke-linejoin:miter;stroke-opacity:1" d="M 284.733,755.163 322.639,748.056 z" id="boundary" inkscape:connector-curvature="0" />
	<path style="fill:none;stroke:red;stroke-width:1px;stroke-linecap:butt;stroke-linejoin:miter;stroke-opacity:1" d="M 208.921,769.23 171.015,775.671 z" id="boundary" inkscape:connector-curvature="0" />
	<path style="fill:none;stroke:red;stroke-width:1px;stroke-linecap:butt;stroke-linejoin:miter;stroke-opacity:1" d="M 348.7,835.343 386.606,830.161 z" id="boundary" inkscape:connector-curvature="0" />
	<path style="fill:none;stroke:red;stroke-width:1px;stroke-linecap:butt;stroke-linejoin:miter;stroke-opacity:1" d="M 246.827,762.344 208.921,769.23 z" id="boundary" inkscape:connector-curvature="0" />
	<path style="fill:none;stroke:red;stroke-width:1px;stroke-linecap:butt;stroke-linejoin:miter;stroke-opacity:1" d="M 444.671,761.412 416.193,731.543 z" id="boundary" inkscape:connector-curvature="0" />
	<path style="fill:none;stroke:red;stroke-width:1px;stroke-linecap:butt;stroke-linejoin:miter;stroke-opacity:1" d="M 284.733,755.163 246.827,762.344 z" id="boundary" inkscape:connector-curvature="0" />
	<path style="fill:none;stroke:red;stroke-width:1px;stroke-linecap:butt;stroke-linejoin:miter;stroke-opacity:1" d="M 386.606,830.161 424.512,827.718 z" id="boundary" inkscape:connector-curvature="0" />
	<path style="fill:none;stroke:red;stroke-width:1px;stroke-linecap:butt;stroke-linejoin:miter;stroke-opacity:1" d="M 416.193,731.543 360.545,741.392 z" id="boundary" inkscape:connector-curvature="0" />
	<path style="fill:none;stroke:red;stroke-width:1px;stroke-linecap:butt;stroke-linejoin:miter;stroke-opacity:1" d="M 584.116,794.007 538.23,819.87 z" id="boundary" inkscape:connector-curvature="0" />
	<path style="fill:none;stroke:red;stroke-width:1px;stroke-linecap:butt;stroke-linejoin:miter;stroke-opacity:1" d="M 475.428,821.826 424.512,827.718 z" id="boundary" inkscape:connector-curvature="0" />
	<path style="fill:none;stroke:red;stroke-width:1px;stroke-linecap:butt;stroke-linejoin:miter;stroke-opacity:1" d="M 348.7,835.343 297.783,880.028 z" id="boundary" inkscape:connector-curvature="0" />
	<path style="fill:none;stroke:red;stroke-width:1px;stroke-linecap:butt;stroke-linejoin:miter;stroke-opacity:1" d="M 377.129,984.821 339.223,957.057 z" id="boundary" inkscape:connector-curvature="0" />
	<path style="fill:none;stroke:red;stroke-width:1px;stroke-linecap:butt;stroke-linejoin:miter;stroke-opacity:1" d="M 492.045,860.815 475.428,821.826 z" id="boundary" inkscape:connector-curvature="0" />
	<path style="fill:none;stroke:red;stroke-width:1px;stroke-linecap:butt;stroke-linejoin:miter;stroke-opacity:1" d="M 339.223,957.057 297.783,880.028 z" id="boundary" inkscape:connector-curvature="0" />
	<path style="fill:none;stroke:red;stroke-width:1px;stroke-linecap:butt;stroke-linejoin:miter;stroke-opacity:1" d="M 499.14,896.57 484.925,936.523 z" id="boundary" inkscape:connector-curvature="0" />
	<path style="fill:none;stroke:red;stroke-width:1px;stroke-linecap:butt;stroke-linejoin:miter;stroke-opacity:1" d="M 452.941,981.119 415.035,996 z" id="boundary" inkscape:connector-curvature="0" />
	<path style="fill:none;stroke:red;stroke-width:1px;stroke-linecap:butt;stroke-linejoin:miter;stroke-opacity:1" d="M 415.035,996 377.129,984.821 z" id="boundary" inkscape:connector-curvature="0" />
	<path style="fill:none;stroke:red;stroke-width:1px;stroke-linecap:butt;stroke-linejoin:miter;stroke-opacity:1" d="M 484.925,936.523 452.941,981.119 z" id="boundary" inkscape:connector-curvature="0" />
	<path style="fill:none;stroke:red;stroke-width:1px;stroke-linecap:butt;stroke-linejoin:miter;stroke-opacity:1" d="M 499.14,896.57 492.045,860.815 z" id="boundary" inkscape:connector-curvature="0" />
	<path style="fill:none;stroke:red;stroke-width:1px;stroke-linecap:butt;stroke-linejoin:miter;stroke-opacity:1" d="M 273.745,567.376 306.055,604.021 z" id="boundary" inkscape:connector-curvature="0" />
	<circle cx="72.6958" cy="60.2669" r="4" fill="#0" id="circle0"/>
	<circle cx="102.31" cy="17.0302" r="4" fill="#0" id="circle1"/>
	<circle cx="140.216" cy="8.8123" r="4" fill="#0" id="circle2"/>
	<circle cx="167.461" cy="44.5291" r="4" fill="#0" id="circle3"/>
	<circle cx="181.676" cy="118.311" r="4" fill="#0" id="circle4"/>
	<circle cx="206.552" cy="188.274" r="4" fill="#0" id="circle5"/>
	<circle cx="244.458" cy="194.197" r="4" fill="#0" id="circle6"/>
	<circle cx="270.518" cy="141.41" r="4" fill="#0" id="circle7"/>
	<circle cx="284.733" cy="62.8334" r="4" fill="#0" id="circle8"/>
	<circle cx="310.794" cy="12.8842" r="4" fill="#0" id="circle9"/>
	<circle cx="348.7" cy="19.1032" r="4" fill="#0" id="circle10"/>
	<circle cx="374.76" cy="86.5248" r="4" fill="#0" id="circle11"/>
	<circle cx="400.821" cy="160.807" r="4" fill="#0" id="circle12"/>
	<circle cx="438.727" cy="175.54" r="4" fill="#0" id="circle13"/>
	<circle cx="473.079" cy="138.813" r="4" fill="#0" id="circle14"/>
	<circle cx="500.324" cy="71.7572" r="4" fill="#0" id="circle15"/>
	<circle cx="531.123" cy="14.8832" r="4" fill="#0" id="circle16"/>
	<circle cx="569.029" cy="4" r="4" fill="#0" id="circle17"/>
	<circle cx="606.935" cy="26.1366" r="4" fill="#0" id="circle18"/>
	<circle cx="640.103" cy="72.31" r="4" fill="#0" id="circle19"/>
	<circle cx="660.241" cy="137.027" r="4" fill="#0" id="circle20"/>
	<circle cx="668.532" cy="186.423" r="4" fill="#0" id="circle21"/>
	<circle cx="663.794" cy="235.287" r="4" fill="#0" id="circle22"/>
	<circle cx="649.816" cy="294.456" r="4" fill="#0" id="circle23"/>
	<circle cx="618.781" cy="348.19" r="4" fill="#0" id="circle24"/>
	<circle cx="580.875" cy="378.915" r="4" fill="#0" id="circle25"/>
	<circle cx="542.968" cy="394.537" r="4" fill="#0" id="circle26"/>
	<circle cx="505.062" cy="401.94" r="4" fill="#0" id="circle27"/>
	<circle cx="467.156" cy="403.791" r="4" fill="#0" id="circle28"/>
	<circle cx="429.25" cy="403.125" r="4" fill="#0" id="circle29"/>
	<circle cx="391.344" cy="399.793" r="4" fill="#0" id="circle30"/>
	<circle cx="353.438" cy="394.537" r="4" fill="#0" id="circle31"/>
	<circle cx="315.532" cy="388.392" r="4" fill="#0" id="circle32"/>
	<circle cx="277.626" cy="381.58" r="4" fill="#0" id="circle33"/>
	<circle cx="239.72" cy="374.917" r="4" fill="#0" id="circle34"/>
	<circle cx="201.813" cy="368.55" r="4" fill="#0" id="circle35"/>
	<circle cx="161.174" cy="361.749" r="4" fill="#0" id="circle36"/>
	<circle cx="110.071" cy="356.65" r="4" fill="#0" id="circle37"/>
	<circle cx="75.4151" cy="361.916" r="4" fill="#0" id="circle38"/>
	<circle cx="38.3434" cy="378.101" r="4" fill="#0" id="circle39"/>
	<circle cx="4" cy="460.058" r="4" fill="#0" id="circle40"/>
	<circle cx="40.7125" cy="526.468" r="4" fill="#0" id="circle41"/>
	<circle cx="78.6186" cy="537.277" r="4" fill="#0" id="circle42"/>
	<circle cx="116.525" cy="538.239" r="4" fill="#0" id="circle43"/>
	<circle cx="154.431" cy="534.686" r="4" fill="#0" id="circle44"/>
	<circle cx="188.073" cy="526.465" r="4" fill="#0" id="circle45"/>
	<circle cx="230.243" cy="520.358" r="4" fill="#0" id="circle46"/>
	<circle cx="306.055" cy="505.294" r="4" fill="#0" id="circle47"/>
	<circle cx="343.961" cy="497.372" r="4" fill="#0" id="circle48"/>
	<circle cx="381.868" cy="490.338" r="4" fill="#0" id="circle49"/>
	<circle cx="419.774" cy="484.712" r="4" fill="#0" id="circle50"/>
	<circle cx="457.68" cy="481.528" r="4" fill="#0" id="circle51"/>
	<circle cx="495.586" cy="482.565" r="4" fill="#0" id="circle52"/>
	<circle cx="533.492" cy="491.375" r="4" fill="#0" id="circle53"/>
	<circle cx="567.844" cy="517.965" r="4" fill="#0" id="circle54"/>
	<circle cx="580.164" cy="599.718" r="4" fill="#0" id="circle55"/>
	<circle cx="550.076" cy="639.298" r="4" fill="#0" id="circle56"/>
	<circle cx="512.17" cy="656.918" r="4" fill="#0" id="circle57"/>
	<circle cx="475.857" cy="667.909" r="4" fill="#0" id="circle58"/>
	<circle cx="429.261" cy="668.223" r="4" fill="#0" id="circle59"/>
	<circle cx="367.642" cy="672.329" r="4" fill="#0" id="circle60"/>
	<circle cx="322.848" cy="667.45" r="4" fill="#0" id="circle61"/>
	<circle cx="284.733" cy="678.61" r="4" fill="#0" id="circle62"/>
	<circle cx="246.827" cy="679.277" r="4" fill="#0" id="circle63"/>
	<circle cx="208.921" cy="680.683" r="4" fill="#0" id="circle64"/>
	<circle cx="171.015" cy="683.275" r="4" fill="#0" id="circle65"/>
	<circle cx="133.109" cy="687.939" r="4" fill="#0" id="circle66"/>
	<circle cx="95.2025" cy="697.045" r="4" fill="#0" id="circle67"/>
	<circle cx="46.0885" cy="746.379" r="4" fill="#0" id="circle68"/>
	<circle cx="95.2025" cy="781.816" r="4" fill="#0" id="circle69"/>
	<circle cx="133.109" cy="780.261" r="4" fill="#0" id="circle70"/>
	<circle cx="171.015" cy="775.671" r="4" fill="#0" id="circle71"/>
	<circle cx="208.921" cy="769.23" r="4" fill="#0" id="circle72"/>
	<circle cx="246.827" cy="762.344" r="4" fill="#0" id="circle73"/>
	<circle cx="284.733" cy="755.163" r="4" fill="#0" id="circle74"/>
	<circle cx="322.639" cy="748.056" r="4" fill="#0" id="circle75"/>
	<circle cx="360.545" cy="741.392" r="4" fill="#0" id="circle76"/>
	<circle cx="416.193" cy="731.543" r="4" fill="#0" id="circle77"/>
	<circle cx="512.17" cy="730.805" r="4" fill="#0" id="circle78"/>
	<circle cx="550.076" cy="740.282" r="4" fill="#0" id="circle79"/>
	<circle cx="584.116" cy="794.007" r="4" fill="#0" id="circle80"/>
	<circle cx="538.23" cy="819.87" r="4" fill="#0" id="circle81"/>
	<circle cx="475.428" cy="821.826" r="4" fill="#0" id="circle82"/>
	<circle cx="424.512" cy="827.718" r="4" fill="#0" id="circle83"/>
	<circle cx="386.606" cy="830.161" r="4" fill="#0" id="circle84"/>
	<circle cx="348.7" cy="835.343" r="4" fill="#0" id="circle85"/>
	<circle cx="297.783" cy="880.028" r="4" fill="#0" id="circle86"/>
	<circle cx="339.223" cy="957.057" r="4" fill="#0" id="circle87"/>
	<circle cx="377.129" cy="984.821" r="4" fill="#0" id="circle88"/>
	<circle cx="415.035" cy="996" r="4" fill="#0" id="circle89"/>
	<circle cx="452.941" cy="981.119" r="4" fill="#0" id="circle90"/>
	<circle cx="484.925" cy="936.523" r="4" fill="#0" id="circle91"/>
	<circle cx="499.14" cy="896.57" r="4" fill="#0" id="circle92"/>
	<circle cx="492.045" cy="860.815" r="4" fill="#0" id="circle93"/>
	<circle cx="475.428" cy="821.826" r="4" fill="#0" id="circle94"/>
	<circle cx="444.671" cy="761.412" r="4" fill="#0" id="circle95"/>
	<circle cx="416.193" cy="731.543" r="4" fill="#0" id="circle96"/>
	<circle cx="367.642" cy="672.329" r="4" fill="#0" id="circle97"/>
	<circle cx="306.055" cy="604.021" r="4" fill="#0" id="circle98"/>
	<circle cx="273.745" cy="567.376" r="4" fill="#0" id="circle99"/>
	<circle cx="230.243" cy="520.358" r="4" fill="#0" id="circle100"/>
	<circle cx="192.33" cy="478.555" r="4" fill="#0" id="circle101"/>
	<circle cx="129.412" cy="394.465" r="4" fill="#0" id="circle102"/>
	<circle cx="110.071" cy="356.65" r="4" fill="#0" id="circle103"/>
	<circle cx="65.5884" cy="260.327" r="4" fill="#0" id="circle104"/>
	<circle cx="57.2964" cy="165.446" r="4" fill="#0" id="circle105"/>
	<circle cx="72.6958" cy="60.2669" r="4" fill="#0" id="circle106"/>
	</g>
</svg>