<?xml version="1.0" encoding="UTF-8" standalone="no"?>
<!-- Created with CurveBenchmark -->
<svg
	xmlns:dc="http://purl.org/dc/elements/1.1/"
	xmlns:cc="http://creativecommons.org/ns#"
	xmlns:rdf="http://www.w3.org/1999/02/22-rdf-syntax-ns#"
	xmlns:svg="http://www.w3.org/2000/svg"
	xmlns="http://www.w3.org/2000/svg"
	xmlns:sodipodi="http://sodipodi.sourceforge.net/DTD/sodipodi-0.dtd"
	xmlns:inkscape="http://www.inkscape.org/namespaces/inkscape"
	width="1000"
	height="1000"
	id="svg2"
	version="1.1"
	sodipodi:docname="Non-manifold/peel-nm2out.txt">
<defs
	id="defs4" />
<metadata
	id="metadata7">
	<rdf:RDF>
		<cc:Work
			rdf:about="">
			<dc:format>image/svg+xml</dc:format>
			<dc:type
				rdf:resource="http://purl.org/dc/dcmitype/StillImage" />
			<dc:title></dc:title>
		</cc:Work>
	</rdf:RDF>
</metadata>
<g
	inkscape:label="Layer 1"
	inkscape:groupmode="layer"
	id="layer1">
	<path style="fill:none;stroke:red;stroke-width:1px;stroke-linecap:butt;stroke-linejoin:miter;stroke-opacity:1" d="M 71.5459,738.916 14.6204,679.594 z" id="boundary" inkscape:connector-curvature="0" />
	<path style="fill:none;stroke:red;stroke-width:1px;stroke-linecap:butt;stroke-linejoin:miter;stroke-opacity:1" d="M 14.6204,679.594 35.4645,627.441 z" id="boundary" inkscape:connector-curvature="0" />
	<path style="fill:none;stroke:red;stroke-width:1px;stroke-linecap:butt;stroke-linejoin:miter;stroke-opacity:1" d="M 71.5459,738.916 112.795,779.441 z" id="boundary" inkscape:connector-curvature="0" />
	<path style="fill:none;stroke:red;stroke-width:1px;stroke-linecap:butt;stroke-linejoin:miter;stroke-opacity:1" d="M 26.4294,887.652 4,791.123 z" id="boundary" inkscape:connector-curvature="0" />
	<path style="fill:none;stroke:red;stroke-width:1px;stroke-linecap:butt;stroke-linejoin:miter;stroke-opacity:1" d="M 154.045,816.339 112.795,779.441 z" id="boundary" inkscape:connector-curvature="0" />
	<path style="fill:none;stroke:red;stroke-width:1px;stroke-linecap:butt;stroke-linejoin:miter;stroke-opacity:1" d="M 26.4294,887.652 63.8116,939.282 z" id="boundary" inkscape:connector-curvature="0" />
	<path style="fill:none;stroke:red;stroke-width:1px;stroke-linecap:butt;stroke-linejoin:miter;stroke-opacity:1" d="M 154.045,816.339 195.294,848.968 z" id="boundary" inkscape:connector-curvature="0" />
	<path style="fill:none;stroke:red;stroke-width:1px;stroke-linecap:butt;stroke-linejoin:miter;stroke-opacity:1" d="M 63.8116,939.282 105.061,971.992 z" id="boundary" inkscape:connector-curvature="0" />
	<path style="fill:none;stroke:red;stroke-width:1px;stroke-linecap:butt;stroke-linejoin:miter;stroke-opacity:1" d="M 305.413,958.035 340.425,929.935 z" id="boundary" inkscape:connector-curvature="0" />
	<path style="fill:none;stroke:red;stroke-width:1px;stroke-linecap:butt;stroke-linejoin:miter;stroke-opacity:1" d="M 105.061,971.992 146.31,990.199 z" id="boundary" inkscape:connector-curvature="0" />
	<path style="fill:none;stroke:red;stroke-width:1px;stroke-linecap:butt;stroke-linejoin:miter;stroke-opacity:1" d="M 664.506,811.103 623.257,812.875 z" id="boundary" inkscape:connector-curvature="0" />
	<path style="fill:none;stroke:red;stroke-width:1px;stroke-linecap:butt;stroke-linejoin:miter;stroke-opacity:1" d="M 375.76,904.8 417.01,865.243 z" id="boundary" inkscape:connector-curvature="0" />
	<path style="fill:none;stroke:red;stroke-width:1px;stroke-linecap:butt;stroke-linejoin:miter;stroke-opacity:1" d="M 340.425,929.935 375.76,904.8 z" id="boundary" inkscape:connector-curvature="0" />
	<path style="fill:none;stroke:red;stroke-width:1px;stroke-linecap:butt;stroke-linejoin:miter;stroke-opacity:1" d="M 582.007,797.89 623.257,812.875 z" id="boundary" inkscape:connector-curvature="0" />
	<path style="fill:none;stroke:red;stroke-width:1px;stroke-linecap:butt;stroke-linejoin:miter;stroke-opacity:1" d="M 35.4645,627.441 54.0234,573.25 z" id="boundary" inkscape:connector-curvature="0" />
	<path style="fill:none;stroke:red;stroke-width:1px;stroke-linecap:butt;stroke-linejoin:miter;stroke-opacity:1" d="M 458.259,822.06 417.01,865.243 z" id="boundary" inkscape:connector-curvature="0" />
	<path style="fill:none;stroke:red;stroke-width:1px;stroke-linecap:butt;stroke-linejoin:miter;stroke-opacity:1" d="M 164.357,447.51 205.606,476.274 z" id="boundary" inkscape:connector-curvature="0" />
	<path style="fill:none;stroke:red;stroke-width:1px;stroke-linecap:butt;stroke-linejoin:miter;stroke-opacity:1" d="M 495.212,780.81 515.355,752.689 z" id="boundary" inkscape:connector-curvature="0" />
	<path style="fill:none;stroke:red;stroke-width:1px;stroke-linecap:butt;stroke-linejoin:miter;stroke-opacity:1" d="M 128.264,633.215 169.513,665.441 z" id="boundary" inkscape:connector-curvature="0" />
	<path style="fill:none;stroke:red;stroke-width:1px;stroke-linecap:butt;stroke-linejoin:miter;stroke-opacity:1" d="M 515.355,752.689 540.336,730.335 z" id="boundary" inkscape:connector-curvature="0" />
	<path style="fill:none;stroke:red;stroke-width:1px;stroke-linecap:butt;stroke-linejoin:miter;stroke-opacity:1" d="M 411.854,658.996 453.103,698.07 z" id="boundary" inkscape:connector-curvature="0" />
	<path style="fill:none;stroke:red;stroke-width:1px;stroke-linecap:butt;stroke-linejoin:miter;stroke-opacity:1" d="M 906.846,323.925 866.628,369.71 z" id="boundary" inkscape:connector-curvature="0" />
	<path style="fill:none;stroke:red;stroke-width:1px;stroke-linecap:butt;stroke-linejoin:miter;stroke-opacity:1" d="M 293.261,767.517 329.355,821.028 z" id="boundary" inkscape:connector-curvature="0" />
	<path style="fill:none;stroke:red;stroke-width:1px;stroke-linecap:butt;stroke-linejoin:miter;stroke-opacity:1" d="M 329.355,578.994 288.105,541.048 z" id="boundary" inkscape:connector-curvature="0" />
	<path style="fill:none;stroke:red;stroke-width:1px;stroke-linecap:butt;stroke-linejoin:miter;stroke-opacity:1" d="M 783.098,446.223 744.943,485.361 z" id="boundary" inkscape:connector-curvature="0" />
	<path style="fill:none;stroke:red;stroke-width:1px;stroke-linecap:butt;stroke-linejoin:miter;stroke-opacity:1" d="M 252.012,730.215 210.763,697.183 z" id="boundary" inkscape:connector-curvature="0" />
	<path style="fill:none;stroke:red;stroke-width:1px;stroke-linecap:butt;stroke-linejoin:miter;stroke-opacity:1" d="M 783.098,539.276 824.348,535.328 z" id="boundary" inkscape:connector-curvature="0" />
	<path style="fill:none;stroke:red;stroke-width:1px;stroke-linecap:butt;stroke-linejoin:miter;stroke-opacity:1" d="M 629.915,617.049 576.851,583.807 z" id="boundary" inkscape:connector-curvature="0" />
	<path style="fill:none;stroke:red;stroke-width:1px;stroke-linecap:butt;stroke-linejoin:miter;stroke-opacity:1" d="M 535.602,559.82 576.851,583.807 z" id="boundary" inkscape:connector-curvature="0" />
	<path style="fill:none;stroke:red;stroke-width:1px;stroke-linecap:butt;stroke-linejoin:miter;stroke-opacity:1" d="M 931.338,297.204 961.223,253.652 z" id="boundary" inkscape:connector-curvature="0" />
	<path style="fill:none;stroke:red;stroke-width:1px;stroke-linecap:butt;stroke-linejoin:miter;stroke-opacity:1" d="M 744.943,485.361 707.163,521.002 z" id="boundary" inkscape:connector-curvature="0" />
	<path style="fill:none;stroke:red;stroke-width:1px;stroke-linecap:butt;stroke-linejoin:miter;stroke-opacity:1" d="M 453.103,519.779 411.854,500.121 z" id="boundary" inkscape:connector-curvature="0" />
	<path style="fill:none;stroke:red;stroke-width:1px;stroke-linecap:butt;stroke-linejoin:miter;stroke-opacity:1" d="M 540.336,730.335 580.718,675.409 z" id="boundary" inkscape:connector-curvature="0" />
	<path style="fill:none;stroke:red;stroke-width:1px;stroke-linecap:butt;stroke-linejoin:miter;stroke-opacity:1" d="M 838.286,397.117 798.567,361.135 z" id="boundary" inkscape:connector-curvature="0" />
	<path style="fill:none;stroke:red;stroke-width:1px;stroke-linecap:butt;stroke-linejoin:miter;stroke-opacity:1" d="M 838.286,397.117 866.628,369.71 z" id="boundary" inkscape:connector-curvature="0" />
	<path style="fill:none;stroke:red;stroke-width:1px;stroke-linecap:butt;stroke-linejoin:miter;stroke-opacity:1" d="M 723.802,728.414 699.31,672.468 z" id="boundary" inkscape:connector-curvature="0" />
	<path style="fill:none;stroke:red;stroke-width:1px;stroke-linecap:butt;stroke-linejoin:miter;stroke-opacity:1" d="M 798.567,361.135 757.317,329.323 z" id="boundary" inkscape:connector-curvature="0" />
	<path style="fill:none;stroke:red;stroke-width:1px;stroke-linecap:butt;stroke-linejoin:miter;stroke-opacity:1" d="M 741.849,124.203 783.098,143.378 z" id="boundary" inkscape:connector-curvature="0" />
	<path style="fill:none;stroke:red;stroke-width:1px;stroke-linecap:butt;stroke-linejoin:miter;stroke-opacity:1" d="M 975.166,218.916 977.744,158.662 z" id="boundary" inkscape:connector-curvature="0" />
	<path style="fill:none;stroke:red;stroke-width:1px;stroke-linecap:butt;stroke-linejoin:miter;stroke-opacity:1" d="M 716.068,301.205 674.819,272.202 z" id="boundary" inkscape:connector-curvature="0" />
	<path style="fill:none;stroke:red;stroke-width:1px;stroke-linecap:butt;stroke-linejoin:miter;stroke-opacity:1" d="M 716.068,301.205 757.317,329.323 z" id="boundary" inkscape:connector-curvature="0" />
	<path style="fill:none;stroke:red;stroke-width:1px;stroke-linecap:butt;stroke-linejoin:miter;stroke-opacity:1" d="M 783.098,143.378 824.348,164.969 z" id="boundary" inkscape:connector-curvature="0" />
	<path style="fill:none;stroke:red;stroke-width:1px;stroke-linecap:butt;stroke-linejoin:miter;stroke-opacity:1" d="M 741.849,124.203 700.599,109.138 z" id="boundary" inkscape:connector-curvature="0" />
	<path style="fill:none;stroke:red;stroke-width:1px;stroke-linecap:butt;stroke-linejoin:miter;stroke-opacity:1" d="M 948.096,96.5695 906.846,56.0452 z" id="boundary" inkscape:connector-curvature="0" />
	<path style="fill:none;stroke:red;stroke-width:1px;stroke-linecap:butt;stroke-linejoin:miter;stroke-opacity:1" d="M 700.599,109.138 659.35,99.7921 z" id="boundary" inkscape:connector-curvature="0" />
	<path style="fill:none;stroke:red;stroke-width:1px;stroke-linecap:butt;stroke-linejoin:miter;stroke-opacity:1" d="M 621.349,31.6309 659.35,17.1321 z" id="boundary" inkscape:connector-curvature="0" />
	<path style="fill:none;stroke:red;stroke-width:1px;stroke-linecap:butt;stroke-linejoin:miter;stroke-opacity:1" d="M 824.348,13.9095 865.597,30.0226 z" id="boundary" inkscape:connector-curvature="0" />
	<path style="fill:none;stroke:red;stroke-width:1px;stroke-linecap:butt;stroke-linejoin:miter;stroke-opacity:1" d="M 579.497,52.0769 535.602,68.6939 z" id="boundary" inkscape:connector-curvature="0" />
	<path style="fill:none;stroke:red;stroke-width:1px;stroke-linecap:butt;stroke-linejoin:miter;stroke-opacity:1" d="M 579.497,52.0769 621.349,31.6309 z" id="boundary" inkscape:connector-curvature="0" />
	<path style="fill:none;stroke:red;stroke-width:1px;stroke-linecap:butt;stroke-linejoin:miter;stroke-opacity:1" d="M 783.098,5.61131 824.348,13.9095 z" id="boundary" inkscape:connector-curvature="0" />
	<path style="fill:none;stroke:red;stroke-width:1px;stroke-linecap:butt;stroke-linejoin:miter;stroke-opacity:1" d="M 535.602,389.988 494.352,355.426 z" id="boundary" inkscape:connector-curvature="0" />
	<path style="fill:none;stroke:red;stroke-width:1px;stroke-linecap:butt;stroke-linejoin:miter;stroke-opacity:1" d="M 411.854,151.273 453.103,120.578 z" id="boundary" inkscape:connector-curvature="0" />
	<path style="fill:none;stroke:red;stroke-width:1px;stroke-linecap:butt;stroke-linejoin:miter;stroke-opacity:1" d="M 582.392,161.845 633.569,239.412 z" id="boundary" inkscape:connector-curvature="0" />
	<path style="fill:none;stroke:red;stroke-width:1px;stroke-linecap:butt;stroke-linejoin:miter;stroke-opacity:1" d="M 373.23,187.225 411.854,151.273 z" id="boundary" inkscape:connector-curvature="0" />
	<path style="fill:none;stroke:red;stroke-width:1px;stroke-linecap:butt;stroke-linejoin:miter;stroke-opacity:1" d="M 246.856,184.144 205.606,177.538 z" id="boundary" inkscape:connector-curvature="0" />
	<path style="fill:none;stroke:red;stroke-width:1px;stroke-linecap:butt;stroke-linejoin:miter;stroke-opacity:1" d="M 707.163,521.002 659.35,489.139 z" id="boundary" inkscape:connector-curvature="0" />
	<path style="fill:none;stroke:red;stroke-width:1px;stroke-linecap:butt;stroke-linejoin:miter;stroke-opacity:1" d="M 205.606,177.538 164.357,189.139 z" id="boundary" inkscape:connector-curvature="0" />
	<path style="fill:none;stroke:red;stroke-width:1px;stroke-linecap:butt;stroke-linejoin:miter;stroke-opacity:1" d="M 114.996,269.531 164.357,189.139 z" id="boundary" inkscape:connector-curvature="0" />
	<path style="fill:none;stroke:red;stroke-width:1px;stroke-linecap:butt;stroke-linejoin:miter;stroke-opacity:1" d="M 576.851,423.906 618.101,455.891 z" id="boundary" inkscape:connector-curvature="0" />
	<path style="fill:none;stroke:red;stroke-width:1px;stroke-linecap:butt;stroke-linejoin:miter;stroke-opacity:1" d="M 136.791,332.524 190.323,372.771 z" id="boundary" inkscape:connector-curvature="0" />
	<path style="fill:none;stroke:red;stroke-width:1px;stroke-linecap:butt;stroke-linejoin:miter;stroke-opacity:1" d="M 370.604,480.221 411.854,500.121 z" id="boundary" inkscape:connector-curvature="0" />
	<path style="fill:none;stroke:red;stroke-width:1px;stroke-linecap:butt;stroke-linejoin:miter;stroke-opacity:1" d="M 329.355,224.024 373.23,187.225 z" id="boundary" inkscape:connector-curvature="0" />
	<path style="fill:none;stroke:red;stroke-width:1px;stroke-linecap:butt;stroke-linejoin:miter;stroke-opacity:1" d="M 133.784,440.804 119.475,475.172 z" id="boundary" inkscape:connector-curvature="0" />
	<path style="fill:none;stroke:red;stroke-width:1px;stroke-linecap:butt;stroke-linejoin:miter;stroke-opacity:1" d="M 119.475,475.172 77.076,443.759 z" id="boundary" inkscape:connector-curvature="0" />
	<path style="fill:none;stroke:red;stroke-width:1px;stroke-linecap:butt;stroke-linejoin:miter;stroke-opacity:1" d="M 370.604,618.068 411.854,658.996 z" id="boundary" inkscape:connector-curvature="0" />
	<path style="fill:none;stroke:red;stroke-width:1px;stroke-linecap:butt;stroke-linejoin:miter;stroke-opacity:1" d="M 77.076,443.759 23.8257,501.481 z" id="boundary" inkscape:connector-curvature="0" />
	<path style="fill:none;stroke:red;stroke-width:1px;stroke-linecap:butt;stroke-linejoin:miter;stroke-opacity:1" d="M 86.7075,528.62 54.0234,573.25 z" id="boundary" inkscape:connector-curvature="0" />
	<path style="fill:none;stroke:red;stroke-width:1px;stroke-linecap:butt;stroke-linejoin:miter;stroke-opacity:1" d="M 288.105,541.048 246.856,506.324 z" id="boundary" inkscape:connector-curvature="0" />
	<path style="fill:none;stroke:red;stroke-width:1px;stroke-linecap:butt;stroke-linejoin:miter;stroke-opacity:1" d="M 195.294,848.968 236.544,875.958 z" id="boundary" inkscape:connector-curvature="0" />
	<path style="fill:none;stroke:red;stroke-width:1px;stroke-linecap:butt;stroke-linejoin:miter;stroke-opacity:1" d="M 146.31,990.199 187.56,996 z" id="boundary" inkscape:connector-curvature="0" />
	<path style="fill:none;stroke:red;stroke-width:1px;stroke-linecap:butt;stroke-linejoin:miter;stroke-opacity:1" d="M 187.56,996 228.809,991.247 z" id="boundary" inkscape:connector-curvature="0" />
	<path style="fill:none;stroke:red;stroke-width:1px;stroke-linecap:butt;stroke-linejoin:miter;stroke-opacity:1" d="M 270.059,976.825 228.809,991.247 z" id="boundary" inkscape:connector-curvature="0" />
	<path style="fill:none;stroke:red;stroke-width:1px;stroke-linecap:butt;stroke-linejoin:miter;stroke-opacity:1" d="M 305.413,958.035 270.059,976.825 z" id="boundary" inkscape:connector-curvature="0" />
	<path style="fill:none;stroke:red;stroke-width:1px;stroke-linecap:butt;stroke-linejoin:miter;stroke-opacity:1" d="M 277.793,892.474 236.544,875.958 z" id="boundary" inkscape:connector-curvature="0" />
	<path style="fill:none;stroke:red;stroke-width:1px;stroke-linecap:butt;stroke-linejoin:miter;stroke-opacity:1" d="M 246.856,506.324 205.606,476.274 z" id="boundary" inkscape:connector-curvature="0" />
	<path style="fill:none;stroke:red;stroke-width:1px;stroke-linecap:butt;stroke-linejoin:miter;stroke-opacity:1" d="M 293.261,767.517 252.012,730.215 z" id="boundary" inkscape:connector-curvature="0" />
	<path style="fill:none;stroke:red;stroke-width:1px;stroke-linecap:butt;stroke-linejoin:miter;stroke-opacity:1" d="M 133.784,440.804 164.357,447.51 z" id="boundary" inkscape:connector-curvature="0" />
	<path style="fill:none;stroke:red;stroke-width:1px;stroke-linecap:butt;stroke-linejoin:miter;stroke-opacity:1" d="M 210.763,697.183 169.513,665.441 z" id="boundary" inkscape:connector-curvature="0" />
	<path style="fill:none;stroke:red;stroke-width:1px;stroke-linecap:butt;stroke-linejoin:miter;stroke-opacity:1" d="M 114.996,269.531 136.791,332.524 z" id="boundary" inkscape:connector-curvature="0" />
	<path style="fill:none;stroke:red;stroke-width:1px;stroke-linecap:butt;stroke-linejoin:miter;stroke-opacity:1" d="M 190.323,372.771 246.856,415.527 z" id="boundary" inkscape:connector-curvature="0" />
	<path style="fill:none;stroke:red;stroke-width:1px;stroke-linecap:butt;stroke-linejoin:miter;stroke-opacity:1" d="M 288.105,438.73 329.355,460.322 z" id="boundary" inkscape:connector-curvature="0" />
	<path style="fill:none;stroke:red;stroke-width:1px;stroke-linecap:butt;stroke-linejoin:miter;stroke-opacity:1" d="M 370.604,618.068 329.355,578.994 z" id="boundary" inkscape:connector-curvature="0" />
	<path style="fill:none;stroke:red;stroke-width:1px;stroke-linecap:butt;stroke-linejoin:miter;stroke-opacity:1" d="M 370.604,480.221 329.355,460.322 z" id="boundary" inkscape:connector-curvature="0" />
	<path style="fill:none;stroke:red;stroke-width:1px;stroke-linecap:butt;stroke-linejoin:miter;stroke-opacity:1" d="M 495.212,780.81 458.259,822.06 z" id="boundary" inkscape:connector-curvature="0" />
	<path style="fill:none;stroke:red;stroke-width:1px;stroke-linecap:butt;stroke-linejoin:miter;stroke-opacity:1" d="M 664.506,811.103 703.178,782.928 z" id="boundary" inkscape:connector-curvature="0" />
	<path style="fill:none;stroke:red;stroke-width:1px;stroke-linecap:butt;stroke-linejoin:miter;stroke-opacity:1" d="M 866.28,500.732 887.511,465.639 z" id="boundary" inkscape:connector-curvature="0" />
	<path style="fill:none;stroke:red;stroke-width:1px;stroke-linecap:butt;stroke-linejoin:miter;stroke-opacity:1" d="M 906.846,323.925 931.338,297.204 z" id="boundary" inkscape:connector-curvature="0" />
	<path style="fill:none;stroke:red;stroke-width:1px;stroke-linecap:butt;stroke-linejoin:miter;stroke-opacity:1" d="M 703.178,782.928 723.802,728.414 z" id="boundary" inkscape:connector-curvature="0" />
	<path style="fill:none;stroke:red;stroke-width:1px;stroke-linecap:butt;stroke-linejoin:miter;stroke-opacity:1" d="M 629.915,617.049 662.787,576.954 z" id="boundary" inkscape:connector-curvature="0" />
	<path style="fill:none;stroke:red;stroke-width:1px;stroke-linecap:butt;stroke-linejoin:miter;stroke-opacity:1" d="M 633.569,239.412 674.819,272.202 z" id="boundary" inkscape:connector-curvature="0" />
	<path style="fill:none;stroke:red;stroke-width:1px;stroke-linecap:butt;stroke-linejoin:miter;stroke-opacity:1" d="M 494.352,539.356 535.602,559.82 z" id="boundary" inkscape:connector-curvature="0" />
	<path style="fill:none;stroke:red;stroke-width:1px;stroke-linecap:butt;stroke-linejoin:miter;stroke-opacity:1" d="M 453.103,320.863 411.854,287.026 z" id="boundary" inkscape:connector-curvature="0" />
	<path style="fill:none;stroke:red;stroke-width:1px;stroke-linecap:butt;stroke-linejoin:miter;stroke-opacity:1" d="M 453.103,519.779 494.352,539.356 z" id="boundary" inkscape:connector-curvature="0" />
	<path style="fill:none;stroke:red;stroke-width:1px;stroke-linecap:butt;stroke-linejoin:miter;stroke-opacity:1" d="M 279.082,272.139 246.856,306.925 z" id="boundary" inkscape:connector-curvature="0" />
	<path style="fill:none;stroke:red;stroke-width:1px;stroke-linecap:butt;stroke-linejoin:miter;stroke-opacity:1" d="M 246.856,415.527 288.105,438.73 z" id="boundary" inkscape:connector-curvature="0" />
	<path style="fill:none;stroke:red;stroke-width:1px;stroke-linecap:butt;stroke-linejoin:miter;stroke-opacity:1" d="M 288.105,202.765 329.355,224.024 z" id="boundary" inkscape:connector-curvature="0" />
	<path style="fill:none;stroke:red;stroke-width:1px;stroke-linecap:butt;stroke-linejoin:miter;stroke-opacity:1" d="M 494.352,93.0246 535.602,68.6939 z" id="boundary" inkscape:connector-curvature="0" />
	<path style="fill:none;stroke:red;stroke-width:1px;stroke-linecap:butt;stroke-linejoin:miter;stroke-opacity:1" d="M 494.352,93.0246 453.103,120.578 z" id="boundary" inkscape:connector-curvature="0" />
	<path style="fill:none;stroke:red;stroke-width:1px;stroke-linecap:butt;stroke-linejoin:miter;stroke-opacity:1" d="M 288.105,202.765 246.856,184.144 z" id="boundary" inkscape:connector-curvature="0" />
	<path style="fill:none;stroke:red;stroke-width:1px;stroke-linecap:butt;stroke-linejoin:miter;stroke-opacity:1" d="M 453.103,320.863 494.352,355.426 z" id="boundary" inkscape:connector-curvature="0" />
	<path style="fill:none;stroke:red;stroke-width:1px;stroke-linecap:butt;stroke-linejoin:miter;stroke-opacity:1" d="M 576.851,423.906 535.602,389.988 z" id="boundary" inkscape:connector-curvature="0" />
	<path style="fill:none;stroke:red;stroke-width:1px;stroke-linecap:butt;stroke-linejoin:miter;stroke-opacity:1" d="M 659.35,489.139 618.101,455.891 z" id="boundary" inkscape:connector-curvature="0" />
	<path style="fill:none;stroke:red;stroke-width:1px;stroke-linecap:butt;stroke-linejoin:miter;stroke-opacity:1" d="M 824.348,535.328 866.28,500.732 z" id="boundary" inkscape:connector-curvature="0" />
	<path style="fill:none;stroke:red;stroke-width:1px;stroke-linecap:butt;stroke-linejoin:miter;stroke-opacity:1" d="M 961.223,253.652 975.166,218.916 z" id="boundary" inkscape:connector-curvature="0" />
	<path style="fill:none;stroke:red;stroke-width:1px;stroke-linecap:butt;stroke-linejoin:miter;stroke-opacity:1" d="M 741.849,4 783.098,5.61131 z" id="boundary" inkscape:connector-curvature="0" />
	<path style="fill:none;stroke:red;stroke-width:1px;stroke-linecap:butt;stroke-linejoin:miter;stroke-opacity:1" d="M 700.599,8.02826 659.35,17.1321 z" id="boundary" inkscape:connector-curvature="0" />
	<path style="fill:none;stroke:red;stroke-width:1px;stroke-linecap:butt;stroke-linejoin:miter;stroke-opacity:1" d="M 700.599,8.02826 741.849,4 z" id="boundary" inkscape:connector-curvature="0" />
	<path style="fill:none;stroke:red;stroke-width:1px;stroke-linecap:butt;stroke-linejoin:miter;stroke-opacity:1" d="M 906.846,56.0452 865.597,30.0226 z" id="boundary" inkscape:connector-curvature="0" />
	<path style="fill:none;stroke:red;stroke-width:1px;stroke-linecap:butt;stroke-linejoin:miter;stroke-opacity:1" d="M 977.744,158.662 948.096,96.5695 z" id="boundary" inkscape:connector-curvature="0" />
	<path style="fill:none;stroke:red;stroke-width:1px;stroke-linecap:butt;stroke-linejoin:miter;stroke-opacity:1" d="M 865.597,188.978 824.348,164.969 z" id="boundary" inkscape:connector-curvature="0" />
	<path style="fill:none;stroke:red;stroke-width:1px;stroke-linecap:butt;stroke-linejoin:miter;stroke-opacity:1" d="M 865.597,188.978 906.846,214.598 z" id="boundary" inkscape:connector-curvature="0" />
	<circle cx="14.6204" cy="679.594" r="4" fill="#0" id="circle0"/>
	<circle cx="4" cy="791.123" r="4" fill="#0" id="circle1"/>
	<circle cx="26.4294" cy="887.652" r="4" fill="#0" id="circle2"/>
	<circle cx="63.8116" cy="939.282" r="4" fill="#0" id="circle3"/>
	<circle cx="105.061" cy="971.992" r="4" fill="#0" id="circle4"/>
	<circle cx="146.31" cy="990.199" r="4" fill="#0" id="circle5"/>
	<circle cx="187.56" cy="996" r="4" fill="#0" id="circle6"/>
	<circle cx="228.809" cy="991.247" r="4" fill="#0" id="circle7"/>
	<circle cx="270.059" cy="976.825" r="4" fill="#0" id="circle8"/>
	<circle cx="305.413" cy="958.035" r="4" fill="#0" id="circle9"/>
	<circle cx="340.425" cy="929.935" r="4" fill="#0" id="circle10"/>
	<circle cx="375.76" cy="904.8" r="4" fill="#0" id="circle11"/>
	<circle cx="417.01" cy="865.243" r="4" fill="#0" id="circle12"/>
	<circle cx="458.259" cy="822.06" r="4" fill="#0" id="circle13"/>
	<circle cx="495.212" cy="780.81" r="4" fill="#0" id="circle14"/>
	<circle cx="515.355" cy="752.689" r="4" fill="#0" id="circle15"/>
	<circle cx="540.336" cy="730.335" r="4" fill="#0" id="circle16"/>
	<circle cx="580.718" cy="675.409" r="4" fill="#0" id="circle17"/>
	<circle cx="629.915" cy="617.049" r="4" fill="#0" id="circle18"/>
	<circle cx="662.787" cy="576.954" r="4" fill="#0" id="circle19"/>
	<circle cx="707.163" cy="521.002" r="4" fill="#0" id="circle20"/>
	<circle cx="744.943" cy="485.361" r="4" fill="#0" id="circle21"/>
	<circle cx="783.098" cy="446.223" r="4" fill="#0" id="circle22"/>
	<circle cx="838.286" cy="397.117" r="4" fill="#0" id="circle23"/>
	<circle cx="866.628" cy="369.71" r="4" fill="#0" id="circle24"/>
	<circle cx="906.846" cy="323.925" r="4" fill="#0" id="circle25"/>
	<circle cx="931.338" cy="297.204" r="4" fill="#0" id="circle26"/>
	<circle cx="961.223" cy="253.652" r="4" fill="#0" id="circle27"/>
	<circle cx="975.166" cy="218.916" r="4" fill="#0" id="circle28"/>
	<circle cx="977.744" cy="158.662" r="4" fill="#0" id="circle29"/>
	<circle cx="948.096" cy="96.5695" r="4" fill="#0" id="circle30"/>
	<circle cx="906.846" cy="56.0452" r="4" fill="#0" id="circle31"/>
	<circle cx="865.597" cy="30.0226" r="4" fill="#0" id="circle32"/>
	<circle cx="824.348" cy="13.9095" r="4" fill="#0" id="circle33"/>
	<circle cx="783.098" cy="5.61131" r="4" fill="#0" id="circle34"/>
	<circle cx="741.849" cy="4" r="4" fill="#0" id="circle35"/>
	<circle cx="700.599" cy="8.02826" r="4" fill="#0" id="circle36"/>
	<circle cx="659.35" cy="17.1321" r="4" fill="#0" id="circle37"/>
	<circle cx="621.349" cy="31.6309" r="4" fill="#0" id="circle38"/>
	<circle cx="579.497" cy="52.0769" r="4" fill="#0" id="circle39"/>
	<circle cx="535.602" cy="68.6939" r="4" fill="#0" id="circle40"/>
	<circle cx="494.352" cy="93.0246" r="4" fill="#0" id="circle41"/>
	<circle cx="453.103" cy="120.578" r="4" fill="#0" id="circle42"/>
	<circle cx="411.854" cy="151.273" r="4" fill="#0" id="circle43"/>
	<circle cx="373.23" cy="187.225" r="4" fill="#0" id="circle44"/>
	<circle cx="329.355" cy="224.024" r="4" fill="#0" id="circle45"/>
	<circle cx="279.082" cy="272.139" r="4" fill="#0" id="circle46"/>
	<circle cx="246.856" cy="306.925" r="4" fill="#0" id="circle47"/>
	<circle cx="190.323" cy="372.771" r="4" fill="#0" id="circle48"/>
	<circle cx="133.784" cy="440.804" r="4" fill="#0" id="circle49"/>
	<circle cx="119.475" cy="475.172" r="4" fill="#0" id="circle50"/>
	<circle cx="86.7075" cy="528.62" r="4" fill="#0" id="circle51"/>
	<circle cx="54.0234" cy="573.25" r="4" fill="#0" id="circle52"/>
	<circle cx="35.4645" cy="627.441" r="4" fill="#0" id="circle53"/>
	<circle cx="14.6204" cy="679.594" r="4" fill="#0" id="circle54"/>
	<circle cx="71.5459" cy="738.916" r="4" fill="#0" id="circle55"/>
	<circle cx="112.795" cy="779.441" r="4" fill="#0" id="circle56"/>
	<circle cx="154.045" cy="816.339" r="4" fill="#0" id="circle57"/>
	<circle cx="195.294" cy="848.968" r="4" fill="#0" id="circle58"/>
	<circle cx="236.544" cy="875.958" r="4" fill="#0" id="circle59"/>
	<circle cx="277.793" cy="892.474" r="4" fill="#0" id="circle60"/>
	<circle cx="329.355" cy="821.028" r="4" fill="#0" id="circle61"/>
	<circle cx="293.261" cy="767.517" r="4" fill="#0" id="circle62"/>
	<circle cx="252.012" cy="730.215" r="4" fill="#0" id="circle63"/>
	<circle cx="210.763" cy="697.183" r="4" fill="#0" id="circle64"/>
	<circle cx="169.513" cy="665.441" r="4" fill="#0" id="circle65"/>
	<circle cx="128.264" cy="633.215" r="4" fill="#0" id="circle66"/>
	<circle cx="54.0234" cy="573.25" r="4" fill="#0" id="circle67"/>
	<circle cx="23.8257" cy="501.481" r="4" fill="#0" id="circle68"/>
	<circle cx="77.076" cy="443.759" r="4" fill="#0" id="circle69"/>
	<circle cx="133.784" cy="440.804" r="4" fill="#0" id="circle70"/>
	<circle cx="164.357" cy="447.51" r="4" fill="#0" id="circle71"/>
	<circle cx="205.606" cy="476.274" r="4" fill="#0" id="circle72"/>
	<circle cx="246.856" cy="506.324" r="4" fill="#0" id="circle73"/>
	<circle cx="288.105" cy="541.048" r="4" fill="#0" id="circle74"/>
	<circle cx="329.355" cy="578.994" r="4" fill="#0" id="circle75"/>
	<circle cx="370.604" cy="618.068" r="4" fill="#0" id="circle76"/>
	<circle cx="411.854" cy="658.996" r="4" fill="#0" id="circle77"/>
	<circle cx="453.103" cy="698.07" r="4" fill="#0" id="circle78"/>
	<circle cx="515.355" cy="752.689" r="4" fill="#0" id="circle79"/>
	<circle cx="582.007" cy="797.89" r="4" fill="#0" id="circle80"/>
	<circle cx="623.257" cy="812.875" r="4" fill="#0" id="circle81"/>
	<circle cx="664.506" cy="811.103" r="4" fill="#0" id="circle82"/>
	<circle cx="703.178" cy="782.928" r="4" fill="#0" id="circle83"/>
	<circle cx="723.802" cy="728.414" r="4" fill="#0" id="circle84"/>
	<circle cx="699.31" cy="672.468" r="4" fill="#0" id="circle85"/>
	<circle cx="629.915" cy="617.049" r="4" fill="#0" id="circle86"/>
	<circle cx="576.851" cy="583.807" r="4" fill="#0" id="circle87"/>
	<circle cx="535.602" cy="559.82" r="4" fill="#0" id="circle88"/>
	<circle cx="494.352" cy="539.356" r="4" fill="#0" id="circle89"/>
	<circle cx="453.103" cy="519.779" r="4" fill="#0" id="circle90"/>
	<circle cx="411.854" cy="500.121" r="4" fill="#0" id="circle91"/>
	<circle cx="370.604" cy="480.221" r="4" fill="#0" id="circle92"/>
	<circle cx="329.355" cy="460.322" r="4" fill="#0" id="circle93"/>
	<circle cx="288.105" cy="438.73" r="4" fill="#0" id="circle94"/>
	<circle cx="246.856" cy="415.527" r="4" fill="#0" id="circle95"/>
	<circle cx="190.323" cy="372.771" r="4" fill="#0" id="circle96"/>
	<circle cx="136.791" cy="332.524" r="4" fill="#0" id="circle97"/>
	<circle cx="114.996" cy="269.531" r="4" fill="#0" id="circle98"/>
	<circle cx="164.357" cy="189.139" r="4" fill="#0" id="circle99"/>
	<circle cx="205.606" cy="177.538" r="4" fill="#0" id="circle100"/>
	<circle cx="246.856" cy="184.144" r="4" fill="#0" id="circle101"/>
	<circle cx="288.105" cy="202.765" r="4" fill="#0" id="circle102"/>
	<circle cx="329.355" cy="224.024" r="4" fill="#0" id="circle103"/>
	<circle cx="411.854" cy="287.026" r="4" fill="#0" id="circle104"/>
	<circle cx="453.103" cy="320.863" r="4" fill="#0" id="circle105"/>
	<circle cx="494.352" cy="355.426" r="4" fill="#0" id="circle106"/>
	<circle cx="535.602" cy="389.988" r="4" fill="#0" id="circle107"/>
	<circle cx="576.851" cy="423.906" r="4" fill="#0" id="circle108"/>
	<circle cx="618.101" cy="455.891" r="4" fill="#0" id="circle109"/>
	<circle cx="659.35" cy="489.139" r="4" fill="#0" id="circle110"/>
	<circle cx="707.163" cy="521.002" r="4" fill="#0" id="circle111"/>
	<circle cx="783.098" cy="539.276" r="4" fill="#0" id="circle112"/>
	<circle cx="824.348" cy="535.328" r="4" fill="#0" id="circle113"/>
	<circle cx="866.28" cy="500.732" r="4" fill="#0" id="circle114"/>
	<circle cx="887.511" cy="465.639" r="4" fill="#0" id="circle115"/>
	<circle cx="838.286" cy="397.117" r="4" fill="#0" id="circle116"/>
	<circle cx="798.567" cy="361.135" r="4" fill="#0" id="circle117"/>
	<circle cx="757.317" cy="329.323" r="4" fill="#0" id="circle118"/>
	<circle cx="716.068" cy="301.205" r="4" fill="#0" id="circle119"/>
	<circle cx="674.819" cy="272.202" r="4" fill="#0" id="circle120"/>
	<circle cx="633.569" cy="239.412" r="4" fill="#0" id="circle121"/>
	<circle cx="582.392" cy="161.845" r="4" fill="#0" id="circle122"/>
	<circle cx="659.35" cy="99.7921" r="4" fill="#0" id="circle123"/>
	<circle cx="700.599" cy="109.138" r="4" fill="#0" id="circle124"/>
	<circle cx="741.849" cy="124.203" r="4" fill="#0" id="circle125"/>
	<circle cx="783.098" cy="143.378" r="4" fill="#0" id="circle126"/>
	<circle cx="824.348" cy="164.969" r="4" fill="#0" id="circle127"/>
	<circle cx="865.597" cy="188.978" r="4" fill="#0" id="circle128"/>
	<circle cx="906.846" cy="214.598" r="4" fill="#0" id="circle129"/>
	<circle cx="961.223" cy="253.652" r="4" fill="#0" id="circle130"/>
	</g>
</svg>