<?xml version="1.0" encoding="UTF-8" standalone="no"?>
<!-- Created with CurveBenchmark -->
<svg
	xmlns:dc="http://purl.org/dc/elements/1.1/"
	xmlns:cc="http://creativecommons.org/ns#"
	xmlns:rdf="http://www.w3.org/1999/02/22-rdf-syntax-ns#"
	xmlns:svg="http://www.w3.org/2000/svg"
	xmlns="http://www.w3.org/2000/svg"
	xmlns:sodipodi="http://sodipodi.sourceforge.net/DTD/sodipodi-0.dtd"
	xmlns:inkscape="http://www.inkscape.org/namespaces/inkscape"
	width="1000"
	height="1000"
	id="svg2"
	version="1.1"
	sodipodi:docname="Non-manifold/peel-nm9out.txt">
<defs
	id="defs4" />
<metadata
	id="metadata7">
	<rdf:RDF>
		<cc:Work
			rdf:about="">
			<dc:format>image/svg+xml</dc:format>
			<dc:type
				rdf:resource="http://purl.org/dc/dcmitype/StillImage" />
			<dc:title></dc:title>
		</cc:Work>
	</rdf:RDF>
</metadata>
<g
	inkscape:label="Layer 1"
	inkscape:groupmode="layer"
	id="layer1">
	<path style="fill:none;stroke:red;stroke-width:1px;stroke-linecap:butt;stroke-linejoin:miter;stroke-opacity:1" d="M 165.488,119.349 96.2791,188.558 z" id="boundary" inkscape:connector-curvature="0" />
	<path style="fill:none;stroke:red;stroke-width:1px;stroke-linecap:butt;stroke-linejoin:miter;stroke-opacity:1" d="M 165.488,119.349 96.2791,50.1395 z" id="boundary" inkscape:connector-curvature="0" />
	<path style="fill:none;stroke:red;stroke-width:1px;stroke-linecap:butt;stroke-linejoin:miter;stroke-opacity:1" d="M 50.1395,50.1395 4,4 z" id="boundary" inkscape:connector-curvature="0" />
	<path style="fill:none;stroke:red;stroke-width:1px;stroke-linecap:butt;stroke-linejoin:miter;stroke-opacity:1" d="M 50.1395,50.1395 96.2791,50.1395 z" id="boundary" inkscape:connector-curvature="0" />
	<path style="fill:none;stroke:red;stroke-width:1px;stroke-linecap:butt;stroke-linejoin:miter;stroke-opacity:1" d="M 880.651,742.233 972.93,834.512 z" id="boundary" inkscape:connector-curvature="0" />
	<path style="fill:none;stroke:red;stroke-width:1px;stroke-linecap:butt;stroke-linejoin:miter;stroke-opacity:1" d="M 972.93,834.512 857.581,996 z" id="boundary" inkscape:connector-curvature="0" />
	<path style="fill:none;stroke:red;stroke-width:1px;stroke-linecap:butt;stroke-linejoin:miter;stroke-opacity:1" d="M 326.977,373.116 234.698,280.837 z" id="boundary" inkscape:connector-curvature="0" />
	<path style="fill:none;stroke:red;stroke-width:1px;stroke-linecap:butt;stroke-linejoin:miter;stroke-opacity:1" d="M 396.186,257.767 326.977,373.116 z" id="boundary" inkscape:connector-curvature="0" />
	<path style="fill:none;stroke:red;stroke-width:1px;stroke-linecap:butt;stroke-linejoin:miter;stroke-opacity:1" d="M 580.744,626.884 419.256,534.605 z" id="boundary" inkscape:connector-curvature="0" />
	<path style="fill:none;stroke:red;stroke-width:1px;stroke-linecap:butt;stroke-linejoin:miter;stroke-opacity:1" d="M 788.372,719.163 673.023,811.442 z" id="boundary" inkscape:connector-curvature="0" />
	<path style="fill:none;stroke:red;stroke-width:1px;stroke-linecap:butt;stroke-linejoin:miter;stroke-opacity:1" d="M 580.744,626.884 765.302,557.674 z" id="boundary" inkscape:connector-curvature="0" />
	<path style="fill:none;stroke:red;stroke-width:1px;stroke-linecap:butt;stroke-linejoin:miter;stroke-opacity:1" d="M 788.372,719.163 880.651,742.233 z" id="boundary" inkscape:connector-curvature="0" />
	<path style="fill:none;stroke:red;stroke-width:1px;stroke-linecap:butt;stroke-linejoin:miter;stroke-opacity:1" d="M 303.907,165.488 396.186,257.767 z" id="boundary" inkscape:connector-curvature="0" />
	<path style="fill:none;stroke:red;stroke-width:1px;stroke-linecap:butt;stroke-linejoin:miter;stroke-opacity:1" d="M 303.907,165.488 211.628,165.488 z" id="boundary" inkscape:connector-curvature="0" />
	<path style="fill:none;stroke:red;stroke-width:1px;stroke-linecap:butt;stroke-linejoin:miter;stroke-opacity:1" d="M 211.628,165.488 211.628,119.349 z" id="boundary" inkscape:connector-curvature="0" />
	<path style="fill:none;stroke:red;stroke-width:1px;stroke-linecap:butt;stroke-linejoin:miter;stroke-opacity:1" d="M 211.628,119.349 165.488,119.349 z" id="boundary" inkscape:connector-curvature="0" />
	<circle cx="4" cy="4" r="4" fill="#0" id="circle0"/>
	<circle cx="50.1395" cy="50.1395" r="4" fill="#0" id="circle1"/>
	<circle cx="96.2791" cy="50.1395" r="4" fill="#0" id="circle2"/>
	<circle cx="96.2791" cy="188.558" r="4" fill="#0" id="circle3"/>
	<circle cx="234.698" cy="280.837" r="4" fill="#0" id="circle4"/>
	<circle cx="326.977" cy="373.116" r="4" fill="#0" id="circle5"/>
	<circle cx="419.256" cy="534.605" r="4" fill="#0" id="circle6"/>
	<circle cx="580.744" cy="626.884" r="4" fill="#0" id="circle7"/>
	<circle cx="673.023" cy="811.442" r="4" fill="#0" id="circle8"/>
	<circle cx="857.581" cy="996" r="4" fill="#0" id="circle9"/>
	<circle cx="972.93" cy="834.512" r="4" fill="#0" id="circle10"/>
	<circle cx="880.651" cy="742.233" r="4" fill="#0" id="circle11"/>
	<circle cx="788.372" cy="719.163" r="4" fill="#0" id="circle12"/>
	<circle cx="765.302" cy="557.674" r="4" fill="#0" id="circle13"/>
	<circle cx="603.814" cy="350.047" r="4" fill="#0" id="circle14"/>
	<circle cx="396.186" cy="257.767" r="4" fill="#0" id="circle15"/>
	<circle cx="303.907" cy="165.488" r="4" fill="#0" id="circle16"/>
	<circle cx="211.628" cy="165.488" r="4" fill="#0" id="circle17"/>
	<circle cx="211.628" cy="119.349" r="4" fill="#0" id="circle18"/>
	<circle cx="165.488" cy="119.349" r="4" fill="#0" id="circle19"/>
	</g>
</svg>