<?xml version="1.0" encoding="UTF-8" standalone="no"?>
<!-- Created with CurveBenchmark -->
<svg
	xmlns:dc="http://purl.org/dc/elements/1.1/"
	xmlns:cc="http://creativecommons.org/ns#"
	xmlns:rdf="http://www.w3.org/1999/02/22-rdf-syntax-ns#"
	xmlns:svg="http://www.w3.org/2000/svg"
	xmlns="http://www.w3.org/2000/svg"
	xmlns:sodipodi="http://sodipodi.sourceforge.net/DTD/sodipodi-0.dtd"
	xmlns:inkscape="http://www.inkscape.org/namespaces/inkscape"
	width="1000"
	height="1000"
	id="svg2"
	version="1.1"
	sodipodi:docname="Non-manifold/peel-nm3out.txt">
<defs
	id="defs4" />
<metadata
	id="metadata7">
	<rdf:RDF>
		<cc:Work
			rdf:about="">
			<dc:format>image/svg+xml</dc:format>
			<dc:type
				rdf:resource="http://purl.org/dc/dcmitype/StillImage" />
			<dc:title></dc:title>
		</cc:Work>
	</rdf:RDF>
</metadata>
<g
	inkscape:label="Layer 1"
	inkscape:groupmode="layer"
	id="layer1">
	<path style="fill:none;stroke:red;stroke-width:1px;stroke-linecap:butt;stroke-linejoin:miter;stroke-opacity:1" d="M 482.809,161.047 439.814,191.139 z" id="boundary" inkscape:connector-curvature="0" />
	<path style="fill:none;stroke:red;stroke-width:1px;stroke-linecap:butt;stroke-linejoin:miter;stroke-opacity:1" d="M 730.397,158.743 688.255,156.767 z" id="boundary" inkscape:connector-curvature="0" />
	<path style="fill:none;stroke:red;stroke-width:1px;stroke-linecap:butt;stroke-linejoin:miter;stroke-opacity:1" d="M 688.255,156.767 647.429,182.871 z" id="boundary" inkscape:connector-curvature="0" />
	<path style="fill:none;stroke:red;stroke-width:1px;stroke-linecap:butt;stroke-linejoin:miter;stroke-opacity:1" d="M 730.397,158.743 772.54,174.629 z" id="boundary" inkscape:connector-curvature="0" />
	<path style="fill:none;stroke:red;stroke-width:1px;stroke-linecap:butt;stroke-linejoin:miter;stroke-opacity:1" d="M 28.4578,701.013 50.8461,742.93 z" id="boundary" inkscape:connector-curvature="0" />
	<path style="fill:none;stroke:red;stroke-width:1px;stroke-linecap:butt;stroke-linejoin:miter;stroke-opacity:1" d="M 353.747,7.37471 395.89,26.5529 z" id="boundary" inkscape:connector-curvature="0" />
	<path style="fill:none;stroke:red;stroke-width:1px;stroke-linecap:butt;stroke-linejoin:miter;stroke-opacity:1" d="M 395.89,26.5529 423.546,74.7043 z" id="boundary" inkscape:connector-curvature="0" />
	<path style="fill:none;stroke:red;stroke-width:1px;stroke-linecap:butt;stroke-linejoin:miter;stroke-opacity:1" d="M 814.683,201.05 855.509,238.183 z" id="boundary" inkscape:connector-curvature="0" />
	<path style="fill:none;stroke:red;stroke-width:1px;stroke-linecap:butt;stroke-linejoin:miter;stroke-opacity:1" d="M 931.892,364.699 914.772,321.305 z" id="boundary" inkscape:connector-curvature="0" />
	<path style="fill:none;stroke:red;stroke-width:1px;stroke-linecap:butt;stroke-linejoin:miter;stroke-opacity:1" d="M 941.111,420.626 931.892,364.699 z" id="boundary" inkscape:connector-curvature="0" />
	<path style="fill:none;stroke:red;stroke-width:1px;stroke-linecap:butt;stroke-linejoin:miter;stroke-opacity:1" d="M 927.941,477.036 941.111,420.626 z" id="boundary" inkscape:connector-curvature="0" />
	<path style="fill:none;stroke:red;stroke-width:1px;stroke-linecap:butt;stroke-linejoin:miter;stroke-opacity:1" d="M 851.558,510.536 893.7,505.762 z" id="boundary" inkscape:connector-curvature="0" />
	<path style="fill:none;stroke:red;stroke-width:1px;stroke-linecap:butt;stroke-linejoin:miter;stroke-opacity:1" d="M 893.7,505.762 927.941,477.036 z" id="boundary" inkscape:connector-curvature="0" />
	<path style="fill:none;stroke:red;stroke-width:1px;stroke-linecap:butt;stroke-linejoin:miter;stroke-opacity:1" d="M 809.415,504.865 851.558,510.536 z" id="boundary" inkscape:connector-curvature="0" />
	<path style="fill:none;stroke:red;stroke-width:1px;stroke-linecap:butt;stroke-linejoin:miter;stroke-opacity:1" d="M 879.214,813.08 880.531,772.364 z" id="boundary" inkscape:connector-curvature="0" />
	<path style="fill:none;stroke:red;stroke-width:1px;stroke-linecap:butt;stroke-linejoin:miter;stroke-opacity:1" d="M 767.272,492.533 809.415,504.865 z" id="boundary" inkscape:connector-curvature="0" />
	<path style="fill:none;stroke:red;stroke-width:1px;stroke-linecap:butt;stroke-linejoin:miter;stroke-opacity:1" d="M 830.486,700.096 788.344,675.567 z" id="boundary" inkscape:connector-curvature="0" />
	<path style="fill:none;stroke:red;stroke-width:1px;stroke-linecap:butt;stroke-linejoin:miter;stroke-opacity:1" d="M 726.447,459.551 767.272,492.533 z" id="boundary" inkscape:connector-curvature="0" />
	<path style="fill:none;stroke:red;stroke-width:1px;stroke-linecap:butt;stroke-linejoin:miter;stroke-opacity:1" d="M 889.75,279.312 914.772,321.305 z" id="boundary" inkscape:connector-curvature="0" />
	<path style="fill:none;stroke:red;stroke-width:1px;stroke-linecap:butt;stroke-linejoin:miter;stroke-opacity:1" d="M 571.045,536.408 598.701,477.776 z" id="boundary" inkscape:connector-curvature="0" />
	<path style="fill:none;stroke:red;stroke-width:1px;stroke-linecap:butt;stroke-linejoin:miter;stroke-opacity:1" d="M 598.701,477.776 640.844,470.204 z" id="boundary" inkscape:connector-curvature="0" />
	<path style="fill:none;stroke:red;stroke-width:1px;stroke-linecap:butt;stroke-linejoin:miter;stroke-opacity:1" d="M 685.035,473.767 640.844,470.204 z" id="boundary" inkscape:connector-curvature="0" />
	<path style="fill:none;stroke:red;stroke-width:1px;stroke-linecap:butt;stroke-linejoin:miter;stroke-opacity:1" d="M 677.719,426.722 643.478,389.721 z" id="boundary" inkscape:connector-curvature="0" />
	<path style="fill:none;stroke:red;stroke-width:1px;stroke-linecap:butt;stroke-linejoin:miter;stroke-opacity:1" d="M 563.143,330.633 581.957,291.062 z" id="boundary" inkscape:connector-curvature="0" />
	<path style="fill:none;stroke:red;stroke-width:1px;stroke-linecap:butt;stroke-linejoin:miter;stroke-opacity:1" d="M 536.804,373.894 501.246,405.179 z" id="boundary" inkscape:connector-curvature="0" />
	<path style="fill:none;stroke:red;stroke-width:1px;stroke-linecap:butt;stroke-linejoin:miter;stroke-opacity:1" d="M 469.639,599.43 427.497,581.405 z" id="boundary" inkscape:connector-curvature="0" />
	<path style="fill:none;stroke:red;stroke-width:1px;stroke-linecap:butt;stroke-linejoin:miter;stroke-opacity:1" d="M 596.067,587.558 571.045,536.408 z" id="boundary" inkscape:connector-curvature="0" />
	<path style="fill:none;stroke:red;stroke-width:1px;stroke-linecap:butt;stroke-linejoin:miter;stroke-opacity:1" d="M 804.147,558.358 783.076,596.55 z" id="boundary" inkscape:connector-curvature="0" />
	<path style="fill:none;stroke:red;stroke-width:1px;stroke-linecap:butt;stroke-linejoin:miter;stroke-opacity:1" d="M 850.241,887.122 821.268,927.081 z" id="boundary" inkscape:connector-curvature="0" />
	<path style="fill:none;stroke:red;stroke-width:1px;stroke-linecap:butt;stroke-linejoin:miter;stroke-opacity:1" d="M 850.241,887.122 868.678,848.287 z" id="boundary" inkscape:connector-curvature="0" />
	<path style="fill:none;stroke:red;stroke-width:1px;stroke-linecap:butt;stroke-linejoin:miter;stroke-opacity:1" d="M 733.485,618.741 705.375,644.842 z" id="boundary" inkscape:connector-curvature="0" />
	<path style="fill:none;stroke:red;stroke-width:1px;stroke-linecap:butt;stroke-linejoin:miter;stroke-opacity:1" d="M 705.375,644.842 661.915,624.523 z" id="boundary" inkscape:connector-curvature="0" />
	<path style="fill:none;stroke:red;stroke-width:1px;stroke-linecap:butt;stroke-linejoin:miter;stroke-opacity:1" d="M 868.678,848.287 879.214,813.08 z" id="boundary" inkscape:connector-curvature="0" />
	<path style="fill:none;stroke:red;stroke-width:1px;stroke-linecap:butt;stroke-linejoin:miter;stroke-opacity:1" d="M 880.531,772.364 863.41,731.575 z" id="boundary" inkscape:connector-curvature="0" />
	<path style="fill:none;stroke:red;stroke-width:1px;stroke-linecap:butt;stroke-linejoin:miter;stroke-opacity:1" d="M 863.41,731.575 830.486,700.096 z" id="boundary" inkscape:connector-curvature="0" />
	<path style="fill:none;stroke:red;stroke-width:1px;stroke-linecap:butt;stroke-linejoin:miter;stroke-opacity:1" d="M 594.751,910.786 577.63,865.758 z" id="boundary" inkscape:connector-curvature="0" />
	<path style="fill:none;stroke:red;stroke-width:1px;stroke-linecap:butt;stroke-linejoin:miter;stroke-opacity:1" d="M 783.076,962.747 821.268,927.081 z" id="boundary" inkscape:connector-curvature="0" />
	<path style="fill:none;stroke:red;stroke-width:1px;stroke-linecap:butt;stroke-linejoin:miter;stroke-opacity:1" d="M 740.933,986.864 783.076,962.747 z" id="boundary" inkscape:connector-curvature="0" />
	<path style="fill:none;stroke:red;stroke-width:1px;stroke-linecap:butt;stroke-linejoin:miter;stroke-opacity:1" d="M 698.79,996 656.648,986.534 z" id="boundary" inkscape:connector-curvature="0" />
	<path style="fill:none;stroke:red;stroke-width:1px;stroke-linecap:butt;stroke-linejoin:miter;stroke-opacity:1" d="M 656.648,986.534 619.773,954.104 z" id="boundary" inkscape:connector-curvature="0" />
	<path style="fill:none;stroke:red;stroke-width:1px;stroke-linecap:butt;stroke-linejoin:miter;stroke-opacity:1" d="M 698.79,996 740.933,986.864 z" id="boundary" inkscape:connector-curvature="0" />
	<path style="fill:none;stroke:red;stroke-width:1px;stroke-linecap:butt;stroke-linejoin:miter;stroke-opacity:1" d="M 619.773,954.104 594.751,910.786 z" id="boundary" inkscape:connector-curvature="0" />
	<path style="fill:none;stroke:red;stroke-width:1px;stroke-linecap:butt;stroke-linejoin:miter;stroke-opacity:1" d="M 577.63,865.758 563.143,819.05 z" id="boundary" inkscape:connector-curvature="0" />
	<path style="fill:none;stroke:red;stroke-width:1px;stroke-linecap:butt;stroke-linejoin:miter;stroke-opacity:1" d="M 314.238,818.787 329.164,769.84 z" id="boundary" inkscape:connector-curvature="0" />
	<path style="fill:none;stroke:red;stroke-width:1px;stroke-linecap:butt;stroke-linejoin:miter;stroke-opacity:1" d="M 553.206,674.36 577.63,648.981 z" id="boundary" inkscape:connector-curvature="0" />
	<path style="fill:none;stroke:red;stroke-width:1px;stroke-linecap:butt;stroke-linejoin:miter;stroke-opacity:1" d="M 469.639,599.43 502.563,639.973 z" id="boundary" inkscape:connector-curvature="0" />
	<path style="fill:none;stroke:red;stroke-width:1px;stroke-linecap:butt;stroke-linejoin:miter;stroke-opacity:1" d="M 553.206,674.36 534.17,710.972 z" id="boundary" inkscape:connector-curvature="0" />
	<path style="fill:none;stroke:red;stroke-width:1px;stroke-linecap:butt;stroke-linejoin:miter;stroke-opacity:1" d="M 534.17,710.972 543.765,753.315 z" id="boundary" inkscape:connector-curvature="0" />
	<path style="fill:none;stroke:red;stroke-width:1px;stroke-linecap:butt;stroke-linejoin:miter;stroke-opacity:1" d="M 314.238,818.787 286.582,863.036 z" id="boundary" inkscape:connector-curvature="0" />
	<path style="fill:none;stroke:red;stroke-width:1px;stroke-linecap:butt;stroke-linejoin:miter;stroke-opacity:1" d="M 502.563,786.448 469.639,812.531 z" id="boundary" inkscape:connector-curvature="0" />
	<path style="fill:none;stroke:red;stroke-width:1px;stroke-linecap:butt;stroke-linejoin:miter;stroke-opacity:1" d="M 469.639,812.531 427.497,806.275 z" id="boundary" inkscape:connector-curvature="0" />
	<path style="fill:none;stroke:red;stroke-width:1px;stroke-linecap:butt;stroke-linejoin:miter;stroke-opacity:1" d="M 362.702,726.951 329.164,769.84 z" id="boundary" inkscape:connector-curvature="0" />
	<path style="fill:none;stroke:red;stroke-width:1px;stroke-linecap:butt;stroke-linejoin:miter;stroke-opacity:1" d="M 385.354,595.727 427.497,581.405 z" id="boundary" inkscape:connector-curvature="0" />
	<path style="fill:none;stroke:red;stroke-width:1px;stroke-linecap:butt;stroke-linejoin:miter;stroke-opacity:1" d="M 256.292,555.971 293.167,593.477 z" id="boundary" inkscape:connector-curvature="0" />
	<path style="fill:none;stroke:red;stroke-width:1px;stroke-linecap:butt;stroke-linejoin:miter;stroke-opacity:1" d="M 81.1362,784.444 119.328,823.643 z" id="boundary" inkscape:connector-curvature="0" />
	<path style="fill:none;stroke:red;stroke-width:1px;stroke-linecap:butt;stroke-linejoin:miter;stroke-opacity:1" d="M 362.702,726.951 343.399,684.174 z" id="boundary" inkscape:connector-curvature="0" />
	<path style="fill:none;stroke:red;stroke-width:1px;stroke-linecap:butt;stroke-linejoin:miter;stroke-opacity:1" d="M 286.582,863.036 245.756,878.626 z" id="boundary" inkscape:connector-curvature="0" />
	<path style="fill:none;stroke:red;stroke-width:1px;stroke-linecap:butt;stroke-linejoin:miter;stroke-opacity:1" d="M 427.497,806.275 390.622,773.79 z" id="boundary" inkscape:connector-curvature="0" />
	<path style="fill:none;stroke:red;stroke-width:1px;stroke-linecap:butt;stroke-linejoin:miter;stroke-opacity:1" d="M 245.756,878.626 203.613,872.535 z" id="boundary" inkscape:connector-curvature="0" />
	<path style="fill:none;stroke:red;stroke-width:1px;stroke-linecap:butt;stroke-linejoin:miter;stroke-opacity:1" d="M 203.613,872.535 161.471,854.015 z" id="boundary" inkscape:connector-curvature="0" />
	<path style="fill:none;stroke:red;stroke-width:1px;stroke-linecap:butt;stroke-linejoin:miter;stroke-opacity:1" d="M 161.471,854.015 119.328,823.643 z" id="boundary" inkscape:connector-curvature="0" />
	<path style="fill:none;stroke:red;stroke-width:1px;stroke-linecap:butt;stroke-linejoin:miter;stroke-opacity:1" d="M 201.049,521.968 156.203,496.049 z" id="boundary" inkscape:connector-curvature="0" />
	<path style="fill:none;stroke:red;stroke-width:1px;stroke-linecap:butt;stroke-linejoin:miter;stroke-opacity:1" d="M 156.203,496.049 109.901,500.285 z" id="boundary" inkscape:connector-curvature="0" />
	<path style="fill:none;stroke:red;stroke-width:1px;stroke-linecap:butt;stroke-linejoin:miter;stroke-opacity:1" d="M 11.3373,655.045 4,592.834 z" id="boundary" inkscape:connector-curvature="0" />
	<path style="fill:none;stroke:red;stroke-width:1px;stroke-linecap:butt;stroke-linejoin:miter;stroke-opacity:1" d="M 4,592.834 29.7748,526.257 z" id="boundary" inkscape:connector-curvature="0" />
	<path style="fill:none;stroke:red;stroke-width:1px;stroke-linecap:butt;stroke-linejoin:miter;stroke-opacity:1" d="M 29.7748,526.257 71.9175,507.243 z" id="boundary" inkscape:connector-curvature="0" />
	<path style="fill:none;stroke:red;stroke-width:1px;stroke-linecap:butt;stroke-linejoin:miter;stroke-opacity:1" d="M 71.9175,507.243 109.901,500.285 z" id="boundary" inkscape:connector-curvature="0" />
	<path style="fill:none;stroke:red;stroke-width:1px;stroke-linecap:butt;stroke-linejoin:miter;stroke-opacity:1" d="M 413.339,246.339 374.818,275.952 z" id="boundary" inkscape:connector-curvature="0" />
	<path style="fill:none;stroke:red;stroke-width:1px;stroke-linecap:butt;stroke-linejoin:miter;stroke-opacity:1" d="M 92.9888,325.46 85.0871,275.943 z" id="boundary" inkscape:connector-curvature="0" />
	<path style="fill:none;stroke:red;stroke-width:1px;stroke-linecap:butt;stroke-linejoin:miter;stroke-opacity:1" d="M 77.1853,156.191 104.841,114.213 z" id="boundary" inkscape:connector-curvature="0" />
	<path style="fill:none;stroke:red;stroke-width:1px;stroke-linecap:butt;stroke-linejoin:miter;stroke-opacity:1" d="M 270.778,414.446 247.073,378.922 z" id="boundary" inkscape:connector-curvature="0" />
	<path style="fill:none;stroke:red;stroke-width:1px;stroke-linecap:butt;stroke-linejoin:miter;stroke-opacity:1" d="M 28.4578,701.013 11.3373,655.045 z" id="boundary" inkscape:connector-curvature="0" />
	<path style="fill:none;stroke:red;stroke-width:1px;stroke-linecap:butt;stroke-linejoin:miter;stroke-opacity:1" d="M 319.506,637.375 343.399,684.174 z" id="boundary" inkscape:connector-curvature="0" />
	<path style="fill:none;stroke:red;stroke-width:1px;stroke-linecap:butt;stroke-linejoin:miter;stroke-opacity:1" d="M 270.778,414.446 270.778,450.602 z" id="boundary" inkscape:connector-curvature="0" />
	<path style="fill:none;stroke:red;stroke-width:1px;stroke-linecap:butt;stroke-linejoin:miter;stroke-opacity:1" d="M 270.778,450.602 226.361,488.29 z" id="boundary" inkscape:connector-curvature="0" />
	<path style="fill:none;stroke:red;stroke-width:1px;stroke-linecap:butt;stroke-linejoin:miter;stroke-opacity:1" d="M 209.697,351.537 247.073,378.922 z" id="boundary" inkscape:connector-curvature="0" />
	<path style="fill:none;stroke:red;stroke-width:1px;stroke-linecap:butt;stroke-linejoin:miter;stroke-opacity:1" d="M 104.841,114.213 143.033,75.5274 z" id="boundary" inkscape:connector-curvature="0" />
	<path style="fill:none;stroke:red;stroke-width:1px;stroke-linecap:butt;stroke-linejoin:miter;stroke-opacity:1" d="M 77.1853,156.191 61.3818,224.574 z" id="boundary" inkscape:connector-curvature="0" />
	<path style="fill:none;stroke:red;stroke-width:1px;stroke-linecap:butt;stroke-linejoin:miter;stroke-opacity:1" d="M 61.3818,224.574 85.0871,275.943 z" id="boundary" inkscape:connector-curvature="0" />
	<path style="fill:none;stroke:red;stroke-width:1px;stroke-linecap:butt;stroke-linejoin:miter;stroke-opacity:1" d="M 92.9888,325.46 126.352,310.816 z" id="boundary" inkscape:connector-curvature="0" />
	<path style="fill:none;stroke:red;stroke-width:1px;stroke-linecap:butt;stroke-linejoin:miter;stroke-opacity:1" d="M 126.352,310.816 164.105,322.022 z" id="boundary" inkscape:connector-curvature="0" />
	<path style="fill:none;stroke:red;stroke-width:1px;stroke-linecap:butt;stroke-linejoin:miter;stroke-opacity:1" d="M 332.676,308.382 290.533,320.564 z" id="boundary" inkscape:connector-curvature="0" />
	<path style="fill:none;stroke:red;stroke-width:1px;stroke-linecap:butt;stroke-linejoin:miter;stroke-opacity:1" d="M 332.676,308.382 374.818,275.952 z" id="boundary" inkscape:connector-curvature="0" />
	<path style="fill:none;stroke:red;stroke-width:1px;stroke-linecap:butt;stroke-linejoin:miter;stroke-opacity:1" d="M 413.339,246.339 439.814,191.139 z" id="boundary" inkscape:connector-curvature="0" />
	<path style="fill:none;stroke:red;stroke-width:1px;stroke-linecap:butt;stroke-linejoin:miter;stroke-opacity:1" d="M 311.604,4 269.461,10.0909 z" id="boundary" inkscape:connector-curvature="0" />
	<path style="fill:none;stroke:red;stroke-width:1px;stroke-linecap:butt;stroke-linejoin:miter;stroke-opacity:1" d="M 353.747,7.37471 311.604,4 z" id="boundary" inkscape:connector-curvature="0" />
	<path style="fill:none;stroke:red;stroke-width:1px;stroke-linecap:butt;stroke-linejoin:miter;stroke-opacity:1" d="M 423.546,74.7043 429.472,129.358 z" id="boundary" inkscape:connector-curvature="0" />
	<path style="fill:none;stroke:red;stroke-width:1px;stroke-linecap:butt;stroke-linejoin:miter;stroke-opacity:1" d="M 269.461,10.0909 227.319,24.0013 z" id="boundary" inkscape:connector-curvature="0" />
	<path style="fill:none;stroke:red;stroke-width:1px;stroke-linecap:butt;stroke-linejoin:miter;stroke-opacity:1" d="M 772.54,174.629 814.683,201.05 z" id="boundary" inkscape:connector-curvature="0" />
	<path style="fill:none;stroke:red;stroke-width:1px;stroke-linecap:butt;stroke-linejoin:miter;stroke-opacity:1" d="M 592.715,210.351 603.405,251.01 z" id="boundary" inkscape:connector-curvature="0" />
	<path style="fill:none;stroke:red;stroke-width:1px;stroke-linecap:butt;stroke-linejoin:miter;stroke-opacity:1" d="M 603.405,251.01 581.957,291.062 z" id="boundary" inkscape:connector-curvature="0" />
	<path style="fill:none;stroke:red;stroke-width:1px;stroke-linecap:butt;stroke-linejoin:miter;stroke-opacity:1" d="M 227.319,24.0013 185.176,45.4019 z" id="boundary" inkscape:connector-curvature="0" />
	<path style="fill:none;stroke:red;stroke-width:1px;stroke-linecap:butt;stroke-linejoin:miter;stroke-opacity:1" d="M 565.777,165.575 592.715,210.351 z" id="boundary" inkscape:connector-curvature="0" />
	<path style="fill:none;stroke:red;stroke-width:1px;stroke-linecap:butt;stroke-linejoin:miter;stroke-opacity:1" d="M 248.39,322.046 290.533,320.564 z" id="boundary" inkscape:connector-curvature="0" />
	<path style="fill:none;stroke:red;stroke-width:1px;stroke-linecap:butt;stroke-linejoin:miter;stroke-opacity:1" d="M 414.327,319.659 426.18,372.776 z" id="boundary" inkscape:connector-curvature="0" />
	<path style="fill:none;stroke:red;stroke-width:1px;stroke-linecap:butt;stroke-linejoin:miter;stroke-opacity:1" d="M 459.104,406.002 426.18,372.776 z" id="boundary" inkscape:connector-curvature="0" />
	<path style="fill:none;stroke:red;stroke-width:1px;stroke-linecap:butt;stroke-linejoin:miter;stroke-opacity:1" d="M 501.246,405.179 459.104,406.002 z" id="boundary" inkscape:connector-curvature="0" />
	<path style="fill:none;stroke:red;stroke-width:1px;stroke-linecap:butt;stroke-linejoin:miter;stroke-opacity:1" d="M 536.804,373.894 563.143,330.633 z" id="boundary" inkscape:connector-curvature="0" />
	<path style="fill:none;stroke:red;stroke-width:1px;stroke-linecap:butt;stroke-linejoin:miter;stroke-opacity:1" d="M 623.724,343.891 643.478,389.721 z" id="boundary" inkscape:connector-curvature="0" />
	<path style="fill:none;stroke:red;stroke-width:1px;stroke-linecap:butt;stroke-linejoin:miter;stroke-opacity:1" d="M 482.809,161.047 524.952,148.125 z" id="boundary" inkscape:connector-curvature="0" />
	<path style="fill:none;stroke:red;stroke-width:1px;stroke-linecap:butt;stroke-linejoin:miter;stroke-opacity:1" d="M 524.952,148.125 565.777,165.575 z" id="boundary" inkscape:connector-curvature="0" />
	<path style="fill:none;stroke:red;stroke-width:1px;stroke-linecap:butt;stroke-linejoin:miter;stroke-opacity:1" d="M 248.39,322.046 209.697,351.537 z" id="boundary" inkscape:connector-curvature="0" />
	<path style="fill:none;stroke:red;stroke-width:1px;stroke-linecap:butt;stroke-linejoin:miter;stroke-opacity:1" d="M 143.033,75.5274 185.176,45.4019 z" id="boundary" inkscape:connector-curvature="0" />
	<path style="fill:none;stroke:red;stroke-width:1px;stroke-linecap:butt;stroke-linejoin:miter;stroke-opacity:1" d="M 90.3549,445.711 64.6143,386.824 z" id="boundary" inkscape:connector-curvature="0" />
	<path style="fill:none;stroke:red;stroke-width:1px;stroke-linecap:butt;stroke-linejoin:miter;stroke-opacity:1" d="M 226.361,488.29 201.049,521.968 z" id="boundary" inkscape:connector-curvature="0" />
	<path style="fill:none;stroke:red;stroke-width:1px;stroke-linecap:butt;stroke-linejoin:miter;stroke-opacity:1" d="M 81.1362,784.444 50.8461,742.93 z" id="boundary" inkscape:connector-curvature="0" />
	<path style="fill:none;stroke:red;stroke-width:1px;stroke-linecap:butt;stroke-linejoin:miter;stroke-opacity:1" d="M 319.506,637.375 293.167,593.477 z" id="boundary" inkscape:connector-curvature="0" />
	<path style="fill:none;stroke:red;stroke-width:1px;stroke-linecap:butt;stroke-linejoin:miter;stroke-opacity:1" d="M 543.765,753.315 502.563,786.448 z" id="boundary" inkscape:connector-curvature="0" />
	<path style="fill:none;stroke:red;stroke-width:1px;stroke-linecap:butt;stroke-linejoin:miter;stroke-opacity:1" d="M 577.63,648.981 615.822,631.308 z" id="boundary" inkscape:connector-curvature="0" />
	<path style="fill:none;stroke:red;stroke-width:1px;stroke-linecap:butt;stroke-linejoin:miter;stroke-opacity:1" d="M 661.915,624.523 615.822,631.308 z" id="boundary" inkscape:connector-curvature="0" />
	<path style="fill:none;stroke:red;stroke-width:1px;stroke-linecap:butt;stroke-linejoin:miter;stroke-opacity:1" d="M 783.076,596.55 733.485,618.741 z" id="boundary" inkscape:connector-curvature="0" />
	<path style="fill:none;stroke:red;stroke-width:1px;stroke-linecap:butt;stroke-linejoin:miter;stroke-opacity:1" d="M 889.75,279.312 855.509,238.183 z" id="boundary" inkscape:connector-curvature="0" />
	<path style="fill:none;stroke:red;stroke-width:1px;stroke-linecap:butt;stroke-linejoin:miter;stroke-opacity:1" d="M 726.447,459.551 685.035,473.767 z" id="boundary" inkscape:connector-curvature="0" />
	<circle cx="603.405" cy="251.01" r="4" fill="#0" id="circle0"/>
	<circle cx="647.429" cy="182.871" r="4" fill="#0" id="circle1"/>
	<circle cx="688.255" cy="156.767" r="4" fill="#0" id="circle2"/>
	<circle cx="730.397" cy="158.743" r="4" fill="#0" id="circle3"/>
	<circle cx="772.54" cy="174.629" r="4" fill="#0" id="circle4"/>
	<circle cx="814.683" cy="201.05" r="4" fill="#0" id="circle5"/>
	<circle cx="855.509" cy="238.183" r="4" fill="#0" id="circle6"/>
	<circle cx="889.75" cy="279.312" r="4" fill="#0" id="circle7"/>
	<circle cx="914.772" cy="321.305" r="4" fill="#0" id="circle8"/>
	<circle cx="931.892" cy="364.699" r="4" fill="#0" id="circle9"/>
	<circle cx="941.111" cy="420.626" r="4" fill="#0" id="circle10"/>
	<circle cx="927.941" cy="477.036" r="4" fill="#0" id="circle11"/>
	<circle cx="893.7" cy="505.762" r="4" fill="#0" id="circle12"/>
	<circle cx="851.558" cy="510.536" r="4" fill="#0" id="circle13"/>
	<circle cx="809.415" cy="504.865" r="4" fill="#0" id="circle14"/>
	<circle cx="767.272" cy="492.533" r="4" fill="#0" id="circle15"/>
	<circle cx="685.035" cy="473.767" r="4" fill="#0" id="circle16"/>
	<circle cx="640.844" cy="470.204" r="4" fill="#0" id="circle17"/>
	<circle cx="640.844" cy="470.204" r="4" fill="#0" id="circle18"/>
	<circle cx="598.701" cy="477.776" r="4" fill="#0" id="circle19"/>
	<circle cx="571.045" cy="536.408" r="4" fill="#0" id="circle20"/>
	<circle cx="596.067" cy="587.558" r="4" fill="#0" id="circle21"/>
	<circle cx="661.915" cy="624.523" r="4" fill="#0" id="circle22"/>
	<circle cx="705.375" cy="644.842" r="4" fill="#0" id="circle23"/>
	<circle cx="788.344" cy="675.567" r="4" fill="#0" id="circle24"/>
	<circle cx="830.486" cy="700.096" r="4" fill="#0" id="circle25"/>
	<circle cx="863.41" cy="731.575" r="4" fill="#0" id="circle26"/>
	<circle cx="880.531" cy="772.364" r="4" fill="#0" id="circle27"/>
	<circle cx="879.214" cy="813.08" r="4" fill="#0" id="circle28"/>
	<circle cx="868.678" cy="848.287" r="4" fill="#0" id="circle29"/>
	<circle cx="850.241" cy="887.122" r="4" fill="#0" id="circle30"/>
	<circle cx="821.268" cy="927.081" r="4" fill="#0" id="circle31"/>
	<circle cx="783.076" cy="962.747" r="4" fill="#0" id="circle32"/>
	<circle cx="740.933" cy="986.864" r="4" fill="#0" id="circle33"/>
	<circle cx="698.79" cy="996" r="4" fill="#0" id="circle34"/>
	<circle cx="656.648" cy="986.534" r="4" fill="#0" id="circle35"/>
	<circle cx="619.773" cy="954.104" r="4" fill="#0" id="circle36"/>
	<circle cx="594.751" cy="910.786" r="4" fill="#0" id="circle37"/>
	<circle cx="577.63" cy="865.758" r="4" fill="#0" id="circle38"/>
	<circle cx="563.143" cy="819.05" r="4" fill="#0" id="circle39"/>
	<circle cx="543.765" cy="753.315" r="4" fill="#0" id="circle40"/>
	<circle cx="534.17" cy="710.972" r="4" fill="#0" id="circle41"/>
	<circle cx="502.563" cy="639.973" r="4" fill="#0" id="circle42"/>
	<circle cx="469.639" cy="599.43" r="4" fill="#0" id="circle43"/>
	<circle cx="427.497" cy="581.405" r="4" fill="#0" id="circle44"/>
	<circle cx="385.354" cy="595.727" r="4" fill="#0" id="circle45"/>
	<circle cx="343.399" cy="684.174" r="4" fill="#0" id="circle46"/>
	<circle cx="329.164" cy="769.84" r="4" fill="#0" id="circle47"/>
	<circle cx="314.238" cy="818.787" r="4" fill="#0" id="circle48"/>
	<circle cx="286.582" cy="863.036" r="4" fill="#0" id="circle49"/>
	<circle cx="245.756" cy="878.626" r="4" fill="#0" id="circle50"/>
	<circle cx="203.613" cy="872.535" r="4" fill="#0" id="circle51"/>
	<circle cx="161.471" cy="854.015" r="4" fill="#0" id="circle52"/>
	<circle cx="119.328" cy="823.643" r="4" fill="#0" id="circle53"/>
	<circle cx="81.1362" cy="784.444" r="4" fill="#0" id="circle54"/>
	<circle cx="50.8461" cy="742.93" r="4" fill="#0" id="circle55"/>
	<circle cx="28.4578" cy="701.013" r="4" fill="#0" id="circle56"/>
	<circle cx="11.3373" cy="655.045" r="4" fill="#0" id="circle57"/>
	<circle cx="4" cy="592.834" r="4" fill="#0" id="circle58"/>
	<circle cx="29.7748" cy="526.257" r="4" fill="#0" id="circle59"/>
	<circle cx="71.9175" cy="507.243" r="4" fill="#0" id="circle60"/>
	<circle cx="109.901" cy="500.285" r="4" fill="#0" id="circle61"/>
	<circle cx="156.203" cy="496.049" r="4" fill="#0" id="circle62"/>
	<circle cx="226.361" cy="488.29" r="4" fill="#0" id="circle63"/>
	<circle cx="270.778" cy="450.602" r="4" fill="#0" id="circle64"/>
	<circle cx="270.778" cy="414.446" r="4" fill="#0" id="circle65"/>
	<circle cx="270.778" cy="414.446" r="4" fill="#0" id="circle66"/>
	<circle cx="247.073" cy="378.922" r="4" fill="#0" id="circle67"/>
	<circle cx="209.697" cy="351.537" r="4" fill="#0" id="circle68"/>
	<circle cx="164.105" cy="322.022" r="4" fill="#0" id="circle69"/>
	<circle cx="126.352" cy="310.816" r="4" fill="#0" id="circle70"/>
	<circle cx="85.0871" cy="275.943" r="4" fill="#0" id="circle71"/>
	<circle cx="61.3818" cy="224.574" r="4" fill="#0" id="circle72"/>
	<circle cx="77.1853" cy="156.191" r="4" fill="#0" id="circle73"/>
	<circle cx="104.841" cy="114.213" r="4" fill="#0" id="circle74"/>
	<circle cx="143.033" cy="75.5274" r="4" fill="#0" id="circle75"/>
	<circle cx="185.176" cy="45.4019" r="4" fill="#0" id="circle76"/>
	<circle cx="227.319" cy="24.0013" r="4" fill="#0" id="circle77"/>
	<circle cx="269.461" cy="10.0909" r="4" fill="#0" id="circle78"/>
	<circle cx="311.604" cy="4" r="4" fill="#0" id="circle79"/>
	<circle cx="353.747" cy="7.37471" r="4" fill="#0" id="circle80"/>
	<circle cx="395.89" cy="26.5529" r="4" fill="#0" id="circle81"/>
	<circle cx="423.546" cy="74.7043" r="4" fill="#0" id="circle82"/>
	<circle cx="429.472" cy="129.358" r="4" fill="#0" id="circle83"/>
	<circle cx="439.814" cy="191.139" r="4" fill="#0" id="circle84"/>
	<circle cx="413.339" cy="246.339" r="4" fill="#0" id="circle85"/>
	<circle cx="414.327" cy="319.659" r="4" fill="#0" id="circle86"/>
	<circle cx="426.18" cy="372.776" r="4" fill="#0" id="circle87"/>
	<circle cx="459.104" cy="406.002" r="4" fill="#0" id="circle88"/>
	<circle cx="501.246" cy="405.179" r="4" fill="#0" id="circle89"/>
	<circle cx="536.804" cy="373.894" r="4" fill="#0" id="circle90"/>
	<circle cx="563.143" cy="330.633" r="4" fill="#0" id="circle91"/>
	<circle cx="581.957" cy="291.062" r="4" fill="#0" id="circle92"/>
	<circle cx="603.405" cy="251.01" r="4" fill="#0" id="circle93"/>
	<circle cx="592.715" cy="210.351" r="4" fill="#0" id="circle94"/>
	<circle cx="565.777" cy="165.575" r="4" fill="#0" id="circle95"/>
	<circle cx="524.952" cy="148.125" r="4" fill="#0" id="circle96"/>
	<circle cx="482.809" cy="161.047" r="4" fill="#0" id="circle97"/>
	<circle cx="439.814" cy="191.139" r="4" fill="#0" id="circle98"/>
	<circle cx="413.339" cy="246.339" r="4" fill="#0" id="circle99"/>
	<circle cx="374.818" cy="275.952" r="4" fill="#0" id="circle100"/>
	<circle cx="332.676" cy="308.382" r="4" fill="#0" id="circle101"/>
	<circle cx="290.533" cy="320.564" r="4" fill="#0" id="circle102"/>
	<circle cx="248.39" cy="322.046" r="4" fill="#0" id="circle103"/>
	<circle cx="164.105" cy="322.022" r="4" fill="#0" id="circle104"/>
	<circle cx="92.9888" cy="325.46" r="4" fill="#0" id="circle105"/>
	<circle cx="64.6143" cy="386.824" r="4" fill="#0" id="circle106"/>
	<circle cx="90.3549" cy="445.711" r="4" fill="#0" id="circle107"/>
	<circle cx="156.203" cy="496.049" r="4" fill="#0" id="circle108"/>
	<circle cx="201.049" cy="521.968" r="4" fill="#0" id="circle109"/>
	<circle cx="256.292" cy="555.971" r="4" fill="#0" id="circle110"/>
	<circle cx="293.167" cy="593.477" r="4" fill="#0" id="circle111"/>
	<circle cx="319.506" cy="637.375" r="4" fill="#0" id="circle112"/>
	<circle cx="343.399" cy="684.174" r="4" fill="#0" id="circle113"/>
	<circle cx="362.702" cy="726.951" r="4" fill="#0" id="circle114"/>
	<circle cx="390.622" cy="773.79" r="4" fill="#0" id="circle115"/>
	<circle cx="427.497" cy="806.275" r="4" fill="#0" id="circle116"/>
	<circle cx="469.639" cy="812.531" r="4" fill="#0" id="circle117"/>
	<circle cx="502.563" cy="786.448" r="4" fill="#0" id="circle118"/>
	<circle cx="534.17" cy="710.972" r="4" fill="#0" id="circle119"/>
	<circle cx="553.206" cy="674.36" r="4" fill="#0" id="circle120"/>
	<circle cx="577.63" cy="648.981" r="4" fill="#0" id="circle121"/>
	<circle cx="615.822" cy="631.308" r="4" fill="#0" id="circle122"/>
	<circle cx="661.915" cy="624.523" r="4" fill="#0" id="circle123"/>
	<circle cx="733.485" cy="618.741" r="4" fill="#0" id="circle124"/>
	<circle cx="783.076" cy="596.55" r="4" fill="#0" id="circle125"/>
	<circle cx="804.147" cy="558.358" r="4" fill="#0" id="circle126"/>
	<circle cx="767.272" cy="492.533" r="4" fill="#0" id="circle127"/>
	<circle cx="726.447" cy="459.551" r="4" fill="#0" id="circle128"/>
	<circle cx="677.719" cy="426.722" r="4" fill="#0" id="circle129"/>
	<circle cx="643.478" cy="389.721" r="4" fill="#0" id="circle130"/>
	<circle cx="623.724" cy="343.891" r="4" fill="#0" id="circle131"/>
	<circle cx="603.405" cy="251.01" r="4" fill="#0" id="circle132"/>
	</g>
</svg>