<?xml version="1.0" encoding="UTF-8" standalone="no"?>
<!-- Created with CurveBenchmark -->
<svg
	xmlns:dc="http://purl.org/dc/elements/1.1/"
	xmlns:cc="http://creativecommons.org/ns#"
	xmlns:rdf="http://www.w3.org/1999/02/22-rdf-syntax-ns#"
	xmlns:svg="http://www.w3.org/2000/svg"
	xmlns="http://www.w3.org/2000/svg"
	xmlns:sodipodi="http://sodipodi.sourceforge.net/DTD/sodipodi-0.dtd"
	xmlns:inkscape="http://www.inkscape.org/namespaces/inkscape"
	width="1000"
	height="1000"
	id="svg2"
	version="1.1"
	sodipodi:docname="Non-manifold/peel-nm1out.txt">
<defs
	id="defs4" />
<metadata
	id="metadata7">
	<rdf:RDF>
		<cc:Work
			rdf:about="">
			<dc:format>image/svg+xml</dc:format>
			<dc:type
				rdf:resource="http://purl.org/dc/dcmitype/StillImage" />
			<dc:title></dc:title>
		</cc:Work>
	</rdf:RDF>
</metadata>
<g
	inkscape:label="Layer 1"
	inkscape:groupmode="layer"
	id="layer1">
	<path style="fill:none;stroke:red;stroke-width:1px;stroke-linecap:butt;stroke-linejoin:miter;stroke-opacity:1" d="M 89.6403,79.5795 115.015,64.0671 z" id="boundary" inkscape:connector-curvature="0" />
	<path style="fill:none;stroke:red;stroke-width:1px;stroke-linecap:butt;stroke-linejoin:miter;stroke-opacity:1" d="M 403.727,250.519 425.929,277.708 z" id="boundary" inkscape:connector-curvature="0" />
	<path style="fill:none;stroke:red;stroke-width:1px;stroke-linecap:butt;stroke-linejoin:miter;stroke-opacity:1" d="M 403.727,250.519 370.35,258.294 z" id="boundary" inkscape:connector-curvature="0" />
	<path style="fill:none;stroke:red;stroke-width:1px;stroke-linecap:butt;stroke-linejoin:miter;stroke-opacity:1" d="M 40.4764,139.54 64.2654,104.211 z" id="boundary" inkscape:connector-curvature="0" />
	<path style="fill:none;stroke:red;stroke-width:1px;stroke-linecap:butt;stroke-linejoin:miter;stroke-opacity:1" d="M 172.109,203.728 197.484,177.907 z" id="boundary" inkscape:connector-curvature="0" />
	<path style="fill:none;stroke:red;stroke-width:1px;stroke-linecap:butt;stroke-linejoin:miter;stroke-opacity:1" d="M 140.39,55.0472 165.765,52.024 z" id="boundary" inkscape:connector-curvature="0" />
	<path style="fill:none;stroke:red;stroke-width:1px;stroke-linecap:butt;stroke-linejoin:miter;stroke-opacity:1" d="M 273.608,149.311 300.003,143.392 z" id="boundary" inkscape:connector-curvature="0" />
	<path style="fill:none;stroke:red;stroke-width:1px;stroke-linecap:butt;stroke-linejoin:miter;stroke-opacity:1" d="M 40.4764,139.54 22.2382,182.285 z" id="boundary" inkscape:connector-curvature="0" />
	<path style="fill:none;stroke:red;stroke-width:1px;stroke-linecap:butt;stroke-linejoin:miter;stroke-opacity:1" d="M 248.233,155.655 222.859,164.476 z" id="boundary" inkscape:connector-curvature="0" />
	<path style="fill:none;stroke:red;stroke-width:1px;stroke-linecap:butt;stroke-linejoin:miter;stroke-opacity:1" d="M 11.1367,224.682 4,289.269 z" id="boundary" inkscape:connector-curvature="0" />
	<path style="fill:none;stroke:red;stroke-width:1px;stroke-linecap:butt;stroke-linejoin:miter;stroke-opacity:1" d="M 222.859,164.476 197.484,177.907 z" id="boundary" inkscape:connector-curvature="0" />
	<path style="fill:none;stroke:red;stroke-width:1px;stroke-linecap:butt;stroke-linejoin:miter;stroke-opacity:1" d="M 34.1327,455.065 18.2734,412.08 z" id="boundary" inkscape:connector-curvature="0" />
	<path style="fill:none;stroke:red;stroke-width:1px;stroke-linecap:butt;stroke-linejoin:miter;stroke-opacity:1" d="M 132.46,560.959 107.086,543.663 z" id="boundary" inkscape:connector-curvature="0" />
	<path style="fill:none;stroke:red;stroke-width:1px;stroke-linecap:butt;stroke-linejoin:miter;stroke-opacity:1" d="M 310.608,315.686 341.803,370.449 z" id="boundary" inkscape:connector-curvature="0" />
	<path style="fill:none;stroke:red;stroke-width:1px;stroke-linecap:butt;stroke-linejoin:miter;stroke-opacity:1" d="M 208.585,596.544 183.21,586.879 z" id="boundary" inkscape:connector-curvature="0" />
	<path style="fill:none;stroke:red;stroke-width:1px;stroke-linecap:butt;stroke-linejoin:miter;stroke-opacity:1" d="M 341.803,370.449 367.178,398.6 z" id="boundary" inkscape:connector-curvature="0" />
	<path style="fill:none;stroke:red;stroke-width:1px;stroke-linecap:butt;stroke-linejoin:miter;stroke-opacity:1" d="M 259.335,610.668 233.96,604.473 z" id="boundary" inkscape:connector-curvature="0" />
	<path style="fill:none;stroke:red;stroke-width:1px;stroke-linecap:butt;stroke-linejoin:miter;stroke-opacity:1" d="M 367.178,398.6 380.659,421.1 z" id="boundary" inkscape:connector-curvature="0" />
	<path style="fill:none;stroke:red;stroke-width:1px;stroke-linecap:butt;stroke-linejoin:miter;stroke-opacity:1" d="M 284.71,615.178 310.085,618.003 z" id="boundary" inkscape:connector-curvature="0" />
	<path style="fill:none;stroke:red;stroke-width:1px;stroke-linecap:butt;stroke-linejoin:miter;stroke-opacity:1" d="M 185.589,372.967 210.171,409.106 z" id="boundary" inkscape:connector-curvature="0" />
	<path style="fill:none;stroke:red;stroke-width:1px;stroke-linecap:butt;stroke-linejoin:miter;stroke-opacity:1" d="M 335.46,619.391 360.835,618.548 z" id="boundary" inkscape:connector-curvature="0" />
	<path style="fill:none;stroke:red;stroke-width:1px;stroke-linecap:butt;stroke-linejoin:miter;stroke-opacity:1" d="M 210.171,409.106 235.546,436.315 z" id="boundary" inkscape:connector-curvature="0" />
	<path style="fill:none;stroke:red;stroke-width:1px;stroke-linecap:butt;stroke-linejoin:miter;stroke-opacity:1" d="M 362.42,470.71 337.046,478.293 z" id="boundary" inkscape:connector-curvature="0" />
	<path style="fill:none;stroke:red;stroke-width:1px;stroke-linecap:butt;stroke-linejoin:miter;stroke-opacity:1" d="M 235.546,436.315 260.921,456.982 z" id="boundary" inkscape:connector-curvature="0" />
	<path style="fill:none;stroke:red;stroke-width:1px;stroke-linecap:butt;stroke-linejoin:miter;stroke-opacity:1" d="M 462.334,591.092 436.959,602.838 z" id="boundary" inkscape:connector-curvature="0" />
	<path style="fill:none;stroke:red;stroke-width:1px;stroke-linecap:butt;stroke-linejoin:miter;stroke-opacity:1" d="M 260.921,456.982 286.296,471.701 z" id="boundary" inkscape:connector-curvature="0" />
	<path style="fill:none;stroke:red;stroke-width:1px;stroke-linecap:butt;stroke-linejoin:miter;stroke-opacity:1" d="M 510.705,547.883 487.709,573.795 z" id="boundary" inkscape:connector-curvature="0" />
	<path style="fill:none;stroke:red;stroke-width:1px;stroke-linecap:butt;stroke-linejoin:miter;stroke-opacity:1" d="M 286.296,471.701 311.671,478.491 z" id="boundary" inkscape:connector-curvature="0" />
	<path style="fill:none;stroke:red;stroke-width:1px;stroke-linecap:butt;stroke-linejoin:miter;stroke-opacity:1" d="M 524.185,514.273 510.705,547.883 z" id="boundary" inkscape:connector-curvature="0" />
	<path style="fill:none;stroke:red;stroke-width:1px;stroke-linecap:butt;stroke-linejoin:miter;stroke-opacity:1" d="M 524.185,514.273 521.807,479.066 z" id="boundary" inkscape:connector-curvature="0" />
	<path style="fill:none;stroke:red;stroke-width:1px;stroke-linecap:butt;stroke-linejoin:miter;stroke-opacity:1" d="M 311.671,478.491 337.046,478.293 z" id="boundary" inkscape:connector-curvature="0" />
	<path style="fill:none;stroke:red;stroke-width:1px;stroke-linecap:butt;stroke-linejoin:miter;stroke-opacity:1" d="M 382.245,447.426 380.659,421.1 z" id="boundary" inkscape:connector-curvature="0" />
	<path style="fill:none;stroke:red;stroke-width:1px;stroke-linecap:butt;stroke-linejoin:miter;stroke-opacity:1" d="M 362.42,470.71 382.245,447.426 z" id="boundary" inkscape:connector-curvature="0" />
	<path style="fill:none;stroke:red;stroke-width:1px;stroke-linecap:butt;stroke-linejoin:miter;stroke-opacity:1" d="M 267.265,90.1359 241.89,73.6323 z" id="boundary" inkscape:connector-curvature="0" />
	<path style="fill:none;stroke:red;stroke-width:1px;stroke-linecap:butt;stroke-linejoin:miter;stroke-opacity:1" d="M 166.558,331.979 185.589,372.967 z" id="boundary" inkscape:connector-curvature="0" />
	<path style="fill:none;stroke:red;stroke-width:1px;stroke-linecap:butt;stroke-linejoin:miter;stroke-opacity:1" d="M 344.975,269.049 310.608,315.686 z" id="boundary" inkscape:connector-curvature="0" />
	<path style="fill:none;stroke:red;stroke-width:1px;stroke-linecap:butt;stroke-linejoin:miter;stroke-opacity:1" d="M 155.809,270.304 166.558,331.979 z" id="boundary" inkscape:connector-curvature="0" />
	<path style="fill:none;stroke:red;stroke-width:1px;stroke-linecap:butt;stroke-linejoin:miter;stroke-opacity:1" d="M 349.447,169.504 324.358,141.278 z" id="boundary" inkscape:connector-curvature="0" />
	<path style="fill:none;stroke:red;stroke-width:1px;stroke-linecap:butt;stroke-linejoin:miter;stroke-opacity:1" d="M 324.358,141.278 300.003,143.392 z" id="boundary" inkscape:connector-curvature="0" />
	<path style="fill:none;stroke:red;stroke-width:1px;stroke-linecap:butt;stroke-linejoin:miter;stroke-opacity:1" d="M 172.109,203.728 155.809,270.304 z" id="boundary" inkscape:connector-curvature="0" />
	<path style="fill:none;stroke:red;stroke-width:1px;stroke-linecap:butt;stroke-linejoin:miter;stroke-opacity:1" d="M 248.233,155.655 273.608,149.311 z" id="boundary" inkscape:connector-curvature="0" />
	<path style="fill:none;stroke:red;stroke-width:1px;stroke-linecap:butt;stroke-linejoin:miter;stroke-opacity:1" d="M 370.35,258.294 344.975,269.049 z" id="boundary" inkscape:connector-curvature="0" />
	<path style="fill:none;stroke:red;stroke-width:1px;stroke-linecap:butt;stroke-linejoin:miter;stroke-opacity:1" d="M 571.763,335.658 597.138,349.931 z" id="boundary" inkscape:connector-curvature="0" />
	<path style="fill:none;stroke:red;stroke-width:1px;stroke-linecap:butt;stroke-linejoin:miter;stroke-opacity:1" d="M 374.315,203.642 349.447,169.504 z" id="boundary" inkscape:connector-curvature="0" />
	<path style="fill:none;stroke:red;stroke-width:1px;stroke-linecap:butt;stroke-linejoin:miter;stroke-opacity:1" d="M 471.057,352.191 446.475,311.125 z" id="boundary" inkscape:connector-curvature="0" />
	<path style="fill:none;stroke:red;stroke-width:1px;stroke-linecap:butt;stroke-linejoin:miter;stroke-opacity:1" d="M 425.929,277.708 446.475,248.085 z" id="boundary" inkscape:connector-curvature="0" />
	<path style="fill:none;stroke:red;stroke-width:1px;stroke-linecap:butt;stroke-linejoin:miter;stroke-opacity:1" d="M 471.057,352.191 493.26,393.987 z" id="boundary" inkscape:connector-curvature="0" />
	<path style="fill:none;stroke:red;stroke-width:1px;stroke-linecap:butt;stroke-linejoin:miter;stroke-opacity:1" d="M 446.475,248.085 472.549,244.478 z" id="boundary" inkscape:connector-curvature="0" />
	<path style="fill:none;stroke:red;stroke-width:1px;stroke-linecap:butt;stroke-linejoin:miter;stroke-opacity:1" d="M 493.26,393.987 510.705,435.329 z" id="boundary" inkscape:connector-curvature="0" />
	<path style="fill:none;stroke:red;stroke-width:1px;stroke-linecap:butt;stroke-linejoin:miter;stroke-opacity:1" d="M 497.225,242.206 515.566,276.182 z" id="boundary" inkscape:connector-curvature="0" />
	<path style="fill:none;stroke:red;stroke-width:1px;stroke-linecap:butt;stroke-linejoin:miter;stroke-opacity:1" d="M 497.225,242.206 472.549,244.478 z" id="boundary" inkscape:connector-curvature="0" />
	<path style="fill:none;stroke:red;stroke-width:1px;stroke-linecap:butt;stroke-linejoin:miter;stroke-opacity:1" d="M 510.705,435.329 521.807,479.066 z" id="boundary" inkscape:connector-curvature="0" />
	<path style="fill:none;stroke:red;stroke-width:1px;stroke-linecap:butt;stroke-linejoin:miter;stroke-opacity:1" d="M 515.566,276.182 546.388,314.149 z" id="boundary" inkscape:connector-curvature="0" />
	<path style="fill:none;stroke:red;stroke-width:1px;stroke-linecap:butt;stroke-linejoin:miter;stroke-opacity:1" d="M 598.724,210.32 624.099,185.193 z" id="boundary" inkscape:connector-curvature="0" />
	<path style="fill:none;stroke:red;stroke-width:1px;stroke-linecap:butt;stroke-linejoin:miter;stroke-opacity:1" d="M 462.334,591.092 487.709,573.795 z" id="boundary" inkscape:connector-curvature="0" />
	<path style="fill:none;stroke:red;stroke-width:1px;stroke-linecap:butt;stroke-linejoin:miter;stroke-opacity:1" d="M 436.959,602.838 411.584,610.867 z" id="boundary" inkscape:connector-curvature="0" />
	<path style="fill:none;stroke:red;stroke-width:1px;stroke-linecap:butt;stroke-linejoin:miter;stroke-opacity:1" d="M 673.263,328.422 647.888,349.535 z" id="boundary" inkscape:connector-curvature="0" />
	<path style="fill:none;stroke:red;stroke-width:1px;stroke-linecap:butt;stroke-linejoin:miter;stroke-opacity:1" d="M 411.584,610.867 386.209,615.922 z" id="boundary" inkscape:connector-curvature="0" />
	<path style="fill:none;stroke:red;stroke-width:1px;stroke-linecap:butt;stroke-linejoin:miter;stroke-opacity:1" d="M 854.059,398.5 828.684,399.343 z" id="boundary" inkscape:connector-curvature="0" />
	<path style="fill:none;stroke:red;stroke-width:1px;stroke-linecap:butt;stroke-linejoin:miter;stroke-opacity:1" d="M 386.209,615.922 360.835,618.548 z" id="boundary" inkscape:connector-curvature="0" />
	<path style="fill:none;stroke:red;stroke-width:1px;stroke-linecap:butt;stroke-linejoin:miter;stroke-opacity:1" d="M 335.46,619.391 310.085,618.003 z" id="boundary" inkscape:connector-curvature="0" />
	<path style="fill:none;stroke:red;stroke-width:1px;stroke-linecap:butt;stroke-linejoin:miter;stroke-opacity:1" d="M 284.71,615.178 259.335,610.668 z" id="boundary" inkscape:connector-curvature="0" />
	<path style="fill:none;stroke:red;stroke-width:1px;stroke-linecap:butt;stroke-linejoin:miter;stroke-opacity:1" d="M 233.96,604.473 208.585,596.544 z" id="boundary" inkscape:connector-curvature="0" />
	<path style="fill:none;stroke:red;stroke-width:1px;stroke-linecap:butt;stroke-linejoin:miter;stroke-opacity:1" d="M 183.21,586.879 157.835,575.183 z" id="boundary" inkscape:connector-curvature="0" />
	<path style="fill:none;stroke:red;stroke-width:1px;stroke-linecap:butt;stroke-linejoin:miter;stroke-opacity:1" d="M 157.835,575.183 132.46,560.959 z" id="boundary" inkscape:connector-curvature="0" />
	<path style="fill:none;stroke:red;stroke-width:1px;stroke-linecap:butt;stroke-linejoin:miter;stroke-opacity:1" d="M 107.086,543.663 81.7106,522.054 z" id="boundary" inkscape:connector-curvature="0" />
	<path style="fill:none;stroke:red;stroke-width:1px;stroke-linecap:butt;stroke-linejoin:miter;stroke-opacity:1" d="M 81.7106,522.054 56.3357,493.21 z" id="boundary" inkscape:connector-curvature="0" />
	<path style="fill:none;stroke:red;stroke-width:1px;stroke-linecap:butt;stroke-linejoin:miter;stroke-opacity:1" d="M 34.1327,455.065 56.3357,493.21 z" id="boundary" inkscape:connector-curvature="0" />
	<path style="fill:none;stroke:red;stroke-width:1px;stroke-linecap:butt;stroke-linejoin:miter;stroke-opacity:1" d="M 7.05858,360.665 18.2734,412.08 z" id="boundary" inkscape:connector-curvature="0" />
	<path style="fill:none;stroke:red;stroke-width:1px;stroke-linecap:butt;stroke-linejoin:miter;stroke-opacity:1" d="M 4,289.269 7.05858,360.665 z" id="boundary" inkscape:connector-curvature="0" />
	<path style="fill:none;stroke:red;stroke-width:1px;stroke-linecap:butt;stroke-linejoin:miter;stroke-opacity:1" d="M 22.2382,182.285 11.1367,224.682 z" id="boundary" inkscape:connector-curvature="0" />
	<path style="fill:none;stroke:red;stroke-width:1px;stroke-linecap:butt;stroke-linejoin:miter;stroke-opacity:1" d="M 64.2654,104.211 89.6403,79.5795 z" id="boundary" inkscape:connector-curvature="0" />
	<path style="fill:none;stroke:red;stroke-width:1px;stroke-linecap:butt;stroke-linejoin:miter;stroke-opacity:1" d="M 140.39,55.0472 115.015,64.0671 z" id="boundary" inkscape:connector-curvature="0" />
	<path style="fill:none;stroke:red;stroke-width:1px;stroke-linecap:butt;stroke-linejoin:miter;stroke-opacity:1" d="M 191.14,54.2046 165.765,52.024 z" id="boundary" inkscape:connector-curvature="0" />
	<path style="fill:none;stroke:red;stroke-width:1px;stroke-linecap:butt;stroke-linejoin:miter;stroke-opacity:1" d="M 216.515,61.5891 191.14,54.2046 z" id="boundary" inkscape:connector-curvature="0" />
	<path style="fill:none;stroke:red;stroke-width:1px;stroke-linecap:butt;stroke-linejoin:miter;stroke-opacity:1" d="M 241.89,73.6323 216.515,61.5891 z" id="boundary" inkscape:connector-curvature="0" />
	<path style="fill:none;stroke:red;stroke-width:1px;stroke-linecap:butt;stroke-linejoin:miter;stroke-opacity:1" d="M 800.137,200.011 820.755,219.997 z" id="boundary" inkscape:connector-curvature="0" />
	<path style="fill:none;stroke:red;stroke-width:1px;stroke-linecap:butt;stroke-linejoin:miter;stroke-opacity:1" d="M 800.137,200.011 774.763,204.967 z" id="boundary" inkscape:connector-curvature="0" />
	<path style="fill:none;stroke:red;stroke-width:1px;stroke-linecap:butt;stroke-linejoin:miter;stroke-opacity:1" d="M 813.618,262.399 793.001,298.481 z" id="boundary" inkscape:connector-curvature="0" />
	<path style="fill:none;stroke:red;stroke-width:1px;stroke-linecap:butt;stroke-linejoin:miter;stroke-opacity:1" d="M 292.639,111.516 267.265,90.1359 z" id="boundary" inkscape:connector-curvature="0" />
	<path style="fill:none;stroke:red;stroke-width:1px;stroke-linecap:butt;stroke-linejoin:miter;stroke-opacity:1" d="M 541.631,9.45164 516.256,20.2062 z" id="boundary" inkscape:connector-curvature="0" />
	<path style="fill:none;stroke:red;stroke-width:1px;stroke-linecap:butt;stroke-linejoin:miter;stroke-opacity:1" d="M 516.256,20.2062 480.075,66.0258 z" id="boundary" inkscape:connector-curvature="0" />
	<path style="fill:none;stroke:red;stroke-width:1px;stroke-linecap:butt;stroke-linejoin:miter;stroke-opacity:1" d="M 451.233,112.835 425.858,118.732 z" id="boundary" inkscape:connector-curvature="0" />
	<path style="fill:none;stroke:red;stroke-width:1px;stroke-linecap:butt;stroke-linejoin:miter;stroke-opacity:1" d="M 451.233,112.835 471.587,109.309 z" id="boundary" inkscape:connector-curvature="0" />
	<path style="fill:none;stroke:red;stroke-width:1px;stroke-linecap:butt;stroke-linejoin:miter;stroke-opacity:1" d="M 546.388,314.149 571.763,335.658 z" id="boundary" inkscape:connector-curvature="0" />
	<path style="fill:none;stroke:red;stroke-width:1px;stroke-linecap:butt;stroke-linejoin:miter;stroke-opacity:1" d="M 573.349,227.121 547.974,236.488 z" id="boundary" inkscape:connector-curvature="0" />
	<path style="fill:none;stroke:red;stroke-width:1px;stroke-linecap:butt;stroke-linejoin:miter;stroke-opacity:1" d="M 624.099,185.193 649.474,153.92 z" id="boundary" inkscape:connector-curvature="0" />
	<path style="fill:none;stroke:red;stroke-width:1px;stroke-linecap:butt;stroke-linejoin:miter;stroke-opacity:1" d="M 649.474,153.92 667.712,125.72 z" id="boundary" inkscape:connector-curvature="0" />
	<path style="fill:none;stroke:red;stroke-width:1px;stroke-linecap:butt;stroke-linejoin:miter;stroke-opacity:1" d="M 598.724,210.32 573.349,227.121 z" id="boundary" inkscape:connector-curvature="0" />
	<path style="fill:none;stroke:red;stroke-width:1px;stroke-linecap:butt;stroke-linejoin:miter;stroke-opacity:1" d="M 774.763,204.967 749.388,227.071 z" id="boundary" inkscape:connector-curvature="0" />
	<path style="fill:none;stroke:red;stroke-width:1px;stroke-linecap:butt;stroke-linejoin:miter;stroke-opacity:1" d="M 541.631,9.45164 567.006,4.59472 z" id="boundary" inkscape:connector-curvature="0" />
	<path style="fill:none;stroke:red;stroke-width:1px;stroke-linecap:butt;stroke-linejoin:miter;stroke-opacity:1" d="M 617.755,82.2062 592.38,85.3285 z" id="boundary" inkscape:connector-curvature="0" />
	<path style="fill:none;stroke:red;stroke-width:1px;stroke-linecap:butt;stroke-linejoin:miter;stroke-opacity:1" d="M 669.739,86.4565 643.13,79.8273 z" id="boundary" inkscape:connector-curvature="0" />
	<path style="fill:none;stroke:red;stroke-width:1px;stroke-linecap:butt;stroke-linejoin:miter;stroke-opacity:1" d="M 666.919,37.9557 643.13,16.6875 z" id="boundary" inkscape:connector-curvature="0" />
	<path style="fill:none;stroke:red;stroke-width:1px;stroke-linecap:butt;stroke-linejoin:miter;stroke-opacity:1" d="M 643.13,79.8273 617.755,82.2062 z" id="boundary" inkscape:connector-curvature="0" />
	<path style="fill:none;stroke:red;stroke-width:1px;stroke-linecap:butt;stroke-linejoin:miter;stroke-opacity:1" d="M 617.755,7.66747 643.13,16.6875 z" id="boundary" inkscape:connector-curvature="0" />
	<path style="fill:none;stroke:red;stroke-width:1px;stroke-linecap:butt;stroke-linejoin:miter;stroke-opacity:1" d="M 592.38,4 617.755,7.66747 z" id="boundary" inkscape:connector-curvature="0" />
	<path style="fill:none;stroke:red;stroke-width:1px;stroke-linecap:butt;stroke-linejoin:miter;stroke-opacity:1" d="M 567.006,89.3925 592.38,85.3285 z" id="boundary" inkscape:connector-curvature="0" />
	<path style="fill:none;stroke:red;stroke-width:1px;stroke-linecap:butt;stroke-linejoin:miter;stroke-opacity:1" d="M 592.38,4 567.006,4.59472 z" id="boundary" inkscape:connector-curvature="0" />
	<path style="fill:none;stroke:red;stroke-width:1px;stroke-linecap:butt;stroke-linejoin:miter;stroke-opacity:1" d="M 471.587,109.309 480.075,66.0258 z" id="boundary" inkscape:connector-curvature="0" />
	<path style="fill:none;stroke:red;stroke-width:1px;stroke-linecap:butt;stroke-linejoin:miter;stroke-opacity:1" d="M 622.513,356.473 597.138,349.931 z" id="boundary" inkscape:connector-curvature="0" />
	<path style="fill:none;stroke:red;stroke-width:1px;stroke-linecap:butt;stroke-linejoin:miter;stroke-opacity:1" d="M 669.739,86.4565 693.88,77.7954 z" id="boundary" inkscape:connector-curvature="0" />
	<path style="fill:none;stroke:red;stroke-width:1px;stroke-linecap:butt;stroke-linejoin:miter;stroke-opacity:1" d="M 622.513,356.473 647.888,349.535 z" id="boundary" inkscape:connector-curvature="0" />
	<path style="fill:none;stroke:red;stroke-width:1px;stroke-linecap:butt;stroke-linejoin:miter;stroke-opacity:1" d="M 698.638,296.753 673.263,328.422 z" id="boundary" inkscape:connector-curvature="0" />
	<path style="fill:none;stroke:red;stroke-width:1px;stroke-linecap:butt;stroke-linejoin:miter;stroke-opacity:1" d="M 793.001,298.481 770.3,364.156 z" id="boundary" inkscape:connector-curvature="0" />
	<path style="fill:none;stroke:red;stroke-width:1px;stroke-linecap:butt;stroke-linejoin:miter;stroke-opacity:1" d="M 820.755,98.8585 795.38,90.9289 z" id="boundary" inkscape:connector-curvature="0" />
	<path style="fill:none;stroke:red;stroke-width:1px;stroke-linecap:butt;stroke-linejoin:miter;stroke-opacity:1" d="M 724.013,260.475 698.638,296.753 z" id="boundary" inkscape:connector-curvature="0" />
	<path style="fill:none;stroke:red;stroke-width:1px;stroke-linecap:butt;stroke-linejoin:miter;stroke-opacity:1" d="M 749.388,227.071 724.013,260.475 z" id="boundary" inkscape:connector-curvature="0" />
	<path style="fill:none;stroke:red;stroke-width:1px;stroke-linecap:butt;stroke-linejoin:miter;stroke-opacity:1" d="M 820.755,219.997 813.618,262.399 z" id="boundary" inkscape:connector-curvature="0" />
	<path style="fill:none;stroke:red;stroke-width:1px;stroke-linecap:butt;stroke-linejoin:miter;stroke-opacity:1" d="M 770.3,364.156 803.309,394.436 z" id="boundary" inkscape:connector-curvature="0" />
	<path style="fill:none;stroke:red;stroke-width:1px;stroke-linecap:butt;stroke-linejoin:miter;stroke-opacity:1" d="M 803.309,394.436 828.684,399.343 z" id="boundary" inkscape:connector-curvature="0" />
	<path style="fill:none;stroke:red;stroke-width:1px;stroke-linecap:butt;stroke-linejoin:miter;stroke-opacity:1" d="M 854.059,398.5 879.434,393.594 z" id="boundary" inkscape:connector-curvature="0" />
	<path style="fill:none;stroke:red;stroke-width:1px;stroke-linecap:butt;stroke-linejoin:miter;stroke-opacity:1" d="M 879.434,393.594 904.809,384.723 z" id="boundary" inkscape:connector-curvature="0" />
	<path style="fill:none;stroke:red;stroke-width:1px;stroke-linecap:butt;stroke-linejoin:miter;stroke-opacity:1" d="M 904.809,384.723 930.184,371.787 z" id="boundary" inkscape:connector-curvature="0" />
	<path style="fill:none;stroke:red;stroke-width:1px;stroke-linecap:butt;stroke-linejoin:miter;stroke-opacity:1" d="M 930.184,371.787 955.559,353.45 z" id="boundary" inkscape:connector-curvature="0" />
	<path style="fill:none;stroke:red;stroke-width:1px;stroke-linecap:butt;stroke-linejoin:miter;stroke-opacity:1" d="M 955.559,353.45 980.141,325.918 z" id="boundary" inkscape:connector-curvature="0" />
	<path style="fill:none;stroke:red;stroke-width:1px;stroke-linecap:butt;stroke-linejoin:miter;stroke-opacity:1" d="M 820.755,98.8585 846.129,108.82 z" id="boundary" inkscape:connector-curvature="0" />
	<path style="fill:none;stroke:red;stroke-width:1px;stroke-linecap:butt;stroke-linejoin:miter;stroke-opacity:1" d="M 980.141,325.918 996,290.023 z" id="boundary" inkscape:connector-curvature="0" />
	<path style="fill:none;stroke:red;stroke-width:1px;stroke-linecap:butt;stroke-linejoin:miter;stroke-opacity:1" d="M 996,290.023 991.242,250.895 z" id="boundary" inkscape:connector-curvature="0" />
	<path style="fill:none;stroke:red;stroke-width:1px;stroke-linecap:butt;stroke-linejoin:miter;stroke-opacity:1" d="M 973.004,211.311 991.242,250.895 z" id="boundary" inkscape:connector-curvature="0" />
	<path style="fill:none;stroke:red;stroke-width:1px;stroke-linecap:butt;stroke-linejoin:miter;stroke-opacity:1" d="M 947.629,179.84 973.004,211.311 z" id="boundary" inkscape:connector-curvature="0" />
	<path style="fill:none;stroke:red;stroke-width:1px;stroke-linecap:butt;stroke-linejoin:miter;stroke-opacity:1" d="M 922.254,156.646 947.629,179.84 z" id="boundary" inkscape:connector-curvature="0" />
	<path style="fill:none;stroke:red;stroke-width:1px;stroke-linecap:butt;stroke-linejoin:miter;stroke-opacity:1" d="M 896.879,137.565 922.254,156.646 z" id="boundary" inkscape:connector-curvature="0" />
	<path style="fill:none;stroke:red;stroke-width:1px;stroke-linecap:butt;stroke-linejoin:miter;stroke-opacity:1" d="M 871.504,121.805 896.879,137.565 z" id="boundary" inkscape:connector-curvature="0" />
	<path style="fill:none;stroke:red;stroke-width:1px;stroke-linecap:butt;stroke-linejoin:miter;stroke-opacity:1" d="M 846.129,108.82 871.504,121.805 z" id="boundary" inkscape:connector-curvature="0" />
	<path style="fill:none;stroke:red;stroke-width:1px;stroke-linecap:butt;stroke-linejoin:miter;stroke-opacity:1" d="M 795.38,90.9289 770.005,85.2294 z" id="boundary" inkscape:connector-curvature="0" />
	<path style="fill:none;stroke:red;stroke-width:1px;stroke-linecap:butt;stroke-linejoin:miter;stroke-opacity:1" d="M 744.63,81.4133 770.005,85.2294 z" id="boundary" inkscape:connector-curvature="0" />
	<path style="fill:none;stroke:red;stroke-width:1px;stroke-linecap:butt;stroke-linejoin:miter;stroke-opacity:1" d="M 719.255,79.0344 744.63,81.4133 z" id="boundary" inkscape:connector-curvature="0" />
	<path style="fill:none;stroke:red;stroke-width:1px;stroke-linecap:butt;stroke-linejoin:miter;stroke-opacity:1" d="M 693.88,77.7954 719.255,79.0344 z" id="boundary" inkscape:connector-curvature="0" />
	<path style="fill:none;stroke:red;stroke-width:1px;stroke-linecap:butt;stroke-linejoin:miter;stroke-opacity:1" d="M 541.631,93.8034 567.006,89.3925 z" id="boundary" inkscape:connector-curvature="0" />
	<path style="fill:none;stroke:red;stroke-width:1px;stroke-linecap:butt;stroke-linejoin:miter;stroke-opacity:1" d="M 541.631,93.8034 516.256,98.7098 z" id="boundary" inkscape:connector-curvature="0" />
	<path style="fill:none;stroke:red;stroke-width:1px;stroke-linecap:butt;stroke-linejoin:miter;stroke-opacity:1" d="M 400.483,124.58 425.858,118.732 z" id="boundary" inkscape:connector-curvature="0" />
	<path style="fill:none;stroke:red;stroke-width:1px;stroke-linecap:butt;stroke-linejoin:miter;stroke-opacity:1" d="M 363.905,131.13 400.483,124.58 z" id="boundary" inkscape:connector-curvature="0" />
	<circle cx="324.358" cy="141.278" r="4" fill="#0" id="circle0"/>
	<circle cx="300.003" cy="143.392" r="4" fill="#0" id="circle1"/>
	<circle cx="273.608" cy="149.311" r="4" fill="#0" id="circle2"/>
	<circle cx="248.233" cy="155.655" r="4" fill="#0" id="circle3"/>
	<circle cx="222.859" cy="164.476" r="4" fill="#0" id="circle4"/>
	<circle cx="197.484" cy="177.907" r="4" fill="#0" id="circle5"/>
	<circle cx="172.109" cy="203.728" r="4" fill="#0" id="circle6"/>
	<circle cx="155.809" cy="270.304" r="4" fill="#0" id="circle7"/>
	<circle cx="166.558" cy="331.979" r="4" fill="#0" id="circle8"/>
	<circle cx="185.589" cy="372.967" r="4" fill="#0" id="circle9"/>
	<circle cx="210.171" cy="409.106" r="4" fill="#0" id="circle10"/>
	<circle cx="235.546" cy="436.315" r="4" fill="#0" id="circle11"/>
	<circle cx="260.921" cy="456.982" r="4" fill="#0" id="circle12"/>
	<circle cx="286.296" cy="471.701" r="4" fill="#0" id="circle13"/>
	<circle cx="311.671" cy="478.491" r="4" fill="#0" id="circle14"/>
	<circle cx="337.046" cy="478.293" r="4" fill="#0" id="circle15"/>
	<circle cx="362.42" cy="470.71" r="4" fill="#0" id="circle16"/>
	<circle cx="382.245" cy="447.426" r="4" fill="#0" id="circle17"/>
	<circle cx="380.659" cy="421.1" r="4" fill="#0" id="circle18"/>
	<circle cx="367.178" cy="398.6" r="4" fill="#0" id="circle19"/>
	<circle cx="341.803" cy="370.449" r="4" fill="#0" id="circle20"/>
	<circle cx="310.608" cy="315.686" r="4" fill="#0" id="circle21"/>
	<circle cx="344.975" cy="269.049" r="4" fill="#0" id="circle22"/>
	<circle cx="370.35" cy="258.294" r="4" fill="#0" id="circle23"/>
	<circle cx="403.727" cy="250.519" r="4" fill="#0" id="circle24"/>
	<circle cx="425.929" cy="277.708" r="4" fill="#0" id="circle25"/>
	<circle cx="446.475" cy="311.125" r="4" fill="#0" id="circle26"/>
	<circle cx="471.057" cy="352.191" r="4" fill="#0" id="circle27"/>
	<circle cx="493.26" cy="393.987" r="4" fill="#0" id="circle28"/>
	<circle cx="510.705" cy="435.329" r="4" fill="#0" id="circle29"/>
	<circle cx="521.807" cy="479.066" r="4" fill="#0" id="circle30"/>
	<circle cx="524.185" cy="514.273" r="4" fill="#0" id="circle31"/>
	<circle cx="510.705" cy="547.883" r="4" fill="#0" id="circle32"/>
	<circle cx="487.709" cy="573.795" r="4" fill="#0" id="circle33"/>
	<circle cx="462.334" cy="591.092" r="4" fill="#0" id="circle34"/>
	<circle cx="436.959" cy="602.838" r="4" fill="#0" id="circle35"/>
	<circle cx="411.584" cy="610.867" r="4" fill="#0" id="circle36"/>
	<circle cx="386.209" cy="615.922" r="4" fill="#0" id="circle37"/>
	<circle cx="360.835" cy="618.548" r="4" fill="#0" id="circle38"/>
	<circle cx="335.46" cy="619.391" r="4" fill="#0" id="circle39"/>
	<circle cx="310.085" cy="618.003" r="4" fill="#0" id="circle40"/>
	<circle cx="284.71" cy="615.178" r="4" fill="#0" id="circle41"/>
	<circle cx="259.335" cy="610.668" r="4" fill="#0" id="circle42"/>
	<circle cx="233.96" cy="604.473" r="4" fill="#0" id="circle43"/>
	<circle cx="208.585" cy="596.544" r="4" fill="#0" id="circle44"/>
	<circle cx="183.21" cy="586.879" r="4" fill="#0" id="circle45"/>
	<circle cx="157.835" cy="575.183" r="4" fill="#0" id="circle46"/>
	<circle cx="132.46" cy="560.959" r="4" fill="#0" id="circle47"/>
	<circle cx="107.086" cy="543.663" r="4" fill="#0" id="circle48"/>
	<circle cx="81.7106" cy="522.054" r="4" fill="#0" id="circle49"/>
	<circle cx="56.3357" cy="493.21" r="4" fill="#0" id="circle50"/>
	<circle cx="34.1327" cy="455.065" r="4" fill="#0" id="circle51"/>
	<circle cx="18.2734" cy="412.08" r="4" fill="#0" id="circle52"/>
	<circle cx="7.05858" cy="360.665" r="4" fill="#0" id="circle53"/>
	<circle cx="4" cy="289.269" r="4" fill="#0" id="circle54"/>
	<circle cx="11.1367" cy="224.682" r="4" fill="#0" id="circle55"/>
	<circle cx="22.2382" cy="182.285" r="4" fill="#0" id="circle56"/>
	<circle cx="40.4764" cy="139.54" r="4" fill="#0" id="circle57"/>
	<circle cx="64.2654" cy="104.211" r="4" fill="#0" id="circle58"/>
	<circle cx="89.6403" cy="79.5795" r="4" fill="#0" id="circle59"/>
	<circle cx="115.015" cy="64.0671" r="4" fill="#0" id="circle60"/>
	<circle cx="140.39" cy="55.0472" r="4" fill="#0" id="circle61"/>
	<circle cx="165.765" cy="52.024" r="4" fill="#0" id="circle62"/>
	<circle cx="191.14" cy="54.2046" r="4" fill="#0" id="circle63"/>
	<circle cx="216.515" cy="61.5891" r="4" fill="#0" id="circle64"/>
	<circle cx="241.89" cy="73.6323" r="4" fill="#0" id="circle65"/>
	<circle cx="267.265" cy="90.1359" r="4" fill="#0" id="circle66"/>
	<circle cx="292.639" cy="111.516" r="4" fill="#0" id="circle67"/>
	<circle cx="324.358" cy="141.278" r="4" fill="#0" id="circle68"/>
	<circle cx="349.447" cy="169.504" r="4" fill="#0" id="circle69"/>
	<circle cx="374.315" cy="203.642" r="4" fill="#0" id="circle70"/>
	<circle cx="403.727" cy="250.519" r="4" fill="#0" id="circle71"/>
	<circle cx="446.475" cy="248.085" r="4" fill="#0" id="circle72"/>
	<circle cx="472.549" cy="244.478" r="4" fill="#0" id="circle73"/>
	<circle cx="497.225" cy="242.206" r="4" fill="#0" id="circle74"/>
	<circle cx="547.974" cy="236.488" r="4" fill="#0" id="circle75"/>
	<circle cx="573.349" cy="227.121" r="4" fill="#0" id="circle76"/>
	<circle cx="598.724" cy="210.32" r="4" fill="#0" id="circle77"/>
	<circle cx="624.099" cy="185.193" r="4" fill="#0" id="circle78"/>
	<circle cx="649.474" cy="153.92" r="4" fill="#0" id="circle79"/>
	<circle cx="667.712" cy="125.72" r="4" fill="#0" id="circle80"/>
	<circle cx="669.739" cy="86.4565" r="4" fill="#0" id="circle81"/>
	<circle cx="666.919" cy="37.9557" r="4" fill="#0" id="circle82"/>
	<circle cx="643.13" cy="16.6875" r="4" fill="#0" id="circle83"/>
	<circle cx="617.755" cy="7.66747" r="4" fill="#0" id="circle84"/>
	<circle cx="592.38" cy="4" r="4" fill="#0" id="circle85"/>
	<circle cx="567.006" cy="4.59472" r="4" fill="#0" id="circle86"/>
	<circle cx="541.631" cy="9.45164" r="4" fill="#0" id="circle87"/>
	<circle cx="516.256" cy="20.2062" r="4" fill="#0" id="circle88"/>
	<circle cx="480.075" cy="66.0258" r="4" fill="#0" id="circle89"/>
	<circle cx="471.587" cy="109.309" r="4" fill="#0" id="circle90"/>
	<circle cx="476.608" cy="184.003" r="4" fill="#0" id="circle91"/>
	<circle cx="497.225" cy="242.206" r="4" fill="#0" id="circle92"/>
	<circle cx="515.566" cy="276.182" r="4" fill="#0" id="circle93"/>
	<circle cx="546.388" cy="314.149" r="4" fill="#0" id="circle94"/>
	<circle cx="571.763" cy="335.658" r="4" fill="#0" id="circle95"/>
	<circle cx="597.138" cy="349.931" r="4" fill="#0" id="circle96"/>
	<circle cx="622.513" cy="356.473" r="4" fill="#0" id="circle97"/>
	<circle cx="647.888" cy="349.535" r="4" fill="#0" id="circle98"/>
	<circle cx="673.263" cy="328.422" r="4" fill="#0" id="circle99"/>
	<circle cx="698.638" cy="296.753" r="4" fill="#0" id="circle100"/>
	<circle cx="724.013" cy="260.475" r="4" fill="#0" id="circle101"/>
	<circle cx="749.388" cy="227.071" r="4" fill="#0" id="circle102"/>
	<circle cx="774.763" cy="204.967" r="4" fill="#0" id="circle103"/>
	<circle cx="800.137" cy="200.011" r="4" fill="#0" id="circle104"/>
	<circle cx="820.755" cy="219.997" r="4" fill="#0" id="circle105"/>
	<circle cx="813.618" cy="262.399" r="4" fill="#0" id="circle106"/>
	<circle cx="793.001" cy="298.481" r="4" fill="#0" id="circle107"/>
	<circle cx="770.3" cy="364.156" r="4" fill="#0" id="circle108"/>
	<circle cx="803.309" cy="394.436" r="4" fill="#0" id="circle109"/>
	<circle cx="828.684" cy="399.343" r="4" fill="#0" id="circle110"/>
	<circle cx="854.059" cy="398.5" r="4" fill="#0" id="circle111"/>
	<circle cx="879.434" cy="393.594" r="4" fill="#0" id="circle112"/>
	<circle cx="904.809" cy="384.723" r="4" fill="#0" id="circle113"/>
	<circle cx="930.184" cy="371.787" r="4" fill="#0" id="circle114"/>
	<circle cx="955.559" cy="353.45" r="4" fill="#0" id="circle115"/>
	<circle cx="980.141" cy="325.918" r="4" fill="#0" id="circle116"/>
	<circle cx="996" cy="290.023" r="4" fill="#0" id="circle117"/>
	<circle cx="991.242" cy="250.895" r="4" fill="#0" id="circle118"/>
	<circle cx="973.004" cy="211.311" r="4" fill="#0" id="circle119"/>
	<circle cx="947.629" cy="179.84" r="4" fill="#0" id="circle120"/>
	<circle cx="922.254" cy="156.646" r="4" fill="#0" id="circle121"/>
	<circle cx="896.879" cy="137.565" r="4" fill="#0" id="circle122"/>
	<circle cx="871.504" cy="121.805" r="4" fill="#0" id="circle123"/>
	<circle cx="846.129" cy="108.82" r="4" fill="#0" id="circle124"/>
	<circle cx="820.755" cy="98.8585" r="4" fill="#0" id="circle125"/>
	<circle cx="795.38" cy="90.9289" r="4" fill="#0" id="circle126"/>
	<circle cx="770.005" cy="85.2294" r="4" fill="#0" id="circle127"/>
	<circle cx="744.63" cy="81.4133" r="4" fill="#0" id="circle128"/>
	<circle cx="719.255" cy="79.0344" r="4" fill="#0" id="circle129"/>
	<circle cx="693.88" cy="77.7954" r="4" fill="#0" id="circle130"/>
	<circle cx="643.13" cy="79.8273" r="4" fill="#0" id="circle131"/>
	<circle cx="617.755" cy="82.2062" r="4" fill="#0" id="circle132"/>
	<circle cx="592.38" cy="85.3285" r="4" fill="#0" id="circle133"/>
	<circle cx="567.006" cy="89.3925" r="4" fill="#0" id="circle134"/>
	<circle cx="541.631" cy="93.8034" r="4" fill="#0" id="circle135"/>
	<circle cx="516.256" cy="98.7098" r="4" fill="#0" id="circle136"/>
	<circle cx="471.587" cy="109.309" r="4" fill="#0" id="circle137"/>
	<circle cx="451.233" cy="112.835" r="4" fill="#0" id="circle138"/>
	<circle cx="425.858" cy="118.732" r="4" fill="#0" id="circle139"/>
	<circle cx="400.483" cy="124.58" r="4" fill="#0" id="circle140"/>
	<circle cx="363.905" cy="131.13" r="4" fill="#0" id="circle141"/>
	<circle cx="324.358" cy="141.278" r="4" fill="#0" id="circle142"/>
	</g>
</svg>