161.87634 399.43511
169.58473 359.49160
180.79695 301.32824
194.81221 223.54351
212.33130 149.26260
222.84275 116.32672
243.86565 81.28855
286.61221 122.63359
308.33588 177.29313
311.83969 242.46412
315.34351 295.02137
319.54809 349.68092
315.34351 391.72672
