176.00 332.50
192.00 283.88
212.50 244.67
232.00 204.00
273.50 157.50
305.00 131.88
344.50 105.00
385.50 73.90
428.00 61.25
468.00 52.38
500.00 47.38
539.50 46.67
590.50 46.80
635.50 56.60
676.00 67.00
715.50 86.83
750.00 104.00
784.50 130.50
808.00 157.50
838.00 190.38
858.00 222.38
878.50 259.30
896.50 307.90
906.50 348.83
907.50 384.90
910.00 420.88
906.50 460.50
902.00 502.00
892.00 536.38
876.00 569.63
860.50 605.30
834.00 640.75
809.50 663.00
783.50 685.00
759.00 704.50
731.50 719.60
706.50 735.50
680.00 746.75
658.00 752.38
653.00 769.13
635.00 763.63
680.00 773.25
714.00 770.25
745.50 770.10
777.50 771.17
803.00 773.50
820.00 778.63
842.50 781.50
852.50 796.00
854.00 819.00
707.00 817.63
658.00 815.63
609.00 817.75
563.50 816.80
518.50 816.90
468.00 816.75
416.00 816.92
405.50 770.30
430.00 767.88
432.50 754.70
411.50 745.67
387.00 735.50
378.00 767.13
346.50 767.00
302.00 767.25
261.50 770.10
241.50 783.40
214.00 802.25
204.50 821.17
364.50 814.60
356.50 717.33
326.50 701.10
296.00 677.50
258.50 644.33
302.00 598.50
291.00 579.13
280.50 562.00
295.00 528.38
270.00 524.00
333.00 528.50
372.00 523.13
394.00 513.88
424.00 500.75
413.50 484.50
405.50 465.70
403.00 440.50
400.00 421.25
401.00 395.25
405.50 380.50
403.00 368.25
381.00 346.63
370.00 333.50
351.50 311.00
342.50 285.90
342.50 262.40
340.50 236.50
342.50 215.60
359.00 180.00
371.50 151.90
398.50 129.60
440.50 117.83
474.50 107.50
482.50 144.00
452.00 158.63
432.50 185.60
432.00 212.00
430.00 244.50
432.00 275.50
464.00 321.63
448.00 342.13
437.00 368.50
435.00 407.13
476.50 408.00
478.00 382.50
489.00 360.50
510.00 346.75
550.50 346.83
543.50 384.83
559.50 394.00
552.00 409.38
536.50 409.40
520.50 428.90
509.50 407.30
521.50 388.50
543.50 443.83
575.50 433.00
595.50 400.50
585.50 364.80
631.50 333.50
642.00 303.88
662.00 298.25
682.00 292.63
702.50 290.30
716.00 289.25
752.00 295.00
778.00 312.25
806.00 327.88
829.00 356.25
847.00 388.50
849.50 420.90
845.00 465.00
841.00 492.00
833.00 512.63
821.00 539.75
804.00 568.75
780.00 580.38
768.00 559.63
761.00 539.88
747.00 515.88
741.00 500.75
723.00 486.25
707.00 478.00
693.50 473.50
682.00 490.13
666.50 507.10
644.00 525.00
624.50 541.67
606.50 552.00
586.00 555.63
568.50 559.50
570.00 579.13
562.00 608.13
539.50 633.17
514.50 649.00
489.00 665.63
454.50 674.00
421.50 674.00
400.50 674.10
363.00 663.13
335.50 642.10
320.00 622.38
349.00 574.00
378.00 587.38
413.00 589.75
448.00 582.63
470.00 573.83
486.00 516.00
465.00 500.63
443.50 476.83
432.50 452.50
476.50 440.50
499.00 469.25
520.50 483.60
524.00 527.08
550.00 531.88
593.50 524.50
624.00 507.00
646.00 483.75
655.50 456.50
664.50 419.50
666.50 395.00
657.50 368.30
726.50 376.00
749.00 383.63
772.50 400.30
788.00 442.75
789.50 487.17
703.00 619.00
696.00 632.50
673.50 649.40
646.50 663.40
622.50 679.00
599.50 684.40
583.50 685.20
608.00 643.38
629.00 635.38
640.00 625.50
655.50 613.50
568.00 484.75
602.00 461.75
602.00 311.25
617.50 286.70
590.00 275.00
568.50 270.83
543.50 265.83
524.00 267.75
516.00 241.13
519.00 208.25
535.50 168.70
547.50 141.70
566.00 121.13
543.00 112.00
514.50 106.00
622.00 139.50
635.00 144.00
646.00 147.38
664.50 158.50
687.00 173.00
700.00 191.13
712.50 208.67
662.00 202.00
649.50 193.50
640.83 186.92
626.50 178.70
570.00 299.13
537.50 296.00
493.00 306.00
297.50 374.90
294.00 396.00
295.00 417.00
297.50 436.30
264.00 454.88
258.50 441.33
258.50 423.33
258.50 405.17
259.00 378.00
260.50 353.50
269.00 332.38
177.00 389.50
177.00 446.00
184.50 496.00
205.00 553.38
219.50 593.17
461.00 758.00