28.50 27.10
30.50 40.00
30.50 181.10
58.00 66.75
58.00 154.25
70.50 68.80
70.50 152.30
83.50 66.80
83.50 154.30
104.50 51.67
104.50 169.33
110.00 40.00
110.00 181.00
112.00 193.75
36.59 51.43
45.91 60.40
36.24 169.47
45.91 160.50
95.26 160.85
94.92 61.78