248.31 75.63
207.97 54.83
165.12 67.43
129.83 101.47
112.18 140.54
131.72 178.98
170.16 196.00
219.95 200.41
237.59 204.19
259.65 216.17
272.89 243.27
271.63 261.54
262.17 283.60
233.81 297.47
182.77 311.96
146.21 305.66
119.11 286.75