54.00 140.17
78.00 148.50
90.00 237.13
93.00 267.00
103.50 147.17
117.50 233.10
118.50 186.90
119.50 209.37
119.50 268.00
129.00 164.00
133.00 138.38
133.00 300.00
145.00 156.13
151.50 136.80
165.50 343.00
170.00 186.88
180.00 145.38
180.50 186.83
187.50 110.30
193.70 238.20
195.00 143.13
196.50 89.30
196.50 365.30
197.00 161.75
200.50 236.17
203.00 60.38
203.50 186.30
203.50 306.60
203.00 217.00
211.00 144.50
212.00 166.00
213.00 314.50
220.00 330.63
221.50 254.50
221.50 272.10
224.00 184.38
224.50 316.40
226.50 166.90
228.00 71.88
232.50 331.40
234.00 91.25
238.00 384.63
239.50 289.80
240.00 165.25
240.00 143.25
246.00 330.25
249.00 186.25
252.00 113.50
253.00 140.63
253.50 164.00
261.00 372.75
262.50 184.20
265.00 159.75
267.00 143.00
278.00 131.00
278.00 145.00
287.00 283.63
293.50 240.72
298.00 346.63
302.50 238.50
303.50 136.17
316.50 330.60
329.00 140.13
343.00 305.63
344.00 161.63
344.50 143.00
354.00 178.00
358.50 237.20
358.50 273.43
370.50 273.10
381.50 249.70
382.00 142.88
388.00 128.50
209.83 40.67
216.29 21.31
219.51 30.34
221.45 39.38
222.10 45.84
224.68 54.88
242.11 103.95
371.88 152.37
122.67 291.18
109.11 276.98
98.78 217.58
107.82 220.81
118.80 224.03
119.44 217.58
120.09 203.37
157.53 152.37
167.86 149.14
230.49 145.27
291.83 147.20
300.86 151.08
308.61 149.79
320.23 151.08
326.69 153.01
333.79 154.95
357.68 199.50
357.03 209.83
359.62 220.81
358.97 227.91
372.53 222.10
379.63 226.62
358.33 283.43
349.93 291.83
238.24 185.30
278.91 182.71
286.01 181.42
256.96 326.69
264.71 318.94
267.29 310.55
269.23 305.38
267.94 296.34
207.89 326.69
191.11 291.83
197.56 297.64
200.79 301.51
244.05 315.71
252.44 310.55
257.61 307.97
199.50 320.88
191.11 305.38
213.70 285.37
220.81 296.34
229.20 295.05
186.59 242.11
178.19 242.76
170.45 244.69
161.41 243.40
153.66 242.11
149.14 235.66
157.53 233.07
165.93 229.84
171.74 227.91
178.19 226.62
185.30 228.55
192.40 229.84
174.32 234.36
145.91 218.87
153.66 218.22
163.99 217.58
171.74 216.93
180.78 216.93
192.40 215.64
273.10 239.53
277.62 240.17
284.72 240.82
288.60 240.82
313.13 235.66
313.78 227.91
307.97 227.91
300.86 226.62
295.70 224.03
287.95 224.03
283.43 226.62
276.98 226.62
271.17 229.20
290.53 231.78
262.13 217.58
271.17 216.29
281.50 215.64
296.99 214.35
305.38 214.35
316.36 214.35
324.11 213.70